IOR-3.4.0+dev: MPI Coordinated Test of Parallel I/O
Began               : Tue Feb  8 17:55:29 2022
Command line        : /home/lgouveia/ior/bin/ior -w -t 1m -b 512m -k -o /beegfs/lgouveia/ior_4/testFileApp_2
Machine             : Linux bora019.plafrim.cluster
TestID              : 0
StartTime           : Tue Feb  8 17:55:29 2022
Path                : /beegfs/lgouveia/ior_4/testFileApp_2
FS                  : 130.9 TiB   Used FS: 37.2%   Inodes: 0.0 Mi   Used Inodes: -nan%

Options: 
api                 : POSIX
apiVersion          : 
test filename       : /beegfs/lgouveia/ior_4/testFileApp_2
access              : single-shared-file
type                : independent
segments            : 1
ordering in a file  : sequential
ordering inter file : no tasks offsets
nodes               : 8
tasks               : 64
clients per node    : 8
repetitions         : 1
xfersize            : 1 MiB
blocksize           : 512 MiB
aggregate filesize  : 32 GiB

Results: 

access    bw(MiB/s)  IOPS       Latency(s)  block(KiB) xfer(KiB)  open(s)    wr/rd(s)   close(s)   total(s)   iter
------    ---------  ----       ----------  ---------- ---------  --------   --------   --------   --------   ----
write     2376.69    2376.90    0.004966    524288     1024.00    0.046234   13.79      11.98      13.79      0   

Summary of all tests:
Operation   Max(MiB)   Min(MiB)  Mean(MiB)     StdDev   Max(OPs)   Min(OPs)  Mean(OPs)     StdDev    Mean(s) Stonewall(s) Stonewall(MiB) Test# #Tasks tPN reps fPP reord reordoff reordrand seed segcnt   blksiz    xsize aggs(MiB)   API RefNum
write        2376.69    2376.69    2376.69       0.00    2376.69    2376.69    2376.69       0.00   13.78721         NA            NA     0     64   8    1   0     0        1         0    0      1 536870912  1048576   32768.0 POSIX      0
Finished            : Tue Feb  8 17:55:42 2022
IOR-3.4.0+dev: MPI Coordinated Test of Parallel I/O
Began               : Tue Feb  8 17:56:46 2022
Command line        : /home/lgouveia/ior/bin/ior -w -t 1m -b 512m -k -o /beegfs/lgouveia/ior_4/testFileApp_2
Machine             : Linux bora019.plafrim.cluster
TestID              : 0
StartTime           : Tue Feb  8 17:56:46 2022
Path                : /beegfs/lgouveia/ior_4/testFileApp_2
FS                  : 130.9 TiB   Used FS: 38.8%   Inodes: 0.0 Mi   Used Inodes: -nan%

Options: 
api                 : POSIX
apiVersion          : 
test filename       : /beegfs/lgouveia/ior_4/testFileApp_2
access              : single-shared-file
type                : independent
segments            : 1
ordering in a file  : sequential
ordering inter file : no tasks offsets
nodes               : 8
tasks               : 64
clients per node    : 8
repetitions         : 1
xfersize            : 1 MiB
blocksize           : 512 MiB
aggregate filesize  : 32 GiB

Results: 
WARNING: The file "/beegfs/lgouveia/ior_4/testFileApp_2" exists already and will be overwritten

access    bw(MiB/s)  IOPS       Latency(s)  block(KiB) xfer(KiB)  open(s)    wr/rd(s)   close(s)   total(s)   iter
------    ---------  ----       ----------  ---------- ---------  --------   --------   --------   --------   ----
write     2377.42    2377.64    0.026804    524288     1024.00    0.427475   13.78      12.04      13.78      0   

Summary of all tests:
Operation   Max(MiB)   Min(MiB)  Mean(MiB)     StdDev   Max(OPs)   Min(OPs)  Mean(OPs)     StdDev    Mean(s) Stonewall(s) Stonewall(MiB) Test# #Tasks tPN reps fPP reord reordoff reordrand seed segcnt   blksiz    xsize aggs(MiB)   API RefNum
write        2377.42    2377.42    2377.42       0.00    2377.42    2377.42    2377.42       0.00   13.78302         NA            NA     0     64   8    1   0     0        1         0    0      1 536870912  1048576   32768.0 POSIX      0
Finished            : Tue Feb  8 17:57:00 2022
IOR-3.4.0+dev: MPI Coordinated Test of Parallel I/O
Began               : Tue Feb  8 17:58:01 2022
Command line        : /home/lgouveia/ior/bin/ior -w -t 1m -b 512m -k -o /beegfs/lgouveia/ior_4/testFileApp_2
Machine             : Linux bora019.plafrim.cluster
TestID              : 0
StartTime           : Tue Feb  8 17:58:01 2022
Path                : /beegfs/lgouveia/ior_4/testFileApp_2
FS                  : 130.9 TiB   Used FS: 38.8%   Inodes: 0.0 Mi   Used Inodes: -nan%

Options: 
api                 : POSIX
apiVersion          : 
test filename       : /beegfs/lgouveia/ior_4/testFileApp_2
access              : single-shared-file
type                : independent
segments            : 1
ordering in a file  : sequential
ordering inter file : no tasks offsets
nodes               : 8
tasks               : 64
clients per node    : 8
repetitions         : 1
xfersize            : 1 MiB
blocksize           : 512 MiB
aggregate filesize  : 32 GiB

Results: 
WARNING: The file "/beegfs/lgouveia/ior_4/testFileApp_2" exists already and will be overwritten

access    bw(MiB/s)  IOPS       Latency(s)  block(KiB) xfer(KiB)  open(s)    wr/rd(s)   close(s)   total(s)   iter
------    ---------  ----       ----------  ---------- ---------  --------   --------   --------   --------   ----
write     3353.38    3353.84    0.012168    524288     1024.00    0.035413   9.77       7.94       9.77       0   

Summary of all tests:
Operation   Max(MiB)   Min(MiB)  Mean(MiB)     StdDev   Max(OPs)   Min(OPs)  Mean(OPs)     StdDev    Mean(s) Stonewall(s) Stonewall(MiB) Test# #Tasks tPN reps fPP reord reordoff reordrand seed segcnt   blksiz    xsize aggs(MiB)   API RefNum
write        3353.38    3353.38    3353.38       0.00    3353.38    3353.38    3353.38       0.00    9.77164         NA            NA     0     64   8    1   0     0        1         0    0      1 536870912  1048576   32768.0 POSIX      0
Finished            : Tue Feb  8 17:58:11 2022
IOR-3.4.0+dev: MPI Coordinated Test of Parallel I/O
Began               : Tue Feb  8 17:59:17 2022
Command line        : /home/lgouveia/ior/bin/ior -w -t 1m -b 512m -k -o /beegfs/lgouveia/ior_4/testFileApp_2
Machine             : Linux bora019.plafrim.cluster
TestID              : 0
StartTime           : Tue Feb  8 17:59:17 2022
Path                : /beegfs/lgouveia/ior_4/testFileApp_2
FS                  : 130.9 TiB   Used FS: 38.7%   Inodes: 0.0 Mi   Used Inodes: -nan%

Options: 
api                 : POSIX
apiVersion          : 
test filename       : /beegfs/lgouveia/ior_4/testFileApp_2
access              : single-shared-file
type                : independent
segments            : 1
ordering in a file  : sequential
ordering inter file : no tasks offsets
nodes               : 8
tasks               : 64
clients per node    : 8
repetitions         : 1
xfersize            : 1 MiB
blocksize           : 512 MiB
aggregate filesize  : 32 GiB

Results: 
WARNING: The file "/beegfs/lgouveia/ior_4/testFileApp_2" exists already and will be overwritten

access    bw(MiB/s)  IOPS       Latency(s)  block(KiB) xfer(KiB)  open(s)    wr/rd(s)   close(s)   total(s)   iter
------    ---------  ----       ----------  ---------- ---------  --------   --------   --------   --------   ----
write     3093.58    3094.06    0.016071    524288     1024.00    0.036753   10.59      9.24       10.59      0   

Summary of all tests:
Operation   Max(MiB)   Min(MiB)  Mean(MiB)     StdDev   Max(OPs)   Min(OPs)  Mean(OPs)     StdDev    Mean(s) Stonewall(s) Stonewall(MiB) Test# #Tasks tPN reps fPP reord reordoff reordrand seed segcnt   blksiz    xsize aggs(MiB)   API RefNum
write        3093.58    3093.58    3093.58       0.00    3093.58    3093.58    3093.58       0.00   10.59226         NA            NA     0     64   8    1   0     0        1         0    0      1 536870912  1048576   32768.0 POSIX      0
Finished            : Tue Feb  8 17:59:27 2022
IOR-3.4.0+dev: MPI Coordinated Test of Parallel I/O
Began               : Tue Feb  8 18:00:31 2022
Command line        : /home/lgouveia/ior/bin/ior -w -t 1m -b 512m -k -o /beegfs/lgouveia/ior_4/testFileApp_2
Machine             : Linux bora019.plafrim.cluster
TestID              : 0
StartTime           : Tue Feb  8 18:00:31 2022
Path                : /beegfs/lgouveia/ior_4/testFileApp_2
FS                  : 130.9 TiB   Used FS: 38.6%   Inodes: 0.0 Mi   Used Inodes: -nan%

Options: 
api                 : POSIX
apiVersion          : 
test filename       : /beegfs/lgouveia/ior_4/testFileApp_2
access              : single-shared-file
type                : independent
segments            : 1
ordering in a file  : sequential
ordering inter file : no tasks offsets
nodes               : 8
tasks               : 64
clients per node    : 8
repetitions         : 1
xfersize            : 1 MiB
blocksize           : 512 MiB
aggregate filesize  : 32 GiB

Results: 
WARNING: The file "/beegfs/lgouveia/ior_4/testFileApp_2" exists already and will be overwritten

access    bw(MiB/s)  IOPS       Latency(s)  block(KiB) xfer(KiB)  open(s)    wr/rd(s)   close(s)   total(s)   iter
------    ---------  ----       ----------  ---------- ---------  --------   --------   --------   --------   ----
write     3221.59    3221.90    0.009688    524288     1024.00    0.016350   10.17      9.07       10.17      0   

Summary of all tests:
Operation   Max(MiB)   Min(MiB)  Mean(MiB)     StdDev   Max(OPs)   Min(OPs)  Mean(OPs)     StdDev    Mean(s) Stonewall(s) Stonewall(MiB) Test# #Tasks tPN reps fPP reord reordoff reordrand seed segcnt   blksiz    xsize aggs(MiB)   API RefNum
write        3221.59    3221.59    3221.59       0.00    3221.59    3221.59    3221.59       0.00   10.17138         NA            NA     0     64   8    1   0     0        1         0    0      1 536870912  1048576   32768.0 POSIX      0
Finished            : Tue Feb  8 18:00:41 2022
IOR-3.4.0+dev: MPI Coordinated Test of Parallel I/O
Began               : Tue Feb  8 18:01:43 2022
Command line        : /home/lgouveia/ior/bin/ior -w -t 1m -b 512m -k -o /beegfs/lgouveia/ior_4/testFileApp_2
Machine             : Linux bora019.plafrim.cluster
TestID              : 0
StartTime           : Tue Feb  8 18:01:43 2022
Path                : /beegfs/lgouveia/ior_4/testFileApp_2
FS                  : 130.9 TiB   Used FS: 38.6%   Inodes: 0.0 Mi   Used Inodes: -nan%

Options: 
api                 : POSIX
apiVersion          : 
test filename       : /beegfs/lgouveia/ior_4/testFileApp_2
access              : single-shared-file
type                : independent
segments            : 1
ordering in a file  : sequential
ordering inter file : no tasks offsets
nodes               : 8
tasks               : 64
clients per node    : 8
repetitions         : 1
xfersize            : 1 MiB
blocksize           : 512 MiB
aggregate filesize  : 32 GiB

Results: 
WARNING: The file "/beegfs/lgouveia/ior_4/testFileApp_2" exists already and will be overwritten

access    bw(MiB/s)  IOPS       Latency(s)  block(KiB) xfer(KiB)  open(s)    wr/rd(s)   close(s)   total(s)   iter
------    ---------  ----       ----------  ---------- ---------  --------   --------   --------   --------   ----
write     3498.24    3498.55    0.015727    524288     1024.00    0.020284   9.37       8.32       9.37       0   

Summary of all tests:
Operation   Max(MiB)   Min(MiB)  Mean(MiB)     StdDev   Max(OPs)   Min(OPs)  Mean(OPs)     StdDev    Mean(s) Stonewall(s) Stonewall(MiB) Test# #Tasks tPN reps fPP reord reordoff reordrand seed segcnt   blksiz    xsize aggs(MiB)   API RefNum
write        3498.24    3498.24    3498.24       0.00    3498.24    3498.24    3498.24       0.00    9.36700         NA            NA     0     64   8    1   0     0        1         0    0      1 536870912  1048576   32768.0 POSIX      0
Finished            : Tue Feb  8 18:01:52 2022
IOR-3.4.0+dev: MPI Coordinated Test of Parallel I/O
Began               : Tue Feb  8 18:02:58 2022
Command line        : /home/lgouveia/ior/bin/ior -w -t 1m -b 512m -k -o /beegfs/lgouveia/ior_4/testFileApp_2
Machine             : Linux bora019.plafrim.cluster
TestID              : 0
StartTime           : Tue Feb  8 18:02:58 2022
Path                : /beegfs/lgouveia/ior_4/testFileApp_2
FS                  : 130.9 TiB   Used FS: 38.6%   Inodes: 0.0 Mi   Used Inodes: -nan%

Options: 
api                 : POSIX
apiVersion          : 
test filename       : /beegfs/lgouveia/ior_4/testFileApp_2
access              : single-shared-file
type                : independent
segments            : 1
ordering in a file  : sequential
ordering inter file : no tasks offsets
nodes               : 8
tasks               : 64
clients per node    : 8
repetitions         : 1
xfersize            : 1 MiB
blocksize           : 512 MiB
aggregate filesize  : 32 GiB

Results: 
WARNING: The file "/beegfs/lgouveia/ior_4/testFileApp_2" exists already and will be overwritten

access    bw(MiB/s)  IOPS       Latency(s)  block(KiB) xfer(KiB)  open(s)    wr/rd(s)   close(s)   total(s)   iter
------    ---------  ----       ----------  ---------- ---------  --------   --------   --------   --------   ----
write     2976.12    2976.41    0.006513    524288     1024.00    0.016286   11.01      9.46       11.01      0   

Summary of all tests:
Operation   Max(MiB)   Min(MiB)  Mean(MiB)     StdDev   Max(OPs)   Min(OPs)  Mean(OPs)     StdDev    Mean(s) Stonewall(s) Stonewall(MiB) Test# #Tasks tPN reps fPP reord reordoff reordrand seed segcnt   blksiz    xsize aggs(MiB)   API RefNum
write        2976.12    2976.12    2976.12       0.00    2976.12    2976.12    2976.12       0.00   11.01032         NA            NA     0     64   8    1   0     0        1         0    0      1 536870912  1048576   32768.0 POSIX      0
Finished            : Tue Feb  8 18:03:09 2022
IOR-3.4.0+dev: MPI Coordinated Test of Parallel I/O
Began               : Tue Feb  8 18:04:11 2022
Command line        : /home/lgouveia/ior/bin/ior -w -t 1m -b 512m -k -o /beegfs/lgouveia/ior_4/testFileApp_2
Machine             : Linux bora019.plafrim.cluster
TestID              : 0
StartTime           : Tue Feb  8 18:04:11 2022
Path                : /beegfs/lgouveia/ior_4/testFileApp_2
FS                  : 130.9 TiB   Used FS: 38.5%   Inodes: 0.0 Mi   Used Inodes: -nan%

Options: 
api                 : POSIX
apiVersion          : 
test filename       : /beegfs/lgouveia/ior_4/testFileApp_2
access              : single-shared-file
type                : independent
segments            : 1
ordering in a file  : sequential
ordering inter file : no tasks offsets
nodes               : 8
tasks               : 64
clients per node    : 8
repetitions         : 1
xfersize            : 1 MiB
blocksize           : 512 MiB
aggregate filesize  : 32 GiB

Results: 
WARNING: The file "/beegfs/lgouveia/ior_4/testFileApp_2" exists already and will be overwritten

access    bw(MiB/s)  IOPS       Latency(s)  block(KiB) xfer(KiB)  open(s)    wr/rd(s)   close(s)   total(s)   iter
------    ---------  ----       ----------  ---------- ---------  --------   --------   --------   --------   ----
write     2143.19    2143.36    0.023937    524288     1024.00    0.019020   15.29      13.02      15.29      0   

Summary of all tests:
Operation   Max(MiB)   Min(MiB)  Mean(MiB)     StdDev   Max(OPs)   Min(OPs)  Mean(OPs)     StdDev    Mean(s) Stonewall(s) Stonewall(MiB) Test# #Tasks tPN reps fPP reord reordoff reordrand seed segcnt   blksiz    xsize aggs(MiB)   API RefNum
write        2143.19    2143.19    2143.19       0.00    2143.19    2143.19    2143.19       0.00   15.28935         NA            NA     0     64   8    1   0     0        1         0    0      1 536870912  1048576   32768.0 POSIX      0
Finished            : Tue Feb  8 18:04:26 2022
IOR-3.4.0+dev: MPI Coordinated Test of Parallel I/O
Began               : Tue Feb  8 18:05:27 2022
Command line        : /home/lgouveia/ior/bin/ior -w -t 1m -b 512m -k -o /beegfs/lgouveia/ior_4/testFileApp_2
Machine             : Linux bora019.plafrim.cluster
TestID              : 0
StartTime           : Tue Feb  8 18:05:27 2022
Path                : /beegfs/lgouveia/ior_4/testFileApp_2
FS                  : 130.9 TiB   Used FS: 38.0%   Inodes: 0.0 Mi   Used Inodes: -nan%

Options: 
api                 : POSIX
apiVersion          : 
test filename       : /beegfs/lgouveia/ior_4/testFileApp_2
access              : single-shared-file
type                : independent
segments            : 1
ordering in a file  : sequential
ordering inter file : no tasks offsets
nodes               : 8
tasks               : 64
clients per node    : 8
repetitions         : 1
xfersize            : 1 MiB
blocksize           : 512 MiB
aggregate filesize  : 32 GiB

Results: 
WARNING: The file "/beegfs/lgouveia/ior_4/testFileApp_2" exists already and will be overwritten

access    bw(MiB/s)  IOPS       Latency(s)  block(KiB) xfer(KiB)  open(s)    wr/rd(s)   close(s)   total(s)   iter
------    ---------  ----       ----------  ---------- ---------  --------   --------   --------   --------   ----
write     3138.80    3159.65    0.018349    524288     1024.00    0.018834   10.37      8.61       10.44      0   

Summary of all tests:
Operation   Max(MiB)   Min(MiB)  Mean(MiB)     StdDev   Max(OPs)   Min(OPs)  Mean(OPs)     StdDev    Mean(s) Stonewall(s) Stonewall(MiB) Test# #Tasks tPN reps fPP reord reordoff reordrand seed segcnt   blksiz    xsize aggs(MiB)   API RefNum
write        3138.80    3138.80    3138.80       0.00    3138.80    3138.80    3138.80       0.00   10.43967         NA            NA     0     64   8    1   0     0        1         0    0      1 536870912  1048576   32768.0 POSIX      0
Finished            : Tue Feb  8 18:05:38 2022
IOR-3.4.0+dev: MPI Coordinated Test of Parallel I/O
Began               : Tue Feb  8 18:06:40 2022
Command line        : /home/lgouveia/ior/bin/ior -w -t 1m -b 512m -k -o /beegfs/lgouveia/ior_4/testFileApp_2
Machine             : Linux bora019.plafrim.cluster
TestID              : 0
StartTime           : Tue Feb  8 18:06:40 2022
Path                : /beegfs/lgouveia/ior_4/testFileApp_2
FS                  : 130.9 TiB   Used FS: 37.5%   Inodes: 0.0 Mi   Used Inodes: -nan%

Options: 
api                 : POSIX
apiVersion          : 
test filename       : /beegfs/lgouveia/ior_4/testFileApp_2
access              : single-shared-file
type                : independent
segments            : 1
ordering in a file  : sequential
ordering inter file : no tasks offsets
nodes               : 8
tasks               : 64
clients per node    : 8
repetitions         : 1
xfersize            : 1 MiB
blocksize           : 512 MiB
aggregate filesize  : 32 GiB

Results: 
WARNING: The file "/beegfs/lgouveia/ior_4/testFileApp_2" exists already and will be overwritten

access    bw(MiB/s)  IOPS       Latency(s)  block(KiB) xfer(KiB)  open(s)    wr/rd(s)   close(s)   total(s)   iter
------    ---------  ----       ----------  ---------- ---------  --------   --------   --------   --------   ----
write     2552.07    2552.23    0.019826    524288     1024.00    0.212917   12.84      11.59      12.84      0   

Summary of all tests:
Operation   Max(MiB)   Min(MiB)  Mean(MiB)     StdDev   Max(OPs)   Min(OPs)  Mean(OPs)     StdDev    Mean(s) Stonewall(s) Stonewall(MiB) Test# #Tasks tPN reps fPP reord reordoff reordrand seed segcnt   blksiz    xsize aggs(MiB)   API RefNum
write        2552.07    2552.07    2552.07       0.00    2552.07    2552.07    2552.07       0.00   12.83977         NA            NA     0     64   8    1   0     0        1         0    0      1 536870912  1048576   32768.0 POSIX      0
Finished            : Tue Feb  8 18:06:52 2022
