IOR-3.4.0+dev: MPI Coordinated Test of Parallel I/O
Began               : Tue Feb  8 23:20:03 2022
Command line        : /home/lgouveia/ior/bin/ior -w -t 1m -b 512m -k -o /beegfs/lgouveia/ior_8/testFileApp_1
Machine             : Linux bora011.plafrim.cluster
TestID              : 0
StartTime           : Tue Feb  8 23:20:03 2022
Path                : /beegfs/lgouveia/ior_8/testFileApp_1
FS                  : 130.9 TiB   Used FS: 36.9%   Inodes: 0.0 Mi   Used Inodes: -nan%

Options: 
api                 : POSIX
apiVersion          : 
test filename       : /beegfs/lgouveia/ior_8/testFileApp_1
access              : single-shared-file
type                : independent
segments            : 1
ordering in a file  : sequential
ordering inter file : no tasks offsets
nodes               : 8
tasks               : 64
clients per node    : 8
repetitions         : 1
xfersize            : 1 MiB
blocksize           : 512 MiB
aggregate filesize  : 32 GiB

Results: 
WARNING: The file "/beegfs/lgouveia/ior_8/testFileApp_1" exists already and will be overwritten

access    bw(MiB/s)  IOPS       Latency(s)  block(KiB) xfer(KiB)  open(s)    wr/rd(s)   close(s)   total(s)   iter
------    ---------  ----       ----------  ---------- ---------  --------   --------   --------   --------   ----
write     3109.46    3110.00    0.016610    524288     1024.00    0.035680   10.54      8.89       10.54      0   

Summary of all tests:
Operation   Max(MiB)   Min(MiB)  Mean(MiB)     StdDev   Max(OPs)   Min(OPs)  Mean(OPs)     StdDev    Mean(s) Stonewall(s) Stonewall(MiB) Test# #Tasks tPN reps fPP reord reordoff reordrand seed segcnt   blksiz    xsize aggs(MiB)   API RefNum
write        3109.46    3109.46    3109.46       0.00    3109.46    3109.46    3109.46       0.00   10.53817         NA            NA     0     64   8    1   0     0        1         0    0      1 536870912  1048576   32768.0 POSIX      0
Finished            : Tue Feb  8 23:20:14 2022
IOR-3.4.0+dev: MPI Coordinated Test of Parallel I/O
Began               : Tue Feb  8 23:21:16 2022
Command line        : /home/lgouveia/ior/bin/ior -w -t 1m -b 512m -k -o /beegfs/lgouveia/ior_8/testFileApp_1
Machine             : Linux bora011.plafrim.cluster
TestID              : 0
StartTime           : Tue Feb  8 23:21:16 2022
Path                : /beegfs/lgouveia/ior_8/testFileApp_1
FS                  : 130.9 TiB   Used FS: 36.9%   Inodes: 0.0 Mi   Used Inodes: -nan%

Options: 
api                 : POSIX
apiVersion          : 
test filename       : /beegfs/lgouveia/ior_8/testFileApp_1
access              : single-shared-file
type                : independent
segments            : 1
ordering in a file  : sequential
ordering inter file : no tasks offsets
nodes               : 8
tasks               : 64
clients per node    : 8
repetitions         : 1
xfersize            : 1 MiB
blocksize           : 512 MiB
aggregate filesize  : 32 GiB

Results: 
WARNING: The file "/beegfs/lgouveia/ior_8/testFileApp_1" exists already and will be overwritten

access    bw(MiB/s)  IOPS       Latency(s)  block(KiB) xfer(KiB)  open(s)    wr/rd(s)   close(s)   total(s)   iter
------    ---------  ----       ----------  ---------- ---------  --------   --------   --------   --------   ----
write     2627.86    2628.23    0.018981    524288     1024.00    0.031618   12.47      10.12      12.47      0   

Summary of all tests:
Operation   Max(MiB)   Min(MiB)  Mean(MiB)     StdDev   Max(OPs)   Min(OPs)  Mean(OPs)     StdDev    Mean(s) Stonewall(s) Stonewall(MiB) Test# #Tasks tPN reps fPP reord reordoff reordrand seed segcnt   blksiz    xsize aggs(MiB)   API RefNum
write        2627.86    2627.86    2627.86       0.00    2627.86    2627.86    2627.86       0.00   12.46946         NA            NA     0     64   8    1   0     0        1         0    0      1 536870912  1048576   32768.0 POSIX      0
Finished            : Tue Feb  8 23:21:29 2022
IOR-3.4.0+dev: MPI Coordinated Test of Parallel I/O
Began               : Tue Feb  8 23:22:30 2022
Command line        : /home/lgouveia/ior/bin/ior -w -t 1m -b 512m -k -o /beegfs/lgouveia/ior_8/testFileApp_1
Machine             : Linux bora011.plafrim.cluster
TestID              : 0
StartTime           : Tue Feb  8 23:22:30 2022
Path                : /beegfs/lgouveia/ior_8/testFileApp_1
FS                  : 130.9 TiB   Used FS: 36.9%   Inodes: 0.0 Mi   Used Inodes: -nan%

Options: 
api                 : POSIX
apiVersion          : 
test filename       : /beegfs/lgouveia/ior_8/testFileApp_1
access              : single-shared-file
type                : independent
segments            : 1
ordering in a file  : sequential
ordering inter file : no tasks offsets
nodes               : 8
tasks               : 64
clients per node    : 8
repetitions         : 1
xfersize            : 1 MiB
blocksize           : 512 MiB
aggregate filesize  : 32 GiB

Results: 
WARNING: The file "/beegfs/lgouveia/ior_8/testFileApp_1" exists already and will be overwritten

access    bw(MiB/s)  IOPS       Latency(s)  block(KiB) xfer(KiB)  open(s)    wr/rd(s)   close(s)   total(s)   iter
------    ---------  ----       ----------  ---------- ---------  --------   --------   --------   --------   ----
write     2679.90    2680.19    0.016140    524288     1024.00    0.157613   12.23      10.11      12.23      0   

Summary of all tests:
Operation   Max(MiB)   Min(MiB)  Mean(MiB)     StdDev   Max(OPs)   Min(OPs)  Mean(OPs)     StdDev    Mean(s) Stonewall(s) Stonewall(MiB) Test# #Tasks tPN reps fPP reord reordoff reordrand seed segcnt   blksiz    xsize aggs(MiB)   API RefNum
write        2679.90    2679.90    2679.90       0.00    2679.90    2679.90    2679.90       0.00   12.22732         NA            NA     0     64   8    1   0     0        1         0    0      1 536870912  1048576   32768.0 POSIX      0
Finished            : Tue Feb  8 23:22:42 2022
IOR-3.4.0+dev: MPI Coordinated Test of Parallel I/O
Began               : Tue Feb  8 23:23:44 2022
Command line        : /home/lgouveia/ior/bin/ior -w -t 1m -b 512m -k -o /beegfs/lgouveia/ior_8/testFileApp_1
Machine             : Linux bora011.plafrim.cluster
TestID              : 0
StartTime           : Tue Feb  8 23:23:44 2022
Path                : /beegfs/lgouveia/ior_8/testFileApp_1
FS                  : 130.9 TiB   Used FS: 36.9%   Inodes: 0.0 Mi   Used Inodes: -nan%

Options: 
api                 : POSIX
apiVersion          : 
test filename       : /beegfs/lgouveia/ior_8/testFileApp_1
access              : single-shared-file
type                : independent
segments            : 1
ordering in a file  : sequential
ordering inter file : no tasks offsets
nodes               : 8
tasks               : 64
clients per node    : 8
repetitions         : 1
xfersize            : 1 MiB
blocksize           : 512 MiB
aggregate filesize  : 32 GiB

Results: 
WARNING: The file "/beegfs/lgouveia/ior_8/testFileApp_1" exists already and will be overwritten

access    bw(MiB/s)  IOPS       Latency(s)  block(KiB) xfer(KiB)  open(s)    wr/rd(s)   close(s)   total(s)   iter
------    ---------  ----       ----------  ---------- ---------  --------   --------   --------   --------   ----
write     2770.15    2770.36    0.021110    524288     1024.00    0.351163   11.83      9.88       11.83      0   

Summary of all tests:
Operation   Max(MiB)   Min(MiB)  Mean(MiB)     StdDev   Max(OPs)   Min(OPs)  Mean(OPs)     StdDev    Mean(s) Stonewall(s) Stonewall(MiB) Test# #Tasks tPN reps fPP reord reordoff reordrand seed segcnt   blksiz    xsize aggs(MiB)   API RefNum
write        2770.15    2770.15    2770.15       0.00    2770.15    2770.15    2770.15       0.00   11.82897         NA            NA     0     64   8    1   0     0        1         0    0      1 536870912  1048576   32768.0 POSIX      0
Finished            : Tue Feb  8 23:23:55 2022
IOR-3.4.0+dev: MPI Coordinated Test of Parallel I/O
Began               : Tue Feb  8 23:24:57 2022
Command line        : /home/lgouveia/ior/bin/ior -w -t 1m -b 512m -k -o /beegfs/lgouveia/ior_8/testFileApp_1
Machine             : Linux bora011.plafrim.cluster
TestID              : 0
StartTime           : Tue Feb  8 23:24:57 2022
Path                : /beegfs/lgouveia/ior_8/testFileApp_1
FS                  : 130.9 TiB   Used FS: 36.9%   Inodes: 0.0 Mi   Used Inodes: -nan%

Options: 
api                 : POSIX
apiVersion          : 
test filename       : /beegfs/lgouveia/ior_8/testFileApp_1
access              : single-shared-file
type                : independent
segments            : 1
ordering in a file  : sequential
ordering inter file : no tasks offsets
nodes               : 8
tasks               : 64
clients per node    : 8
repetitions         : 1
xfersize            : 1 MiB
blocksize           : 512 MiB
aggregate filesize  : 32 GiB

Results: 
WARNING: The file "/beegfs/lgouveia/ior_8/testFileApp_1" exists already and will be overwritten

access    bw(MiB/s)  IOPS       Latency(s)  block(KiB) xfer(KiB)  open(s)    wr/rd(s)   close(s)   total(s)   iter
------    ---------  ----       ----------  ---------- ---------  --------   --------   --------   --------   ----
write     2662.94    2663.13    0.021007    524288     1024.00    0.521021   12.30      10.03      12.31      0   

Summary of all tests:
Operation   Max(MiB)   Min(MiB)  Mean(MiB)     StdDev   Max(OPs)   Min(OPs)  Mean(OPs)     StdDev    Mean(s) Stonewall(s) Stonewall(MiB) Test# #Tasks tPN reps fPP reord reordoff reordrand seed segcnt   blksiz    xsize aggs(MiB)   API RefNum
write        2662.94    2662.94    2662.94       0.00    2662.94    2662.94    2662.94       0.00   12.30519         NA            NA     0     64   8    1   0     0        1         0    0      1 536870912  1048576   32768.0 POSIX      0
Finished            : Tue Feb  8 23:25:10 2022
IOR-3.4.0+dev: MPI Coordinated Test of Parallel I/O
Began               : Tue Feb  8 23:26:11 2022
Command line        : /home/lgouveia/ior/bin/ior -w -t 1m -b 512m -k -o /beegfs/lgouveia/ior_8/testFileApp_1
Machine             : Linux bora011.plafrim.cluster
TestID              : 0
StartTime           : Tue Feb  8 23:26:11 2022
Path                : /beegfs/lgouveia/ior_8/testFileApp_1
FS                  : 130.9 TiB   Used FS: 36.9%   Inodes: 0.0 Mi   Used Inodes: -nan%

Options: 
api                 : POSIX
apiVersion          : 
test filename       : /beegfs/lgouveia/ior_8/testFileApp_1
access              : single-shared-file
type                : independent
segments            : 1
ordering in a file  : sequential
ordering inter file : no tasks offsets
nodes               : 8
tasks               : 64
clients per node    : 8
repetitions         : 1
xfersize            : 1 MiB
blocksize           : 512 MiB
aggregate filesize  : 32 GiB

Results: 
WARNING: The file "/beegfs/lgouveia/ior_8/testFileApp_1" exists already and will be overwritten

access    bw(MiB/s)  IOPS       Latency(s)  block(KiB) xfer(KiB)  open(s)    wr/rd(s)   close(s)   total(s)   iter
------    ---------  ----       ----------  ---------- ---------  --------   --------   --------   --------   ----
write     2860.90    2861.17    0.018114    524288     1024.00    0.259959   11.45      9.22       11.45      0   

Summary of all tests:
Operation   Max(MiB)   Min(MiB)  Mean(MiB)     StdDev   Max(OPs)   Min(OPs)  Mean(OPs)     StdDev    Mean(s) Stonewall(s) Stonewall(MiB) Test# #Tasks tPN reps fPP reord reordoff reordrand seed segcnt   blksiz    xsize aggs(MiB)   API RefNum
write        2860.90    2860.90    2860.90       0.00    2860.90    2860.90    2860.90       0.00   11.45373         NA            NA     0     64   8    1   0     0        1         0    0      1 536870912  1048576   32768.0 POSIX      0
Finished            : Tue Feb  8 23:26:23 2022
IOR-3.4.0+dev: MPI Coordinated Test of Parallel I/O
Began               : Tue Feb  8 23:27:24 2022
Command line        : /home/lgouveia/ior/bin/ior -w -t 1m -b 512m -k -o /beegfs/lgouveia/ior_8/testFileApp_1
Machine             : Linux bora011.plafrim.cluster
TestID              : 0
StartTime           : Tue Feb  8 23:27:24 2022
Path                : /beegfs/lgouveia/ior_8/testFileApp_1
FS                  : 130.9 TiB   Used FS: 36.9%   Inodes: 0.0 Mi   Used Inodes: -nan%

Options: 
api                 : POSIX
apiVersion          : 
test filename       : /beegfs/lgouveia/ior_8/testFileApp_1
access              : single-shared-file
type                : independent
segments            : 1
ordering in a file  : sequential
ordering inter file : no tasks offsets
nodes               : 8
tasks               : 64
clients per node    : 8
repetitions         : 1
xfersize            : 1 MiB
blocksize           : 512 MiB
aggregate filesize  : 32 GiB

Results: 
WARNING: The file "/beegfs/lgouveia/ior_8/testFileApp_1" exists already and will be overwritten

access    bw(MiB/s)  IOPS       Latency(s)  block(KiB) xfer(KiB)  open(s)    wr/rd(s)   close(s)   total(s)   iter
------    ---------  ----       ----------  ---------- ---------  --------   --------   --------   --------   ----
write     2883.72    2884.00    0.020375    524288     1024.00    0.415403   11.36      9.48       11.36      0   

Summary of all tests:
Operation   Max(MiB)   Min(MiB)  Mean(MiB)     StdDev   Max(OPs)   Min(OPs)  Mean(OPs)     StdDev    Mean(s) Stonewall(s) Stonewall(MiB) Test# #Tasks tPN reps fPP reord reordoff reordrand seed segcnt   blksiz    xsize aggs(MiB)   API RefNum
write        2883.72    2883.72    2883.72       0.00    2883.72    2883.72    2883.72       0.00   11.36309         NA            NA     0     64   8    1   0     0        1         0    0      1 536870912  1048576   32768.0 POSIX      0
Finished            : Tue Feb  8 23:27:35 2022
IOR-3.4.0+dev: MPI Coordinated Test of Parallel I/O
Began               : Tue Feb  8 23:28:37 2022
Command line        : /home/lgouveia/ior/bin/ior -w -t 1m -b 512m -k -o /beegfs/lgouveia/ior_8/testFileApp_1
Machine             : Linux bora011.plafrim.cluster
TestID              : 0
StartTime           : Tue Feb  8 23:28:37 2022
Path                : /beegfs/lgouveia/ior_8/testFileApp_1
FS                  : 130.9 TiB   Used FS: 36.9%   Inodes: 0.0 Mi   Used Inodes: -nan%

Options: 
api                 : POSIX
apiVersion          : 
test filename       : /beegfs/lgouveia/ior_8/testFileApp_1
access              : single-shared-file
type                : independent
segments            : 1
ordering in a file  : sequential
ordering inter file : no tasks offsets
nodes               : 8
tasks               : 64
clients per node    : 8
repetitions         : 1
xfersize            : 1 MiB
blocksize           : 512 MiB
aggregate filesize  : 32 GiB

Results: 
WARNING: The file "/beegfs/lgouveia/ior_8/testFileApp_1" exists already and will be overwritten

access    bw(MiB/s)  IOPS       Latency(s)  block(KiB) xfer(KiB)  open(s)    wr/rd(s)   close(s)   total(s)   iter
------    ---------  ----       ----------  ---------- ---------  --------   --------   --------   --------   ----
write     2608.07    2608.27    0.017896    524288     1024.00    0.046064   12.56      10.20      12.56      0   

Summary of all tests:
Operation   Max(MiB)   Min(MiB)  Mean(MiB)     StdDev   Max(OPs)   Min(OPs)  Mean(OPs)     StdDev    Mean(s) Stonewall(s) Stonewall(MiB) Test# #Tasks tPN reps fPP reord reordoff reordrand seed segcnt   blksiz    xsize aggs(MiB)   API RefNum
write        2608.07    2608.07    2608.07       0.00    2608.07    2608.07    2608.07       0.00   12.56408         NA            NA     0     64   8    1   0     0        1         0    0      1 536870912  1048576   32768.0 POSIX      0
Finished            : Tue Feb  8 23:28:50 2022
IOR-3.4.0+dev: MPI Coordinated Test of Parallel I/O
Began               : Tue Feb  8 23:29:51 2022
Command line        : /home/lgouveia/ior/bin/ior -w -t 1m -b 512m -k -o /beegfs/lgouveia/ior_8/testFileApp_1
Machine             : Linux bora011.plafrim.cluster
TestID              : 0
StartTime           : Tue Feb  8 23:29:51 2022
Path                : /beegfs/lgouveia/ior_8/testFileApp_1
FS                  : 130.9 TiB   Used FS: 36.9%   Inodes: 0.0 Mi   Used Inodes: -nan%

Options: 
api                 : POSIX
apiVersion          : 
test filename       : /beegfs/lgouveia/ior_8/testFileApp_1
access              : single-shared-file
type                : independent
segments            : 1
ordering in a file  : sequential
ordering inter file : no tasks offsets
nodes               : 8
tasks               : 64
clients per node    : 8
repetitions         : 1
xfersize            : 1 MiB
blocksize           : 512 MiB
aggregate filesize  : 32 GiB

Results: 
WARNING: The file "/beegfs/lgouveia/ior_8/testFileApp_1" exists already and will be overwritten

access    bw(MiB/s)  IOPS       Latency(s)  block(KiB) xfer(KiB)  open(s)    wr/rd(s)   close(s)   total(s)   iter
------    ---------  ----       ----------  ---------- ---------  --------   --------   --------   --------   ----
write     2878.93    2879.26    0.014431    524288     1024.00    0.043336   11.38      9.45       11.38      0   

Summary of all tests:
Operation   Max(MiB)   Min(MiB)  Mean(MiB)     StdDev   Max(OPs)   Min(OPs)  Mean(OPs)     StdDev    Mean(s) Stonewall(s) Stonewall(MiB) Test# #Tasks tPN reps fPP reord reordoff reordrand seed segcnt   blksiz    xsize aggs(MiB)   API RefNum
write        2878.93    2878.93    2878.93       0.00    2878.93    2878.93    2878.93       0.00   11.38202         NA            NA     0     64   8    1   0     0        1         0    0      1 536870912  1048576   32768.0 POSIX      0
Finished            : Tue Feb  8 23:30:02 2022
IOR-3.4.0+dev: MPI Coordinated Test of Parallel I/O
Began               : Tue Feb  8 23:31:04 2022
Command line        : /home/lgouveia/ior/bin/ior -w -t 1m -b 512m -k -o /beegfs/lgouveia/ior_8/testFileApp_1
Machine             : Linux bora011.plafrim.cluster
TestID              : 0
StartTime           : Tue Feb  8 23:31:04 2022
Path                : /beegfs/lgouveia/ior_8/testFileApp_1
FS                  : 130.9 TiB   Used FS: 36.9%   Inodes: 0.0 Mi   Used Inodes: -nan%

Options: 
api                 : POSIX
apiVersion          : 
test filename       : /beegfs/lgouveia/ior_8/testFileApp_1
access              : single-shared-file
type                : independent
segments            : 1
ordering in a file  : sequential
ordering inter file : no tasks offsets
nodes               : 8
tasks               : 64
clients per node    : 8
repetitions         : 1
xfersize            : 1 MiB
blocksize           : 512 MiB
aggregate filesize  : 32 GiB

Results: 
WARNING: The file "/beegfs/lgouveia/ior_8/testFileApp_1" exists already and will be overwritten

access    bw(MiB/s)  IOPS       Latency(s)  block(KiB) xfer(KiB)  open(s)    wr/rd(s)   close(s)   total(s)   iter
------    ---------  ----       ----------  ---------- ---------  --------   --------   --------   --------   ----
write     2700.33    2700.56    0.022159    524288     1024.00    0.017359   12.13      8.95       12.13      0   

Summary of all tests:
Operation   Max(MiB)   Min(MiB)  Mean(MiB)     StdDev   Max(OPs)   Min(OPs)  Mean(OPs)     StdDev    Mean(s) Stonewall(s) Stonewall(MiB) Test# #Tasks tPN reps fPP reord reordoff reordrand seed segcnt   blksiz    xsize aggs(MiB)   API RefNum
write        2700.33    2700.33    2700.33       0.00    2700.33    2700.33    2700.33       0.00   12.13481         NA            NA     0     64   8    1   0     0        1         0    0      1 536870912  1048576   32768.0 POSIX      0
Finished            : Tue Feb  8 23:31:16 2022
