IOR-3.4.0+dev: MPI Coordinated Test of Parallel I/O
Began               : Wed Feb  9 02:43:13 2022
Command line        : /home/lgouveia/ior/bin/ior -w -t 1m -b 512m -k -o /beegfs/lgouveia/ior_8/testFileApp_1
Machine             : Linux bora011.plafrim.cluster
TestID              : 0
StartTime           : Wed Feb  9 02:43:13 2022
Path                : /beegfs/lgouveia/ior_8/testFileApp_1
FS                  : 130.9 TiB   Used FS: 36.9%   Inodes: 0.0 Mi   Used Inodes: -nan%

Options: 
api                 : POSIX
apiVersion          : 
test filename       : /beegfs/lgouveia/ior_8/testFileApp_1
access              : single-shared-file
type                : independent
segments            : 1
ordering in a file  : sequential
ordering inter file : no tasks offsets
nodes               : 8
tasks               : 64
clients per node    : 8
repetitions         : 1
xfersize            : 1 MiB
blocksize           : 512 MiB
aggregate filesize  : 32 GiB

Results: 
WARNING: The file "/beegfs/lgouveia/ior_8/testFileApp_1" exists already and will be overwritten

access    bw(MiB/s)  IOPS       Latency(s)  block(KiB) xfer(KiB)  open(s)    wr/rd(s)   close(s)   total(s)   iter
------    ---------  ----       ----------  ---------- ---------  --------   --------   --------   --------   ----
write     2696.88    2697.13    0.020713    524288     1024.00    0.780094   12.15      9.68       12.15      0   

Summary of all tests:
Operation   Max(MiB)   Min(MiB)  Mean(MiB)     StdDev   Max(OPs)   Min(OPs)  Mean(OPs)     StdDev    Mean(s) Stonewall(s) Stonewall(MiB) Test# #Tasks tPN reps fPP reord reordoff reordrand seed segcnt   blksiz    xsize aggs(MiB)   API RefNum
write        2696.88    2696.88    2696.88       0.00    2696.88    2696.88    2696.88       0.00   12.15034         NA            NA     0     64   8    1   0     0        1         0    0      1 536870912  1048576   32768.0 POSIX      0
Finished            : Wed Feb  9 02:43:25 2022
IOR-3.4.0+dev: MPI Coordinated Test of Parallel I/O
Began               : Wed Feb  9 02:44:26 2022
Command line        : /home/lgouveia/ior/bin/ior -w -t 1m -b 512m -k -o /beegfs/lgouveia/ior_8/testFileApp_1
Machine             : Linux bora011.plafrim.cluster
TestID              : 0
StartTime           : Wed Feb  9 02:44:26 2022
Path                : /beegfs/lgouveia/ior_8/testFileApp_1
FS                  : 130.9 TiB   Used FS: 36.9%   Inodes: 0.0 Mi   Used Inodes: -nan%

Options: 
api                 : POSIX
apiVersion          : 
test filename       : /beegfs/lgouveia/ior_8/testFileApp_1
access              : single-shared-file
type                : independent
segments            : 1
ordering in a file  : sequential
ordering inter file : no tasks offsets
nodes               : 8
tasks               : 64
clients per node    : 8
repetitions         : 1
xfersize            : 1 MiB
blocksize           : 512 MiB
aggregate filesize  : 32 GiB

Results: 
WARNING: The file "/beegfs/lgouveia/ior_8/testFileApp_1" exists already and will be overwritten

access    bw(MiB/s)  IOPS       Latency(s)  block(KiB) xfer(KiB)  open(s)    wr/rd(s)   close(s)   total(s)   iter
------    ---------  ----       ----------  ---------- ---------  --------   --------   --------   --------   ----
write     2709.68    2709.96    0.021778    524288     1024.00    0.300387   12.09      10.36      12.09      0   

Summary of all tests:
Operation   Max(MiB)   Min(MiB)  Mean(MiB)     StdDev   Max(OPs)   Min(OPs)  Mean(OPs)     StdDev    Mean(s) Stonewall(s) Stonewall(MiB) Test# #Tasks tPN reps fPP reord reordoff reordrand seed segcnt   blksiz    xsize aggs(MiB)   API RefNum
write        2709.68    2709.68    2709.68       0.00    2709.68    2709.68    2709.68       0.00   12.09296         NA            NA     0     64   8    1   0     0        1         0    0      1 536870912  1048576   32768.0 POSIX      0
Finished            : Wed Feb  9 02:44:38 2022
IOR-3.4.0+dev: MPI Coordinated Test of Parallel I/O
Began               : Wed Feb  9 02:45:40 2022
Command line        : /home/lgouveia/ior/bin/ior -w -t 1m -b 512m -k -o /beegfs/lgouveia/ior_8/testFileApp_1
Machine             : Linux bora011.plafrim.cluster
TestID              : 0
StartTime           : Wed Feb  9 02:45:40 2022
Path                : /beegfs/lgouveia/ior_8/testFileApp_1
FS                  : 130.9 TiB   Used FS: 36.9%   Inodes: 0.0 Mi   Used Inodes: -nan%

Options: 
api                 : POSIX
apiVersion          : 
test filename       : /beegfs/lgouveia/ior_8/testFileApp_1
access              : single-shared-file
type                : independent
segments            : 1
ordering in a file  : sequential
ordering inter file : no tasks offsets
nodes               : 8
tasks               : 64
clients per node    : 8
repetitions         : 1
xfersize            : 1 MiB
blocksize           : 512 MiB
aggregate filesize  : 32 GiB

Results: 
WARNING: The file "/beegfs/lgouveia/ior_8/testFileApp_1" exists already and will be overwritten

access    bw(MiB/s)  IOPS       Latency(s)  block(KiB) xfer(KiB)  open(s)    wr/rd(s)   close(s)   total(s)   iter
------    ---------  ----       ----------  ---------- ---------  --------   --------   --------   --------   ----
write     2565.23    2565.51    0.004502    524288     1024.00    0.018251   12.77      10.87      12.77      0   

Summary of all tests:
Operation   Max(MiB)   Min(MiB)  Mean(MiB)     StdDev   Max(OPs)   Min(OPs)  Mean(OPs)     StdDev    Mean(s) Stonewall(s) Stonewall(MiB) Test# #Tasks tPN reps fPP reord reordoff reordrand seed segcnt   blksiz    xsize aggs(MiB)   API RefNum
write        2565.23    2565.23    2565.23       0.00    2565.23    2565.23    2565.23       0.00   12.77392         NA            NA     0     64   8    1   0     0        1         0    0      1 536870912  1048576   32768.0 POSIX      0
Finished            : Wed Feb  9 02:45:53 2022
IOR-3.4.0+dev: MPI Coordinated Test of Parallel I/O
Began               : Wed Feb  9 02:46:54 2022
Command line        : /home/lgouveia/ior/bin/ior -w -t 1m -b 512m -k -o /beegfs/lgouveia/ior_8/testFileApp_1
Machine             : Linux bora011.plafrim.cluster
TestID              : 0
StartTime           : Wed Feb  9 02:46:54 2022
Path                : /beegfs/lgouveia/ior_8/testFileApp_1
FS                  : 130.9 TiB   Used FS: 36.9%   Inodes: 0.0 Mi   Used Inodes: -nan%

Options: 
api                 : POSIX
apiVersion          : 
test filename       : /beegfs/lgouveia/ior_8/testFileApp_1
access              : single-shared-file
type                : independent
segments            : 1
ordering in a file  : sequential
ordering inter file : no tasks offsets
nodes               : 8
tasks               : 64
clients per node    : 8
repetitions         : 1
xfersize            : 1 MiB
blocksize           : 512 MiB
aggregate filesize  : 32 GiB

Results: 
WARNING: The file "/beegfs/lgouveia/ior_8/testFileApp_1" exists already and will be overwritten

access    bw(MiB/s)  IOPS       Latency(s)  block(KiB) xfer(KiB)  open(s)    wr/rd(s)   close(s)   total(s)   iter
------    ---------  ----       ----------  ---------- ---------  --------   --------   --------   --------   ----
write     2706.88    2707.15    0.021595    524288     1024.00    0.022425   12.10      9.98       12.11      0   

Summary of all tests:
Operation   Max(MiB)   Min(MiB)  Mean(MiB)     StdDev   Max(OPs)   Min(OPs)  Mean(OPs)     StdDev    Mean(s) Stonewall(s) Stonewall(MiB) Test# #Tasks tPN reps fPP reord reordoff reordrand seed segcnt   blksiz    xsize aggs(MiB)   API RefNum
write        2706.88    2706.88    2706.88       0.00    2706.88    2706.88    2706.88       0.00   12.10545         NA            NA     0     64   8    1   0     0        1         0    0      1 536870912  1048576   32768.0 POSIX      0
Finished            : Wed Feb  9 02:47:06 2022
IOR-3.4.0+dev: MPI Coordinated Test of Parallel I/O
Began               : Wed Feb  9 02:48:08 2022
Command line        : /home/lgouveia/ior/bin/ior -w -t 1m -b 512m -k -o /beegfs/lgouveia/ior_8/testFileApp_1
Machine             : Linux bora011.plafrim.cluster
TestID              : 0
StartTime           : Wed Feb  9 02:48:08 2022
Path                : /beegfs/lgouveia/ior_8/testFileApp_1
FS                  : 130.9 TiB   Used FS: 36.9%   Inodes: 0.0 Mi   Used Inodes: -nan%

Options: 
api                 : POSIX
apiVersion          : 
test filename       : /beegfs/lgouveia/ior_8/testFileApp_1
access              : single-shared-file
type                : independent
segments            : 1
ordering in a file  : sequential
ordering inter file : no tasks offsets
nodes               : 8
tasks               : 64
clients per node    : 8
repetitions         : 1
xfersize            : 1 MiB
blocksize           : 512 MiB
aggregate filesize  : 32 GiB

Results: 
WARNING: The file "/beegfs/lgouveia/ior_8/testFileApp_1" exists already and will be overwritten

access    bw(MiB/s)  IOPS       Latency(s)  block(KiB) xfer(KiB)  open(s)    wr/rd(s)   close(s)   total(s)   iter
------    ---------  ----       ----------  ---------- ---------  --------   --------   --------   --------   ----
write     2663.93    2664.17    0.020776    524288     1024.00    0.010972   12.30      10.14      12.30      0   

Summary of all tests:
Operation   Max(MiB)   Min(MiB)  Mean(MiB)     StdDev   Max(OPs)   Min(OPs)  Mean(OPs)     StdDev    Mean(s) Stonewall(s) Stonewall(MiB) Test# #Tasks tPN reps fPP reord reordoff reordrand seed segcnt   blksiz    xsize aggs(MiB)   API RefNum
write        2663.93    2663.93    2663.93       0.00    2663.93    2663.93    2663.93       0.00   12.30062         NA            NA     0     64   8    1   0     0        1         0    0      1 536870912  1048576   32768.0 POSIX      0
Finished            : Wed Feb  9 02:48:20 2022
IOR-3.4.0+dev: MPI Coordinated Test of Parallel I/O
Began               : Wed Feb  9 02:49:22 2022
Command line        : /home/lgouveia/ior/bin/ior -w -t 1m -b 512m -k -o /beegfs/lgouveia/ior_8/testFileApp_1
Machine             : Linux bora011.plafrim.cluster
TestID              : 0
StartTime           : Wed Feb  9 02:49:22 2022
Path                : /beegfs/lgouveia/ior_8/testFileApp_1
FS                  : 130.9 TiB   Used FS: 36.9%   Inodes: 0.0 Mi   Used Inodes: -nan%

Options: 
api                 : POSIX
apiVersion          : 
test filename       : /beegfs/lgouveia/ior_8/testFileApp_1
access              : single-shared-file
type                : independent
segments            : 1
ordering in a file  : sequential
ordering inter file : no tasks offsets
nodes               : 8
tasks               : 64
clients per node    : 8
repetitions         : 1
xfersize            : 1 MiB
blocksize           : 512 MiB
aggregate filesize  : 32 GiB

Results: 
WARNING: The file "/beegfs/lgouveia/ior_8/testFileApp_1" exists already and will be overwritten

access    bw(MiB/s)  IOPS       Latency(s)  block(KiB) xfer(KiB)  open(s)    wr/rd(s)   close(s)   total(s)   iter
------    ---------  ----       ----------  ---------- ---------  --------   --------   --------   --------   ----
write     2704.74    2704.99    0.021023    524288     1024.00    0.103096   12.11      9.86       12.12      0   

Summary of all tests:
Operation   Max(MiB)   Min(MiB)  Mean(MiB)     StdDev   Max(OPs)   Min(OPs)  Mean(OPs)     StdDev    Mean(s) Stonewall(s) Stonewall(MiB) Test# #Tasks tPN reps fPP reord reordoff reordrand seed segcnt   blksiz    xsize aggs(MiB)   API RefNum
write        2704.74    2704.74    2704.74       0.00    2704.74    2704.74    2704.74       0.00   12.11505         NA            NA     0     64   8    1   0     0        1         0    0      1 536870912  1048576   32768.0 POSIX      0
Finished            : Wed Feb  9 02:49:34 2022
IOR-3.4.0+dev: MPI Coordinated Test of Parallel I/O
Began               : Wed Feb  9 02:50:35 2022
Command line        : /home/lgouveia/ior/bin/ior -w -t 1m -b 512m -k -o /beegfs/lgouveia/ior_8/testFileApp_1
Machine             : Linux bora011.plafrim.cluster
TestID              : 0
StartTime           : Wed Feb  9 02:50:35 2022
Path                : /beegfs/lgouveia/ior_8/testFileApp_1
FS                  : 130.9 TiB   Used FS: 36.9%   Inodes: 0.0 Mi   Used Inodes: -nan%

Options: 
api                 : POSIX
apiVersion          : 
test filename       : /beegfs/lgouveia/ior_8/testFileApp_1
access              : single-shared-file
type                : independent
segments            : 1
ordering in a file  : sequential
ordering inter file : no tasks offsets
nodes               : 8
tasks               : 64
clients per node    : 8
repetitions         : 1
xfersize            : 1 MiB
blocksize           : 512 MiB
aggregate filesize  : 32 GiB

Results: 
WARNING: The file "/beegfs/lgouveia/ior_8/testFileApp_1" exists already and will be overwritten

access    bw(MiB/s)  IOPS       Latency(s)  block(KiB) xfer(KiB)  open(s)    wr/rd(s)   close(s)   total(s)   iter
------    ---------  ----       ----------  ---------- ---------  --------   --------   --------   --------   ----
write     2521.74    2521.94    0.016802    524288     1024.00    0.383643   12.99      10.83      12.99      0   

Summary of all tests:
Operation   Max(MiB)   Min(MiB)  Mean(MiB)     StdDev   Max(OPs)   Min(OPs)  Mean(OPs)     StdDev    Mean(s) Stonewall(s) Stonewall(MiB) Test# #Tasks tPN reps fPP reord reordoff reordrand seed segcnt   blksiz    xsize aggs(MiB)   API RefNum
write        2521.74    2521.74    2521.74       0.00    2521.74    2521.74    2521.74       0.00   12.99422         NA            NA     0     64   8    1   0     0        1         0    0      1 536870912  1048576   32768.0 POSIX      0
Finished            : Wed Feb  9 02:50:48 2022
IOR-3.4.0+dev: MPI Coordinated Test of Parallel I/O
Began               : Wed Feb  9 02:51:49 2022
Command line        : /home/lgouveia/ior/bin/ior -w -t 1m -b 512m -k -o /beegfs/lgouveia/ior_8/testFileApp_1
Machine             : Linux bora011.plafrim.cluster
TestID              : 0
StartTime           : Wed Feb  9 02:51:49 2022
Path                : /beegfs/lgouveia/ior_8/testFileApp_1
FS                  : 130.9 TiB   Used FS: 36.9%   Inodes: 0.0 Mi   Used Inodes: -nan%

Options: 
api                 : POSIX
apiVersion          : 
test filename       : /beegfs/lgouveia/ior_8/testFileApp_1
access              : single-shared-file
type                : independent
segments            : 1
ordering in a file  : sequential
ordering inter file : no tasks offsets
nodes               : 8
tasks               : 64
clients per node    : 8
repetitions         : 1
xfersize            : 1 MiB
blocksize           : 512 MiB
aggregate filesize  : 32 GiB

Results: 
WARNING: The file "/beegfs/lgouveia/ior_8/testFileApp_1" exists already and will be overwritten

access    bw(MiB/s)  IOPS       Latency(s)  block(KiB) xfer(KiB)  open(s)    wr/rd(s)   close(s)   total(s)   iter
------    ---------  ----       ----------  ---------- ---------  --------   --------   --------   --------   ----
write     2759.09    2759.29    0.021845    524288     1024.00    0.020782   11.88      9.50       11.88      0   

Summary of all tests:
Operation   Max(MiB)   Min(MiB)  Mean(MiB)     StdDev   Max(OPs)   Min(OPs)  Mean(OPs)     StdDev    Mean(s) Stonewall(s) Stonewall(MiB) Test# #Tasks tPN reps fPP reord reordoff reordrand seed segcnt   blksiz    xsize aggs(MiB)   API RefNum
write        2759.09    2759.09    2759.09       0.00    2759.09    2759.09    2759.09       0.00   11.87639         NA            NA     0     64   8    1   0     0        1         0    0      1 536870912  1048576   32768.0 POSIX      0
Finished            : Wed Feb  9 02:52:01 2022
IOR-3.4.0+dev: MPI Coordinated Test of Parallel I/O
Began               : Wed Feb  9 02:53:02 2022
Command line        : /home/lgouveia/ior/bin/ior -w -t 1m -b 512m -k -o /beegfs/lgouveia/ior_8/testFileApp_1
Machine             : Linux bora011.plafrim.cluster
TestID              : 0
StartTime           : Wed Feb  9 02:53:02 2022
Path                : /beegfs/lgouveia/ior_8/testFileApp_1
FS                  : 130.9 TiB   Used FS: 36.9%   Inodes: 0.0 Mi   Used Inodes: -nan%

Options: 
api                 : POSIX
apiVersion          : 
test filename       : /beegfs/lgouveia/ior_8/testFileApp_1
access              : single-shared-file
type                : independent
segments            : 1
ordering in a file  : sequential
ordering inter file : no tasks offsets
nodes               : 8
tasks               : 64
clients per node    : 8
repetitions         : 1
xfersize            : 1 MiB
blocksize           : 512 MiB
aggregate filesize  : 32 GiB

Results: 
WARNING: The file "/beegfs/lgouveia/ior_8/testFileApp_1" exists already and will be overwritten

access    bw(MiB/s)  IOPS       Latency(s)  block(KiB) xfer(KiB)  open(s)    wr/rd(s)   close(s)   total(s)   iter
------    ---------  ----       ----------  ---------- ---------  --------   --------   --------   --------   ----
write     2685.87    2686.11    0.018400    524288     1024.00    0.176721   12.20      9.93       12.20      0   

Summary of all tests:
Operation   Max(MiB)   Min(MiB)  Mean(MiB)     StdDev   Max(OPs)   Min(OPs)  Mean(OPs)     StdDev    Mean(s) Stonewall(s) Stonewall(MiB) Test# #Tasks tPN reps fPP reord reordoff reordrand seed segcnt   blksiz    xsize aggs(MiB)   API RefNum
write        2685.87    2685.87    2685.87       0.00    2685.87    2685.87    2685.87       0.00   12.20016         NA            NA     0     64   8    1   0     0        1         0    0      1 536870912  1048576   32768.0 POSIX      0
Finished            : Wed Feb  9 02:53:15 2022
IOR-3.4.0+dev: MPI Coordinated Test of Parallel I/O
Began               : Wed Feb  9 02:54:16 2022
Command line        : /home/lgouveia/ior/bin/ior -w -t 1m -b 512m -k -o /beegfs/lgouveia/ior_8/testFileApp_1
Machine             : Linux bora011.plafrim.cluster
TestID              : 0
StartTime           : Wed Feb  9 02:54:16 2022
Path                : /beegfs/lgouveia/ior_8/testFileApp_1
FS                  : 130.9 TiB   Used FS: 36.9%   Inodes: 0.0 Mi   Used Inodes: -nan%

Options: 
api                 : POSIX
apiVersion          : 
test filename       : /beegfs/lgouveia/ior_8/testFileApp_1
access              : single-shared-file
type                : independent
segments            : 1
ordering in a file  : sequential
ordering inter file : no tasks offsets
nodes               : 8
tasks               : 64
clients per node    : 8
repetitions         : 1
xfersize            : 1 MiB
blocksize           : 512 MiB
aggregate filesize  : 32 GiB

Results: 
WARNING: The file "/beegfs/lgouveia/ior_8/testFileApp_1" exists already and will be overwritten

access    bw(MiB/s)  IOPS       Latency(s)  block(KiB) xfer(KiB)  open(s)    wr/rd(s)   close(s)   total(s)   iter
------    ---------  ----       ----------  ---------- ---------  --------   --------   --------   --------   ----
write     2644.13    2644.41    0.021162    524288     1024.00    0.372350   12.39      9.91       12.39      0   

Summary of all tests:
Operation   Max(MiB)   Min(MiB)  Mean(MiB)     StdDev   Max(OPs)   Min(OPs)  Mean(OPs)     StdDev    Mean(s) Stonewall(s) Stonewall(MiB) Test# #Tasks tPN reps fPP reord reordoff reordrand seed segcnt   blksiz    xsize aggs(MiB)   API RefNum
write        2644.13    2644.13    2644.13       0.00    2644.13    2644.13    2644.13       0.00   12.39272         NA            NA     0     64   8    1   0     0        1         0    0      1 536870912  1048576   32768.0 POSIX      0
Finished            : Wed Feb  9 02:54:28 2022
