===== My JOB Information ====
Node List:  miriel[011-015,018-019,028-031,033-037]
my jobID:  1474123
Partition: routage
submit directory:  /home/lgouveia/luan-teylo/tests/ethernet/scalability_model/compute_nodes/4_targets/16
submit host:  devel02.plafrim.cluster
In the directory: /home/lgouveia/luan-teylo/tests/ethernet/scalability_model/compute_nodes/4_targets/16
As the user: lgouveia
============================
IOR-3.4.0+dev: MPI Coordinated Test of Parallel I/O
Began               : Tue Feb  1 09:52:57 2022
Command line        : /home/lgouveia/ior/bin/ior -w -t 1m -b 256m -k -o /beegfs/lgouveia/ior_4/testFile1
Machine             : Linux miriel011.plafrim.cluster
TestID              : 0
StartTime           : Tue Feb  1 09:52:57 2022
Path                : /beegfs/lgouveia/ior_4/testFile1
FS                  : 130.9 TiB   Used FS: 36.9%   Inodes: 0.0 Mi   Used Inodes: -nan%

Options: 
api                 : POSIX
apiVersion          : 
test filename       : /beegfs/lgouveia/ior_4/testFile1
access              : single-shared-file
type                : independent
segments            : 1
ordering in a file  : sequential
ordering inter file : no tasks offsets
nodes               : 16
tasks               : 128
clients per node    : 8
repetitions         : 1
xfersize            : 1 MiB
blocksize           : 256 MiB
aggregate filesize  : 32 GiB

Results: 
WARNING: The file "/beegfs/lgouveia/ior_4/testFile1" exists already and will be overwritten

access    bw(MiB/s)  IOPS       Latency(s)  block(KiB) xfer(KiB)  open(s)    wr/rd(s)   close(s)   total(s)   iter
------    ---------  ----       ----------  ---------- ---------  --------   --------   --------   --------   ----
write     1447.83    1447.92    0.078806    262144     1024.00    0.262466   22.63      19.55      22.63      0   

Summary of all tests:
Operation   Max(MiB)   Min(MiB)  Mean(MiB)     StdDev   Max(OPs)   Min(OPs)  Mean(OPs)     StdDev    Mean(s) Stonewall(s) Stonewall(MiB) Test# #Tasks tPN reps fPP reord reordoff reordrand seed segcnt   blksiz    xsize aggs(MiB)   API RefNum
write        1447.83    1447.83    1447.83       0.00    1447.83    1447.83    1447.83       0.00   22.63245         NA            NA     0    128   8    1   0     0        1         0    0      1 268435456  1048576   32768.0 POSIX      0
Finished            : Tue Feb  1 09:53:20 2022
Tracking /beegfs/lgouveia/ior_4/testFile1...



Writing tracked information to tracker.csv...
IOR-3.4.0+dev: MPI Coordinated Test of Parallel I/O
Began               : Tue Feb  1 09:54:21 2022
Command line        : /home/lgouveia/ior/bin/ior -w -t 1m -b 256m -k -o /beegfs/lgouveia/ior_4/testFile1
Machine             : Linux miriel011.plafrim.cluster
TestID              : 0
StartTime           : Tue Feb  1 09:54:21 2022
Path                : /beegfs/lgouveia/ior_4/testFile1
FS                  : 130.9 TiB   Used FS: 36.9%   Inodes: 0.0 Mi   Used Inodes: -nan%

Options: 
api                 : POSIX
apiVersion          : 
test filename       : /beegfs/lgouveia/ior_4/testFile1
access              : single-shared-file
type                : independent
segments            : 1
ordering in a file  : sequential
ordering inter file : no tasks offsets
nodes               : 16
tasks               : 128
clients per node    : 8
repetitions         : 1
xfersize            : 1 MiB
blocksize           : 256 MiB
aggregate filesize  : 32 GiB

Results: 
WARNING: The file "/beegfs/lgouveia/ior_4/testFile1" exists already and will be overwritten

access    bw(MiB/s)  IOPS       Latency(s)  block(KiB) xfer(KiB)  open(s)    wr/rd(s)   close(s)   total(s)   iter
------    ---------  ----       ----------  ---------- ---------  --------   --------   --------   --------   ----
write     1476.39    1476.46    0.085515    262144     1024.00    0.198374   22.19      19.32      22.19      0   

Summary of all tests:
Operation   Max(MiB)   Min(MiB)  Mean(MiB)     StdDev   Max(OPs)   Min(OPs)  Mean(OPs)     StdDev    Mean(s) Stonewall(s) Stonewall(MiB) Test# #Tasks tPN reps fPP reord reordoff reordrand seed segcnt   blksiz    xsize aggs(MiB)   API RefNum
write        1476.39    1476.39    1476.39       0.00    1476.39    1476.39    1476.39       0.00   22.19467         NA            NA     0    128   8    1   0     0        1         0    0      1 268435456  1048576   32768.0 POSIX      0
Finished            : Tue Feb  1 09:54:44 2022
Tracking /beegfs/lgouveia/ior_4/testFile1...



Writing tracked information to tracker.csv...
IOR-3.4.0+dev: MPI Coordinated Test of Parallel I/O
Began               : Tue Feb  1 09:55:45 2022
Command line        : /home/lgouveia/ior/bin/ior -w -t 1m -b 256m -k -o /beegfs/lgouveia/ior_4/testFile1
Machine             : Linux miriel011.plafrim.cluster
TestID              : 0
StartTime           : Tue Feb  1 09:55:45 2022
Path                : /beegfs/lgouveia/ior_4/testFile1
FS                  : 130.9 TiB   Used FS: 36.9%   Inodes: 0.0 Mi   Used Inodes: -nan%

Options: 
api                 : POSIX
apiVersion          : 
test filename       : /beegfs/lgouveia/ior_4/testFile1
access              : single-shared-file
type                : independent
segments            : 1
ordering in a file  : sequential
ordering inter file : no tasks offsets
nodes               : 16
tasks               : 128
clients per node    : 8
repetitions         : 1
xfersize            : 1 MiB
blocksize           : 256 MiB
aggregate filesize  : 32 GiB

Results: 
WARNING: The file "/beegfs/lgouveia/ior_4/testFile1" exists already and will be overwritten

access    bw(MiB/s)  IOPS       Latency(s)  block(KiB) xfer(KiB)  open(s)    wr/rd(s)   close(s)   total(s)   iter
------    ---------  ----       ----------  ---------- ---------  --------   --------   --------   --------   ----
write     1465.33    1465.40    0.087334    262144     1024.00    0.122953   22.36      19.48      22.36      0   

Summary of all tests:
Operation   Max(MiB)   Min(MiB)  Mean(MiB)     StdDev   Max(OPs)   Min(OPs)  Mean(OPs)     StdDev    Mean(s) Stonewall(s) Stonewall(MiB) Test# #Tasks tPN reps fPP reord reordoff reordrand seed segcnt   blksiz    xsize aggs(MiB)   API RefNum
write        1465.33    1465.33    1465.33       0.00    1465.33    1465.33    1465.33       0.00   22.36221         NA            NA     0    128   8    1   0     0        1         0    0      1 268435456  1048576   32768.0 POSIX      0
Finished            : Tue Feb  1 09:56:07 2022
Tracking /beegfs/lgouveia/ior_4/testFile1...



Writing tracked information to tracker.csv...
IOR-3.4.0+dev: MPI Coordinated Test of Parallel I/O
Began               : Tue Feb  1 09:57:08 2022
Command line        : /home/lgouveia/ior/bin/ior -w -t 1m -b 256m -k -o /beegfs/lgouveia/ior_4/testFile1
Machine             : Linux miriel011.plafrim.cluster
TestID              : 0
StartTime           : Tue Feb  1 09:57:08 2022
Path                : /beegfs/lgouveia/ior_4/testFile1
FS                  : 130.9 TiB   Used FS: 36.9%   Inodes: 0.0 Mi   Used Inodes: -nan%

Options: 
api                 : POSIX
apiVersion          : 
test filename       : /beegfs/lgouveia/ior_4/testFile1
access              : single-shared-file
type                : independent
segments            : 1
ordering in a file  : sequential
ordering inter file : no tasks offsets
nodes               : 16
tasks               : 128
clients per node    : 8
repetitions         : 1
xfersize            : 1 MiB
blocksize           : 256 MiB
aggregate filesize  : 32 GiB

Results: 
WARNING: The file "/beegfs/lgouveia/ior_4/testFile1" exists already and will be overwritten

access    bw(MiB/s)  IOPS       Latency(s)  block(KiB) xfer(KiB)  open(s)    wr/rd(s)   close(s)   total(s)   iter
------    ---------  ----       ----------  ---------- ---------  --------   --------   --------   --------   ----
write     1457.65    1457.71    0.054842    262144     1024.00    0.210338   22.48      19.46      22.48      0   

Summary of all tests:
Operation   Max(MiB)   Min(MiB)  Mean(MiB)     StdDev   Max(OPs)   Min(OPs)  Mean(OPs)     StdDev    Mean(s) Stonewall(s) Stonewall(MiB) Test# #Tasks tPN reps fPP reord reordoff reordrand seed segcnt   blksiz    xsize aggs(MiB)   API RefNum
write        1457.65    1457.65    1457.65       0.00    1457.65    1457.65    1457.65       0.00   22.48003         NA            NA     0    128   8    1   0     0        1         0    0      1 268435456  1048576   32768.0 POSIX      0
Finished            : Tue Feb  1 09:57:31 2022
Tracking /beegfs/lgouveia/ior_4/testFile1...



Writing tracked information to tracker.csv...
IOR-3.4.0+dev: MPI Coordinated Test of Parallel I/O
Began               : Tue Feb  1 09:58:32 2022
Command line        : /home/lgouveia/ior/bin/ior -w -t 1m -b 256m -k -o /beegfs/lgouveia/ior_4/testFile1
Machine             : Linux miriel011.plafrim.cluster
TestID              : 0
StartTime           : Tue Feb  1 09:58:32 2022
Path                : /beegfs/lgouveia/ior_4/testFile1
FS                  : 130.9 TiB   Used FS: 36.9%   Inodes: 0.0 Mi   Used Inodes: -nan%

Options: 
api                 : POSIX
apiVersion          : 
test filename       : /beegfs/lgouveia/ior_4/testFile1
access              : single-shared-file
type                : independent
segments            : 1
ordering in a file  : sequential
ordering inter file : no tasks offsets
nodes               : 16
tasks               : 128
clients per node    : 8
repetitions         : 1
xfersize            : 1 MiB
blocksize           : 256 MiB
aggregate filesize  : 32 GiB

Results: 
WARNING: The file "/beegfs/lgouveia/ior_4/testFile1" exists already and will be overwritten

access    bw(MiB/s)  IOPS       Latency(s)  block(KiB) xfer(KiB)  open(s)    wr/rd(s)   close(s)   total(s)   iter
------    ---------  ----       ----------  ---------- ---------  --------   --------   --------   --------   ----
write     1455.09    1455.18    0.087513    262144     1024.00    0.163295   22.52      19.50      22.52      0   

Summary of all tests:
Operation   Max(MiB)   Min(MiB)  Mean(MiB)     StdDev   Max(OPs)   Min(OPs)  Mean(OPs)     StdDev    Mean(s) Stonewall(s) Stonewall(MiB) Test# #Tasks tPN reps fPP reord reordoff reordrand seed segcnt   blksiz    xsize aggs(MiB)   API RefNum
write        1455.09    1455.09    1455.09       0.00    1455.09    1455.09    1455.09       0.00   22.51955         NA            NA     0    128   8    1   0     0        1         0    0      1 268435456  1048576   32768.0 POSIX      0
Finished            : Tue Feb  1 09:58:55 2022
Tracking /beegfs/lgouveia/ior_4/testFile1...



Writing tracked information to tracker.csv...
IOR-3.4.0+dev: MPI Coordinated Test of Parallel I/O
Began               : Tue Feb  1 09:59:56 2022
Command line        : /home/lgouveia/ior/bin/ior -w -t 1m -b 256m -k -o /beegfs/lgouveia/ior_4/testFile1
Machine             : Linux miriel011.plafrim.cluster
TestID              : 0
StartTime           : Tue Feb  1 09:59:56 2022
Path                : /beegfs/lgouveia/ior_4/testFile1
FS                  : 130.9 TiB   Used FS: 36.9%   Inodes: 0.0 Mi   Used Inodes: -nan%

Options: 
api                 : POSIX
apiVersion          : 
test filename       : /beegfs/lgouveia/ior_4/testFile1
access              : single-shared-file
type                : independent
segments            : 1
ordering in a file  : sequential
ordering inter file : no tasks offsets
nodes               : 16
tasks               : 128
clients per node    : 8
repetitions         : 1
xfersize            : 1 MiB
blocksize           : 256 MiB
aggregate filesize  : 32 GiB

Results: 
WARNING: The file "/beegfs/lgouveia/ior_4/testFile1" exists already and will be overwritten

access    bw(MiB/s)  IOPS       Latency(s)  block(KiB) xfer(KiB)  open(s)    wr/rd(s)   close(s)   total(s)   iter
------    ---------  ----       ----------  ---------- ---------  --------   --------   --------   --------   ----
write     1453.28    1453.36    0.012180    262144     1024.00    0.366337   22.55      19.58      22.55      0   

Summary of all tests:
Operation   Max(MiB)   Min(MiB)  Mean(MiB)     StdDev   Max(OPs)   Min(OPs)  Mean(OPs)     StdDev    Mean(s) Stonewall(s) Stonewall(MiB) Test# #Tasks tPN reps fPP reord reordoff reordrand seed segcnt   blksiz    xsize aggs(MiB)   API RefNum
write        1453.28    1453.28    1453.28       0.00    1453.28    1453.28    1453.28       0.00   22.54764         NA            NA     0    128   8    1   0     0        1         0    0      1 268435456  1048576   32768.0 POSIX      0
Finished            : Tue Feb  1 10:00:18 2022
Tracking /beegfs/lgouveia/ior_4/testFile1...



Writing tracked information to tracker.csv...
IOR-3.4.0+dev: MPI Coordinated Test of Parallel I/O
Began               : Tue Feb  1 10:01:20 2022
Command line        : /home/lgouveia/ior/bin/ior -w -t 1m -b 256m -k -o /beegfs/lgouveia/ior_4/testFile1
Machine             : Linux miriel011.plafrim.cluster
TestID              : 0
StartTime           : Tue Feb  1 10:01:20 2022
Path                : /beegfs/lgouveia/ior_4/testFile1
FS                  : 130.9 TiB   Used FS: 36.9%   Inodes: 0.0 Mi   Used Inodes: -nan%

Options: 
api                 : POSIX
apiVersion          : 
test filename       : /beegfs/lgouveia/ior_4/testFile1
access              : single-shared-file
type                : independent
segments            : 1
ordering in a file  : sequential
ordering inter file : no tasks offsets
nodes               : 16
tasks               : 128
clients per node    : 8
repetitions         : 1
xfersize            : 1 MiB
blocksize           : 256 MiB
aggregate filesize  : 32 GiB

Results: 
WARNING: The file "/beegfs/lgouveia/ior_4/testFile1" exists already and will be overwritten

access    bw(MiB/s)  IOPS       Latency(s)  block(KiB) xfer(KiB)  open(s)    wr/rd(s)   close(s)   total(s)   iter
------    ---------  ----       ----------  ---------- ---------  --------   --------   --------   --------   ----
write     1464.68    1464.75    0.070501    262144     1024.00    0.336340   22.37      19.37      22.37      0   

Summary of all tests:
Operation   Max(MiB)   Min(MiB)  Mean(MiB)     StdDev   Max(OPs)   Min(OPs)  Mean(OPs)     StdDev    Mean(s) Stonewall(s) Stonewall(MiB) Test# #Tasks tPN reps fPP reord reordoff reordrand seed segcnt   blksiz    xsize aggs(MiB)   API RefNum
write        1464.68    1464.68    1464.68       0.00    1464.68    1464.68    1464.68       0.00   22.37207         NA            NA     0    128   8    1   0     0        1         0    0      1 268435456  1048576   32768.0 POSIX      0
Finished            : Tue Feb  1 10:01:42 2022
Tracking /beegfs/lgouveia/ior_4/testFile1...



Writing tracked information to tracker.csv...
IOR-3.4.0+dev: MPI Coordinated Test of Parallel I/O
Began               : Tue Feb  1 10:02:43 2022
Command line        : /home/lgouveia/ior/bin/ior -w -t 1m -b 256m -k -o /beegfs/lgouveia/ior_4/testFile1
Machine             : Linux miriel011.plafrim.cluster
TestID              : 0
StartTime           : Tue Feb  1 10:02:43 2022
Path                : /beegfs/lgouveia/ior_4/testFile1
FS                  : 130.9 TiB   Used FS: 36.9%   Inodes: 0.0 Mi   Used Inodes: -nan%

Options: 
api                 : POSIX
apiVersion          : 
test filename       : /beegfs/lgouveia/ior_4/testFile1
access              : single-shared-file
type                : independent
segments            : 1
ordering in a file  : sequential
ordering inter file : no tasks offsets
nodes               : 16
tasks               : 128
clients per node    : 8
repetitions         : 1
xfersize            : 1 MiB
blocksize           : 256 MiB
aggregate filesize  : 32 GiB

Results: 
WARNING: The file "/beegfs/lgouveia/ior_4/testFile1" exists already and will be overwritten

access    bw(MiB/s)  IOPS       Latency(s)  block(KiB) xfer(KiB)  open(s)    wr/rd(s)   close(s)   total(s)   iter
------    ---------  ----       ----------  ---------- ---------  --------   --------   --------   --------   ----
write     1464.21    1464.28    0.054691    262144     1024.00    0.213172   22.38      19.55      22.38      0   

Summary of all tests:
Operation   Max(MiB)   Min(MiB)  Mean(MiB)     StdDev   Max(OPs)   Min(OPs)  Mean(OPs)     StdDev    Mean(s) Stonewall(s) Stonewall(MiB) Test# #Tasks tPN reps fPP reord reordoff reordrand seed segcnt   blksiz    xsize aggs(MiB)   API RefNum
write        1464.21    1464.21    1464.21       0.00    1464.21    1464.21    1464.21       0.00   22.37934         NA            NA     0    128   8    1   0     0        1         0    0      1 268435456  1048576   32768.0 POSIX      0
Finished            : Tue Feb  1 10:03:06 2022
Tracking /beegfs/lgouveia/ior_4/testFile1...



Writing tracked information to tracker.csv...
IOR-3.4.0+dev: MPI Coordinated Test of Parallel I/O
Began               : Tue Feb  1 10:04:07 2022
Command line        : /home/lgouveia/ior/bin/ior -w -t 1m -b 256m -k -o /beegfs/lgouveia/ior_4/testFile1
Machine             : Linux miriel011.plafrim.cluster
TestID              : 0
StartTime           : Tue Feb  1 10:04:07 2022
Path                : /beegfs/lgouveia/ior_4/testFile1
FS                  : 130.9 TiB   Used FS: 36.9%   Inodes: 0.0 Mi   Used Inodes: -nan%

Options: 
api                 : POSIX
apiVersion          : 
test filename       : /beegfs/lgouveia/ior_4/testFile1
access              : single-shared-file
type                : independent
segments            : 1
ordering in a file  : sequential
ordering inter file : no tasks offsets
nodes               : 16
tasks               : 128
clients per node    : 8
repetitions         : 1
xfersize            : 1 MiB
blocksize           : 256 MiB
aggregate filesize  : 32 GiB

Results: 
WARNING: The file "/beegfs/lgouveia/ior_4/testFile1" exists already and will be overwritten

access    bw(MiB/s)  IOPS       Latency(s)  block(KiB) xfer(KiB)  open(s)    wr/rd(s)   close(s)   total(s)   iter
------    ---------  ----       ----------  ---------- ---------  --------   --------   --------   --------   ----
write     1466.80    1466.84    0.055135    262144     1024.00    0.345972   22.34      19.35      22.34      0   

Summary of all tests:
Operation   Max(MiB)   Min(MiB)  Mean(MiB)     StdDev   Max(OPs)   Min(OPs)  Mean(OPs)     StdDev    Mean(s) Stonewall(s) Stonewall(MiB) Test# #Tasks tPN reps fPP reord reordoff reordrand seed segcnt   blksiz    xsize aggs(MiB)   API RefNum
write        1466.80    1466.80    1466.80       0.00    1466.80    1466.80    1466.80       0.00   22.33978         NA            NA     0    128   8    1   0     0        1         0    0      1 268435456  1048576   32768.0 POSIX      0
Finished            : Tue Feb  1 10:04:29 2022
Tracking /beegfs/lgouveia/ior_4/testFile1...



Writing tracked information to tracker.csv...
IOR-3.4.0+dev: MPI Coordinated Test of Parallel I/O
Began               : Tue Feb  1 10:05:30 2022
Command line        : /home/lgouveia/ior/bin/ior -w -t 1m -b 256m -k -o /beegfs/lgouveia/ior_4/testFile1
Machine             : Linux miriel011.plafrim.cluster
TestID              : 0
StartTime           : Tue Feb  1 10:05:30 2022
Path                : /beegfs/lgouveia/ior_4/testFile1
FS                  : 130.9 TiB   Used FS: 36.9%   Inodes: 0.0 Mi   Used Inodes: -nan%

Options: 
api                 : POSIX
apiVersion          : 
test filename       : /beegfs/lgouveia/ior_4/testFile1
access              : single-shared-file
type                : independent
segments            : 1
ordering in a file  : sequential
ordering inter file : no tasks offsets
nodes               : 16
tasks               : 128
clients per node    : 8
repetitions         : 1
xfersize            : 1 MiB
blocksize           : 256 MiB
aggregate filesize  : 32 GiB

Results: 
WARNING: The file "/beegfs/lgouveia/ior_4/testFile1" exists already and will be overwritten

access    bw(MiB/s)  IOPS       Latency(s)  block(KiB) xfer(KiB)  open(s)    wr/rd(s)   close(s)   total(s)   iter
------    ---------  ----       ----------  ---------- ---------  --------   --------   --------   --------   ----
write     1461.06    1461.13    0.076581    262144     1024.00    0.343953   22.43      19.42      22.43      0   

Summary of all tests:
Operation   Max(MiB)   Min(MiB)  Mean(MiB)     StdDev   Max(OPs)   Min(OPs)  Mean(OPs)     StdDev    Mean(s) Stonewall(s) Stonewall(MiB) Test# #Tasks tPN reps fPP reord reordoff reordrand seed segcnt   blksiz    xsize aggs(MiB)   API RefNum
write        1461.06    1461.06    1461.06       0.00    1461.06    1461.06    1461.06       0.00   22.42753         NA            NA     0    128   8    1   0     0        1         0    0      1 268435456  1048576   32768.0 POSIX      0
Finished            : Tue Feb  1 10:05:53 2022
Tracking /beegfs/lgouveia/ior_4/testFile1...



Writing tracked information to tracker.csv...
