===== My JOB Information ====
Node List:  bora[001-002]
my jobID:  1472538
Partition: routage
submit directory:  /home/lgouveia/luan-teylo/tests/omnipath/compute_nodes/1_target/02
submit host:  devel02.plafrim.cluster
In the directory: /home/lgouveia/luan-teylo/tests/omnipath/compute_nodes/1_target/02
As the user: lgouveia
============================
IOR-3.4.0+dev: MPI Coordinated Test of Parallel I/O
Began               : Sat Jan 22 07:22:31 2022
Command line        : /home/lgouveia/ior/bin/ior -w -t 1m -b 2048m -k -o /beegfs/lgouveia/ior_1/testFile1
Machine             : Linux bora001.plafrim.cluster
TestID              : 0
StartTime           : Sat Jan 22 07:22:31 2022
Path                : /beegfs/lgouveia/ior_1/testFile1
FS                  : 130.9 TiB   Used FS: 36.6%   Inodes: 0.0 Mi   Used Inodes: -nan%

Options: 
api                 : POSIX
apiVersion          : 
test filename       : /beegfs/lgouveia/ior_1/testFile1
access              : single-shared-file
type                : independent
segments            : 1
ordering in a file  : sequential
ordering inter file : no tasks offsets
nodes               : 2
tasks               : 16
clients per node    : 8
repetitions         : 1
xfersize            : 1 MiB
blocksize           : 2 GiB
aggregate filesize  : 32 GiB

Results: 
WARNING: The file "/beegfs/lgouveia/ior_1/testFile1" exists already and will be overwritten

access    bw(MiB/s)  IOPS       Latency(s)  block(KiB) xfer(KiB)  open(s)    wr/rd(s)   close(s)   total(s)   iter
------    ---------  ----       ----------  ---------- ---------  --------   --------   --------   --------   ----
write     1794.37    1794.46    0.008259    2097152    1024.00    0.003114   18.26      10.41      18.26      0   

Summary of all tests:
Operation   Max(MiB)   Min(MiB)  Mean(MiB)     StdDev   Max(OPs)   Min(OPs)  Mean(OPs)     StdDev    Mean(s) Stonewall(s) Stonewall(MiB) Test# #Tasks tPN reps fPP reord reordoff reordrand seed segcnt   blksiz    xsize aggs(MiB)   API RefNum
write        1794.37    1794.37    1794.37       0.00    1794.37    1794.37    1794.37       0.00   18.26160         NA            NA     0     16   8    1   0     0        1         0    0      1 2147483648  1048576   32768.0 POSIX      0
Finished            : Sat Jan 22 07:22:49 2022
Tracking /beegfs/lgouveia/ior_1/testFile1...



Writing tracked information to tracker.csv...
IOR-3.4.0+dev: MPI Coordinated Test of Parallel I/O
Began               : Sat Jan 22 07:23:51 2022
Command line        : /home/lgouveia/ior/bin/ior -w -t 1m -b 2048m -k -o /beegfs/lgouveia/ior_1/testFile1
Machine             : Linux bora001.plafrim.cluster
TestID              : 0
StartTime           : Sat Jan 22 07:23:51 2022
Path                : /beegfs/lgouveia/ior_1/testFile1
FS                  : 130.9 TiB   Used FS: 36.6%   Inodes: 0.0 Mi   Used Inodes: -nan%

Options: 
api                 : POSIX
apiVersion          : 
test filename       : /beegfs/lgouveia/ior_1/testFile1
access              : single-shared-file
type                : independent
segments            : 1
ordering in a file  : sequential
ordering inter file : no tasks offsets
nodes               : 2
tasks               : 16
clients per node    : 8
repetitions         : 1
xfersize            : 1 MiB
blocksize           : 2 GiB
aggregate filesize  : 32 GiB

Results: 
WARNING: The file "/beegfs/lgouveia/ior_1/testFile1" exists already and will be overwritten

access    bw(MiB/s)  IOPS       Latency(s)  block(KiB) xfer(KiB)  open(s)    wr/rd(s)   close(s)   total(s)   iter
------    ---------  ----       ----------  ---------- ---------  --------   --------   --------   --------   ----
write     1728.64    1728.72    0.008206    2097152    1024.00    0.004514   18.96      10.31      18.96      0   

Summary of all tests:
Operation   Max(MiB)   Min(MiB)  Mean(MiB)     StdDev   Max(OPs)   Min(OPs)  Mean(OPs)     StdDev    Mean(s) Stonewall(s) Stonewall(MiB) Test# #Tasks tPN reps fPP reord reordoff reordrand seed segcnt   blksiz    xsize aggs(MiB)   API RefNum
write        1728.64    1728.64    1728.64       0.00    1728.64    1728.64    1728.64       0.00   18.95593         NA            NA     0     16   8    1   0     0        1         0    0      1 2147483648  1048576   32768.0 POSIX      0
Finished            : Sat Jan 22 07:24:10 2022
Tracking /beegfs/lgouveia/ior_1/testFile1...



Writing tracked information to tracker.csv...
IOR-3.4.0+dev: MPI Coordinated Test of Parallel I/O
Began               : Sat Jan 22 07:25:10 2022
Command line        : /home/lgouveia/ior/bin/ior -w -t 1m -b 2048m -k -o /beegfs/lgouveia/ior_1/testFile1
Machine             : Linux bora001.plafrim.cluster
TestID              : 0
StartTime           : Sat Jan 22 07:25:10 2022
Path                : /beegfs/lgouveia/ior_1/testFile1
FS                  : 130.9 TiB   Used FS: 36.6%   Inodes: 0.0 Mi   Used Inodes: -nan%

Options: 
api                 : POSIX
apiVersion          : 
test filename       : /beegfs/lgouveia/ior_1/testFile1
access              : single-shared-file
type                : independent
segments            : 1
ordering in a file  : sequential
ordering inter file : no tasks offsets
nodes               : 2
tasks               : 16
clients per node    : 8
repetitions         : 1
xfersize            : 1 MiB
blocksize           : 2 GiB
aggregate filesize  : 32 GiB

Results: 
WARNING: The file "/beegfs/lgouveia/ior_1/testFile1" exists already and will be overwritten

access    bw(MiB/s)  IOPS       Latency(s)  block(KiB) xfer(KiB)  open(s)    wr/rd(s)   close(s)   total(s)   iter
------    ---------  ----       ----------  ---------- ---------  --------   --------   --------   --------   ----
write     1740.57    1740.67    0.006791    2097152    1024.00    0.004522   18.82      9.78       18.83      0   

Summary of all tests:
Operation   Max(MiB)   Min(MiB)  Mean(MiB)     StdDev   Max(OPs)   Min(OPs)  Mean(OPs)     StdDev    Mean(s) Stonewall(s) Stonewall(MiB) Test# #Tasks tPN reps fPP reord reordoff reordrand seed segcnt   blksiz    xsize aggs(MiB)   API RefNum
write        1740.57    1740.57    1740.57       0.00    1740.57    1740.57    1740.57       0.00   18.82602         NA            NA     0     16   8    1   0     0        1         0    0      1 2147483648  1048576   32768.0 POSIX      0
Finished            : Sat Jan 22 07:25:29 2022
Tracking /beegfs/lgouveia/ior_1/testFile1...



Writing tracked information to tracker.csv...
IOR-3.4.0+dev: MPI Coordinated Test of Parallel I/O
Began               : Sat Jan 22 07:26:30 2022
Command line        : /home/lgouveia/ior/bin/ior -w -t 1m -b 2048m -k -o /beegfs/lgouveia/ior_1/testFile1
Machine             : Linux bora001.plafrim.cluster
TestID              : 0
StartTime           : Sat Jan 22 07:26:30 2022
Path                : /beegfs/lgouveia/ior_1/testFile1
FS                  : 130.9 TiB   Used FS: 36.6%   Inodes: 0.0 Mi   Used Inodes: -nan%

Options: 
api                 : POSIX
apiVersion          : 
test filename       : /beegfs/lgouveia/ior_1/testFile1
access              : single-shared-file
type                : independent
segments            : 1
ordering in a file  : sequential
ordering inter file : no tasks offsets
nodes               : 2
tasks               : 16
clients per node    : 8
repetitions         : 1
xfersize            : 1 MiB
blocksize           : 2 GiB
aggregate filesize  : 32 GiB

Results: 
WARNING: The file "/beegfs/lgouveia/ior_1/testFile1" exists already and will be overwritten

access    bw(MiB/s)  IOPS       Latency(s)  block(KiB) xfer(KiB)  open(s)    wr/rd(s)   close(s)   total(s)   iter
------    ---------  ----       ----------  ---------- ---------  --------   --------   --------   --------   ----
write     1738.03    1738.13    0.009024    2097152    1024.00    0.003944   18.85      10.94      18.85      0   

Summary of all tests:
Operation   Max(MiB)   Min(MiB)  Mean(MiB)     StdDev   Max(OPs)   Min(OPs)  Mean(OPs)     StdDev    Mean(s) Stonewall(s) Stonewall(MiB) Test# #Tasks tPN reps fPP reord reordoff reordrand seed segcnt   blksiz    xsize aggs(MiB)   API RefNum
write        1738.03    1738.03    1738.03       0.00    1738.03    1738.03    1738.03       0.00   18.85348         NA            NA     0     16   8    1   0     0        1         0    0      1 2147483648  1048576   32768.0 POSIX      0
Finished            : Sat Jan 22 07:26:49 2022
Tracking /beegfs/lgouveia/ior_1/testFile1...



Writing tracked information to tracker.csv...
IOR-3.4.0+dev: MPI Coordinated Test of Parallel I/O
Began               : Sat Jan 22 07:27:50 2022
Command line        : /home/lgouveia/ior/bin/ior -w -t 1m -b 2048m -k -o /beegfs/lgouveia/ior_1/testFile1
Machine             : Linux bora001.plafrim.cluster
TestID              : 0
StartTime           : Sat Jan 22 07:27:50 2022
Path                : /beegfs/lgouveia/ior_1/testFile1
FS                  : 130.9 TiB   Used FS: 36.6%   Inodes: 0.0 Mi   Used Inodes: -nan%

Options: 
api                 : POSIX
apiVersion          : 
test filename       : /beegfs/lgouveia/ior_1/testFile1
access              : single-shared-file
type                : independent
segments            : 1
ordering in a file  : sequential
ordering inter file : no tasks offsets
nodes               : 2
tasks               : 16
clients per node    : 8
repetitions         : 1
xfersize            : 1 MiB
blocksize           : 2 GiB
aggregate filesize  : 32 GiB

Results: 
WARNING: The file "/beegfs/lgouveia/ior_1/testFile1" exists already and will be overwritten

access    bw(MiB/s)  IOPS       Latency(s)  block(KiB) xfer(KiB)  open(s)    wr/rd(s)   close(s)   total(s)   iter
------    ---------  ----       ----------  ---------- ---------  --------   --------   --------   --------   ----
write     1693.08    1693.15    0.006282    2097152    1024.00    0.004246   19.35      9.56       19.35      0   

Summary of all tests:
Operation   Max(MiB)   Min(MiB)  Mean(MiB)     StdDev   Max(OPs)   Min(OPs)  Mean(OPs)     StdDev    Mean(s) Stonewall(s) Stonewall(MiB) Test# #Tasks tPN reps fPP reord reordoff reordrand seed segcnt   blksiz    xsize aggs(MiB)   API RefNum
write        1693.08    1693.08    1693.08       0.00    1693.08    1693.08    1693.08       0.00   19.35406         NA            NA     0     16   8    1   0     0        1         0    0      1 2147483648  1048576   32768.0 POSIX      0
Finished            : Sat Jan 22 07:28:09 2022
Tracking /beegfs/lgouveia/ior_1/testFile1...



Writing tracked information to tracker.csv...
IOR-3.4.0+dev: MPI Coordinated Test of Parallel I/O
Began               : Sat Jan 22 07:29:10 2022
Command line        : /home/lgouveia/ior/bin/ior -w -t 1m -b 2048m -k -o /beegfs/lgouveia/ior_1/testFile1
Machine             : Linux bora001.plafrim.cluster
TestID              : 0
StartTime           : Sat Jan 22 07:29:10 2022
Path                : /beegfs/lgouveia/ior_1/testFile1
FS                  : 130.9 TiB   Used FS: 36.6%   Inodes: 0.0 Mi   Used Inodes: -nan%

Options: 
api                 : POSIX
apiVersion          : 
test filename       : /beegfs/lgouveia/ior_1/testFile1
access              : single-shared-file
type                : independent
segments            : 1
ordering in a file  : sequential
ordering inter file : no tasks offsets
nodes               : 2
tasks               : 16
clients per node    : 8
repetitions         : 1
xfersize            : 1 MiB
blocksize           : 2 GiB
aggregate filesize  : 32 GiB

Results: 
WARNING: The file "/beegfs/lgouveia/ior_1/testFile1" exists already and will be overwritten

access    bw(MiB/s)  IOPS       Latency(s)  block(KiB) xfer(KiB)  open(s)    wr/rd(s)   close(s)   total(s)   iter
------    ---------  ----       ----------  ---------- ---------  --------   --------   --------   --------   ----
write     1679.22    1679.29    0.008723    2097152    1024.00    0.004070   19.51      12.97      19.51      0   

Summary of all tests:
Operation   Max(MiB)   Min(MiB)  Mean(MiB)     StdDev   Max(OPs)   Min(OPs)  Mean(OPs)     StdDev    Mean(s) Stonewall(s) Stonewall(MiB) Test# #Tasks tPN reps fPP reord reordoff reordrand seed segcnt   blksiz    xsize aggs(MiB)   API RefNum
write        1679.22    1679.22    1679.22       0.00    1679.22    1679.22    1679.22       0.00   19.51384         NA            NA     0     16   8    1   0     0        1         0    0      1 2147483648  1048576   32768.0 POSIX      0
Finished            : Sat Jan 22 07:29:30 2022
Tracking /beegfs/lgouveia/ior_1/testFile1...



Writing tracked information to tracker.csv...
IOR-3.4.0+dev: MPI Coordinated Test of Parallel I/O
Began               : Sat Jan 22 07:30:31 2022
Command line        : /home/lgouveia/ior/bin/ior -w -t 1m -b 2048m -k -o /beegfs/lgouveia/ior_1/testFile1
Machine             : Linux bora001.plafrim.cluster
TestID              : 0
StartTime           : Sat Jan 22 07:30:31 2022
Path                : /beegfs/lgouveia/ior_1/testFile1
FS                  : 130.9 TiB   Used FS: 36.6%   Inodes: 0.0 Mi   Used Inodes: -nan%

Options: 
api                 : POSIX
apiVersion          : 
test filename       : /beegfs/lgouveia/ior_1/testFile1
access              : single-shared-file
type                : independent
segments            : 1
ordering in a file  : sequential
ordering inter file : no tasks offsets
nodes               : 2
tasks               : 16
clients per node    : 8
repetitions         : 1
xfersize            : 1 MiB
blocksize           : 2 GiB
aggregate filesize  : 32 GiB

Results: 
WARNING: The file "/beegfs/lgouveia/ior_1/testFile1" exists already and will be overwritten

access    bw(MiB/s)  IOPS       Latency(s)  block(KiB) xfer(KiB)  open(s)    wr/rd(s)   close(s)   total(s)   iter
------    ---------  ----       ----------  ---------- ---------  --------   --------   --------   --------   ----
write     1769.05    1769.15    0.003914    2097152    1024.00    0.004495   18.52      11.30      18.52      0   

Summary of all tests:
Operation   Max(MiB)   Min(MiB)  Mean(MiB)     StdDev   Max(OPs)   Min(OPs)  Mean(OPs)     StdDev    Mean(s) Stonewall(s) Stonewall(MiB) Test# #Tasks tPN reps fPP reord reordoff reordrand seed segcnt   blksiz    xsize aggs(MiB)   API RefNum
write        1769.05    1769.05    1769.05       0.00    1769.05    1769.05    1769.05       0.00   18.52290         NA            NA     0     16   8    1   0     0        1         0    0      1 2147483648  1048576   32768.0 POSIX      0
Finished            : Sat Jan 22 07:30:49 2022
Tracking /beegfs/lgouveia/ior_1/testFile1...



Writing tracked information to tracker.csv...
IOR-3.4.0+dev: MPI Coordinated Test of Parallel I/O
Began               : Sat Jan 22 07:31:50 2022
Command line        : /home/lgouveia/ior/bin/ior -w -t 1m -b 2048m -k -o /beegfs/lgouveia/ior_1/testFile1
Machine             : Linux bora001.plafrim.cluster
TestID              : 0
StartTime           : Sat Jan 22 07:31:50 2022
Path                : /beegfs/lgouveia/ior_1/testFile1
FS                  : 130.9 TiB   Used FS: 36.6%   Inodes: 0.0 Mi   Used Inodes: -nan%

Options: 
api                 : POSIX
apiVersion          : 
test filename       : /beegfs/lgouveia/ior_1/testFile1
access              : single-shared-file
type                : independent
segments            : 1
ordering in a file  : sequential
ordering inter file : no tasks offsets
nodes               : 2
tasks               : 16
clients per node    : 8
repetitions         : 1
xfersize            : 1 MiB
blocksize           : 2 GiB
aggregate filesize  : 32 GiB

Results: 
WARNING: The file "/beegfs/lgouveia/ior_1/testFile1" exists already and will be overwritten

access    bw(MiB/s)  IOPS       Latency(s)  block(KiB) xfer(KiB)  open(s)    wr/rd(s)   close(s)   total(s)   iter
------    ---------  ----       ----------  ---------- ---------  --------   --------   --------   --------   ----
write     1635.46    1635.55    0.007947    2097152    1024.00    0.004672   20.03      10.92      20.04      0   

Summary of all tests:
Operation   Max(MiB)   Min(MiB)  Mean(MiB)     StdDev   Max(OPs)   Min(OPs)  Mean(OPs)     StdDev    Mean(s) Stonewall(s) Stonewall(MiB) Test# #Tasks tPN reps fPP reord reordoff reordrand seed segcnt   blksiz    xsize aggs(MiB)   API RefNum
write        1635.46    1635.46    1635.46       0.00    1635.46    1635.46    1635.46       0.00   20.03592         NA            NA     0     16   8    1   0     0        1         0    0      1 2147483648  1048576   32768.0 POSIX      0
Finished            : Sat Jan 22 07:32:10 2022
Tracking /beegfs/lgouveia/ior_1/testFile1...



Writing tracked information to tracker.csv...
IOR-3.4.0+dev: MPI Coordinated Test of Parallel I/O
Began               : Sat Jan 22 07:33:11 2022
Command line        : /home/lgouveia/ior/bin/ior -w -t 1m -b 2048m -k -o /beegfs/lgouveia/ior_1/testFile1
Machine             : Linux bora001.plafrim.cluster
TestID              : 0
StartTime           : Sat Jan 22 07:33:11 2022
Path                : /beegfs/lgouveia/ior_1/testFile1
FS                  : 130.9 TiB   Used FS: 36.6%   Inodes: 0.0 Mi   Used Inodes: -nan%

Options: 
api                 : POSIX
apiVersion          : 
test filename       : /beegfs/lgouveia/ior_1/testFile1
access              : single-shared-file
type                : independent
segments            : 1
ordering in a file  : sequential
ordering inter file : no tasks offsets
nodes               : 2
tasks               : 16
clients per node    : 8
repetitions         : 1
xfersize            : 1 MiB
blocksize           : 2 GiB
aggregate filesize  : 32 GiB

Results: 
WARNING: The file "/beegfs/lgouveia/ior_1/testFile1" exists already and will be overwritten

access    bw(MiB/s)  IOPS       Latency(s)  block(KiB) xfer(KiB)  open(s)    wr/rd(s)   close(s)   total(s)   iter
------    ---------  ----       ----------  ---------- ---------  --------   --------   --------   --------   ----
write     1672.51    1672.59    0.007403    2097152    1024.00    0.004699   19.59      11.53      19.59      0   

Summary of all tests:
Operation   Max(MiB)   Min(MiB)  Mean(MiB)     StdDev   Max(OPs)   Min(OPs)  Mean(OPs)     StdDev    Mean(s) Stonewall(s) Stonewall(MiB) Test# #Tasks tPN reps fPP reord reordoff reordrand seed segcnt   blksiz    xsize aggs(MiB)   API RefNum
write        1672.51    1672.51    1672.51       0.00    1672.51    1672.51    1672.51       0.00   19.59209         NA            NA     0     16   8    1   0     0        1         0    0      1 2147483648  1048576   32768.0 POSIX      0
Finished            : Sat Jan 22 07:33:30 2022
Tracking /beegfs/lgouveia/ior_1/testFile1...



Writing tracked information to tracker.csv...
IOR-3.4.0+dev: MPI Coordinated Test of Parallel I/O
Began               : Sat Jan 22 07:34:31 2022
Command line        : /home/lgouveia/ior/bin/ior -w -t 1m -b 2048m -k -o /beegfs/lgouveia/ior_1/testFile1
Machine             : Linux bora001.plafrim.cluster
TestID              : 0
StartTime           : Sat Jan 22 07:34:31 2022
Path                : /beegfs/lgouveia/ior_1/testFile1
FS                  : 130.9 TiB   Used FS: 36.6%   Inodes: 0.0 Mi   Used Inodes: -nan%

Options: 
api                 : POSIX
apiVersion          : 
test filename       : /beegfs/lgouveia/ior_1/testFile1
access              : single-shared-file
type                : independent
segments            : 1
ordering in a file  : sequential
ordering inter file : no tasks offsets
nodes               : 2
tasks               : 16
clients per node    : 8
repetitions         : 1
xfersize            : 1 MiB
blocksize           : 2 GiB
aggregate filesize  : 32 GiB

Results: 
WARNING: The file "/beegfs/lgouveia/ior_1/testFile1" exists already and will be overwritten

access    bw(MiB/s)  IOPS       Latency(s)  block(KiB) xfer(KiB)  open(s)    wr/rd(s)   close(s)   total(s)   iter
------    ---------  ----       ----------  ---------- ---------  --------   --------   --------   --------   ----
write     1768.54    1768.64    0.009035    2097152    1024.00    0.004159   18.53      8.41       18.53      0   

Summary of all tests:
Operation   Max(MiB)   Min(MiB)  Mean(MiB)     StdDev   Max(OPs)   Min(OPs)  Mean(OPs)     StdDev    Mean(s) Stonewall(s) Stonewall(MiB) Test# #Tasks tPN reps fPP reord reordoff reordrand seed segcnt   blksiz    xsize aggs(MiB)   API RefNum
write        1768.54    1768.54    1768.54       0.00    1768.54    1768.54    1768.54       0.00   18.52833         NA            NA     0     16   8    1   0     0        1         0    0      1 2147483648  1048576   32768.0 POSIX      0
Finished            : Sat Jan 22 07:34:50 2022
Tracking /beegfs/lgouveia/ior_1/testFile1...



Writing tracked information to tracker.csv...
