access,bw,iops,latency,block,xfer,open,wr/rd,close,total,iter,start,end
write,1488.87,1488.96,0.003012,4194304,1024.00,0.004336,22.01,16.14,22.01,0,Mon Jan 17 13:03:41 2022,Mon Jan 17 13:04:03 2022
write,1601.05,1601.16,0.002777,4194304,1024.00,0.005280,20.47,16.31,20.47,0,Mon Jan 17 13:05:06 2022,Mon Jan 17 13:05:27 2022
write,1593.76,1593.87,0.002811,4194304,1024.00,0.005591,20.56,14.12,20.56,0,Mon Jan 17 13:06:28 2022,Mon Jan 17 13:06:48 2022
write,1522.99,1523.07,0.001453,4194304,1024.00,0.004865,21.51,15.56,21.52,0,Mon Jan 17 13:07:49 2022,Mon Jan 17 13:08:11 2022
write,1568.72,1568.81,0.000949,4194304,1024.00,0.004500,20.89,17.00,20.89,0,Mon Jan 17 13:09:12 2022,Mon Jan 17 13:09:33 2022
write,1573.80,1573.92,0.001814,4194304,1024.00,0.005480,20.82,15.13,20.82,0,Mon Jan 17 13:10:33 2022,Mon Jan 17 13:10:54 2022
write,1541.88,1541.97,0.004015,4194304,1024.00,0.004263,21.25,13.28,21.25,0,Mon Jan 17 13:11:55 2022,Mon Jan 17 13:12:16 2022
write,1577.02,1577.13,0.001814,4194304,1024.00,0.004685,20.78,14.93,20.78,0,Mon Jan 17 13:13:17 2022,Mon Jan 17 13:13:38 2022
write,1565.61,1565.72,0.001722,4194304,1024.00,0.004787,20.93,14.67,20.93,0,Mon Jan 17 13:14:39 2022,Mon Jan 17 13:15:00 2022
write,1564.79,1564.91,0.002972,4194304,1024.00,0.005038,20.94,17.28,20.94,0,Mon Jan 17 13:16:01 2022,Mon Jan 17 13:16:22 2022
write,1573.04,1573.13,0.001414,4194304,1024.00,0.005348,20.83,15.04,20.83,0,Mon Jan 17 13:22:11 2022,Mon Jan 17 13:22:32 2022
write,1552.18,1552.27,0.003304,4194304,1024.00,0.011181,21.11,15.42,21.11,0,Mon Jan 17 13:23:33 2022,Mon Jan 17 13:23:55 2022
write,1585.56,1585.68,0.002489,4194304,1024.00,0.004700,20.67,14.55,20.67,0,Mon Jan 17 13:24:55 2022,Mon Jan 17 13:25:16 2022
write,1538.64,1538.76,0.001548,4194304,1024.00,0.005067,21.30,14.95,21.30,0,Mon Jan 17 13:26:17 2022,Mon Jan 17 13:26:38 2022
write,1563.26,1563.35,0.002116,4194304,1024.00,0.005133,20.96,14.09,20.96,0,Mon Jan 17 13:27:39 2022,Mon Jan 17 13:28:00 2022
write,1596.52,1596.64,0.002791,4194304,1024.00,0.005159,20.52,16.87,20.52,0,Mon Jan 17 13:29:01 2022,Mon Jan 17 13:29:22 2022
write,1571.41,1571.50,0.002832,4194304,1024.00,0.004950,20.85,15.24,20.85,0,Mon Jan 17 13:30:23 2022,Mon Jan 17 13:30:44 2022
write,1563.78,1563.91,0.003502,4194304,1024.00,0.005148,20.95,14.79,20.95,0,Mon Jan 17 13:31:44 2022,Mon Jan 17 13:32:05 2022
write,1586.86,1586.96,0.001363,4194304,1024.00,0.004829,20.65,15.07,20.65,0,Mon Jan 17 13:33:06 2022,Mon Jan 17 13:33:27 2022
write,1549.99,1550.10,0.002836,4194304,1024.00,0.004805,21.14,14.98,21.14,0,Mon Jan 17 13:34:28 2022,Mon Jan 17 13:34:49 2022
write,1571.99,1572.10,0.001514,4194304,1024.00,0.004975,20.84,14.64,20.84,0,Mon Jan 17 13:42:06 2022,Mon Jan 17 13:42:27 2022
write,1503.11,1503.21,0.001255,4194304,1024.00,0.005276,21.80,16.66,21.80,0,Mon Jan 17 13:43:28 2022,Mon Jan 17 13:43:50 2022
write,1568.11,1568.22,0.001302,4194304,1024.00,0.004755,20.89,15.56,20.90,0,Mon Jan 17 13:44:51 2022,Mon Jan 17 13:45:12 2022
write,1559.81,1559.90,0.001665,4194304,1024.00,0.003565,21.01,14.19,21.01,0,Mon Jan 17 13:46:13 2022,Mon Jan 17 13:46:34 2022
write,1570.89,1570.98,0.001011,4194304,1024.00,0.004858,20.86,16.72,20.86,0,Mon Jan 17 13:47:35 2022,Mon Jan 17 13:47:56 2022
write,1620.28,1620.76,0.001450,4194304,1024.00,0.004528,20.22,14.28,20.22,0,Mon Jan 17 13:48:57 2022,Mon Jan 17 13:49:17 2022
write,1559.67,1559.77,0.001818,4194304,1024.00,0.006072,21.01,15.55,21.01,0,Mon Jan 17 13:50:18 2022,Mon Jan 17 13:50:39 2022
write,1588.81,1588.92,0.000960,4194304,1024.00,0.005389,20.62,16.69,20.62,0,Mon Jan 17 13:51:40 2022,Mon Jan 17 13:52:00 2022
write,1564.45,1564.53,0.001803,4194304,1024.00,0.004358,20.94,14.84,20.95,0,Mon Jan 17 13:53:01 2022,Mon Jan 17 13:53:22 2022
write,1560.53,1560.63,0.001999,4194304,1024.00,0.004142,21.00,16.26,21.00,0,Mon Jan 17 13:54:23 2022,Mon Jan 17 13:54:44 2022
write,1579.60,1579.69,0.002118,4194304,1024.00,0.004775,20.74,14.23,20.74,0,Mon Jan 17 14:03:35 2022,Mon Jan 17 14:03:56 2022
write,1529.18,1529.28,0.002943,4194304,1024.00,0.004577,21.43,13.98,21.43,0,Mon Jan 17 14:04:57 2022,Mon Jan 17 14:05:18 2022
write,1598.08,1598.19,0.002908,4194304,1024.00,0.005572,20.50,16.61,20.50,0,Mon Jan 17 14:06:24 2022,Mon Jan 17 14:06:45 2022
write,1575.40,1575.51,0.000986,4194304,1024.00,0.004396,20.80,16.76,20.80,0,Mon Jan 17 14:07:46 2022,Mon Jan 17 14:08:06 2022
write,1527.66,1527.76,0.003704,4194304,1024.00,0.005627,21.45,11.26,21.45,0,Mon Jan 17 14:09:07 2022,Mon Jan 17 14:09:29 2022
write,1588.14,1588.23,0.001437,4194304,1024.00,0.005372,20.63,14.74,20.63,0,Mon Jan 17 14:10:30 2022,Mon Jan 17 14:10:50 2022
write,1589.52,1589.62,0.001563,4194304,1024.00,0.004283,20.61,14.21,20.61,0,Mon Jan 17 14:11:51 2022,Mon Jan 17 14:12:12 2022
write,1545.16,1545.25,0.001751,4194304,1024.00,0.004902,21.21,15.43,21.21,0,Mon Jan 17 14:13:13 2022,Mon Jan 17 14:13:34 2022
write,1593.06,1593.18,0.002864,4194304,1024.00,0.005764,20.57,16.32,20.57,0,Mon Jan 17 14:14:35 2022,Mon Jan 17 14:14:56 2022
write,1562.24,1562.68,0.002084,4194304,1024.00,0.004419,20.97,14.70,20.98,0,Mon Jan 17 14:15:56 2022,Mon Jan 17 14:16:17 2022
write,1621.04,1621.15,0.002811,4194304,1024.00,0.005635,20.21,16.92,20.21,0,Mon Jan 17 14:24:42 2022,Mon Jan 17 14:25:02 2022
write,1633.51,1633.61,0.002432,4194304,1024.00,0.004845,20.06,15.35,20.06,0,Mon Jan 17 14:26:03 2022,Mon Jan 17 14:26:23 2022
write,1677.55,1677.66,0.002230,4194304,1024.00,0.004485,19.53,14.04,19.53,0,Mon Jan 17 14:27:24 2022,Mon Jan 17 14:27:44 2022
write,1569.87,1569.96,0.001405,4194304,1024.00,0.003777,20.87,15.12,20.87,0,Mon Jan 17 14:28:45 2022,Mon Jan 17 14:29:05 2022
write,1642.67,1642.78,0.002213,4194304,1024.00,0.003881,19.95,14.45,19.95,0,Mon Jan 17 14:30:06 2022,Mon Jan 17 14:30:26 2022
write,1638.41,1638.52,0.001546,4194304,1024.00,0.003637,20.00,15.48,20.00,0,Mon Jan 17 14:31:27 2022,Mon Jan 17 14:31:47 2022
write,1585.57,1585.67,0.001268,4194304,1024.00,0.004490,20.67,15.47,20.67,0,Mon Jan 17 14:32:48 2022,Mon Jan 17 14:33:09 2022
write,1612.46,1612.59,0.002372,4194304,1024.00,0.005076,20.32,15.16,20.32,0,Mon Jan 17 14:34:10 2022,Mon Jan 17 14:34:30 2022
write,1597.32,1597.41,0.002661,4194304,1024.00,0.005155,20.51,15.98,20.51,0,Mon Jan 17 14:35:31 2022,Mon Jan 17 14:35:52 2022
write,1572.39,1572.49,0.002040,4194304,1024.00,0.004327,20.84,13.27,20.84,0,Mon Jan 17 14:36:52 2022,Mon Jan 17 14:37:13 2022
write,1623.32,1623.42,0.002634,4194304,1024.00,0.004925,20.18,15.61,20.19,0,Mon Jan 17 14:48:12 2022,Mon Jan 17 14:48:32 2022
write,1598.63,1598.73,0.001631,4194304,1024.00,0.006591,20.50,13.82,20.50,0,Mon Jan 17 14:49:33 2022,Mon Jan 17 14:49:54 2022
write,1604.25,1604.34,0.002793,4194304,1024.00,0.004736,20.42,13.75,20.43,0,Mon Jan 17 14:50:54 2022,Mon Jan 17 14:51:15 2022
write,1585.71,1585.79,0.001606,4194304,1024.00,0.003504,20.66,14.42,20.66,0,Mon Jan 17 14:52:16 2022,Mon Jan 17 14:52:36 2022
write,1624.24,1624.35,0.001291,4194304,1024.00,0.003668,20.17,14.88,20.17,0,Mon Jan 17 14:53:37 2022,Mon Jan 17 14:53:58 2022
write,1592.78,1592.88,0.001200,4194304,1024.00,0.004283,20.57,15.66,20.57,0,Mon Jan 17 14:54:58 2022,Mon Jan 17 14:55:19 2022
write,1580.42,1580.52,0.002051,4194304,1024.00,0.004723,20.73,14.56,20.73,0,Mon Jan 17 14:56:21 2022,Mon Jan 17 14:56:41 2022
write,1602.81,1602.91,0.001183,4194304,1024.00,0.005179,20.44,15.60,20.44,0,Mon Jan 17 14:57:42 2022,Mon Jan 17 14:58:03 2022
write,1621.86,1621.97,0.001545,4194304,1024.00,0.004841,20.20,15.85,20.20,0,Mon Jan 17 14:59:04 2022,Mon Jan 17 14:59:24 2022
write,1593.07,1593.16,0.001642,4194304,1024.00,0.004879,20.57,15.01,20.57,0,Mon Jan 17 15:00:25 2022,Mon Jan 17 15:00:45 2022
write,1579.67,1579.77,0.003261,4194304,1024.00,0.004971,20.74,14.22,20.74,0,Mon Jan 17 15:06:42 2022,Mon Jan 17 15:07:03 2022
write,1580.62,1580.71,0.001759,4194304,1024.00,0.005234,20.73,16.04,20.73,0,Mon Jan 17 15:08:04 2022,Mon Jan 17 15:08:24 2022
write,1610.52,1610.63,0.001821,4194304,1024.00,0.004257,20.34,14.24,20.35,0,Mon Jan 17 15:09:25 2022,Mon Jan 17 15:09:46 2022
write,1607.08,1607.19,0.001963,4194304,1024.00,0.005420,20.39,15.34,20.39,0,Mon Jan 17 15:10:47 2022,Mon Jan 17 15:11:07 2022
write,1607.42,1607.53,0.001049,4194304,1024.00,0.005283,20.38,16.09,20.39,0,Mon Jan 17 15:12:08 2022,Mon Jan 17 15:12:28 2022
write,1584.27,1584.39,0.001977,4194304,1024.00,0.005695,20.68,14.11,20.68,0,Mon Jan 17 15:13:29 2022,Mon Jan 17 15:13:50 2022
write,1604.66,1604.75,0.001794,4194304,1024.00,0.004727,20.42,13.07,20.42,0,Mon Jan 17 15:14:51 2022,Mon Jan 17 15:15:11 2022
write,1608.75,1608.86,0.001836,4194304,1024.00,0.004841,20.37,15.45,20.37,0,Mon Jan 17 15:16:12 2022,Mon Jan 17 15:16:33 2022
write,1694.26,1694.38,0.002561,4194304,1024.00,0.004585,19.34,12.52,19.34,0,Mon Jan 17 15:17:33 2022,Mon Jan 17 15:17:53 2022
write,1583.80,1583.91,0.002830,4194304,1024.00,0.005284,20.69,14.68,20.69,0,Mon Jan 17 15:18:54 2022,Mon Jan 17 15:19:14 2022
write,1575.42,1575.52,0.002486,4194304,1024.00,0.005263,20.80,14.91,20.80,0,Mon Jan 17 15:23:42 2022,Mon Jan 17 15:24:03 2022
write,1598.46,1598.55,0.001130,4194304,1024.00,0.004788,20.50,15.87,20.50,0,Mon Jan 17 15:25:04 2022,Mon Jan 17 15:25:24 2022
write,1486.30,1486.38,0.002742,4194304,1024.00,0.004384,22.05,17.13,22.05,0,Mon Jan 17 15:26:25 2022,Mon Jan 17 15:26:47 2022
write,1605.23,1605.31,0.001939,4194304,1024.00,0.003826,20.41,12.47,20.41,0,Mon Jan 17 15:27:48 2022,Mon Jan 17 15:28:09 2022
write,1510.71,1510.79,0.001517,4194304,1024.00,0.004733,21.69,15.58,21.69,0,Mon Jan 17 15:29:10 2022,Mon Jan 17 15:29:31 2022
write,1555.85,1555.94,0.001759,4194304,1024.00,0.004332,21.06,15.47,21.06,0,Mon Jan 17 15:30:32 2022,Mon Jan 17 15:30:53 2022
write,1635.78,1635.90,0.001104,4194304,1024.00,0.003638,20.03,15.51,20.03,0,Mon Jan 17 15:31:54 2022,Mon Jan 17 15:32:14 2022
write,1662.93,1663.05,0.002800,4194304,1024.00,0.004364,19.70,15.61,19.70,0,Mon Jan 17 15:33:15 2022,Mon Jan 17 15:33:35 2022
write,1594.01,1594.10,0.002657,4194304,1024.00,0.004340,20.56,15.60,20.56,0,Mon Jan 17 15:34:36 2022,Mon Jan 17 15:34:56 2022
write,1615.32,1615.43,0.001795,4194304,1024.00,0.005642,20.28,16.32,20.29,0,Mon Jan 17 15:35:58 2022,Mon Jan 17 15:36:18 2022
write,1634.81,1634.93,0.002832,4194304,1024.00,0.005389,20.04,16.24,20.04,0,Mon Jan 17 15:46:02 2022,Mon Jan 17 15:46:22 2022
write,1651.22,1651.33,0.001600,4194304,1024.00,0.005639,19.84,13.29,19.84,0,Mon Jan 17 15:47:23 2022,Mon Jan 17 15:47:43 2022
write,1608.97,1609.07,0.001667,4194304,1024.00,0.005235,20.36,13.86,20.37,0,Mon Jan 17 15:48:44 2022,Mon Jan 17 15:49:05 2022
write,1614.50,1614.59,0.000986,4194304,1024.00,0.005133,20.29,16.25,20.30,0,Mon Jan 17 15:50:05 2022,Mon Jan 17 15:50:26 2022
write,1620.68,1620.77,0.001338,4194304,1024.00,0.005723,20.22,14.74,20.22,0,Mon Jan 17 15:51:29 2022,Mon Jan 17 15:51:50 2022
write,1611.20,1611.30,0.002205,4194304,1024.00,0.005072,20.34,11.52,20.34,0,Mon Jan 17 15:52:51 2022,Mon Jan 17 15:53:11 2022
write,1641.51,1641.61,0.001245,4194304,1024.00,0.005672,19.96,14.86,19.96,0,Mon Jan 17 15:54:12 2022,Mon Jan 17 15:54:32 2022
write,1539.63,1539.73,0.002171,4194304,1024.00,0.004714,21.28,13.83,21.28,0,Mon Jan 17 15:55:33 2022,Mon Jan 17 15:55:54 2022
write,1627.04,1627.15,0.001121,4194304,1024.00,0.004567,20.14,15.55,20.14,0,Mon Jan 17 15:56:55 2022,Mon Jan 17 15:57:15 2022
write,1647.20,1647.31,0.001033,4194304,1024.00,0.004778,19.89,15.66,19.89,0,Mon Jan 17 15:58:16 2022,Mon Jan 17 15:58:36 2022
write,1661.94,1662.08,0.002811,4194304,1024.00,0.005394,19.72,15.75,19.72,0,Mon Jan 17 16:08:14 2022,Mon Jan 17 16:08:34 2022
write,1672.71,1672.85,0.001166,4194304,1024.00,0.005981,19.59,14.81,19.59,0,Mon Jan 17 16:09:35 2022,Mon Jan 17 16:09:54 2022
write,1611.48,1611.60,0.001099,4194304,1024.00,0.005605,20.33,15.83,20.33,0,Mon Jan 17 16:10:55 2022,Mon Jan 17 16:11:16 2022
write,1659.77,1659.87,0.001467,4194304,1024.00,0.004743,19.74,13.73,19.74,0,Mon Jan 17 16:12:16 2022,Mon Jan 17 16:12:36 2022
write,1679.18,1679.30,0.001230,4194304,1024.00,0.004018,19.51,14.48,19.51,0,Mon Jan 17 16:13:37 2022,Mon Jan 17 16:13:57 2022
write,1700.24,1700.36,0.002576,4194304,1024.00,0.005346,19.27,16.20,19.27,0,Mon Jan 17 16:14:58 2022,Mon Jan 17 16:15:17 2022
write,1646.00,1646.11,0.002900,4194304,1024.00,0.004493,19.91,15.06,19.91,0,Mon Jan 17 16:16:18 2022,Mon Jan 17 16:16:38 2022
write,1610.04,1610.16,0.002646,4194304,1024.00,0.005367,20.35,14.57,20.35,0,Mon Jan 17 16:17:39 2022,Mon Jan 17 16:17:59 2022
write,1690.78,1690.89,0.001727,4194304,1024.00,0.004523,19.38,13.15,19.38,0,Mon Jan 17 16:19:00 2022,Mon Jan 17 16:19:19 2022
write,1655.31,1655.42,0.001349,4194304,1024.00,0.005277,19.79,14.27,19.80,0,Mon Jan 17 16:20:20 2022,Mon Jan 17 16:20:40 2022
