tracker_id,tracker_timestamp,file,size,ctime,mtime,storage_targets
9951cbcd,1633589568.004214,/beegfs/lgouveia/ior_6/testFile1,34359738368,1633589565.0,1633589565.0,103 202 201 102 203 104
3ac811a1,1633589634.492037,/beegfs/lgouveia/ior_6/testFile1,34359738368,1633589634.0,1633589634.0,101 102 103 104 204 201
02fbc1d5,1633589699.985048,/beegfs/lgouveia/ior_6/testFile1,34359738368,1633589699.0,1633589699.0,103 104 102 202 203 201
157c825f,1633589765.32561,/beegfs/lgouveia/ior_6/testFile1,34359738368,1633589764.0,1633589764.0,104 201 203 102 202 103
061c640d,1633589831.423244,/beegfs/lgouveia/ior_6/testFile1,34359738368,1633589831.0,1633589831.0,204 101 203 104 202 201
801ffce4,1633589896.818819,/beegfs/lgouveia/ior_6/testFile1,34359738368,1633589896.0,1633589896.0,202 102 201 103 203 104
465c1a4b,1633589963.13197,/beegfs/lgouveia/ior_6/testFile1,34359738368,1633589962.0,1633589962.0,201 203 104 204 202 101
4765a36b,1633590028.754551,/beegfs/lgouveia/ior_6/testFile1,34359738368,1633590028.0,1633590028.0,103 102 201 202 203 104
ae69cc32,1633590095.256426,/beegfs/lgouveia/ior_6/testFile1,34359738368,1633590094.0,1633590094.0,202 203 101 204 104 201
628ba15e,1633590160.365318,/beegfs/lgouveia/ior_6/testFile1,34359738368,1633590159.0,1633590159.0,103 201 102 202 203 104
a908629c,1633680492.193703,/beegfs/lgouveia/ior_6/testFile1,34359738368,1633680489.0,1633680489.0,104 201 102 202 203 103
f108ec1a,1633680558.38279,/beegfs/lgouveia/ior_6/testFile1,34359738368,1633680557.0,1633680557.0,102 202 201 203 104 103
323912a3,1633680626.28788,/beegfs/lgouveia/ior_6/testFile1,34359738368,1633680625.0,1633680625.0,103 201 204 102 104 101
0426903a,1633680692.839578,/beegfs/lgouveia/ior_6/testFile1,34359738368,1633680692.0,1633680692.0,101 204 103 203 102 202
bab0e114,1633680760.316116,/beegfs/lgouveia/ior_6/testFile1,34359738368,1633680759.0,1633680759.0,102 104 101 103 201 204
97dcb841,1633680826.997767,/beegfs/lgouveia/ior_6/testFile1,34359738368,1633680826.0,1633680826.0,203 101 102 204 202 103
b61c46ef,1633680892.999569,/beegfs/lgouveia/ior_6/testFile1,34359738368,1633680892.0,1633680892.0,201 202 102 104 103 203
e1b72e41,1633680960.531759,/beegfs/lgouveia/ior_6/testFile1,34359738368,1633680960.0,1633680960.0,201 104 203 202 204 101
41f02193,1633681026.684848,/beegfs/lgouveia/ior_6/testFile1,34359738368,1633681026.0,1633681026.0,203 101 202 204 102 103
149d9be8,1633681094.21819,/beegfs/lgouveia/ior_6/testFile1,34359738368,1633681093.0,1633681093.0,202 101 201 204 104 203
ddf72261,1633697764.849192,/beegfs/lgouveia/ior_6/testFile1,34359738368,1633697764.0,1633697764.0,102 204 103 202 203 101
af50c3e6,1633697831.920222,/beegfs/lgouveia/ior_6/testFile1,34359738368,1633697831.0,1633697831.0,201 101 204 203 104 202
e0926b8f,1633697898.318044,/beegfs/lgouveia/ior_6/testFile1,34359738368,1633697897.0,1633697897.0,201 202 103 102 104 203
c5e4a81f,1633697964.884928,/beegfs/lgouveia/ior_6/testFile1,34359738368,1633697964.0,1633697964.0,101 102 103 201 104 204
59801048,1633698040.480993,/beegfs/lgouveia/ior_6/testFile1,34359738368,1633698039.0,1633698039.0,101 102 204 202 203 103
07595fad,1633698106.790279,/beegfs/lgouveia/ior_6/testFile1,34359738368,1633698106.0,1633698106.0,202 102 103 201 104 203
dfea2207,1633698174.769801,/beegfs/lgouveia/ior_6/testFile1,34359738368,1633698174.0,1633698174.0,104 204 103 201 102 101
bd55e22a,1633698240.89454,/beegfs/lgouveia/ior_6/testFile1,34359738368,1633698240.0,1633698240.0,101 202 204 103 102 203
184f013d,1633698308.065291,/beegfs/lgouveia/ior_6/testFile1,34359738368,1633698307.0,1633698307.0,201 204 104 202 101 203
764ba9cb,1633698374.003427,/beegfs/lgouveia/ior_6/testFile1,34359738368,1633698373.0,1633698373.0,103 104 202 203 102 201
985fad6d,1633712009.085004,/beegfs/lgouveia/ior_6/testFile1,34359738368,1633712008.0,1633712008.0,203 103 102 101 204 202
6625f109,1633712075.965301,/beegfs/lgouveia/ior_6/testFile1,34359738368,1633712075.0,1633712075.0,101 201 204 202 203 104
167b059d,1633712141.979769,/beegfs/lgouveia/ior_6/testFile1,34359738368,1633712141.0,1633712141.0,202 203 102 104 201 103
7bc4de80,1633712207.916909,/beegfs/lgouveia/ior_6/testFile1,34359738368,1633712207.0,1633712207.0,202 201 102 104 203 103
688aab1a,1633712274.557489,/beegfs/lgouveia/ior_6/testFile1,34359738368,1633712274.0,1633712274.0,101 103 104 204 201 102
d51754e1,1633712340.308714,/beegfs/lgouveia/ior_6/testFile1,34359738368,1633712339.0,1633712339.0,101 102 204 103 203 202
dc7974b9,1633712407.241999,/beegfs/lgouveia/ior_6/testFile1,34359738368,1633712406.0,1633712406.0,104 203 201 101 202 204
e5a43302,1633712473.185084,/beegfs/lgouveia/ior_6/testFile1,34359738368,1633712472.0,1633712472.0,201 203 103 102 202 104
d4acccc8,1633712538.935385,/beegfs/lgouveia/ior_6/testFile1,34359738368,1633712538.0,1633712538.0,102 101 204 203 103 202
e814fc83,1633712605.980221,/beegfs/lgouveia/ior_6/testFile1,34359738368,1633712605.0,1633712605.0,201 104 204 203 202 101
2a3907e0,1633727817.438278,/beegfs/lgouveia/ior_6/testFile1,34359738368,1633727815.0,1633727815.0,201 103 202 104 102 203
dd68b4f0,1633727884.145385,/beegfs/lgouveia/ior_6/testFile1,34359738368,1633727883.0,1633727883.0,101 204 202 103 203 102
fc80e33f,1633727950.459126,/beegfs/lgouveia/ior_6/testFile1,34359738368,1633727950.0,1633727950.0,202 201 104 203 204 101
2ac592b7,1633728016.545429,/beegfs/lgouveia/ior_6/testFile1,34359738368,1633728016.0,1633728016.0,102 103 203 201 104 202
e2b8bef1,1633728082.977623,/beegfs/lgouveia/ior_6/testFile1,34359738368,1633728082.0,1633728082.0,103 204 102 101 201 104
c385ed55,1633728149.158017,/beegfs/lgouveia/ior_6/testFile1,34359738368,1633728148.0,1633728148.0,202 201 103 104 203 102
6a9d1c95,1633728215.472406,/beegfs/lgouveia/ior_6/testFile1,34359738368,1633728215.0,1633728215.0,102 201 104 101 204 103
71992e81,1633728281.41404,/beegfs/lgouveia/ior_6/testFile1,34359738368,1633728281.0,1633728281.0,204 103 102 202 101 203
dda7be7c,1633728348.0444,/beegfs/lgouveia/ior_6/testFile1,34359738368,1633728347.0,1633728347.0,104 101 103 204 102 201
2b40fab1,1633728414.248214,/beegfs/lgouveia/ior_6/testFile1,34359738368,1633728413.0,1633728413.0,204 202 203 103 101 102
10296a9c,1633757998.858149,/beegfs/lgouveia/ior_6/testFile1,34359738368,1633757996.0,1633757996.0,104 202 103 102 201 203
0778d9de,1633758065.291131,/beegfs/lgouveia/ior_6/testFile1,34359738368,1633758064.0,1633758064.0,104 103 204 201 101 102
e122fa46,1633758131.236034,/beegfs/lgouveia/ior_6/testFile1,34359738368,1633758130.0,1633758130.0,204 102 202 203 103 101
fc478c98,1633758197.027856,/beegfs/lgouveia/ior_6/testFile1,34359738368,1633758196.0,1633758196.0,104 203 201 103 202 102
17f8f4c4,1633758263.478155,/beegfs/lgouveia/ior_6/testFile1,34359738368,1633758263.0,1633758263.0,104 103 201 204 101 102
15935434,1633758328.732934,/beegfs/lgouveia/ior_6/testFile1,34359738368,1633758328.0,1633758328.0,102 203 101 204 202 103
68a4c1b8,1633758394.601056,/beegfs/lgouveia/ior_6/testFile1,34359738368,1633758394.0,1633758394.0,202 101 201 203 204 104
24e1a4cc,1633758460.221335,/beegfs/lgouveia/ior_6/testFile1,34359738368,1633758459.0,1633758459.0,102 201 104 103 202 203
185a2395,1633758525.784454,/beegfs/lgouveia/ior_6/testFile1,34359738368,1633758525.0,1633758525.0,104 202 103 201 102 203
7328b1ff,1633758592.237614,/beegfs/lgouveia/ior_6/testFile1,34359738368,1633758591.0,1633758591.0,102 104 201 101 103 204
0c1c2935,1633806647.961294,/beegfs/lgouveia/ior_6/testFile1,34359738368,1633806646.0,1633806646.0,202 203 103 201 104 102
dfc60506,1633806714.627289,/beegfs/lgouveia/ior_6/testFile1,34359738368,1633806714.0,1633806714.0,204 201 103 101 102 104
bbf4528a,1633806780.066966,/beegfs/lgouveia/ior_6/testFile1,34359738368,1633806779.0,1633806779.0,204 101 103 202 102 203
6f170afc,1633806846.0377,/beegfs/lgouveia/ior_6/testFile1,34359738368,1633806845.0,1633806845.0,101 201 104 203 202 204
084d38ed,1633806912.243365,/beegfs/lgouveia/ior_6/testFile1,34359738368,1633806911.0,1633806911.0,202 201 104 203 103 102
30b98376,1633806978.988369,/beegfs/lgouveia/ior_6/testFile1,34359738368,1633806978.0,1633806978.0,101 201 204 104 103 102
a355b915,1633807046.308087,/beegfs/lgouveia/ior_6/testFile1,34359738368,1633807045.0,1633807045.0,102 101 203 103 202 204
28a2d8eb,1633807112.885135,/beegfs/lgouveia/ior_6/testFile1,34359738368,1633807112.0,1633807112.0,203 101 104 202 204 201
8fa35693,1633807178.592994,/beegfs/lgouveia/ior_6/testFile1,34359738368,1633807178.0,1633807178.0,201 202 203 102 104 103
f72be768,1633807245.76362,/beegfs/lgouveia/ior_6/testFile1,34359738368,1633807245.0,1633807245.0,101 201 104 103 204 102
eb30fc66,1633852178.587538,/beegfs/lgouveia/ior_6/testFile1,34359738368,1633852178.0,1633852178.0,203 103 102 104 201 202
4c3cabed,1633852245.960049,/beegfs/lgouveia/ior_6/testFile1,34359738368,1633852245.0,1633852245.0,101 201 104 103 204 102
cbc497bb,1633852311.695045,/beegfs/lgouveia/ior_6/testFile1,34359738368,1633852311.0,1633852311.0,102 202 203 103 104 201
d62e4d38,1633852378.486061,/beegfs/lgouveia/ior_6/testFile1,34359738368,1633852378.0,1633852378.0,102 103 204 201 104 101
2799e3e6,1633852444.395579,/beegfs/lgouveia/ior_6/testFile1,34359738368,1633852443.0,1633852443.0,204 102 103 203 202 101
50431e11,1633852511.130102,/beegfs/lgouveia/ior_6/testFile1,34359738368,1633852510.0,1633852510.0,203 201 101 104 204 202
d9b8ccc9,1633852577.199314,/beegfs/lgouveia/ior_6/testFile1,34359738368,1633852576.0,1633852576.0,103 202 203 201 102 104
2cc539c7,1633852643.242971,/beegfs/lgouveia/ior_6/testFile1,34359738368,1633852642.0,1633852642.0,201 203 104 102 202 103
c4569f40,1633852709.844589,/beegfs/lgouveia/ior_6/testFile1,34359738368,1633852709.0,1633852709.0,204 102 103 101 201 104
2d7b221e,1633852775.802071,/beegfs/lgouveia/ior_6/testFile1,34359738368,1633852775.0,1633852775.0,101 202 102 203 103 204
f338601e,1633875359.57464,/beegfs/lgouveia/ior_6/testFile1,34359738368,1633875357.0,1633875357.0,104 202 203 102 201 103
22054369,1633875426.027335,/beegfs/lgouveia/ior_6/testFile1,34359738368,1633875425.0,1633875425.0,201 204 103 102 101 104
f5b28990,1633875491.836374,/beegfs/lgouveia/ior_6/testFile1,34359738368,1633875491.0,1633875491.0,103 204 101 203 102 202
8ee5a6dc,1633875558.342761,/beegfs/lgouveia/ior_6/testFile1,34359738368,1633875557.0,1633875557.0,104 204 201 203 202 101
718a34ce,1633875624.116097,/beegfs/lgouveia/ior_6/testFile1,34359738368,1633875623.0,1633875623.0,202 103 201 203 104 102
54c43324,1633875690.196591,/beegfs/lgouveia/ior_6/testFile1,34359738368,1633875689.0,1633875689.0,204 202 201 104 203 101
acbb5d51,1633875755.53962,/beegfs/lgouveia/ior_6/testFile1,34359738368,1633875755.0,1633875755.0,103 203 104 102 202 201
ce83e628,1633875821.855643,/beegfs/lgouveia/ior_6/testFile1,34359738368,1633875821.0,1633875821.0,101 204 201 103 102 104
b0da52b4,1633875887.125373,/beegfs/lgouveia/ior_6/testFile1,34359738368,1633875886.0,1633875886.0,104 203 103 102 201 202
0c70b1f1,1633875952.849228,/beegfs/lgouveia/ior_6/testFile1,34359738368,1633875952.0,1633875952.0,103 104 102 201 202 203
a07c7642,1633886199.60524,/beegfs/lgouveia/ior_6/testFile1,34359738368,1633886197.0,1633886197.0,102 201 203 202 104 103
c72264cf,1633886265.610973,/beegfs/lgouveia/ior_6/testFile1,34359738368,1633886265.0,1633886265.0,104 102 202 103 203 201
28554ac1,1633886332.363021,/beegfs/lgouveia/ior_6/testFile1,34359738368,1633886331.0,1633886331.0,104 103 102 201 101 204
a33babde,1633886398.628591,/beegfs/lgouveia/ior_6/testFile1,34359738368,1633886398.0,1633886398.0,103 101 102 203 204 202
e0bf9ef9,1633886465.580284,/beegfs/lgouveia/ior_6/testFile1,34359738368,1633886465.0,1633886465.0,204 203 101 202 104 201
2b2ea67b,1633886532.128049,/beegfs/lgouveia/ior_6/testFile1,34359738368,1633886531.0,1633886531.0,202 201 104 102 203 103
0663b767,1633886599.537614,/beegfs/lgouveia/ior_6/testFile1,34359738368,1633886599.0,1633886599.0,204 202 104 101 201 203
adb6bc23,1633886664.885904,/beegfs/lgouveia/ior_6/testFile1,34359738368,1633886664.0,1633886664.0,203 201 103 104 102 202
c68264e4,1633886731.743055,/beegfs/lgouveia/ior_6/testFile1,34359738368,1633886731.0,1633886731.0,104 103 102 204 101 201
7c012806,1633886797.930113,/beegfs/lgouveia/ior_6/testFile1,34359738368,1633886797.0,1633886797.0,202 102 101 203 204 103
757850ba,1633897335.565816,/beegfs/lgouveia/ior_6/testFile1,34359738368,1633897335.0,1633897335.0,103 101 203 102 202 204
96e03be6,1633897402.140431,/beegfs/lgouveia/ior_6/testFile1,34359738368,1633897401.0,1633897401.0,201 204 202 101 104 203
d245e1ab,1633897468.05771,/beegfs/lgouveia/ior_6/testFile1,34359738368,1633897467.0,1633897467.0,102 104 202 103 203 201
6c2fae0f,1633897533.914421,/beegfs/lgouveia/ior_6/testFile1,34359738368,1633897533.0,1633897533.0,104 101 102 204 201 103
f079dcee,1633897599.580921,/beegfs/lgouveia/ior_6/testFile1,34359738368,1633897599.0,1633897599.0,202 101 102 204 203 103
64f49bd8,1633897666.68815,/beegfs/lgouveia/ior_6/testFile1,34359738368,1633897666.0,1633897666.0,202 104 101 203 204 201
33a4db3d,1633897732.394575,/beegfs/lgouveia/ior_6/testFile1,34359738368,1633897731.0,1633897731.0,201 103 202 203 102 104
979c1f8b,1633897798.742013,/beegfs/lgouveia/ior_6/testFile1,34359738368,1633897798.0,1633897798.0,204 104 102 103 101 201
02aa39a3,1633897863.974659,/beegfs/lgouveia/ior_6/testFile1,34359738368,1633897863.0,1633897863.0,102 202 203 101 103 204
e00db3a7,1633897930.868495,/beegfs/lgouveia/ior_6/testFile1,34359738368,1633897930.0,1633897930.0,204 202 201 101 104 203
7119073c,1633938122.904497,/beegfs/lgouveia/ior_6/testFile1,34359738368,1633938119.0,1633938119.0,201 203 103 202 104 102
16bf8387,1633938189.614062,/beegfs/lgouveia/ior_6/testFile1,34359738368,1633938189.0,1633938189.0,102 104 101 204 103 201
d8e2cea4,1633938255.116524,/beegfs/lgouveia/ior_6/testFile1,34359738368,1633938254.0,1633938254.0,204 203 102 202 101 103
7729922d,1633938320.736127,/beegfs/lgouveia/ior_6/testFile1,34359738368,1633938320.0,1633938320.0,103 203 201 104 102 202
2fd58269,1633938387.649541,/beegfs/lgouveia/ior_6/testFile1,34359738368,1633938387.0,1633938387.0,103 104 201 204 101 102
73e7c59d,1633938453.185296,/beegfs/lgouveia/ior_6/testFile1,34359738368,1633938452.0,1633938452.0,204 203 101 103 102 202
685011e4,1633938519.35351,/beegfs/lgouveia/ior_6/testFile1,34359738368,1633938518.0,1633938518.0,104 201 204 101 202 203
82ec6102,1633938584.312046,/beegfs/lgouveia/ior_6/testFile1,34359738368,1633938583.0,1633938583.0,104 203 103 201 202 102
58086901,1633938651.46664,/beegfs/lgouveia/ior_6/testFile1,34359738368,1633938651.0,1633938651.0,104 204 101 102 103 201
9577b069,1633938717.180903,/beegfs/lgouveia/ior_6/testFile1,34359738368,1633938716.0,1633938716.0,203 104 102 202 103 201
