access,bw,iops,latency,block,xfer,open,wr/rd,close,total,iter,start,end
write,2621.35,2621.86,0.022559,524288,1024.00,0.071232,12.50,10.68,12.50,0,Thu Feb 24 01:07:49 2022,Thu Feb 24 01:08:01 2022
write,2657.74,2658.23,0.012534,524288,1024.00,0.123188,12.33,10.61,12.33,0,Thu Feb 24 01:09:04 2022,Thu Feb 24 01:09:16 2022
write,2682.48,2682.74,0.006936,524288,1024.00,0.109356,12.21,10.86,12.22,0,Thu Feb 24 01:10:18 2022,Thu Feb 24 01:10:31 2022
write,2836.21,2836.63,0.009283,524288,1024.00,0.011601,11.55,9.87,11.55,0,Thu Feb 24 01:11:32 2022,Thu Feb 24 01:11:44 2022
write,2515.13,2515.52,0.023031,524288,1024.00,0.064452,13.03,10.89,13.03,0,Thu Feb 24 01:12:47 2022,Thu Feb 24 01:13:00 2022
write,2420.71,2420.88,0.007150,524288,1024.00,0.014518,13.54,11.24,13.54,0,Thu Feb 24 01:14:02 2022,Thu Feb 24 01:14:16 2022
write,2441.95,2442.11,0.019213,524288,1024.00,0.165124,13.42,11.53,13.42,0,Thu Feb 24 01:15:17 2022,Thu Feb 24 01:15:30 2022
write,2424.60,2424.78,0.004502,524288,1024.00,0.018167,13.51,11.57,13.51,0,Thu Feb 24 01:16:32 2022,Thu Feb 24 01:16:45 2022
write,2565.46,2565.69,0.021923,524288,1024.00,0.160524,12.77,10.99,12.77,0,Thu Feb 24 01:17:47 2022,Thu Feb 24 01:18:00 2022
write,2646.46,2646.68,0.009584,524288,1024.00,0.181986,12.38,10.64,12.38,0,Thu Feb 24 01:19:02 2022,Thu Feb 24 01:19:14 2022
write,2673.24,2673.66,0.014965,524288,1024.00,0.044491,12.26,10.64,12.26,0,Thu Feb 24 01:59:06 2022,Thu Feb 24 01:59:18 2022
write,2503.84,2504.03,0.012664,524288,1024.00,0.131201,13.09,11.24,13.09,0,Thu Feb 24 02:00:21 2022,Thu Feb 24 02:00:35 2022
write,2679.76,2679.97,0.017792,524288,1024.00,0.205764,12.23,10.40,12.23,0,Thu Feb 24 02:01:36 2022,Thu Feb 24 02:01:48 2022
write,2607.95,2608.17,0.019039,524288,1024.00,0.012523,12.56,10.72,12.56,0,Thu Feb 24 02:02:50 2022,Thu Feb 24 02:03:03 2022
write,2538.53,2538.78,0.004572,524288,1024.00,0.214666,12.91,11.31,12.91,0,Thu Feb 24 02:04:04 2022,Thu Feb 24 02:04:17 2022
write,2486.85,2487.01,0.011515,524288,1024.00,0.016637,13.18,11.54,13.18,0,Thu Feb 24 02:05:19 2022,Thu Feb 24 02:05:33 2022
write,2697.73,2698.14,0.016942,524288,1024.00,0.013269,12.14,10.49,12.15,0,Thu Feb 24 02:06:34 2022,Thu Feb 24 02:06:46 2022
write,2657.92,2658.13,0.015407,524288,1024.00,0.124922,12.33,10.86,12.33,0,Thu Feb 24 02:07:50 2022,Thu Feb 24 02:08:02 2022
write,2616.10,2616.29,0.017025,524288,1024.00,0.028777,12.52,11.09,12.53,0,Thu Feb 24 02:09:04 2022,Thu Feb 24 02:09:16 2022
write,2587.39,2587.77,0.019642,524288,1024.00,0.289500,12.66,11.30,12.66,0,Thu Feb 24 02:10:18 2022,Thu Feb 24 02:10:30 2022
write,2649.98,2651.32,0.018980,524288,1024.00,0.217187,12.36,10.63,12.37,0,Thu Feb 24 02:18:37 2022,Thu Feb 24 02:18:49 2022
write,2567.06,2567.27,0.008311,524288,1024.00,0.222260,12.76,11.00,12.76,0,Thu Feb 24 02:19:51 2022,Thu Feb 24 02:20:03 2022
write,2478.06,2478.26,0.018282,524288,1024.00,0.008268,13.22,11.36,13.22,0,Thu Feb 24 02:21:06 2022,Thu Feb 24 02:21:19 2022
write,2664.72,2664.99,0.020361,524288,1024.00,0.017860,12.30,10.36,12.30,0,Thu Feb 24 02:22:20 2022,Thu Feb 24 02:22:33 2022
write,2608.09,2608.60,0.003206,524288,1024.00,0.009038,12.56,11.13,12.56,0,Thu Feb 24 02:23:35 2022,Thu Feb 24 02:23:47 2022
write,2646.19,2646.51,0.012351,524288,1024.00,0.017519,12.38,10.47,12.38,0,Thu Feb 24 02:24:50 2022,Thu Feb 24 02:25:03 2022
write,2743.95,2744.28,0.005479,524288,1024.00,0.112392,11.94,10.30,11.94,0,Thu Feb 24 02:26:05 2022,Thu Feb 24 02:26:17 2022
write,2453.14,2453.36,0.012248,524288,1024.00,0.021523,13.36,12.03,13.36,0,Thu Feb 24 02:27:20 2022,Thu Feb 24 02:27:33 2022
write,2611.39,2611.86,0.018504,524288,1024.00,0.017899,12.55,10.87,12.55,0,Thu Feb 24 02:28:34 2022,Thu Feb 24 02:28:47 2022
write,2410.15,2410.35,0.019661,524288,1024.00,0.010149,13.59,11.37,13.60,0,Thu Feb 24 02:29:50 2022,Thu Feb 24 02:30:04 2022
write,2403.98,2404.13,0.017318,524288,1024.00,0.011872,13.63,11.84,13.63,0,Thu Feb 24 02:47:34 2022,Thu Feb 24 02:47:48 2022
write,2563.20,2563.68,0.015189,524288,1024.00,0.085382,12.78,10.54,12.78,0,Thu Feb 24 02:48:49 2022,Thu Feb 24 02:49:02 2022
write,2601.16,2601.51,0.005541,524288,1024.00,0.013312,12.60,9.75,12.60,0,Thu Feb 24 02:50:04 2022,Thu Feb 24 02:50:17 2022
write,2645.55,2645.79,0.019958,524288,1024.00,0.233506,12.38,10.64,12.39,0,Thu Feb 24 02:51:19 2022,Thu Feb 24 02:51:31 2022
write,2670.62,2670.87,0.007409,524288,1024.00,0.104721,12.27,10.70,12.27,0,Thu Feb 24 02:52:34 2022,Thu Feb 24 02:52:47 2022
write,2495.62,2495.81,0.006165,524288,1024.00,0.021049,13.13,11.73,13.13,0,Thu Feb 24 02:53:48 2022,Thu Feb 24 02:54:01 2022
write,2665.32,2665.59,0.006722,524288,1024.00,0.125623,12.29,10.73,12.29,0,Thu Feb 24 02:55:03 2022,Thu Feb 24 02:55:16 2022
write,2571.69,2572.08,0.018564,524288,1024.00,0.114983,12.74,11.12,12.74,0,Thu Feb 24 02:56:17 2022,Thu Feb 24 02:56:30 2022
write,2603.16,2603.52,0.013802,524288,1024.00,0.139964,12.59,10.55,12.59,0,Thu Feb 24 02:57:32 2022,Thu Feb 24 02:57:45 2022
write,2655.35,2655.56,0.019122,524288,1024.00,0.252712,12.34,10.92,12.34,0,Thu Feb 24 02:58:47 2022,Thu Feb 24 02:59:00 2022
write,2482.18,2482.37,0.015683,524288,1024.00,0.164157,13.20,11.40,13.20,0,Thu Feb 24 03:20:35 2022,Thu Feb 24 03:20:48 2022
write,2498.17,2498.32,0.011505,524288,1024.00,0.014912,13.12,11.08,13.12,0,Thu Feb 24 03:21:50 2022,Thu Feb 24 03:22:03 2022
write,2473.93,2474.12,0.022306,524288,1024.00,0.115438,13.24,11.74,13.25,0,Thu Feb 24 03:23:05 2022,Thu Feb 24 03:23:18 2022
write,2609.37,2611.47,0.015782,524288,1024.00,0.058677,12.55,11.00,12.56,0,Thu Feb 24 03:24:19 2022,Thu Feb 24 03:24:32 2022
write,2401.55,2401.69,0.015362,524288,1024.00,0.013494,13.64,11.79,13.64,0,Thu Feb 24 03:25:35 2022,Thu Feb 24 03:25:49 2022
write,2666.91,2667.08,0.008087,524288,1024.00,0.051790,12.29,10.65,12.29,0,Thu Feb 24 03:26:50 2022,Thu Feb 24 03:27:03 2022
write,2504.07,2504.36,0.020250,524288,1024.00,0.178894,13.08,11.36,13.09,0,Thu Feb 24 03:28:04 2022,Thu Feb 24 03:28:17 2022
write,2647.54,2647.80,0.014227,524288,1024.00,0.068031,12.38,10.72,12.38,0,Thu Feb 24 03:29:20 2022,Thu Feb 24 03:29:32 2022
write,2596.97,2597.21,0.017505,524288,1024.00,0.021748,12.62,10.64,12.62,0,Thu Feb 24 03:30:34 2022,Thu Feb 24 03:30:46 2022
write,2482.02,2482.25,0.021681,524288,1024.00,0.120359,13.20,11.21,13.20,0,Thu Feb 24 03:31:48 2022,Thu Feb 24 03:32:01 2022
write,2622.95,2623.19,0.012128,524288,1024.00,0.018825,12.49,10.33,12.49,0,Thu Feb 24 04:32:06 2022,Thu Feb 24 04:32:19 2022
write,2529.33,2529.65,0.013410,524288,1024.00,0.016226,12.95,11.43,12.96,0,Thu Feb 24 04:33:20 2022,Thu Feb 24 04:33:33 2022
write,2667.55,2667.76,0.020957,524288,1024.00,0.172385,12.28,10.70,12.28,0,Thu Feb 24 04:34:35 2022,Thu Feb 24 04:34:48 2022
write,2533.74,2533.92,0.015404,524288,1024.00,0.011585,12.93,11.14,12.93,0,Thu Feb 24 04:35:49 2022,Thu Feb 24 04:36:02 2022
write,2635.67,2635.85,0.010483,524288,1024.00,0.029824,12.43,10.59,12.43,0,Thu Feb 24 04:37:04 2022,Thu Feb 24 04:37:17 2022
write,2677.01,2677.38,0.009400,524288,1024.00,0.019774,12.24,10.78,12.24,0,Thu Feb 24 04:38:18 2022,Thu Feb 24 04:38:31 2022
write,2684.80,2685.32,0.005556,524288,1024.00,0.013688,12.20,10.86,12.20,0,Thu Feb 24 04:39:33 2022,Thu Feb 24 04:39:45 2022
write,2648.27,2648.63,0.019165,524288,1024.00,0.008078,12.37,10.78,12.37,0,Thu Feb 24 04:40:49 2022,Thu Feb 24 04:41:01 2022
write,2718.31,2720.14,0.019098,524288,1024.00,0.135899,12.05,10.89,12.05,0,Thu Feb 24 04:42:05 2022,Thu Feb 24 04:42:17 2022
write,2443.67,2443.81,0.020488,524288,1024.00,0.019305,13.41,12.20,13.41,0,Thu Feb 24 04:43:20 2022,Thu Feb 24 04:43:33 2022
write,2500.11,2500.28,0.019948,524288,1024.00,0.115202,13.11,11.41,13.11,0,Thu Feb 24 04:46:06 2022,Thu Feb 24 04:46:20 2022
write,2658.04,2659.24,0.020924,524288,1024.00,0.145527,12.32,11.04,12.33,0,Thu Feb 24 04:47:21 2022,Thu Feb 24 04:47:34 2022
write,2404.24,2404.40,0.016973,524288,1024.00,0.009957,13.63,12.49,13.63,0,Thu Feb 24 04:48:36 2022,Thu Feb 24 04:48:50 2022
write,2568.75,2569.19,0.013436,524288,1024.00,0.275682,12.75,10.96,12.76,0,Thu Feb 24 04:49:52 2022,Thu Feb 24 04:50:04 2022
write,2633.98,2634.21,0.017204,524288,1024.00,0.162560,12.44,10.65,12.44,0,Thu Feb 24 04:51:07 2022,Thu Feb 24 04:51:20 2022
write,2656.16,2656.54,0.010842,524288,1024.00,0.061380,12.33,10.35,12.34,0,Thu Feb 24 04:52:21 2022,Thu Feb 24 04:52:34 2022
write,2390.75,2390.92,0.022714,524288,1024.00,0.016762,13.71,12.58,13.71,0,Thu Feb 24 04:53:36 2022,Thu Feb 24 04:53:50 2022
write,2485.44,2486.78,0.021320,524288,1024.00,0.135864,13.18,11.41,13.18,0,Thu Feb 24 04:54:52 2022,Thu Feb 24 04:55:05 2022
write,2685.71,2686.04,0.007686,524288,1024.00,0.007179,12.20,10.27,12.20,0,Thu Feb 24 04:56:07 2022,Thu Feb 24 04:56:19 2022
write,2495.78,2495.97,0.014036,524288,1024.00,0.202167,13.13,11.70,13.13,0,Thu Feb 24 04:57:21 2022,Thu Feb 24 04:57:34 2022
write,2575.80,2576.22,0.011384,524288,1024.00,0.011007,12.72,11.03,12.72,0,Thu Feb 24 05:05:37 2022,Thu Feb 24 05:05:49 2022
write,2453.78,2454.05,0.022961,524288,1024.00,0.016485,13.35,11.86,13.35,0,Thu Feb 24 05:06:52 2022,Thu Feb 24 05:07:05 2022
write,2457.28,2457.55,0.017363,524288,1024.00,0.017241,13.33,11.20,13.34,0,Thu Feb 24 05:08:07 2022,Thu Feb 24 05:08:20 2022
write,2392.14,2392.30,0.015790,524288,1024.00,0.013546,13.70,11.69,13.70,0,Thu Feb 24 05:09:22 2022,Thu Feb 24 05:09:35 2022
write,2582.03,2582.42,0.004181,524288,1024.00,0.116920,12.69,11.27,12.69,0,Thu Feb 24 05:10:37 2022,Thu Feb 24 05:10:49 2022
write,2587.22,2587.71,0.003497,524288,1024.00,0.115592,12.66,11.17,12.67,0,Thu Feb 24 05:11:52 2022,Thu Feb 24 05:12:04 2022
write,2435.45,2435.58,0.022083,524288,1024.00,0.015662,13.45,12.48,13.45,0,Thu Feb 24 05:13:07 2022,Thu Feb 24 05:13:20 2022
write,2648.72,2648.97,0.016057,524288,1024.00,0.123050,12.37,10.55,12.37,0,Thu Feb 24 05:14:22 2022,Thu Feb 24 05:14:34 2022
write,2603.69,2603.90,0.017037,524288,1024.00,0.014876,12.58,10.72,12.59,0,Thu Feb 24 05:15:36 2022,Thu Feb 24 05:15:48 2022
write,2464.32,2464.46,0.011301,524288,1024.00,0.140388,13.30,11.30,13.30,0,Thu Feb 24 05:16:50 2022,Thu Feb 24 05:17:03 2022
