access,bw,iops,latency,block,xfer,open,wr/rd,close,total,iter,start,end
write,2491.09,2491.26,0.015818,524288,1024.00,0.006230,13.15,11.58,13.15,0,Thu Feb 24 00:47:11 2022,Thu Feb 24 00:47:24 2022
write,2517.10,2517.29,0.013066,524288,1024.00,0.008654,13.02,11.22,13.02,0,Thu Feb 24 00:48:26 2022,Thu Feb 24 00:48:39 2022
write,2399.80,2400.00,0.006430,524288,1024.00,0.013038,13.65,12.18,13.65,0,Thu Feb 24 00:49:40 2022,Thu Feb 24 00:49:54 2022
write,2375.32,2375.53,0.012282,524288,1024.00,0.011969,13.79,11.70,13.80,0,Thu Feb 24 00:50:55 2022,Thu Feb 24 00:51:09 2022
write,2636.34,2636.54,0.020760,524288,1024.00,0.023788,12.43,10.87,12.43,0,Thu Feb 24 00:52:11 2022,Thu Feb 24 00:52:23 2022
write,2684.88,2685.11,0.004419,524288,1024.00,0.017927,12.20,10.67,12.20,0,Thu Feb 24 00:53:25 2022,Thu Feb 24 00:53:37 2022
write,2792.33,2792.54,0.013204,524288,1024.00,0.017471,11.73,10.25,11.74,0,Thu Feb 24 00:54:39 2022,Thu Feb 24 00:54:51 2022
write,2543.57,2543.77,0.019407,524288,1024.00,0.015660,12.88,11.36,12.88,0,Thu Feb 24 00:55:53 2022,Thu Feb 24 00:56:06 2022
write,2850.02,2850.23,0.017199,524288,1024.00,0.006517,11.50,10.21,11.50,0,Thu Feb 24 00:57:08 2022,Thu Feb 24 00:57:19 2022
write,2468.65,2468.86,0.024826,524288,1024.00,0.016823,13.27,11.70,13.27,0,Thu Feb 24 00:58:22 2022,Thu Feb 24 00:58:35 2022
write,2490.60,2490.75,0.010747,524288,1024.00,0.023478,13.16,11.31,13.16,0,Thu Feb 24 01:43:48 2022,Thu Feb 24 01:44:01 2022
write,2519.58,2519.75,0.007816,524288,1024.00,0.017589,13.00,11.29,13.01,0,Thu Feb 24 01:45:03 2022,Thu Feb 24 01:45:16 2022
write,2498.54,2498.73,0.023803,524288,1024.00,0.013569,13.11,11.38,13.11,0,Thu Feb 24 01:46:17 2022,Thu Feb 24 01:46:30 2022
write,2685.06,2685.23,0.017432,524288,1024.00,0.014561,12.20,10.88,12.20,0,Thu Feb 24 01:47:32 2022,Thu Feb 24 01:47:44 2022
write,2764.43,2764.62,0.002867,524288,1024.00,0.015935,11.85,10.38,11.85,0,Thu Feb 24 01:48:47 2022,Thu Feb 24 01:48:59 2022
write,2561.94,2562.13,0.009222,524288,1024.00,0.021499,12.79,11.22,12.79,0,Thu Feb 24 01:50:01 2022,Thu Feb 24 01:50:14 2022
write,2617.21,2617.34,0.002932,524288,1024.00,0.007242,12.52,11.05,12.52,0,Thu Feb 24 01:51:16 2022,Thu Feb 24 01:51:29 2022
write,2910.25,2910.48,0.018236,524288,1024.00,0.020017,11.26,9.86,11.26,0,Thu Feb 24 01:52:30 2022,Thu Feb 24 01:52:41 2022
write,2524.21,2524.43,0.013909,524288,1024.00,0.024056,12.98,11.34,12.98,0,Thu Feb 24 01:53:44 2022,Thu Feb 24 01:53:57 2022
write,2567.99,2568.14,0.014256,524288,1024.00,0.005307,12.76,11.19,12.76,0,Thu Feb 24 01:54:59 2022,Thu Feb 24 01:55:11 2022
write,2555.15,2555.36,0.018902,524288,1024.00,0.016108,12.82,11.15,12.82,0,Thu Feb 24 02:31:07 2022,Thu Feb 24 02:31:20 2022
write,2614.18,2614.45,0.012332,524288,1024.00,0.029680,12.53,10.97,12.53,0,Thu Feb 24 02:32:22 2022,Thu Feb 24 02:32:35 2022
write,2637.61,2637.88,0.015983,524288,1024.00,0.016211,12.42,11.04,12.42,0,Thu Feb 24 02:33:36 2022,Thu Feb 24 02:33:48 2022
write,2545.43,2545.69,0.008853,524288,1024.00,0.018602,12.87,11.41,12.87,0,Thu Feb 24 02:34:50 2022,Thu Feb 24 02:35:03 2022
write,2583.21,2583.56,0.017344,524288,1024.00,0.013607,12.68,11.09,12.69,0,Thu Feb 24 02:36:04 2022,Thu Feb 24 02:36:17 2022
write,2748.55,2748.88,0.019976,524288,1024.00,0.014716,11.92,10.38,11.92,0,Thu Feb 24 02:37:18 2022,Thu Feb 24 02:37:30 2022
write,2604.18,2604.41,0.010924,524288,1024.00,0.024084,12.58,10.90,12.58,0,Thu Feb 24 02:38:33 2022,Thu Feb 24 02:38:45 2022
write,2660.90,2661.18,0.010001,524288,1024.00,0.007890,12.31,10.61,12.31,0,Thu Feb 24 02:39:46 2022,Thu Feb 24 02:39:59 2022
write,2570.80,2571.00,0.015342,524288,1024.00,0.019781,12.75,11.00,12.75,0,Thu Feb 24 02:41:00 2022,Thu Feb 24 02:41:13 2022
write,2356.00,2356.13,0.009798,524288,1024.00,0.017190,13.91,12.24,13.91,0,Thu Feb 24 02:42:15 2022,Thu Feb 24 02:42:28 2022
write,2517.90,2518.08,0.022046,524288,1024.00,0.010389,13.01,11.16,13.01,0,Thu Feb 24 03:06:35 2022,Thu Feb 24 03:06:48 2022
write,2474.90,2475.09,0.011662,524288,1024.00,0.017920,13.24,11.88,13.24,0,Thu Feb 24 03:07:49 2022,Thu Feb 24 03:08:02 2022
write,2627.18,2627.39,0.010248,524288,1024.00,0.006638,12.47,10.81,12.47,0,Thu Feb 24 03:09:04 2022,Thu Feb 24 03:09:16 2022
write,2601.57,2601.73,0.020731,524288,1024.00,0.008825,12.59,10.67,12.60,0,Thu Feb 24 03:10:18 2022,Thu Feb 24 03:10:31 2022
write,2478.44,2478.62,0.004200,524288,1024.00,0.014479,13.22,11.68,13.22,0,Thu Feb 24 03:11:32 2022,Thu Feb 24 03:11:45 2022
write,2585.69,2585.88,0.017997,524288,1024.00,0.021426,12.67,11.10,12.67,0,Thu Feb 24 03:12:47 2022,Thu Feb 24 03:13:00 2022
write,2821.67,2821.86,0.015236,524288,1024.00,0.019241,11.61,10.39,11.61,0,Thu Feb 24 03:14:01 2022,Thu Feb 24 03:14:13 2022
write,2536.18,2536.36,0.016328,524288,1024.00,0.008569,12.92,11.42,12.92,0,Thu Feb 24 03:15:15 2022,Thu Feb 24 03:15:28 2022
write,2561.46,2561.64,0.016378,524288,1024.00,0.008927,12.79,11.21,12.79,0,Thu Feb 24 03:16:29 2022,Thu Feb 24 03:16:42 2022
write,2748.13,2748.35,0.013517,524288,1024.00,0.022723,11.92,10.37,11.92,0,Thu Feb 24 03:17:44 2022,Thu Feb 24 03:17:56 2022
write,2474.12,2474.30,0.008703,524288,1024.00,0.022275,13.24,11.69,13.24,0,Thu Feb 24 04:14:36 2022,Thu Feb 24 04:14:49 2022
write,2619.77,2619.94,0.009763,524288,1024.00,0.021870,12.51,11.09,12.51,0,Thu Feb 24 04:15:51 2022,Thu Feb 24 04:16:04 2022
write,2563.75,2563.94,0.020113,524288,1024.00,0.017363,12.78,11.27,12.78,0,Thu Feb 24 04:17:05 2022,Thu Feb 24 04:17:18 2022
write,2579.33,2579.50,0.013669,524288,1024.00,0.016546,12.70,11.13,12.70,0,Thu Feb 24 04:18:20 2022,Thu Feb 24 04:18:32 2022
write,2584.31,2584.50,0.004282,524288,1024.00,0.007579,12.68,11.06,12.68,0,Thu Feb 24 04:19:34 2022,Thu Feb 24 04:19:46 2022
write,2679.76,2679.93,0.017043,524288,1024.00,0.014380,12.23,10.64,12.23,0,Thu Feb 24 04:20:48 2022,Thu Feb 24 04:21:00 2022
write,2534.37,2534.55,0.003817,524288,1024.00,0.005383,12.93,11.13,12.93,0,Thu Feb 24 04:22:02 2022,Thu Feb 24 04:22:15 2022
write,2549.63,2549.81,0.012975,524288,1024.00,0.008815,12.85,11.53,12.85,0,Thu Feb 24 04:23:16 2022,Thu Feb 24 04:23:29 2022
write,2507.18,2507.36,0.003521,524288,1024.00,0.005180,13.07,11.29,13.07,0,Thu Feb 24 04:24:31 2022,Thu Feb 24 04:24:44 2022
write,2567.34,2567.52,0.018634,524288,1024.00,0.025508,12.76,11.13,12.76,0,Thu Feb 24 04:25:45 2022,Thu Feb 24 04:25:58 2022
write,2742.19,2742.38,0.004514,524288,1024.00,0.010753,11.95,10.34,11.95,0,Thu Feb 24 05:25:37 2022,Thu Feb 24 05:25:49 2022
write,2344.06,2344.25,0.007895,524288,1024.00,0.018415,13.98,12.01,13.98,0,Thu Feb 24 05:26:52 2022,Thu Feb 24 05:27:06 2022
write,2563.76,2563.94,0.017282,524288,1024.00,0.017343,12.78,11.28,12.78,0,Thu Feb 24 05:28:07 2022,Thu Feb 24 05:28:20 2022
write,2276.08,2276.26,0.003790,524288,1024.00,0.018338,14.40,12.49,14.40,0,Thu Feb 24 05:29:21 2022,Thu Feb 24 05:29:36 2022
write,2592.31,2592.49,0.015042,524288,1024.00,0.010902,12.64,11.01,12.64,0,Thu Feb 24 05:30:37 2022,Thu Feb 24 05:30:50 2022
write,2597.89,2598.09,0.007535,524288,1024.00,0.018440,12.61,10.96,12.61,0,Thu Feb 24 05:31:51 2022,Thu Feb 24 05:32:04 2022
write,2618.96,2619.14,0.021089,524288,1024.00,0.026427,12.51,10.89,12.51,0,Thu Feb 24 05:33:06 2022,Thu Feb 24 05:33:18 2022
write,2538.67,2538.85,0.012807,524288,1024.00,0.016195,12.91,11.05,12.91,0,Thu Feb 24 05:34:20 2022,Thu Feb 24 05:34:33 2022
write,2827.00,2827.28,0.014497,524288,1024.00,0.018471,11.59,10.07,11.59,0,Thu Feb 24 05:35:35 2022,Thu Feb 24 05:35:46 2022
write,2791.20,2791.41,0.004841,524288,1024.00,0.010522,11.74,10.45,11.74,0,Thu Feb 24 05:36:49 2022,Thu Feb 24 05:37:01 2022
write,2621.62,2621.98,0.015761,524288,1024.00,0.012796,12.50,11.22,12.50,0,Wed Feb 23 16:56:10 2022,Wed Feb 23 16:56:23 2022
write,2170.94,2171.06,0.022360,524288,1024.00,0.011416,15.09,13.96,15.09,0,Wed Feb 23 16:57:27 2022,Wed Feb 23 16:57:42 2022
write,2520.10,2520.27,0.014403,524288,1024.00,0.017789,13.00,11.69,13.00,0,Wed Feb 23 16:58:44 2022,Wed Feb 23 16:58:57 2022
write,2668.78,2668.97,0.005558,524288,1024.00,0.016580,12.28,10.88,12.28,0,Wed Feb 23 17:00:01 2022,Wed Feb 23 17:00:14 2022
write,2575.88,2576.06,0.011803,524288,1024.00,0.012173,12.72,11.56,12.72,0,Wed Feb 23 17:01:19 2022,Wed Feb 23 17:01:32 2022
write,2427.77,2427.97,0.009957,524288,1024.00,0.018797,13.50,11.92,13.50,0,Wed Feb 23 17:02:36 2022,Wed Feb 23 17:02:49 2022
write,2463.85,2464.00,0.003441,524288,1024.00,0.017524,13.30,11.65,13.30,0,Wed Feb 23 17:03:51 2022,Wed Feb 23 17:04:05 2022
write,2399.50,2399.69,0.013148,524288,1024.00,0.022345,13.66,12.15,13.66,0,Wed Feb 23 17:05:08 2022,Wed Feb 23 17:05:22 2022
write,2509.23,2509.42,0.016752,524288,1024.00,0.010267,13.06,11.63,13.06,0,Wed Feb 23 17:06:24 2022,Wed Feb 23 17:06:37 2022
write,2702.45,2702.65,0.020088,524288,1024.00,0.011469,12.12,10.39,12.13,0,Wed Feb 23 17:07:39 2022,Wed Feb 23 17:07:51 2022
write,2451.21,2451.38,0.016083,524288,1024.00,0.023518,13.37,11.72,13.37,0,Wed Feb 23 17:13:58 2022,Wed Feb 23 17:14:11 2022
write,2406.42,2406.58,0.016366,524288,1024.00,0.006112,13.62,12.07,13.62,0,Wed Feb 23 17:15:15 2022,Wed Feb 23 17:15:29 2022
write,2693.04,2693.26,0.017726,524288,1024.00,0.011907,12.17,10.62,12.17,0,Wed Feb 23 17:16:31 2022,Wed Feb 23 17:16:44 2022
write,2601.42,2601.66,0.021832,524288,1024.00,0.016948,12.60,10.97,12.60,0,Wed Feb 23 17:17:48 2022,Wed Feb 23 17:18:01 2022
write,2509.37,2509.55,0.013549,524288,1024.00,0.017012,13.06,11.87,13.06,0,Wed Feb 23 17:19:03 2022,Wed Feb 23 17:19:17 2022
write,2565.68,2565.85,0.009251,524288,1024.00,0.019987,12.77,11.40,12.77,0,Wed Feb 23 17:20:18 2022,Wed Feb 23 17:20:31 2022
write,2368.97,2369.14,0.015641,524288,1024.00,0.012422,13.83,12.09,13.83,0,Wed Feb 23 17:21:36 2022,Wed Feb 23 17:21:49 2022
write,2455.19,2455.39,0.022783,524288,1024.00,0.006102,13.35,11.98,13.35,0,Wed Feb 23 17:22:51 2022,Wed Feb 23 17:23:04 2022
write,2417.25,2417.38,0.017019,524288,1024.00,0.016727,13.56,12.59,13.56,0,Wed Feb 23 17:24:07 2022,Wed Feb 23 17:24:20 2022
write,2453.03,2453.20,0.012171,524288,1024.00,0.021871,13.36,12.02,13.36,0,Wed Feb 23 17:25:23 2022,Wed Feb 23 17:25:37 2022
write,2497.81,2497.97,0.019222,524288,1024.00,0.010847,13.12,11.77,13.12,0,Wed Feb 23 17:33:46 2022,Wed Feb 23 17:33:59 2022
write,2756.23,2756.48,0.002705,524288,1024.00,0.015171,11.89,10.55,11.89,0,Wed Feb 23 17:35:04 2022,Wed Feb 23 17:35:16 2022
write,2125.84,2126.01,0.025901,524288,1024.00,0.017746,15.41,14.14,15.41,0,Wed Feb 23 17:36:20 2022,Wed Feb 23 17:36:36 2022
write,2476.86,2477.03,0.022047,524288,1024.00,0.014296,13.23,11.80,13.23,0,Wed Feb 23 17:37:37 2022,Wed Feb 23 17:37:50 2022
write,2380.57,2380.72,0.003854,524288,1024.00,0.016129,13.76,12.33,13.76,0,Wed Feb 23 17:38:53 2022,Wed Feb 23 17:39:07 2022
write,2310.00,2310.15,0.015519,524288,1024.00,0.007670,14.18,12.97,14.19,0,Wed Feb 23 17:40:10 2022,Wed Feb 23 17:40:24 2022
write,2526.54,2526.73,0.019080,524288,1024.00,0.005826,12.97,11.50,12.97,0,Wed Feb 23 17:41:25 2022,Wed Feb 23 17:41:38 2022
write,2389.06,2389.21,0.012198,524288,1024.00,0.009450,13.72,11.81,13.72,0,Wed Feb 23 17:42:40 2022,Wed Feb 23 17:42:54 2022
write,2286.38,2286.52,0.015772,524288,1024.00,0.013875,14.33,13.02,14.33,0,Wed Feb 23 17:43:55 2022,Wed Feb 23 17:44:09 2022
write,2390.63,2390.84,0.012087,524288,1024.00,0.018909,13.71,12.47,13.71,0,Wed Feb 23 17:45:11 2022,Wed Feb 23 17:45:25 2022
