===== My JOB Information ====
Node List:  bora[002,004-005,016,029-030]
my jobID:  1359732
Partition: routage
submit directory:  /home/lgouveia/luan-teylo/results/IOR/scalability_model/compute_nodes/06
submit host:  devel01.plafrim.cluster
In the directory: /home/lgouveia/luan-teylo/results/IOR/scalability_model/compute_nodes/06
As the user: lgouveia
============================
IOR-3.4.0+dev: MPI Coordinated Test of Parallel I/O
Began               : Tue Jul  6 14:36:17 2021
Command line        : /home/lgouveia/ior/bin/ior -w -t 1m -b 682m -k -o /beegfs/lgouveia/ior_8/testFile1
Machine             : Linux bora002.plafrim.cluster
TestID              : 0
StartTime           : Tue Jul  6 14:36:17 2021
Path                : /beegfs/lgouveia/ior_8/testFile1
FS                  : 130.9 TiB   Used FS: 20.5%   Inodes: 0.0 Mi   Used Inodes: -nan%

Options: 
api                 : POSIX
apiVersion          : 
test filename       : /beegfs/lgouveia/ior_8/testFile1
access              : single-shared-file
type                : independent
segments            : 1
ordering in a file  : sequential
ordering inter file : no tasks offsets
nodes               : 6
tasks               : 48
clients per node    : 8
repetitions         : 1
xfersize            : 1 MiB
blocksize           : 682 MiB
aggregate filesize  : 31.97 GiB

Results: 
WARNING: The file "/beegfs/lgouveia/ior_8/testFile1" exists already and will be overwritten

access    bw(MiB/s)  IOPS       Latency(s)  block(KiB) xfer(KiB)  open(s)    wr/rd(s)   close(s)   total(s)   iter
------    ---------  ----       ----------  ---------- ---------  --------   --------   --------   --------   ----
write     2159.68    2159.88    0.008489    698368     1024.00    0.016534   15.16      13.06      15.16      0   

Summary of all tests:
Operation   Max(MiB)   Min(MiB)  Mean(MiB)     StdDev   Max(OPs)   Min(OPs)  Mean(OPs)     StdDev    Mean(s) Stonewall(s) Stonewall(MiB) Test# #Tasks tPN reps fPP reord reordoff reordrand seed segcnt   blksiz    xsize aggs(MiB)   API RefNum
write        2159.68    2159.68    2159.68       0.00    2159.68    2159.68    2159.68       0.00   15.15778         NA            NA     0     48   8    1   0     0        1         0    0      1 715128832  1048576   32736.0 POSIX      0
Finished            : Tue Jul  6 14:36:32 2021
Tracking /beegfs/lgouveia/ior_8/testFile1...



Writing tracked information to tracker.csv...
IOR-3.4.0+dev: MPI Coordinated Test of Parallel I/O
Began               : Tue Jul  6 14:37:36 2021
Command line        : /home/lgouveia/ior/bin/ior -w -t 1m -b 682m -k -o /beegfs/lgouveia/ior_8/testFile1
Machine             : Linux bora002.plafrim.cluster
TestID              : 0
StartTime           : Tue Jul  6 14:37:36 2021
Path                : /beegfs/lgouveia/ior_8/testFile1
FS                  : 130.9 TiB   Used FS: 20.5%   Inodes: 0.0 Mi   Used Inodes: -nan%

Options: 
api                 : POSIX
apiVersion          : 
test filename       : /beegfs/lgouveia/ior_8/testFile1
access              : single-shared-file
type                : independent
segments            : 1
ordering in a file  : sequential
ordering inter file : no tasks offsets
nodes               : 6
tasks               : 48
clients per node    : 8
repetitions         : 1
xfersize            : 1 MiB
blocksize           : 682 MiB
aggregate filesize  : 31.97 GiB

Results: 
WARNING: The file "/beegfs/lgouveia/ior_8/testFile1" exists already and will be overwritten

access    bw(MiB/s)  IOPS       Latency(s)  block(KiB) xfer(KiB)  open(s)    wr/rd(s)   close(s)   total(s)   iter
------    ---------  ----       ----------  ---------- ---------  --------   --------   --------   --------   ----
write     2145.39    2145.58    0.005969    698368     1024.00    0.005849   15.26      13.03      15.26      0   

Summary of all tests:
Operation   Max(MiB)   Min(MiB)  Mean(MiB)     StdDev   Max(OPs)   Min(OPs)  Mean(OPs)     StdDev    Mean(s) Stonewall(s) Stonewall(MiB) Test# #Tasks tPN reps fPP reord reordoff reordrand seed segcnt   blksiz    xsize aggs(MiB)   API RefNum
write        2145.39    2145.39    2145.39       0.00    2145.39    2145.39    2145.39       0.00   15.25879         NA            NA     0     48   8    1   0     0        1         0    0      1 715128832  1048576   32736.0 POSIX      0
Finished            : Tue Jul  6 14:37:51 2021
Tracking /beegfs/lgouveia/ior_8/testFile1...



Writing tracked information to tracker.csv...
IOR-3.4.0+dev: MPI Coordinated Test of Parallel I/O
Began               : Tue Jul  6 14:38:52 2021
Command line        : /home/lgouveia/ior/bin/ior -w -t 1m -b 682m -k -o /beegfs/lgouveia/ior_8/testFile1
Machine             : Linux bora002.plafrim.cluster
TestID              : 0
StartTime           : Tue Jul  6 14:38:52 2021
Path                : /beegfs/lgouveia/ior_8/testFile1
FS                  : 130.9 TiB   Used FS: 20.5%   Inodes: 0.0 Mi   Used Inodes: -nan%

Options: 
api                 : POSIX
apiVersion          : 
test filename       : /beegfs/lgouveia/ior_8/testFile1
access              : single-shared-file
type                : independent
segments            : 1
ordering in a file  : sequential
ordering inter file : no tasks offsets
nodes               : 6
tasks               : 48
clients per node    : 8
repetitions         : 1
xfersize            : 1 MiB
blocksize           : 682 MiB
aggregate filesize  : 31.97 GiB

Results: 
WARNING: The file "/beegfs/lgouveia/ior_8/testFile1" exists already and will be overwritten

access    bw(MiB/s)  IOPS       Latency(s)  block(KiB) xfer(KiB)  open(s)    wr/rd(s)   close(s)   total(s)   iter
------    ---------  ----       ----------  ---------- ---------  --------   --------   --------   --------   ----
write     2188.76    2188.93    0.004695    698368     1024.00    0.005624   14.96      12.93      14.96      0   

Summary of all tests:
Operation   Max(MiB)   Min(MiB)  Mean(MiB)     StdDev   Max(OPs)   Min(OPs)  Mean(OPs)     StdDev    Mean(s) Stonewall(s) Stonewall(MiB) Test# #Tasks tPN reps fPP reord reordoff reordrand seed segcnt   blksiz    xsize aggs(MiB)   API RefNum
write        2188.76    2188.76    2188.76       0.00    2188.76    2188.76    2188.76       0.00   14.95643         NA            NA     0     48   8    1   0     0        1         0    0      1 715128832  1048576   32736.0 POSIX      0
Finished            : Tue Jul  6 14:39:07 2021
Tracking /beegfs/lgouveia/ior_8/testFile1...



Writing tracked information to tracker.csv...
IOR-3.4.0+dev: MPI Coordinated Test of Parallel I/O
Began               : Tue Jul  6 14:40:08 2021
Command line        : /home/lgouveia/ior/bin/ior -w -t 1m -b 682m -k -o /beegfs/lgouveia/ior_8/testFile1
Machine             : Linux bora002.plafrim.cluster
TestID              : 0
StartTime           : Tue Jul  6 14:40:08 2021
Path                : /beegfs/lgouveia/ior_8/testFile1
FS                  : 130.9 TiB   Used FS: 20.5%   Inodes: 0.0 Mi   Used Inodes: -nan%

Options: 
api                 : POSIX
apiVersion          : 
test filename       : /beegfs/lgouveia/ior_8/testFile1
access              : single-shared-file
type                : independent
segments            : 1
ordering in a file  : sequential
ordering inter file : no tasks offsets
nodes               : 6
tasks               : 48
clients per node    : 8
repetitions         : 1
xfersize            : 1 MiB
blocksize           : 682 MiB
aggregate filesize  : 31.97 GiB

Results: 
WARNING: The file "/beegfs/lgouveia/ior_8/testFile1" exists already and will be overwritten

access    bw(MiB/s)  IOPS       Latency(s)  block(KiB) xfer(KiB)  open(s)    wr/rd(s)   close(s)   total(s)   iter
------    ---------  ----       ----------  ---------- ---------  --------   --------   --------   --------   ----
write     2145.78    2145.95    0.003601    698368     1024.00    0.006008   15.25      13.12      15.26      0   

Summary of all tests:
Operation   Max(MiB)   Min(MiB)  Mean(MiB)     StdDev   Max(OPs)   Min(OPs)  Mean(OPs)     StdDev    Mean(s) Stonewall(s) Stonewall(MiB) Test# #Tasks tPN reps fPP reord reordoff reordrand seed segcnt   blksiz    xsize aggs(MiB)   API RefNum
write        2145.78    2145.78    2145.78       0.00    2145.78    2145.78    2145.78       0.00   15.25596         NA            NA     0     48   8    1   0     0        1         0    0      1 715128832  1048576   32736.0 POSIX      0
Finished            : Tue Jul  6 14:40:23 2021
Tracking /beegfs/lgouveia/ior_8/testFile1...



Writing tracked information to tracker.csv...
IOR-3.4.0+dev: MPI Coordinated Test of Parallel I/O
Began               : Tue Jul  6 14:41:24 2021
Command line        : /home/lgouveia/ior/bin/ior -w -t 1m -b 682m -k -o /beegfs/lgouveia/ior_8/testFile1
Machine             : Linux bora002.plafrim.cluster
TestID              : 0
StartTime           : Tue Jul  6 14:41:24 2021
Path                : /beegfs/lgouveia/ior_8/testFile1
FS                  : 130.9 TiB   Used FS: 20.5%   Inodes: 0.0 Mi   Used Inodes: -nan%

Options: 
api                 : POSIX
apiVersion          : 
test filename       : /beegfs/lgouveia/ior_8/testFile1
access              : single-shared-file
type                : independent
segments            : 1
ordering in a file  : sequential
ordering inter file : no tasks offsets
nodes               : 6
tasks               : 48
clients per node    : 8
repetitions         : 1
xfersize            : 1 MiB
blocksize           : 682 MiB
aggregate filesize  : 31.97 GiB

Results: 
WARNING: The file "/beegfs/lgouveia/ior_8/testFile1" exists already and will be overwritten

access    bw(MiB/s)  IOPS       Latency(s)  block(KiB) xfer(KiB)  open(s)    wr/rd(s)   close(s)   total(s)   iter
------    ---------  ----       ----------  ---------- ---------  --------   --------   --------   --------   ----
write     2168.13    2168.26    0.004852    698368     1024.00    0.012946   15.10      13.01      15.10      0   

Summary of all tests:
Operation   Max(MiB)   Min(MiB)  Mean(MiB)     StdDev   Max(OPs)   Min(OPs)  Mean(OPs)     StdDev    Mean(s) Stonewall(s) Stonewall(MiB) Test# #Tasks tPN reps fPP reord reordoff reordrand seed segcnt   blksiz    xsize aggs(MiB)   API RefNum
write        2168.13    2168.13    2168.13       0.00    2168.13    2168.13    2168.13       0.00   15.09873         NA            NA     0     48   8    1   0     0        1         0    0      1 715128832  1048576   32736.0 POSIX      0
Finished            : Tue Jul  6 14:41:39 2021
Tracking /beegfs/lgouveia/ior_8/testFile1...



Writing tracked information to tracker.csv...
IOR-3.4.0+dev: MPI Coordinated Test of Parallel I/O
Began               : Tue Jul  6 14:42:40 2021
Command line        : /home/lgouveia/ior/bin/ior -w -t 1m -b 682m -k -o /beegfs/lgouveia/ior_8/testFile1
Machine             : Linux bora002.plafrim.cluster
TestID              : 0
StartTime           : Tue Jul  6 14:42:40 2021
Path                : /beegfs/lgouveia/ior_8/testFile1
FS                  : 130.9 TiB   Used FS: 20.5%   Inodes: 0.0 Mi   Used Inodes: -nan%

Options: 
api                 : POSIX
apiVersion          : 
test filename       : /beegfs/lgouveia/ior_8/testFile1
access              : single-shared-file
type                : independent
segments            : 1
ordering in a file  : sequential
ordering inter file : no tasks offsets
nodes               : 6
tasks               : 48
clients per node    : 8
repetitions         : 1
xfersize            : 1 MiB
blocksize           : 682 MiB
aggregate filesize  : 31.97 GiB

Results: 
WARNING: The file "/beegfs/lgouveia/ior_8/testFile1" exists already and will be overwritten

access    bw(MiB/s)  IOPS       Latency(s)  block(KiB) xfer(KiB)  open(s)    wr/rd(s)   close(s)   total(s)   iter
------    ---------  ----       ----------  ---------- ---------  --------   --------   --------   --------   ----
write     2151.13    2151.30    0.005905    698368     1024.00    0.005511   15.22      13.05      15.22      0   

Summary of all tests:
Operation   Max(MiB)   Min(MiB)  Mean(MiB)     StdDev   Max(OPs)   Min(OPs)  Mean(OPs)     StdDev    Mean(s) Stonewall(s) Stonewall(MiB) Test# #Tasks tPN reps fPP reord reordoff reordrand seed segcnt   blksiz    xsize aggs(MiB)   API RefNum
write        2151.13    2151.13    2151.13       0.00    2151.13    2151.13    2151.13       0.00   15.21805         NA            NA     0     48   8    1   0     0        1         0    0      1 715128832  1048576   32736.0 POSIX      0
Finished            : Tue Jul  6 14:42:55 2021
Tracking /beegfs/lgouveia/ior_8/testFile1...



Writing tracked information to tracker.csv...
IOR-3.4.0+dev: MPI Coordinated Test of Parallel I/O
Began               : Tue Jul  6 14:43:56 2021
Command line        : /home/lgouveia/ior/bin/ior -w -t 1m -b 682m -k -o /beegfs/lgouveia/ior_8/testFile1
Machine             : Linux bora002.plafrim.cluster
TestID              : 0
StartTime           : Tue Jul  6 14:43:56 2021
Path                : /beegfs/lgouveia/ior_8/testFile1
FS                  : 130.9 TiB   Used FS: 20.5%   Inodes: 0.0 Mi   Used Inodes: -nan%

Options: 
api                 : POSIX
apiVersion          : 
test filename       : /beegfs/lgouveia/ior_8/testFile1
access              : single-shared-file
type                : independent
segments            : 1
ordering in a file  : sequential
ordering inter file : no tasks offsets
nodes               : 6
tasks               : 48
clients per node    : 8
repetitions         : 1
xfersize            : 1 MiB
blocksize           : 682 MiB
aggregate filesize  : 31.97 GiB

Results: 
WARNING: The file "/beegfs/lgouveia/ior_8/testFile1" exists already and will be overwritten

access    bw(MiB/s)  IOPS       Latency(s)  block(KiB) xfer(KiB)  open(s)    wr/rd(s)   close(s)   total(s)   iter
------    ---------  ----       ----------  ---------- ---------  --------   --------   --------   --------   ----
write     2156.50    2156.65    0.012865    698368     1024.00    0.010837   15.18      13.06      15.18      0   

Summary of all tests:
Operation   Max(MiB)   Min(MiB)  Mean(MiB)     StdDev   Max(OPs)   Min(OPs)  Mean(OPs)     StdDev    Mean(s) Stonewall(s) Stonewall(MiB) Test# #Tasks tPN reps fPP reord reordoff reordrand seed segcnt   blksiz    xsize aggs(MiB)   API RefNum
write        2156.50    2156.50    2156.50       0.00    2156.50    2156.50    2156.50       0.00   15.18017         NA            NA     0     48   8    1   0     0        1         0    0      1 715128832  1048576   32736.0 POSIX      0
Finished            : Tue Jul  6 14:44:11 2021
Tracking /beegfs/lgouveia/ior_8/testFile1...



Writing tracked information to tracker.csv...
IOR-3.4.0+dev: MPI Coordinated Test of Parallel I/O
Began               : Tue Jul  6 14:45:12 2021
Command line        : /home/lgouveia/ior/bin/ior -w -t 1m -b 682m -k -o /beegfs/lgouveia/ior_8/testFile1
Machine             : Linux bora002.plafrim.cluster
TestID              : 0
StartTime           : Tue Jul  6 14:45:12 2021
Path                : /beegfs/lgouveia/ior_8/testFile1
FS                  : 130.9 TiB   Used FS: 20.5%   Inodes: 0.0 Mi   Used Inodes: -nan%

Options: 
api                 : POSIX
apiVersion          : 
test filename       : /beegfs/lgouveia/ior_8/testFile1
access              : single-shared-file
type                : independent
segments            : 1
ordering in a file  : sequential
ordering inter file : no tasks offsets
nodes               : 6
tasks               : 48
clients per node    : 8
repetitions         : 1
xfersize            : 1 MiB
blocksize           : 682 MiB
aggregate filesize  : 31.97 GiB

Results: 
WARNING: The file "/beegfs/lgouveia/ior_8/testFile1" exists already and will be overwritten

access    bw(MiB/s)  IOPS       Latency(s)  block(KiB) xfer(KiB)  open(s)    wr/rd(s)   close(s)   total(s)   iter
------    ---------  ----       ----------  ---------- ---------  --------   --------   --------   --------   ----
write     2160.61    2160.77    0.005498    698368     1024.00    0.005942   15.15      13.27      15.15      0   

Summary of all tests:
Operation   Max(MiB)   Min(MiB)  Mean(MiB)     StdDev   Max(OPs)   Min(OPs)  Mean(OPs)     StdDev    Mean(s) Stonewall(s) Stonewall(MiB) Test# #Tasks tPN reps fPP reord reordoff reordrand seed segcnt   blksiz    xsize aggs(MiB)   API RefNum
write        2160.61    2160.61    2160.61       0.00    2160.61    2160.61    2160.61       0.00   15.15127         NA            NA     0     48   8    1   0     0        1         0    0      1 715128832  1048576   32736.0 POSIX      0
Finished            : Tue Jul  6 14:45:27 2021
Tracking /beegfs/lgouveia/ior_8/testFile1...



Writing tracked information to tracker.csv...
IOR-3.4.0+dev: MPI Coordinated Test of Parallel I/O
Began               : Tue Jul  6 14:46:28 2021
Command line        : /home/lgouveia/ior/bin/ior -w -t 1m -b 682m -k -o /beegfs/lgouveia/ior_8/testFile1
Machine             : Linux bora002.plafrim.cluster
TestID              : 0
StartTime           : Tue Jul  6 14:46:28 2021
Path                : /beegfs/lgouveia/ior_8/testFile1
FS                  : 130.9 TiB   Used FS: 20.5%   Inodes: 0.0 Mi   Used Inodes: -nan%

Options: 
api                 : POSIX
apiVersion          : 
test filename       : /beegfs/lgouveia/ior_8/testFile1
access              : single-shared-file
type                : independent
segments            : 1
ordering in a file  : sequential
ordering inter file : no tasks offsets
nodes               : 6
tasks               : 48
clients per node    : 8
repetitions         : 1
xfersize            : 1 MiB
blocksize           : 682 MiB
aggregate filesize  : 31.97 GiB

Results: 
WARNING: The file "/beegfs/lgouveia/ior_8/testFile1" exists already and will be overwritten

access    bw(MiB/s)  IOPS       Latency(s)  block(KiB) xfer(KiB)  open(s)    wr/rd(s)   close(s)   total(s)   iter
------    ---------  ----       ----------  ---------- ---------  --------   --------   --------   --------   ----
write     2117.79    2117.97    0.002964    698368     1024.00    0.005957   15.46      13.44      15.46      0   

Summary of all tests:
Operation   Max(MiB)   Min(MiB)  Mean(MiB)     StdDev   Max(OPs)   Min(OPs)  Mean(OPs)     StdDev    Mean(s) Stonewall(s) Stonewall(MiB) Test# #Tasks tPN reps fPP reord reordoff reordrand seed segcnt   blksiz    xsize aggs(MiB)   API RefNum
write        2117.79    2117.79    2117.79       0.00    2117.79    2117.79    2117.79       0.00   15.45762         NA            NA     0     48   8    1   0     0        1         0    0      1 715128832  1048576   32736.0 POSIX      0
Finished            : Tue Jul  6 14:46:44 2021
Tracking /beegfs/lgouveia/ior_8/testFile1...



Writing tracked information to tracker.csv...
IOR-3.4.0+dev: MPI Coordinated Test of Parallel I/O
Began               : Tue Jul  6 14:47:44 2021
Command line        : /home/lgouveia/ior/bin/ior -w -t 1m -b 682m -k -o /beegfs/lgouveia/ior_8/testFile1
Machine             : Linux bora002.plafrim.cluster
TestID              : 0
StartTime           : Tue Jul  6 14:47:44 2021
Path                : /beegfs/lgouveia/ior_8/testFile1
FS                  : 130.9 TiB   Used FS: 20.5%   Inodes: 0.0 Mi   Used Inodes: -nan%

Options: 
api                 : POSIX
apiVersion          : 
test filename       : /beegfs/lgouveia/ior_8/testFile1
access              : single-shared-file
type                : independent
segments            : 1
ordering in a file  : sequential
ordering inter file : no tasks offsets
nodes               : 6
tasks               : 48
clients per node    : 8
repetitions         : 1
xfersize            : 1 MiB
blocksize           : 682 MiB
aggregate filesize  : 31.97 GiB

Results: 
WARNING: The file "/beegfs/lgouveia/ior_8/testFile1" exists already and will be overwritten

access    bw(MiB/s)  IOPS       Latency(s)  block(KiB) xfer(KiB)  open(s)    wr/rd(s)   close(s)   total(s)   iter
------    ---------  ----       ----------  ---------- ---------  --------   --------   --------   --------   ----
write     2081.41    2081.58    0.011969    698368     1024.00    0.006073   15.73      13.46      15.73      0   

Summary of all tests:
Operation   Max(MiB)   Min(MiB)  Mean(MiB)     StdDev   Max(OPs)   Min(OPs)  Mean(OPs)     StdDev    Mean(s) Stonewall(s) Stonewall(MiB) Test# #Tasks tPN reps fPP reord reordoff reordrand seed segcnt   blksiz    xsize aggs(MiB)   API RefNum
write        2081.41    2081.41    2081.41       0.00    2081.41    2081.41    2081.41       0.00   15.72783         NA            NA     0     48   8    1   0     0        1         0    0      1 715128832  1048576   32736.0 POSIX      0
Finished            : Tue Jul  6 14:48:00 2021
Tracking /beegfs/lgouveia/ior_8/testFile1...



Writing tracked information to tracker.csv...
