tracker_id,tracker_timestamp,file,size,ctime,mtime,storage_targets
8ecb74d0,1644055720.831312,/beegfs/lgouveia/ior_4/testFile1,34359738368,1644055720.0,1644055720.0,201 103 102 104
3efe5d8f,1644055770.693919,/beegfs/lgouveia/ior_4/testFile1,34359738368,1644055770.0,1644055770.0,101 202 204 203
d4293a2a,1644055821.964616,/beegfs/lgouveia/ior_4/testFile1,34359738368,1644055821.0,1644055821.0,102 201 103 104
edfdb6b2,1644055872.611666,/beegfs/lgouveia/ior_4/testFile1,34359738368,1644055872.0,1644055872.0,101 202 204 203
60d8b8a8,1644055923.921509,/beegfs/lgouveia/ior_4/testFile1,34359738368,1644055923.0,1644055923.0,104 201 102 103
d26da14d,1644057445.079653,/beegfs/lgouveia/ior_4/testFile1,34359738368,1644057444.0,1644057444.0,201 104 102 103
9469fdc9,1644057495.877385,/beegfs/lgouveia/ior_4/testFile1,34359738368,1644057495.0,1644057495.0,203 204 202 101
fcb3e479,1644057547.261592,/beegfs/lgouveia/ior_4/testFile1,34359738368,1644057546.0,1644057546.0,102 104 201 103
b920c494,1644057598.705394,/beegfs/lgouveia/ior_4/testFile1,34359738368,1644057598.0,1644057598.0,101 203 204 202
e8051afa,1644057650.034475,/beegfs/lgouveia/ior_4/testFile1,34359738368,1644057649.0,1644057649.0,104 102 201 103
82fded98,1644057814.279183,/beegfs/lgouveia/ior_4/testFile1,34359738368,1644057813.0,1644057813.0,103 104 201 102
1414b558,1644057865.20275,/beegfs/lgouveia/ior_4/testFile1,34359738368,1644057864.0,1644057864.0,204 203 202 101
de019130,1644057917.081178,/beegfs/lgouveia/ior_4/testFile1,34359738368,1644057916.0,1644057916.0,103 102 104 201
1824cdca,1644057967.911075,/beegfs/lgouveia/ior_4/testFile1,34359738368,1644057967.0,1644057967.0,203 204 101 202
3174333b,1644058019.30496,/beegfs/lgouveia/ior_4/testFile1,34359738368,1644058018.0,1644058018.0,103 201 104 102
1b7c29d2,1644060277.185173,/beegfs/lgouveia/ior_4/testFile1,34359738368,1644060276.0,1644060276.0,103 104 201 102
1394b601,1644060328.704131,/beegfs/lgouveia/ior_4/testFile1,34359738368,1644060328.0,1644060328.0,101 202 203 204
d041b5a8,1644060380.256698,/beegfs/lgouveia/ior_4/testFile1,34359738368,1644060379.0,1644060379.0,104 102 201 103
67473a54,1644060432.126705,/beegfs/lgouveia/ior_4/testFile1,34359738368,1644060431.0,1644060431.0,102 201 103 104
3ce64f34,1644060483.742384,/beegfs/lgouveia/ior_4/testFile1,34359738368,1644060483.0,1644060483.0,204 203 101 202
cd9c358e,1644063690.389026,/beegfs/lgouveia/ior_4/testFile1,34359738368,1644063689.0,1644063689.0,203 202 204 101
c9831ba9,1644063741.874553,/beegfs/lgouveia/ior_4/testFile1,34359738368,1644063741.0,1644063741.0,104 102 201 103
88ecf548,1644063793.533066,/beegfs/lgouveia/ior_4/testFile1,34359738368,1644063793.0,1644063793.0,204 101 203 202
f2dea6f5,1644063844.73456,/beegfs/lgouveia/ior_4/testFile1,34359738368,1644063844.0,1644063844.0,102 103 201 104
c6e12146,1644063895.993096,/beegfs/lgouveia/ior_4/testFile1,34359738368,1644063895.0,1644063895.0,204 203 202 101
