===== My JOB Information ====
Node List:  bora[002-007]
my jobID:  1362756
Partition: routage
submit directory:  /home/lgouveia/luan-teylo/results/IOR/scalability_model/compute_nodes/4_targets/06
submit host:  devel03.plafrim.cluster
In the directory: /home/lgouveia/luan-teylo/results/IOR/scalability_model/compute_nodes/4_targets/06
As the user: lgouveia
============================
IOR-3.4.0+dev: MPI Coordinated Test of Parallel I/O
Began               : Wed Jul 14 00:27:12 2021
Command line        : /home/lgouveia/ior/bin/ior -w -t 1m -b 682m -k -o /beegfs/lgouveia/ior_4/testFile1
Machine             : Linux bora002.plafrim.cluster
TestID              : 0
StartTime           : Wed Jul 14 00:27:12 2021
Path                : /beegfs/lgouveia/ior_4/testFile1
FS                  : 130.9 TiB   Used FS: 20.8%   Inodes: 0.0 Mi   Used Inodes: -nan%

Options: 
api                 : POSIX
apiVersion          : 
test filename       : /beegfs/lgouveia/ior_4/testFile1
access              : single-shared-file
type                : independent
segments            : 1
ordering in a file  : sequential
ordering inter file : no tasks offsets
nodes               : 6
tasks               : 48
clients per node    : 8
repetitions         : 1
xfersize            : 1 MiB
blocksize           : 682 MiB
aggregate filesize  : 31.97 GiB

Results: 
WARNING: The file "/beegfs/lgouveia/ior_4/testFile1" exists already and will be overwritten

access    bw(MiB/s)  IOPS       Latency(s)  block(KiB) xfer(KiB)  open(s)    wr/rd(s)   close(s)   total(s)   iter
------    ---------  ----       ----------  ---------- ---------  --------   --------   --------   --------   ----
write     1484.54    1484.62    0.004922    698368     1024.00    0.004507   22.05      19.19      22.05      0   

Summary of all tests:
Operation   Max(MiB)   Min(MiB)  Mean(MiB)     StdDev   Max(OPs)   Min(OPs)  Mean(OPs)     StdDev    Mean(s) Stonewall(s) Stonewall(MiB) Test# #Tasks tPN reps fPP reord reordoff reordrand seed segcnt   blksiz    xsize aggs(MiB)   API RefNum
write        1484.54    1484.54    1484.54       0.00    1484.54    1484.54    1484.54       0.00   22.05127         NA            NA     0     48   8    1   0     0        1         0    0      1 715128832  1048576   32736.0 POSIX      0
Finished            : Wed Jul 14 00:27:35 2021
Tracking /beegfs/lgouveia/ior_4/testFile1...



Writing tracked information to tracker.csv...
IOR-3.4.0+dev: MPI Coordinated Test of Parallel I/O
Began               : Wed Jul 14 00:28:38 2021
Command line        : /home/lgouveia/ior/bin/ior -w -t 1m -b 682m -k -o /beegfs/lgouveia/ior_4/testFile1
Machine             : Linux bora002.plafrim.cluster
TestID              : 0
StartTime           : Wed Jul 14 00:28:38 2021
Path                : /beegfs/lgouveia/ior_4/testFile1
FS                  : 130.9 TiB   Used FS: 20.8%   Inodes: 0.0 Mi   Used Inodes: -nan%

Options: 
api                 : POSIX
apiVersion          : 
test filename       : /beegfs/lgouveia/ior_4/testFile1
access              : single-shared-file
type                : independent
segments            : 1
ordering in a file  : sequential
ordering inter file : no tasks offsets
nodes               : 6
tasks               : 48
clients per node    : 8
repetitions         : 1
xfersize            : 1 MiB
blocksize           : 682 MiB
aggregate filesize  : 31.97 GiB

Results: 
WARNING: The file "/beegfs/lgouveia/ior_4/testFile1" exists already and will be overwritten

access    bw(MiB/s)  IOPS       Latency(s)  block(KiB) xfer(KiB)  open(s)    wr/rd(s)   close(s)   total(s)   iter
------    ---------  ----       ----------  ---------- ---------  --------   --------   --------   --------   ----
write     1464.70    1464.77    0.011201    698368     1024.00    0.004749   22.35      19.56      22.35      0   

Summary of all tests:
Operation   Max(MiB)   Min(MiB)  Mean(MiB)     StdDev   Max(OPs)   Min(OPs)  Mean(OPs)     StdDev    Mean(s) Stonewall(s) Stonewall(MiB) Test# #Tasks tPN reps fPP reord reordoff reordrand seed segcnt   blksiz    xsize aggs(MiB)   API RefNum
write        1464.70    1464.70    1464.70       0.00    1464.70    1464.70    1464.70       0.00   22.34997         NA            NA     0     48   8    1   0     0        1         0    0      1 715128832  1048576   32736.0 POSIX      0
Finished            : Wed Jul 14 00:29:00 2021
Tracking /beegfs/lgouveia/ior_4/testFile1...



Writing tracked information to tracker.csv...
IOR-3.4.0+dev: MPI Coordinated Test of Parallel I/O
Began               : Wed Jul 14 00:30:01 2021
Command line        : /home/lgouveia/ior/bin/ior -w -t 1m -b 682m -k -o /beegfs/lgouveia/ior_4/testFile1
Machine             : Linux bora002.plafrim.cluster
TestID              : 0
StartTime           : Wed Jul 14 00:30:01 2021
Path                : /beegfs/lgouveia/ior_4/testFile1
FS                  : 130.9 TiB   Used FS: 20.8%   Inodes: 0.0 Mi   Used Inodes: -nan%

Options: 
api                 : POSIX
apiVersion          : 
test filename       : /beegfs/lgouveia/ior_4/testFile1
access              : single-shared-file
type                : independent
segments            : 1
ordering in a file  : sequential
ordering inter file : no tasks offsets
nodes               : 6
tasks               : 48
clients per node    : 8
repetitions         : 1
xfersize            : 1 MiB
blocksize           : 682 MiB
aggregate filesize  : 31.97 GiB

Results: 
WARNING: The file "/beegfs/lgouveia/ior_4/testFile1" exists already and will be overwritten

access    bw(MiB/s)  IOPS       Latency(s)  block(KiB) xfer(KiB)  open(s)    wr/rd(s)   close(s)   total(s)   iter
------    ---------  ----       ----------  ---------- ---------  --------   --------   --------   --------   ----
write     1473.26    1473.35    0.008251    698368     1024.00    0.004982   22.22      19.39      22.22      0   

Summary of all tests:
Operation   Max(MiB)   Min(MiB)  Mean(MiB)     StdDev   Max(OPs)   Min(OPs)  Mean(OPs)     StdDev    Mean(s) Stonewall(s) Stonewall(MiB) Test# #Tasks tPN reps fPP reord reordoff reordrand seed segcnt   blksiz    xsize aggs(MiB)   API RefNum
write        1473.26    1473.26    1473.26       0.00    1473.26    1473.26    1473.26       0.00   22.22012         NA            NA     0     48   8    1   0     0        1         0    0      1 715128832  1048576   32736.0 POSIX      0
Finished            : Wed Jul 14 00:30:23 2021
Tracking /beegfs/lgouveia/ior_4/testFile1...



Writing tracked information to tracker.csv...
IOR-3.4.0+dev: MPI Coordinated Test of Parallel I/O
Began               : Wed Jul 14 00:31:24 2021
Command line        : /home/lgouveia/ior/bin/ior -w -t 1m -b 682m -k -o /beegfs/lgouveia/ior_4/testFile1
Machine             : Linux bora002.plafrim.cluster
TestID              : 0
StartTime           : Wed Jul 14 00:31:24 2021
Path                : /beegfs/lgouveia/ior_4/testFile1
FS                  : 130.9 TiB   Used FS: 20.8%   Inodes: 0.0 Mi   Used Inodes: -nan%

Options: 
api                 : POSIX
apiVersion          : 
test filename       : /beegfs/lgouveia/ior_4/testFile1
access              : single-shared-file
type                : independent
segments            : 1
ordering in a file  : sequential
ordering inter file : no tasks offsets
nodes               : 6
tasks               : 48
clients per node    : 8
repetitions         : 1
xfersize            : 1 MiB
blocksize           : 682 MiB
aggregate filesize  : 31.97 GiB

Results: 
WARNING: The file "/beegfs/lgouveia/ior_4/testFile1" exists already and will be overwritten

access    bw(MiB/s)  IOPS       Latency(s)  block(KiB) xfer(KiB)  open(s)    wr/rd(s)   close(s)   total(s)   iter
------    ---------  ----       ----------  ---------- ---------  --------   --------   --------   --------   ----
write     1468.52    1468.60    0.013963    698368     1024.00    0.005005   22.29      19.57      22.29      0   

Summary of all tests:
Operation   Max(MiB)   Min(MiB)  Mean(MiB)     StdDev   Max(OPs)   Min(OPs)  Mean(OPs)     StdDev    Mean(s) Stonewall(s) Stonewall(MiB) Test# #Tasks tPN reps fPP reord reordoff reordrand seed segcnt   blksiz    xsize aggs(MiB)   API RefNum
write        1468.52    1468.52    1468.52       0.00    1468.52    1468.52    1468.52       0.00   22.29176         NA            NA     0     48   8    1   0     0        1         0    0      1 715128832  1048576   32736.0 POSIX      0
Finished            : Wed Jul 14 00:31:46 2021
Tracking /beegfs/lgouveia/ior_4/testFile1...



Writing tracked information to tracker.csv...
IOR-3.4.0+dev: MPI Coordinated Test of Parallel I/O
Began               : Wed Jul 14 00:32:47 2021
Command line        : /home/lgouveia/ior/bin/ior -w -t 1m -b 682m -k -o /beegfs/lgouveia/ior_4/testFile1
Machine             : Linux bora002.plafrim.cluster
TestID              : 0
StartTime           : Wed Jul 14 00:32:47 2021
Path                : /beegfs/lgouveia/ior_4/testFile1
FS                  : 130.9 TiB   Used FS: 20.8%   Inodes: 0.0 Mi   Used Inodes: -nan%

Options: 
api                 : POSIX
apiVersion          : 
test filename       : /beegfs/lgouveia/ior_4/testFile1
access              : single-shared-file
type                : independent
segments            : 1
ordering in a file  : sequential
ordering inter file : no tasks offsets
nodes               : 6
tasks               : 48
clients per node    : 8
repetitions         : 1
xfersize            : 1 MiB
blocksize           : 682 MiB
aggregate filesize  : 31.97 GiB

Results: 
WARNING: The file "/beegfs/lgouveia/ior_4/testFile1" exists already and will be overwritten

access    bw(MiB/s)  IOPS       Latency(s)  block(KiB) xfer(KiB)  open(s)    wr/rd(s)   close(s)   total(s)   iter
------    ---------  ----       ----------  ---------- ---------  --------   --------   --------   --------   ----
write     1471.08    1471.15    0.011459    698368     1024.00    0.005122   22.25      19.40      22.25      0   

Summary of all tests:
Operation   Max(MiB)   Min(MiB)  Mean(MiB)     StdDev   Max(OPs)   Min(OPs)  Mean(OPs)     StdDev    Mean(s) Stonewall(s) Stonewall(MiB) Test# #Tasks tPN reps fPP reord reordoff reordrand seed segcnt   blksiz    xsize aggs(MiB)   API RefNum
write        1471.08    1471.08    1471.08       0.00    1471.08    1471.08    1471.08       0.00   22.25299         NA            NA     0     48   8    1   0     0        1         0    0      1 715128832  1048576   32736.0 POSIX      0
Finished            : Wed Jul 14 00:33:10 2021
Tracking /beegfs/lgouveia/ior_4/testFile1...



Writing tracked information to tracker.csv...
IOR-3.4.0+dev: MPI Coordinated Test of Parallel I/O
Began               : Wed Jul 14 00:34:11 2021
Command line        : /home/lgouveia/ior/bin/ior -w -t 1m -b 682m -k -o /beegfs/lgouveia/ior_4/testFile1
Machine             : Linux bora002.plafrim.cluster
TestID              : 0
StartTime           : Wed Jul 14 00:34:11 2021
Path                : /beegfs/lgouveia/ior_4/testFile1
FS                  : 130.9 TiB   Used FS: 20.8%   Inodes: 0.0 Mi   Used Inodes: -nan%

Options: 
api                 : POSIX
apiVersion          : 
test filename       : /beegfs/lgouveia/ior_4/testFile1
access              : single-shared-file
type                : independent
segments            : 1
ordering in a file  : sequential
ordering inter file : no tasks offsets
nodes               : 6
tasks               : 48
clients per node    : 8
repetitions         : 1
xfersize            : 1 MiB
blocksize           : 682 MiB
aggregate filesize  : 31.97 GiB

Results: 
WARNING: The file "/beegfs/lgouveia/ior_4/testFile1" exists already and will be overwritten

access    bw(MiB/s)  IOPS       Latency(s)  block(KiB) xfer(KiB)  open(s)    wr/rd(s)   close(s)   total(s)   iter
------    ---------  ----       ----------  ---------- ---------  --------   --------   --------   --------   ----
write     1452.19    1452.28    0.032536    698368     1024.00    0.004749   22.54      19.72      22.54      0   

Summary of all tests:
Operation   Max(MiB)   Min(MiB)  Mean(MiB)     StdDev   Max(OPs)   Min(OPs)  Mean(OPs)     StdDev    Mean(s) Stonewall(s) Stonewall(MiB) Test# #Tasks tPN reps fPP reord reordoff reordrand seed segcnt   blksiz    xsize aggs(MiB)   API RefNum
write        1452.19    1452.19    1452.19       0.00    1452.19    1452.19    1452.19       0.00   22.54256         NA            NA     0     48   8    1   0     0        1         0    0      1 715128832  1048576   32736.0 POSIX      0
Finished            : Wed Jul 14 00:34:33 2021
Tracking /beegfs/lgouveia/ior_4/testFile1...



Writing tracked information to tracker.csv...
IOR-3.4.0+dev: MPI Coordinated Test of Parallel I/O
Began               : Wed Jul 14 00:35:34 2021
Command line        : /home/lgouveia/ior/bin/ior -w -t 1m -b 682m -k -o /beegfs/lgouveia/ior_4/testFile1
Machine             : Linux bora002.plafrim.cluster
TestID              : 0
StartTime           : Wed Jul 14 00:35:34 2021
Path                : /beegfs/lgouveia/ior_4/testFile1
FS                  : 130.9 TiB   Used FS: 20.8%   Inodes: 0.0 Mi   Used Inodes: -nan%

Options: 
api                 : POSIX
apiVersion          : 
test filename       : /beegfs/lgouveia/ior_4/testFile1
access              : single-shared-file
type                : independent
segments            : 1
ordering in a file  : sequential
ordering inter file : no tasks offsets
nodes               : 6
tasks               : 48
clients per node    : 8
repetitions         : 1
xfersize            : 1 MiB
blocksize           : 682 MiB
aggregate filesize  : 31.97 GiB

Results: 
WARNING: The file "/beegfs/lgouveia/ior_4/testFile1" exists already and will be overwritten

access    bw(MiB/s)  IOPS       Latency(s)  block(KiB) xfer(KiB)  open(s)    wr/rd(s)   close(s)   total(s)   iter
------    ---------  ----       ----------  ---------- ---------  --------   --------   --------   --------   ----
write     1460.56    1460.62    0.008260    698368     1024.00    0.008056   22.41      19.55      22.41      0   

Summary of all tests:
Operation   Max(MiB)   Min(MiB)  Mean(MiB)     StdDev   Max(OPs)   Min(OPs)  Mean(OPs)     StdDev    Mean(s) Stonewall(s) Stonewall(MiB) Test# #Tasks tPN reps fPP reord reordoff reordrand seed segcnt   blksiz    xsize aggs(MiB)   API RefNum
write        1460.56    1460.56    1460.56       0.00    1460.56    1460.56    1460.56       0.00   22.41338         NA            NA     0     48   8    1   0     0        1         0    0      1 715128832  1048576   32736.0 POSIX      0
Finished            : Wed Jul 14 00:35:56 2021
Tracking /beegfs/lgouveia/ior_4/testFile1...



Writing tracked information to tracker.csv...
IOR-3.4.0+dev: MPI Coordinated Test of Parallel I/O
Began               : Wed Jul 14 00:36:57 2021
Command line        : /home/lgouveia/ior/bin/ior -w -t 1m -b 682m -k -o /beegfs/lgouveia/ior_4/testFile1
Machine             : Linux bora002.plafrim.cluster
TestID              : 0
StartTime           : Wed Jul 14 00:36:57 2021
Path                : /beegfs/lgouveia/ior_4/testFile1
FS                  : 130.9 TiB   Used FS: 20.8%   Inodes: 0.0 Mi   Used Inodes: -nan%

Options: 
api                 : POSIX
apiVersion          : 
test filename       : /beegfs/lgouveia/ior_4/testFile1
access              : single-shared-file
type                : independent
segments            : 1
ordering in a file  : sequential
ordering inter file : no tasks offsets
nodes               : 6
tasks               : 48
clients per node    : 8
repetitions         : 1
xfersize            : 1 MiB
blocksize           : 682 MiB
aggregate filesize  : 31.97 GiB

Results: 
WARNING: The file "/beegfs/lgouveia/ior_4/testFile1" exists already and will be overwritten

access    bw(MiB/s)  IOPS       Latency(s)  block(KiB) xfer(KiB)  open(s)    wr/rd(s)   close(s)   total(s)   iter
------    ---------  ----       ----------  ---------- ---------  --------   --------   --------   --------   ----
write     1470.10    1470.21    0.016129    698368     1024.00    0.005089   22.27      19.44      22.27      0   

Summary of all tests:
Operation   Max(MiB)   Min(MiB)  Mean(MiB)     StdDev   Max(OPs)   Min(OPs)  Mean(OPs)     StdDev    Mean(s) Stonewall(s) Stonewall(MiB) Test# #Tasks tPN reps fPP reord reordoff reordrand seed segcnt   blksiz    xsize aggs(MiB)   API RefNum
write        1470.10    1470.10    1470.10       0.00    1470.10    1470.10    1470.10       0.00   22.26780         NA            NA     0     48   8    1   0     0        1         0    0      1 715128832  1048576   32736.0 POSIX      0
Finished            : Wed Jul 14 00:37:20 2021
Tracking /beegfs/lgouveia/ior_4/testFile1...



Writing tracked information to tracker.csv...
IOR-3.4.0+dev: MPI Coordinated Test of Parallel I/O
Began               : Wed Jul 14 00:38:21 2021
Command line        : /home/lgouveia/ior/bin/ior -w -t 1m -b 682m -k -o /beegfs/lgouveia/ior_4/testFile1
Machine             : Linux bora002.plafrim.cluster
TestID              : 0
StartTime           : Wed Jul 14 00:38:21 2021
Path                : /beegfs/lgouveia/ior_4/testFile1
FS                  : 130.9 TiB   Used FS: 20.8%   Inodes: 0.0 Mi   Used Inodes: -nan%

Options: 
api                 : POSIX
apiVersion          : 
test filename       : /beegfs/lgouveia/ior_4/testFile1
access              : single-shared-file
type                : independent
segments            : 1
ordering in a file  : sequential
ordering inter file : no tasks offsets
nodes               : 6
tasks               : 48
clients per node    : 8
repetitions         : 1
xfersize            : 1 MiB
blocksize           : 682 MiB
aggregate filesize  : 31.97 GiB

Results: 
WARNING: The file "/beegfs/lgouveia/ior_4/testFile1" exists already and will be overwritten

access    bw(MiB/s)  IOPS       Latency(s)  block(KiB) xfer(KiB)  open(s)    wr/rd(s)   close(s)   total(s)   iter
------    ---------  ----       ----------  ---------- ---------  --------   --------   --------   --------   ----
write     1471.59    1471.68    0.012403    698368     1024.00    0.011626   22.24      19.30      22.25      0   

Summary of all tests:
Operation   Max(MiB)   Min(MiB)  Mean(MiB)     StdDev   Max(OPs)   Min(OPs)  Mean(OPs)     StdDev    Mean(s) Stonewall(s) Stonewall(MiB) Test# #Tasks tPN reps fPP reord reordoff reordrand seed segcnt   blksiz    xsize aggs(MiB)   API RefNum
write        1471.59    1471.59    1471.59       0.00    1471.59    1471.59    1471.59       0.00   22.24526         NA            NA     0     48   8    1   0     0        1         0    0      1 715128832  1048576   32736.0 POSIX      0
Finished            : Wed Jul 14 00:38:43 2021
Tracking /beegfs/lgouveia/ior_4/testFile1...



Writing tracked information to tracker.csv...
IOR-3.4.0+dev: MPI Coordinated Test of Parallel I/O
Began               : Wed Jul 14 00:39:44 2021
Command line        : /home/lgouveia/ior/bin/ior -w -t 1m -b 682m -k -o /beegfs/lgouveia/ior_4/testFile1
Machine             : Linux bora002.plafrim.cluster
TestID              : 0
StartTime           : Wed Jul 14 00:39:44 2021
Path                : /beegfs/lgouveia/ior_4/testFile1
FS                  : 130.9 TiB   Used FS: 20.8%   Inodes: 0.0 Mi   Used Inodes: -nan%

Options: 
api                 : POSIX
apiVersion          : 
test filename       : /beegfs/lgouveia/ior_4/testFile1
access              : single-shared-file
type                : independent
segments            : 1
ordering in a file  : sequential
ordering inter file : no tasks offsets
nodes               : 6
tasks               : 48
clients per node    : 8
repetitions         : 1
xfersize            : 1 MiB
blocksize           : 682 MiB
aggregate filesize  : 31.97 GiB

Results: 
WARNING: The file "/beegfs/lgouveia/ior_4/testFile1" exists already and will be overwritten

access    bw(MiB/s)  IOPS       Latency(s)  block(KiB) xfer(KiB)  open(s)    wr/rd(s)   close(s)   total(s)   iter
------    ---------  ----       ----------  ---------- ---------  --------   --------   --------   --------   ----
write     1456.07    1456.14    0.004226    698368     1024.00    0.005206   22.48      19.62      22.48      0   

Summary of all tests:
Operation   Max(MiB)   Min(MiB)  Mean(MiB)     StdDev   Max(OPs)   Min(OPs)  Mean(OPs)     StdDev    Mean(s) Stonewall(s) Stonewall(MiB) Test# #Tasks tPN reps fPP reord reordoff reordrand seed segcnt   blksiz    xsize aggs(MiB)   API RefNum
write        1456.07    1456.07    1456.07       0.00    1456.07    1456.07    1456.07       0.00   22.48245         NA            NA     0     48   8    1   0     0        1         0    0      1 715128832  1048576   32736.0 POSIX      0
Finished            : Wed Jul 14 00:40:06 2021
Tracking /beegfs/lgouveia/ior_4/testFile1...



Writing tracked information to tracker.csv...
