===== My JOB Information ====
Node List:  bora[002-007]
my jobID:  1362757
Partition: routage
submit directory:  /home/lgouveia/luan-teylo/results/IOR/scalability_model/compute_nodes/4_targets/06
submit host:  devel03.plafrim.cluster
In the directory: /home/lgouveia/luan-teylo/results/IOR/scalability_model/compute_nodes/4_targets/06
As the user: lgouveia
============================
IOR-3.4.0+dev: MPI Coordinated Test of Parallel I/O
Began               : Wed Jul 14 00:49:01 2021
Command line        : /home/lgouveia/ior/bin/ior -w -t 1m -b 682m -k -o /beegfs/lgouveia/ior_4/testFile1
Machine             : Linux bora002.plafrim.cluster
TestID              : 0
StartTime           : Wed Jul 14 00:49:01 2021
Path                : /beegfs/lgouveia/ior_4/testFile1
FS                  : 130.9 TiB   Used FS: 20.8%   Inodes: 0.0 Mi   Used Inodes: -nan%

Options: 
api                 : POSIX
apiVersion          : 
test filename       : /beegfs/lgouveia/ior_4/testFile1
access              : single-shared-file
type                : independent
segments            : 1
ordering in a file  : sequential
ordering inter file : no tasks offsets
nodes               : 6
tasks               : 48
clients per node    : 8
repetitions         : 1
xfersize            : 1 MiB
blocksize           : 682 MiB
aggregate filesize  : 31.97 GiB

Results: 
WARNING: The file "/beegfs/lgouveia/ior_4/testFile1" exists already and will be overwritten

access    bw(MiB/s)  IOPS       Latency(s)  block(KiB) xfer(KiB)  open(s)    wr/rd(s)   close(s)   total(s)   iter
------    ---------  ----       ----------  ---------- ---------  --------   --------   --------   --------   ----
write     1467.75    1467.82    0.019017    698368     1024.00    0.015207   22.30      19.46      22.30      0   

Summary of all tests:
Operation   Max(MiB)   Min(MiB)  Mean(MiB)     StdDev   Max(OPs)   Min(OPs)  Mean(OPs)     StdDev    Mean(s) Stonewall(s) Stonewall(MiB) Test# #Tasks tPN reps fPP reord reordoff reordrand seed segcnt   blksiz    xsize aggs(MiB)   API RefNum
write        1467.75    1467.75    1467.75       0.00    1467.75    1467.75    1467.75       0.00   22.30358         NA            NA     0     48   8    1   0     0        1         0    0      1 715128832  1048576   32736.0 POSIX      0
Finished            : Wed Jul 14 00:49:24 2021
Tracking /beegfs/lgouveia/ior_4/testFile1...



Writing tracked information to tracker.csv...
IOR-3.4.0+dev: MPI Coordinated Test of Parallel I/O
Began               : Wed Jul 14 00:50:27 2021
Command line        : /home/lgouveia/ior/bin/ior -w -t 1m -b 682m -k -o /beegfs/lgouveia/ior_4/testFile1
Machine             : Linux bora002.plafrim.cluster
TestID              : 0
StartTime           : Wed Jul 14 00:50:27 2021
Path                : /beegfs/lgouveia/ior_4/testFile1
FS                  : 130.9 TiB   Used FS: 20.8%   Inodes: 0.0 Mi   Used Inodes: -nan%

Options: 
api                 : POSIX
apiVersion          : 
test filename       : /beegfs/lgouveia/ior_4/testFile1
access              : single-shared-file
type                : independent
segments            : 1
ordering in a file  : sequential
ordering inter file : no tasks offsets
nodes               : 6
tasks               : 48
clients per node    : 8
repetitions         : 1
xfersize            : 1 MiB
blocksize           : 682 MiB
aggregate filesize  : 31.97 GiB

Results: 
WARNING: The file "/beegfs/lgouveia/ior_4/testFile1" exists already and will be overwritten

access    bw(MiB/s)  IOPS       Latency(s)  block(KiB) xfer(KiB)  open(s)    wr/rd(s)   close(s)   total(s)   iter
------    ---------  ----       ----------  ---------- ---------  --------   --------   --------   --------   ----
write     1480.41    1480.49    0.008874    698368     1024.00    0.005048   22.11      19.32      22.11      0   

Summary of all tests:
Operation   Max(MiB)   Min(MiB)  Mean(MiB)     StdDev   Max(OPs)   Min(OPs)  Mean(OPs)     StdDev    Mean(s) Stonewall(s) Stonewall(MiB) Test# #Tasks tPN reps fPP reord reordoff reordrand seed segcnt   blksiz    xsize aggs(MiB)   API RefNum
write        1480.41    1480.41    1480.41       0.00    1480.41    1480.41    1480.41       0.00   22.11281         NA            NA     0     48   8    1   0     0        1         0    0      1 715128832  1048576   32736.0 POSIX      0
Finished            : Wed Jul 14 00:50:49 2021
Tracking /beegfs/lgouveia/ior_4/testFile1...



Writing tracked information to tracker.csv...
IOR-3.4.0+dev: MPI Coordinated Test of Parallel I/O
Began               : Wed Jul 14 00:51:50 2021
Command line        : /home/lgouveia/ior/bin/ior -w -t 1m -b 682m -k -o /beegfs/lgouveia/ior_4/testFile1
Machine             : Linux bora002.plafrim.cluster
TestID              : 0
StartTime           : Wed Jul 14 00:51:50 2021
Path                : /beegfs/lgouveia/ior_4/testFile1
FS                  : 130.9 TiB   Used FS: 20.8%   Inodes: 0.0 Mi   Used Inodes: -nan%

Options: 
api                 : POSIX
apiVersion          : 
test filename       : /beegfs/lgouveia/ior_4/testFile1
access              : single-shared-file
type                : independent
segments            : 1
ordering in a file  : sequential
ordering inter file : no tasks offsets
nodes               : 6
tasks               : 48
clients per node    : 8
repetitions         : 1
xfersize            : 1 MiB
blocksize           : 682 MiB
aggregate filesize  : 31.97 GiB

Results: 
WARNING: The file "/beegfs/lgouveia/ior_4/testFile1" exists already and will be overwritten

access    bw(MiB/s)  IOPS       Latency(s)  block(KiB) xfer(KiB)  open(s)    wr/rd(s)   close(s)   total(s)   iter
------    ---------  ----       ----------  ---------- ---------  --------   --------   --------   --------   ----
write     1469.36    1469.43    0.004211    698368     1024.00    0.004838   22.28      19.44      22.28      0   

Summary of all tests:
Operation   Max(MiB)   Min(MiB)  Mean(MiB)     StdDev   Max(OPs)   Min(OPs)  Mean(OPs)     StdDev    Mean(s) Stonewall(s) Stonewall(MiB) Test# #Tasks tPN reps fPP reord reordoff reordrand seed segcnt   blksiz    xsize aggs(MiB)   API RefNum
write        1469.36    1469.36    1469.36       0.00    1469.36    1469.36    1469.36       0.00   22.27914         NA            NA     0     48   8    1   0     0        1         0    0      1 715128832  1048576   32736.0 POSIX      0
Finished            : Wed Jul 14 00:52:13 2021
Tracking /beegfs/lgouveia/ior_4/testFile1...



Writing tracked information to tracker.csv...
IOR-3.4.0+dev: MPI Coordinated Test of Parallel I/O
Began               : Wed Jul 14 00:53:13 2021
Command line        : /home/lgouveia/ior/bin/ior -w -t 1m -b 682m -k -o /beegfs/lgouveia/ior_4/testFile1
Machine             : Linux bora002.plafrim.cluster
TestID              : 0
StartTime           : Wed Jul 14 00:53:13 2021
Path                : /beegfs/lgouveia/ior_4/testFile1
FS                  : 130.9 TiB   Used FS: 20.8%   Inodes: 0.0 Mi   Used Inodes: -nan%

Options: 
api                 : POSIX
apiVersion          : 
test filename       : /beegfs/lgouveia/ior_4/testFile1
access              : single-shared-file
type                : independent
segments            : 1
ordering in a file  : sequential
ordering inter file : no tasks offsets
nodes               : 6
tasks               : 48
clients per node    : 8
repetitions         : 1
xfersize            : 1 MiB
blocksize           : 682 MiB
aggregate filesize  : 31.97 GiB

Results: 
WARNING: The file "/beegfs/lgouveia/ior_4/testFile1" exists already and will be overwritten

access    bw(MiB/s)  IOPS       Latency(s)  block(KiB) xfer(KiB)  open(s)    wr/rd(s)   close(s)   total(s)   iter
------    ---------  ----       ----------  ---------- ---------  --------   --------   --------   --------   ----
write     1478.25    1478.33    0.008179    698368     1024.00    0.004908   22.14      19.26      22.15      0   

Summary of all tests:
Operation   Max(MiB)   Min(MiB)  Mean(MiB)     StdDev   Max(OPs)   Min(OPs)  Mean(OPs)     StdDev    Mean(s) Stonewall(s) Stonewall(MiB) Test# #Tasks tPN reps fPP reord reordoff reordrand seed segcnt   blksiz    xsize aggs(MiB)   API RefNum
write        1478.25    1478.25    1478.25       0.00    1478.25    1478.25    1478.25       0.00   22.14507         NA            NA     0     48   8    1   0     0        1         0    0      1 715128832  1048576   32736.0 POSIX      0
Finished            : Wed Jul 14 00:53:36 2021
Tracking /beegfs/lgouveia/ior_4/testFile1...



Writing tracked information to tracker.csv...
IOR-3.4.0+dev: MPI Coordinated Test of Parallel I/O
Began               : Wed Jul 14 00:54:36 2021
Command line        : /home/lgouveia/ior/bin/ior -w -t 1m -b 682m -k -o /beegfs/lgouveia/ior_4/testFile1
Machine             : Linux bora002.plafrim.cluster
TestID              : 0
StartTime           : Wed Jul 14 00:54:36 2021
Path                : /beegfs/lgouveia/ior_4/testFile1
FS                  : 130.9 TiB   Used FS: 20.8%   Inodes: 0.0 Mi   Used Inodes: -nan%

Options: 
api                 : POSIX
apiVersion          : 
test filename       : /beegfs/lgouveia/ior_4/testFile1
access              : single-shared-file
type                : independent
segments            : 1
ordering in a file  : sequential
ordering inter file : no tasks offsets
nodes               : 6
tasks               : 48
clients per node    : 8
repetitions         : 1
xfersize            : 1 MiB
blocksize           : 682 MiB
aggregate filesize  : 31.97 GiB

Results: 
WARNING: The file "/beegfs/lgouveia/ior_4/testFile1" exists already and will be overwritten

access    bw(MiB/s)  IOPS       Latency(s)  block(KiB) xfer(KiB)  open(s)    wr/rd(s)   close(s)   total(s)   iter
------    ---------  ----       ----------  ---------- ---------  --------   --------   --------   --------   ----
write     1486.69    1486.76    0.017378    698368     1024.00    0.004759   22.02      19.19      22.02      0   

Summary of all tests:
Operation   Max(MiB)   Min(MiB)  Mean(MiB)     StdDev   Max(OPs)   Min(OPs)  Mean(OPs)     StdDev    Mean(s) Stonewall(s) Stonewall(MiB) Test# #Tasks tPN reps fPP reord reordoff reordrand seed segcnt   blksiz    xsize aggs(MiB)   API RefNum
write        1486.69    1486.69    1486.69       0.00    1486.69    1486.69    1486.69       0.00   22.01942         NA            NA     0     48   8    1   0     0        1         0    0      1 715128832  1048576   32736.0 POSIX      0
Finished            : Wed Jul 14 00:54:59 2021
Tracking /beegfs/lgouveia/ior_4/testFile1...



Writing tracked information to tracker.csv...
IOR-3.4.0+dev: MPI Coordinated Test of Parallel I/O
Began               : Wed Jul 14 00:55:59 2021
Command line        : /home/lgouveia/ior/bin/ior -w -t 1m -b 682m -k -o /beegfs/lgouveia/ior_4/testFile1
Machine             : Linux bora002.plafrim.cluster
TestID              : 0
StartTime           : Wed Jul 14 00:55:59 2021
Path                : /beegfs/lgouveia/ior_4/testFile1
FS                  : 130.9 TiB   Used FS: 20.8%   Inodes: 0.0 Mi   Used Inodes: -nan%

Options: 
api                 : POSIX
apiVersion          : 
test filename       : /beegfs/lgouveia/ior_4/testFile1
access              : single-shared-file
type                : independent
segments            : 1
ordering in a file  : sequential
ordering inter file : no tasks offsets
nodes               : 6
tasks               : 48
clients per node    : 8
repetitions         : 1
xfersize            : 1 MiB
blocksize           : 682 MiB
aggregate filesize  : 31.97 GiB

Results: 
WARNING: The file "/beegfs/lgouveia/ior_4/testFile1" exists already and will be overwritten

access    bw(MiB/s)  IOPS       Latency(s)  block(KiB) xfer(KiB)  open(s)    wr/rd(s)   close(s)   total(s)   iter
------    ---------  ----       ----------  ---------- ---------  --------   --------   --------   --------   ----
write     1483.36    1483.69    0.008144    698368     1024.00    0.004991   22.06      19.26      22.07      0   

Summary of all tests:
Operation   Max(MiB)   Min(MiB)  Mean(MiB)     StdDev   Max(OPs)   Min(OPs)  Mean(OPs)     StdDev    Mean(s) Stonewall(s) Stonewall(MiB) Test# #Tasks tPN reps fPP reord reordoff reordrand seed segcnt   blksiz    xsize aggs(MiB)   API RefNum
write        1483.36    1483.36    1483.36       0.00    1483.36    1483.36    1483.36       0.00   22.06880         NA            NA     0     48   8    1   0     0        1         0    0      1 715128832  1048576   32736.0 POSIX      0
Finished            : Wed Jul 14 00:56:21 2021
Tracking /beegfs/lgouveia/ior_4/testFile1...



Writing tracked information to tracker.csv...
IOR-3.4.0+dev: MPI Coordinated Test of Parallel I/O
Began               : Wed Jul 14 00:57:22 2021
Command line        : /home/lgouveia/ior/bin/ior -w -t 1m -b 682m -k -o /beegfs/lgouveia/ior_4/testFile1
Machine             : Linux bora002.plafrim.cluster
TestID              : 0
StartTime           : Wed Jul 14 00:57:22 2021
Path                : /beegfs/lgouveia/ior_4/testFile1
FS                  : 130.9 TiB   Used FS: 20.8%   Inodes: 0.0 Mi   Used Inodes: -nan%

Options: 
api                 : POSIX
apiVersion          : 
test filename       : /beegfs/lgouveia/ior_4/testFile1
access              : single-shared-file
type                : independent
segments            : 1
ordering in a file  : sequential
ordering inter file : no tasks offsets
nodes               : 6
tasks               : 48
clients per node    : 8
repetitions         : 1
xfersize            : 1 MiB
blocksize           : 682 MiB
aggregate filesize  : 31.97 GiB

Results: 
WARNING: The file "/beegfs/lgouveia/ior_4/testFile1" exists already and will be overwritten

access    bw(MiB/s)  IOPS       Latency(s)  block(KiB) xfer(KiB)  open(s)    wr/rd(s)   close(s)   total(s)   iter
------    ---------  ----       ----------  ---------- ---------  --------   --------   --------   --------   ----
write     1475.93    1476.01    0.010107    698368     1024.00    0.004557   22.18      19.34      22.18      0   

Summary of all tests:
Operation   Max(MiB)   Min(MiB)  Mean(MiB)     StdDev   Max(OPs)   Min(OPs)  Mean(OPs)     StdDev    Mean(s) Stonewall(s) Stonewall(MiB) Test# #Tasks tPN reps fPP reord reordoff reordrand seed segcnt   blksiz    xsize aggs(MiB)   API RefNum
write        1475.93    1475.93    1475.93       0.00    1475.93    1475.93    1475.93       0.00   22.17985         NA            NA     0     48   8    1   0     0        1         0    0      1 715128832  1048576   32736.0 POSIX      0
Finished            : Wed Jul 14 00:57:45 2021
Tracking /beegfs/lgouveia/ior_4/testFile1...



Writing tracked information to tracker.csv...
IOR-3.4.0+dev: MPI Coordinated Test of Parallel I/O
Began               : Wed Jul 14 00:58:45 2021
Command line        : /home/lgouveia/ior/bin/ior -w -t 1m -b 682m -k -o /beegfs/lgouveia/ior_4/testFile1
Machine             : Linux bora002.plafrim.cluster
TestID              : 0
StartTime           : Wed Jul 14 00:58:45 2021
Path                : /beegfs/lgouveia/ior_4/testFile1
FS                  : 130.9 TiB   Used FS: 20.8%   Inodes: 0.0 Mi   Used Inodes: -nan%

Options: 
api                 : POSIX
apiVersion          : 
test filename       : /beegfs/lgouveia/ior_4/testFile1
access              : single-shared-file
type                : independent
segments            : 1
ordering in a file  : sequential
ordering inter file : no tasks offsets
nodes               : 6
tasks               : 48
clients per node    : 8
repetitions         : 1
xfersize            : 1 MiB
blocksize           : 682 MiB
aggregate filesize  : 31.97 GiB

Results: 
WARNING: The file "/beegfs/lgouveia/ior_4/testFile1" exists already and will be overwritten

access    bw(MiB/s)  IOPS       Latency(s)  block(KiB) xfer(KiB)  open(s)    wr/rd(s)   close(s)   total(s)   iter
------    ---------  ----       ----------  ---------- ---------  --------   --------   --------   --------   ----
write     1485.83    1485.91    0.016756    698368     1024.00    0.004736   22.03      19.20      22.03      0   

Summary of all tests:
Operation   Max(MiB)   Min(MiB)  Mean(MiB)     StdDev   Max(OPs)   Min(OPs)  Mean(OPs)     StdDev    Mean(s) Stonewall(s) Stonewall(MiB) Test# #Tasks tPN reps fPP reord reordoff reordrand seed segcnt   blksiz    xsize aggs(MiB)   API RefNum
write        1485.83    1485.83    1485.83       0.00    1485.83    1485.83    1485.83       0.00   22.03208         NA            NA     0     48   8    1   0     0        1         0    0      1 715128832  1048576   32736.0 POSIX      0
Finished            : Wed Jul 14 00:59:08 2021
Tracking /beegfs/lgouveia/ior_4/testFile1...



Writing tracked information to tracker.csv...
IOR-3.4.0+dev: MPI Coordinated Test of Parallel I/O
Began               : Wed Jul 14 01:00:08 2021
Command line        : /home/lgouveia/ior/bin/ior -w -t 1m -b 682m -k -o /beegfs/lgouveia/ior_4/testFile1
Machine             : Linux bora002.plafrim.cluster
TestID              : 0
StartTime           : Wed Jul 14 01:00:08 2021
Path                : /beegfs/lgouveia/ior_4/testFile1
FS                  : 130.9 TiB   Used FS: 20.8%   Inodes: 0.0 Mi   Used Inodes: -nan%

Options: 
api                 : POSIX
apiVersion          : 
test filename       : /beegfs/lgouveia/ior_4/testFile1
access              : single-shared-file
type                : independent
segments            : 1
ordering in a file  : sequential
ordering inter file : no tasks offsets
nodes               : 6
tasks               : 48
clients per node    : 8
repetitions         : 1
xfersize            : 1 MiB
blocksize           : 682 MiB
aggregate filesize  : 31.97 GiB

Results: 
WARNING: The file "/beegfs/lgouveia/ior_4/testFile1" exists already and will be overwritten

access    bw(MiB/s)  IOPS       Latency(s)  block(KiB) xfer(KiB)  open(s)    wr/rd(s)   close(s)   total(s)   iter
------    ---------  ----       ----------  ---------- ---------  --------   --------   --------   --------   ----
write     1482.53    1482.61    0.016170    698368     1024.00    0.004820   22.08      19.26      22.08      0   

Summary of all tests:
Operation   Max(MiB)   Min(MiB)  Mean(MiB)     StdDev   Max(OPs)   Min(OPs)  Mean(OPs)     StdDev    Mean(s) Stonewall(s) Stonewall(MiB) Test# #Tasks tPN reps fPP reord reordoff reordrand seed segcnt   blksiz    xsize aggs(MiB)   API RefNum
write        1482.53    1482.53    1482.53       0.00    1482.53    1482.53    1482.53       0.00   22.08113         NA            NA     0     48   8    1   0     0        1         0    0      1 715128832  1048576   32736.0 POSIX      0
Finished            : Wed Jul 14 01:00:30 2021
Tracking /beegfs/lgouveia/ior_4/testFile1...



Writing tracked information to tracker.csv...
IOR-3.4.0+dev: MPI Coordinated Test of Parallel I/O
Began               : Wed Jul 14 01:01:31 2021
Command line        : /home/lgouveia/ior/bin/ior -w -t 1m -b 682m -k -o /beegfs/lgouveia/ior_4/testFile1
Machine             : Linux bora002.plafrim.cluster
TestID              : 0
StartTime           : Wed Jul 14 01:01:31 2021
Path                : /beegfs/lgouveia/ior_4/testFile1
FS                  : 130.9 TiB   Used FS: 20.8%   Inodes: 0.0 Mi   Used Inodes: -nan%

Options: 
api                 : POSIX
apiVersion          : 
test filename       : /beegfs/lgouveia/ior_4/testFile1
access              : single-shared-file
type                : independent
segments            : 1
ordering in a file  : sequential
ordering inter file : no tasks offsets
nodes               : 6
tasks               : 48
clients per node    : 8
repetitions         : 1
xfersize            : 1 MiB
blocksize           : 682 MiB
aggregate filesize  : 31.97 GiB

Results: 
WARNING: The file "/beegfs/lgouveia/ior_4/testFile1" exists already and will be overwritten

access    bw(MiB/s)  IOPS       Latency(s)  block(KiB) xfer(KiB)  open(s)    wr/rd(s)   close(s)   total(s)   iter
------    ---------  ----       ----------  ---------- ---------  --------   --------   --------   --------   ----
write     1489.27    1489.34    0.008246    698368     1024.00    0.004716   21.98      19.20      21.98      0   

Summary of all tests:
Operation   Max(MiB)   Min(MiB)  Mean(MiB)     StdDev   Max(OPs)   Min(OPs)  Mean(OPs)     StdDev    Mean(s) Stonewall(s) Stonewall(MiB) Test# #Tasks tPN reps fPP reord reordoff reordrand seed segcnt   blksiz    xsize aggs(MiB)   API RefNum
write        1489.27    1489.27    1489.27       0.00    1489.27    1489.27    1489.27       0.00   21.98130         NA            NA     0     48   8    1   0     0        1         0    0      1 715128832  1048576   32736.0 POSIX      0
Finished            : Wed Jul 14 01:01:53 2021
Tracking /beegfs/lgouveia/ior_4/testFile1...



Writing tracked information to tracker.csv...
