access,bw,iops,latency,block,xfer,open,wr/rd,close,total,iter,start,end
write,1840.34,1840.40,0.034473,1048576,1024.00,0.006680,35.61,30.97,35.61,0,Sat Jul 17 02:42:09 2021,Sat Jul 17 02:42:45 2021
write,1842.44,1842.49,0.004612,1048576,1024.00,0.017457,35.57,30.85,35.57,0,Sat Jul 17 02:43:47 2021,Sat Jul 17 02:44:23 2021
write,1842.60,1842.65,0.012820,1048576,1024.00,0.018204,35.57,31.04,35.57,0,Sat Jul 17 02:45:24 2021,Sat Jul 17 02:45:59 2021
write,1850.52,1850.56,0.013602,1048576,1024.00,0.007391,35.41,30.81,35.41,0,Sat Jul 17 02:47:00 2021,Sat Jul 17 02:47:36 2021
write,1379.35,1379.37,0.031553,1048576,1024.00,0.019584,47.51,41.52,47.51,0,Sat Jul 17 02:48:36 2021,Sat Jul 17 02:49:24 2021
write,1830.19,1830.26,0.015747,1048576,1024.00,0.008172,35.81,31.23,35.81,0,Sat Jul 17 02:50:25 2021,Sat Jul 17 02:51:01 2021
write,1844.19,1844.24,0.011152,1048576,1024.00,0.006704,35.54,30.92,35.54,0,Sat Jul 17 02:52:02 2021,Sat Jul 17 02:52:37 2021
write,1389.61,1389.66,0.042951,1048576,1024.00,0.010571,47.16,41.26,47.16,0,Sat Jul 17 02:53:38 2021,Sat Jul 17 02:54:25 2021
write,1841.69,1841.76,0.027692,1048576,1024.00,0.007020,35.58,30.91,35.58,0,Sat Jul 17 02:55:26 2021,Sat Jul 17 02:56:02 2021
write,1852.17,1852.21,0.034507,1048576,1024.00,0.007087,35.38,30.73,35.38,0,Sat Jul 17 02:57:03 2021,Sat Jul 17 02:57:38 2021
write,1846.07,1846.13,0.031000,1048576,1024.00,0.007581,35.50,30.93,35.50,0,Sat Jul 17 03:03:49 2021,Sat Jul 17 03:04:24 2021
write,1841.16,1841.22,0.034758,1048576,1024.00,0.011865,35.59,30.96,35.60,0,Sat Jul 17 03:05:27 2021,Sat Jul 17 03:06:02 2021
write,1826.38,1826.43,0.026854,1048576,1024.00,0.011297,35.88,31.31,35.88,0,Sat Jul 17 03:07:03 2021,Sat Jul 17 03:07:39 2021
write,1377.81,1377.84,0.025333,1048576,1024.00,0.018679,47.56,41.65,47.57,0,Sat Jul 17 03:08:40 2021,Sat Jul 17 03:09:28 2021
write,1838.61,1838.67,0.025292,1048576,1024.00,0.010939,35.64,31.04,35.64,0,Sat Jul 17 03:10:28 2021,Sat Jul 17 03:11:04 2021
write,1834.34,1834.39,0.034659,1048576,1024.00,0.008307,35.73,31.22,35.73,0,Sat Jul 17 03:12:05 2021,Sat Jul 17 03:12:41 2021
write,1378.83,1378.87,0.046285,1048576,1024.00,0.020910,47.53,41.50,47.53,0,Sat Jul 17 03:13:42 2021,Sat Jul 17 03:14:29 2021
write,1832.02,1832.07,0.031171,1048576,1024.00,0.007661,35.77,31.29,35.77,0,Sat Jul 17 03:15:30 2021,Sat Jul 17 03:16:06 2021
write,1846.01,1846.05,0.009373,1048576,1024.00,0.009448,35.50,30.92,35.50,0,Sat Jul 17 03:17:07 2021,Sat Jul 17 03:17:42 2021
write,1361.42,1361.46,0.006081,1048576,1024.00,0.009939,48.14,41.91,48.14,0,Sat Jul 17 03:18:43 2021,Sat Jul 17 03:19:31 2021
write,1850.50,1850.56,0.017576,1048576,1024.00,0.017133,35.41,30.91,35.42,0,Sat Jul 17 03:27:19 2021,Sat Jul 17 03:27:54 2021
write,1824.16,1824.22,0.033701,1048576,1024.00,0.007438,35.93,31.24,35.93,0,Sat Jul 17 03:28:57 2021,Sat Jul 17 03:29:33 2021
write,1844.21,1844.27,0.015005,1048576,1024.00,0.008053,35.53,30.84,35.54,0,Sat Jul 17 03:30:34 2021,Sat Jul 17 03:31:09 2021
write,1837.00,1837.06,0.026963,1048576,1024.00,0.007349,35.67,31.09,35.68,0,Sat Jul 17 03:32:10 2021,Sat Jul 17 03:32:46 2021
write,1383.98,1384.02,0.044870,1048576,1024.00,0.016361,47.35,41.36,47.35,0,Sat Jul 17 03:33:47 2021,Sat Jul 17 03:34:34 2021
write,1847.09,1847.15,0.034529,1048576,1024.00,0.015242,35.48,30.87,35.48,0,Sat Jul 17 03:35:35 2021,Sat Jul 17 03:36:11 2021
write,1852.38,1852.43,0.031132,1048576,1024.00,0.008670,35.38,30.82,35.38,0,Sat Jul 17 03:37:11 2021,Sat Jul 17 03:37:47 2021
write,1387.27,1387.29,0.028790,1048576,1024.00,0.016789,47.24,41.24,47.24,0,Sat Jul 17 03:38:48 2021,Sat Jul 17 03:39:35 2021
write,1826.69,1826.74,0.029450,1048576,1024.00,0.008383,35.88,31.27,35.88,0,Sat Jul 17 03:40:36 2021,Sat Jul 17 03:41:12 2021
write,1837.58,1837.64,0.034787,1048576,1024.00,0.007306,35.66,31.11,35.66,0,Sat Jul 17 03:42:13 2021,Sat Jul 17 03:42:48 2021
write,1838.77,1838.82,0.021838,1048576,1024.00,0.008167,35.64,31.10,35.64,0,Sat Jul 17 03:51:50 2021,Sat Jul 17 03:52:26 2021
write,1846.06,1846.11,0.013216,1048576,1024.00,0.007568,35.50,30.85,35.50,0,Sat Jul 17 03:53:29 2021,Sat Jul 17 03:54:04 2021
write,1375.56,1375.58,0.024123,1048576,1024.00,0.008030,47.64,41.73,47.64,0,Sat Jul 17 03:55:05 2021,Sat Jul 17 03:55:53 2021
write,1843.94,1843.99,0.034688,1048576,1024.00,0.008423,35.54,31.04,35.54,0,Sat Jul 17 03:56:54 2021,Sat Jul 17 03:57:29 2021
write,1835.99,1836.04,0.011699,1048576,1024.00,0.009234,35.69,31.11,35.70,0,Sat Jul 17 03:58:30 2021,Sat Jul 17 03:59:06 2021
write,1369.46,1369.50,0.046547,1048576,1024.00,0.013867,47.85,41.74,47.86,0,Sat Jul 17 04:00:07 2021,Sat Jul 17 04:00:55 2021
write,1836.25,1836.31,0.012727,1048576,1024.00,0.008458,35.69,31.08,35.69,0,Sat Jul 17 04:01:56 2021,Sat Jul 17 04:02:31 2021
write,1849.03,1849.09,0.025561,1048576,1024.00,0.007927,35.44,30.97,35.44,0,Sat Jul 17 04:03:32 2021,Sat Jul 17 04:04:08 2021
write,1372.25,1372.27,0.023423,1048576,1024.00,0.012613,47.76,41.72,47.76,0,Sat Jul 17 04:05:08 2021,Sat Jul 17 04:05:56 2021
write,1849.62,1849.68,0.034487,1048576,1024.00,0.008253,35.43,30.91,35.43,0,Sat Jul 17 04:06:57 2021,Sat Jul 17 04:07:33 2021
write,1805.64,1805.68,0.018289,1048576,1024.00,0.008103,36.29,31.75,36.30,0,Sat Jul 17 04:16:19 2021,Sat Jul 17 04:16:55 2021
write,1845.90,1845.97,0.023585,1048576,1024.00,0.013735,35.50,30.99,35.50,0,Sat Jul 17 04:17:58 2021,Sat Jul 17 04:18:33 2021
write,1366.07,1366.10,0.023488,1048576,1024.00,0.012477,47.97,41.97,47.97,0,Sat Jul 17 04:19:34 2021,Sat Jul 17 04:20:22 2021
write,1845.82,1845.87,0.009775,1048576,1024.00,0.007418,35.50,30.93,35.51,0,Sat Jul 17 04:21:23 2021,Sat Jul 17 04:21:59 2021
write,1818.95,1819.02,0.026616,1048576,1024.00,0.010358,36.03,31.47,36.03,0,Sat Jul 17 04:22:59 2021,Sat Jul 17 04:23:35 2021
write,1368.94,1368.96,0.046718,1048576,1024.00,0.011699,47.87,41.92,47.87,0,Sat Jul 17 04:24:36 2021,Sat Jul 17 04:25:24 2021
write,1827.26,1827.31,0.015832,1048576,1024.00,0.012071,35.86,31.23,35.87,0,Sat Jul 17 04:26:25 2021,Sat Jul 17 04:27:01 2021
write,1825.76,1825.81,0.034742,1048576,1024.00,0.010602,35.89,31.20,35.90,0,Sat Jul 17 04:28:02 2021,Sat Jul 17 04:28:38 2021
write,1389.32,1389.35,0.045953,1048576,1024.00,0.011505,47.17,41.23,47.17,0,Sat Jul 17 04:29:39 2021,Sat Jul 17 04:30:26 2021
write,1829.18,1829.25,0.018175,1048576,1024.00,0.010875,35.83,31.14,35.83,0,Sat Jul 17 04:31:27 2021,Sat Jul 17 04:32:03 2021
write,1828.40,1828.47,0.008746,1048576,1024.00,0.007500,35.84,31.27,35.84,0,Sat Jul 17 04:42:50 2021,Sat Jul 17 04:43:26 2021
write,1846.79,1846.86,0.015561,1048576,1024.00,0.007840,35.49,30.96,35.49,0,Sat Jul 17 04:44:29 2021,Sat Jul 17 04:45:04 2021
write,1847.59,1847.65,0.034534,1048576,1024.00,0.008398,35.47,31.06,35.47,0,Sat Jul 17 04:46:05 2021,Sat Jul 17 04:46:41 2021
write,1814.48,1814.55,0.035269,1048576,1024.00,0.012087,36.12,31.55,36.12,0,Sat Jul 17 04:47:41 2021,Sat Jul 17 04:48:18 2021
write,1380.51,1380.54,0.023982,1048576,1024.00,0.008460,47.47,41.52,47.47,0,Sat Jul 17 04:49:18 2021,Sat Jul 17 04:50:06 2021
write,1814.77,1814.83,0.008996,1048576,1024.00,0.010838,36.11,31.34,36.11,0,Sat Jul 17 04:51:07 2021,Sat Jul 17 04:51:43 2021
write,1838.87,1839.49,0.027968,1048576,1024.00,0.007312,35.63,31.03,35.64,0,Sat Jul 17 04:52:44 2021,Sat Jul 17 04:53:19 2021
write,1378.05,1378.09,0.025031,1048576,1024.00,0.012004,47.56,41.37,47.56,0,Sat Jul 17 04:54:20 2021,Sat Jul 17 04:55:08 2021
write,1843.88,1843.95,0.029899,1048576,1024.00,0.009010,35.54,31.01,35.54,0,Sat Jul 17 04:56:09 2021,Sat Jul 17 04:56:44 2021
write,1845.18,1845.23,0.016057,1048576,1024.00,0.007980,35.52,30.94,35.52,0,Sat Jul 17 04:57:45 2021,Sat Jul 17 04:58:21 2021
write,1842.31,1842.36,0.013542,1048576,1024.00,0.014796,35.57,30.95,35.57,0,Sat Jul 17 05:04:19 2021,Sat Jul 17 05:04:55 2021
write,1838.27,1838.32,0.012021,1048576,1024.00,0.015219,35.65,30.96,35.65,0,Sat Jul 17 05:06:00 2021,Sat Jul 17 05:06:36 2021
write,1849.17,1849.24,0.017335,1048576,1024.00,0.007485,35.44,30.91,35.44,0,Sat Jul 17 05:07:37 2021,Sat Jul 17 05:08:12 2021
write,1383.55,1383.57,0.025060,1048576,1024.00,0.012643,47.37,41.49,47.37,0,Sat Jul 17 05:09:13 2021,Sat Jul 17 05:10:01 2021
write,1837.90,1837.94,0.031916,1048576,1024.00,0.012348,35.66,31.12,35.66,0,Sat Jul 17 05:11:01 2021,Sat Jul 17 05:11:37 2021
write,1833.22,1833.27,0.031865,1048576,1024.00,0.012521,35.75,31.06,35.75,0,Sat Jul 17 05:12:38 2021,Sat Jul 17 05:13:14 2021
write,1383.86,1383.89,0.017431,1048576,1024.00,0.011932,47.36,41.28,47.36,0,Sat Jul 17 05:14:15 2021,Sat Jul 17 05:15:02 2021
write,1844.35,1844.40,0.017416,1048576,1024.00,0.013180,35.53,30.97,35.53,0,Sat Jul 17 05:16:03 2021,Sat Jul 17 05:16:39 2021
write,1843.47,1843.52,0.014273,1048576,1024.00,0.008208,35.55,31.01,35.55,0,Sat Jul 17 05:17:39 2021,Sat Jul 17 05:18:15 2021
write,1390.74,1390.77,0.025783,1048576,1024.00,0.010499,47.12,41.20,47.12,0,Sat Jul 17 05:19:16 2021,Sat Jul 17 05:20:03 2021
write,1793.79,1793.86,0.016172,1048576,1024.00,0.010804,36.53,31.93,36.53,0,Sat Jul 17 05:24:49 2021,Sat Jul 17 05:25:26 2021
write,1843.14,1843.20,0.031182,1048576,1024.00,0.007820,35.56,30.92,35.56,0,Sat Jul 17 05:26:28 2021,Sat Jul 17 05:27:04 2021
write,1834.28,1834.35,0.034753,1048576,1024.00,0.015759,35.73,31.20,35.73,0,Sat Jul 17 05:28:05 2021,Sat Jul 17 05:28:41 2021
write,1363.45,1363.49,0.029303,1048576,1024.00,0.013310,48.06,42.08,48.07,0,Sat Jul 17 05:29:42 2021,Sat Jul 17 05:30:30 2021
write,1841.89,1841.94,0.013736,1048576,1024.00,0.009037,35.58,30.92,35.58,0,Sat Jul 17 05:31:31 2021,Sat Jul 17 05:32:06 2021
write,1823.47,1823.54,0.019671,1048576,1024.00,0.008111,35.94,31.22,35.94,0,Sat Jul 17 05:33:07 2021,Sat Jul 17 05:33:43 2021
write,1367.90,1367.93,0.037052,1048576,1024.00,0.013850,47.91,41.92,47.91,0,Sat Jul 17 05:34:44 2021,Sat Jul 17 05:35:32 2021
write,1831.43,1831.49,0.014344,1048576,1024.00,0.008388,35.78,31.32,35.78,0,Sat Jul 17 05:36:33 2021,Sat Jul 17 05:37:08 2021
write,1829.86,1829.94,0.033270,1048576,1024.00,0.014999,35.81,31.18,35.81,0,Sat Jul 17 05:38:09 2021,Sat Jul 17 05:38:45 2021
write,1364.60,1364.63,0.032346,1048576,1024.00,0.014474,48.02,41.95,48.03,0,Sat Jul 17 05:39:46 2021,Sat Jul 17 05:40:34 2021
write,1821.50,1821.56,0.017567,1048576,1024.00,0.011248,35.98,31.35,35.98,0,Sat Jul 17 05:50:22 2021,Sat Jul 17 05:50:58 2021
write,1826.45,1826.51,0.034868,1048576,1024.00,0.012833,35.88,31.31,35.88,0,Sat Jul 17 05:52:01 2021,Sat Jul 17 05:52:37 2021
write,1816.07,1816.13,0.035014,1048576,1024.00,0.009221,36.09,31.31,36.09,0,Sat Jul 17 05:53:38 2021,Sat Jul 17 05:54:14 2021
write,1378.82,1378.85,0.017555,1048576,1024.00,0.011792,47.53,41.58,47.53,0,Sat Jul 17 05:55:15 2021,Sat Jul 17 05:56:03 2021
write,1836.93,1836.99,0.033223,1048576,1024.00,0.013237,35.68,31.12,35.68,0,Sat Jul 17 05:57:04 2021,Sat Jul 17 05:57:39 2021
write,1818.46,1818.52,0.027202,1048576,1024.00,0.007831,36.04,31.51,36.04,0,Sat Jul 17 05:58:40 2021,Sat Jul 17 05:59:16 2021
write,1384.10,1384.13,0.037204,1048576,1024.00,0.014619,47.35,41.40,47.35,0,Sat Jul 17 06:00:17 2021,Sat Jul 17 06:01:05 2021
write,1797.72,1797.78,0.019009,1048576,1024.00,0.008068,36.45,31.92,36.45,0,Sat Jul 17 06:02:05 2021,Sat Jul 17 06:02:42 2021
write,1842.55,1842.61,0.031549,1048576,1024.00,0.008022,35.57,31.04,35.57,0,Sat Jul 17 06:03:43 2021,Sat Jul 17 06:04:18 2021
write,1384.50,1384.53,0.031391,1048576,1024.00,0.030613,47.33,41.33,47.34,0,Sat Jul 17 06:05:19 2021,Sat Jul 17 06:06:07 2021
write,1836.52,1836.58,0.015684,1048576,1024.00,0.007212,35.68,31.16,35.68,0,Sat Jul 17 06:15:49 2021,Sat Jul 17 06:16:25 2021
write,1835.62,1835.69,0.013963,1048576,1024.00,0.007888,35.70,31.11,35.70,0,Sat Jul 17 06:17:28 2021,Sat Jul 17 06:18:03 2021
write,1841.95,1842.00,0.011969,1048576,1024.00,0.007518,35.58,31.01,35.58,0,Sat Jul 17 06:19:04 2021,Sat Jul 17 06:19:40 2021
write,1386.77,1386.81,0.025116,1048576,1024.00,0.012066,47.26,41.29,47.26,0,Sat Jul 17 06:20:41 2021,Sat Jul 17 06:21:28 2021
write,1845.92,1845.98,0.032460,1048576,1024.00,0.007485,35.50,30.91,35.50,0,Sat Jul 17 06:22:29 2021,Sat Jul 17 06:23:04 2021
write,1843.26,1843.31,0.011327,1048576,1024.00,0.014056,35.55,30.91,35.55,0,Sat Jul 17 06:24:05 2021,Sat Jul 17 06:24:41 2021
write,1358.87,1358.91,0.042503,1048576,1024.00,0.012996,48.23,42.17,48.23,0,Sat Jul 17 06:25:42 2021,Sat Jul 17 06:26:30 2021
write,1830.92,1830.97,0.034693,1048576,1024.00,0.008228,35.79,31.17,35.79,0,Sat Jul 17 06:27:31 2021,Sat Jul 17 06:28:07 2021
write,1845.65,1845.73,0.027768,1048576,1024.00,0.014611,35.51,30.99,35.51,0,Sat Jul 17 06:29:08 2021,Sat Jul 17 06:29:43 2021
write,1384.71,1384.75,0.045116,1048576,1024.00,0.013238,47.33,41.37,47.33,0,Sat Jul 17 06:30:44 2021,Sat Jul 17 06:31:31 2021
