tracker_id,tracker_timestamp,file,size,ctime,mtime,storage_targets
d0bee2c0,1644052147.462399,/beegfs/lgouveia/ior_4/testFile1,34359738368,1644052147.0,1644052147.0,101 202 204 203
f4220960,1644052191.158195,/beegfs/lgouveia/ior_4/testFile1,34359738368,1644052190.0,1644052190.0,103 102 104 201
2d4ebebc,1644052234.329192,/beegfs/lgouveia/ior_4/testFile1,34359738368,1644052233.0,1644052233.0,203 101 204 202
1c6dda50,1644052277.868758,/beegfs/lgouveia/ior_4/testFile1,34359738368,1644052277.0,1644052277.0,104 102 103 201
e6d2fdcd,1644052321.053929,/beegfs/lgouveia/ior_4/testFile1,34359738368,1644052320.0,1644052320.0,104 103 201 102
5b4f69a9,1644053886.952587,/beegfs/lgouveia/ior_4/testFile1,34359738368,1644053886.0,1644053886.0,201 104 103 102
80c94a3d,1644053930.217848,/beegfs/lgouveia/ior_4/testFile1,34359738368,1644053929.0,1644053929.0,203 202 204 101
3f21fe1b,1644053973.365128,/beegfs/lgouveia/ior_4/testFile1,34359738368,1644053973.0,1644053973.0,102 201 104 103
7f130663,1644054016.327114,/beegfs/lgouveia/ior_4/testFile1,34359738368,1644054015.0,1644054015.0,202 203 101 204
5f3a92b2,1644054059.515029,/beegfs/lgouveia/ior_4/testFile1,34359738368,1644054059.0,1644054059.0,201 103 104 102
68f49e23,1644061463.579056,/beegfs/lgouveia/ior_4/testFile1,34359738368,1644061463.0,1644061463.0,104 201 103 102
606ca9e7,1644061506.827174,/beegfs/lgouveia/ior_4/testFile1,34359738368,1644061506.0,1644061506.0,204 203 202 101
c53d5c1c,1644061549.913926,/beegfs/lgouveia/ior_4/testFile1,34359738368,1644061549.0,1644061549.0,201 104 102 103
b4297f5f,1644061593.196397,/beegfs/lgouveia/ior_4/testFile1,34359738368,1644061592.0,1644061592.0,201 104 102 103
eae95481,1644061636.139431,/beegfs/lgouveia/ior_4/testFile1,34359738368,1644061635.0,1644061635.0,101 203 204 202
311c0311,1644064163.198514,/beegfs/lgouveia/ior_4/testFile1,34359738368,1644064162.0,1644064162.0,201 102 104 103
8a6659c3,1644064206.486101,/beegfs/lgouveia/ior_4/testFile1,34359738368,1644064206.0,1644064206.0,204 101 202 203
b48fb2ae,1644064249.821457,/beegfs/lgouveia/ior_4/testFile1,34359738368,1644064249.0,1644064249.0,103 201 104 102
dd725733,1644064292.858536,/beegfs/lgouveia/ior_4/testFile1,34359738368,1644064292.0,1644064292.0,203 204 101 202
7ea24560,1644064336.057531,/beegfs/lgouveia/ior_4/testFile1,34359738368,1644064335.0,1644064335.0,103 102 104 201
fc80f5d8,1644064544.128584,/beegfs/lgouveia/ior_4/testFile1,34359738368,1644064543.0,1644064543.0,202 204 101 203
ee10b7b6,1644064587.570828,/beegfs/lgouveia/ior_4/testFile1,34359738368,1644064587.0,1644064587.0,201 102 103 104
6a221abf,1644064630.974464,/beegfs/lgouveia/ior_4/testFile1,34359738368,1644064630.0,1644064630.0,102 103 201 104
1553cc03,1644064674.389284,/beegfs/lgouveia/ior_4/testFile1,34359738368,1644064674.0,1644064674.0,204 101 203 202
2011b595,1644064717.951204,/beegfs/lgouveia/ior_4/testFile1,34359738368,1644064717.0,1644064717.0,201 104 102 103
