===== My JOB Information ====
Node List:  bora001
my jobID:  1472352
Partition: routage
submit directory:  /home/lgouveia/luan-teylo/tests/omnipath/compute_nodes/2_target/01
submit host:  devel02.plafrim.cluster
In the directory: /home/lgouveia/luan-teylo/tests/omnipath/compute_nodes/2_target/01
As the user: lgouveia
============================
IOR-3.4.0+dev: MPI Coordinated Test of Parallel I/O
Began               : Fri Jan 21 08:51:57 2022
Command line        : /home/lgouveia/ior/bin/ior -w -t 1m -b 4096m -k -o /beegfs/lgouveia/ior_2/testFile1
Machine             : Linux bora001.plafrim.cluster
TestID              : 0
StartTime           : Fri Jan 21 08:51:57 2022
Path                : /beegfs/lgouveia/ior_2/testFile1
FS                  : 130.9 TiB   Used FS: 36.6%   Inodes: 0.0 Mi   Used Inodes: -nan%

Options: 
api                 : POSIX
apiVersion          : 
test filename       : /beegfs/lgouveia/ior_2/testFile1
access              : single-shared-file
type                : independent
segments            : 1
ordering in a file  : sequential
ordering inter file : no tasks offsets
nodes               : 1
tasks               : 8
clients per node    : 8
repetitions         : 1
xfersize            : 1 MiB
blocksize           : 4 GiB
aggregate filesize  : 32 GiB

Results: 
WARNING: The file "/beegfs/lgouveia/ior_2/testFile1" exists already and will be overwritten

access    bw(MiB/s)  IOPS       Latency(s)  block(KiB) xfer(KiB)  open(s)    wr/rd(s)   close(s)   total(s)   iter
------    ---------  ----       ----------  ---------- ---------  --------   --------   --------   --------   ----
write     1641.52    1641.64    0.001554    4194304    1024.00    0.004079   19.96      13.60      19.96      0   

Summary of all tests:
Operation   Max(MiB)   Min(MiB)  Mean(MiB)     StdDev   Max(OPs)   Min(OPs)  Mean(OPs)     StdDev    Mean(s) Stonewall(s) Stonewall(MiB) Test# #Tasks tPN reps fPP reord reordoff reordrand seed segcnt   blksiz    xsize aggs(MiB)   API RefNum
write        1641.52    1641.52    1641.52       0.00    1641.52    1641.52    1641.52       0.00   19.96200         NA            NA     0      8   8    1   0     0        1         0    0      1 4294967296  1048576   32768.0 POSIX      0
Finished            : Fri Jan 21 08:52:17 2022
Tracking /beegfs/lgouveia/ior_2/testFile1...
Tracking /beegfs/lgouveia/ior_2/testFileApp_2...
Tracking /beegfs/lgouveia/ior_2/testFileApp_1...



Writing tracked information to tracker.csv...
IOR-3.4.0+dev: MPI Coordinated Test of Parallel I/O
Began               : Fri Jan 21 08:53:18 2022
Command line        : /home/lgouveia/ior/bin/ior -w -t 1m -b 4096m -k -o /beegfs/lgouveia/ior_2/testFile1
Machine             : Linux bora001.plafrim.cluster
TestID              : 0
StartTime           : Fri Jan 21 08:53:18 2022
Path                : /beegfs/lgouveia/ior_2/testFile1
FS                  : 130.9 TiB   Used FS: 36.6%   Inodes: 0.0 Mi   Used Inodes: -nan%

Options: 
api                 : POSIX
apiVersion          : 
test filename       : /beegfs/lgouveia/ior_2/testFile1
access              : single-shared-file
type                : independent
segments            : 1
ordering in a file  : sequential
ordering inter file : no tasks offsets
nodes               : 1
tasks               : 8
clients per node    : 8
repetitions         : 1
xfersize            : 1 MiB
blocksize           : 4 GiB
aggregate filesize  : 32 GiB

Results: 
WARNING: The file "/beegfs/lgouveia/ior_2/testFile1" exists already and will be overwritten

access    bw(MiB/s)  IOPS       Latency(s)  block(KiB) xfer(KiB)  open(s)    wr/rd(s)   close(s)   total(s)   iter
------    ---------  ----       ----------  ---------- ---------  --------   --------   --------   --------   ----
write     1672.58    1672.70    0.003230    4194304    1024.00    0.002677   19.59      12.27      19.59      0   

Summary of all tests:
Operation   Max(MiB)   Min(MiB)  Mean(MiB)     StdDev   Max(OPs)   Min(OPs)  Mean(OPs)     StdDev    Mean(s) Stonewall(s) Stonewall(MiB) Test# #Tasks tPN reps fPP reord reordoff reordrand seed segcnt   blksiz    xsize aggs(MiB)   API RefNum
write        1672.58    1672.58    1672.58       0.00    1672.58    1672.58    1672.58       0.00   19.59123         NA            NA     0      8   8    1   0     0        1         0    0      1 4294967296  1048576   32768.0 POSIX      0
Finished            : Fri Jan 21 08:53:37 2022
Tracking /beegfs/lgouveia/ior_2/testFile1...
Tracking /beegfs/lgouveia/ior_2/testFileApp_2...
Tracking /beegfs/lgouveia/ior_2/testFileApp_1...



Writing tracked information to tracker.csv...
IOR-3.4.0+dev: MPI Coordinated Test of Parallel I/O
Began               : Fri Jan 21 08:54:38 2022
Command line        : /home/lgouveia/ior/bin/ior -w -t 1m -b 4096m -k -o /beegfs/lgouveia/ior_2/testFile1
Machine             : Linux bora001.plafrim.cluster
TestID              : 0
StartTime           : Fri Jan 21 08:54:38 2022
Path                : /beegfs/lgouveia/ior_2/testFile1
FS                  : 130.9 TiB   Used FS: 36.6%   Inodes: 0.0 Mi   Used Inodes: -nan%

Options: 
api                 : POSIX
apiVersion          : 
test filename       : /beegfs/lgouveia/ior_2/testFile1
access              : single-shared-file
type                : independent
segments            : 1
ordering in a file  : sequential
ordering inter file : no tasks offsets
nodes               : 1
tasks               : 8
clients per node    : 8
repetitions         : 1
xfersize            : 1 MiB
blocksize           : 4 GiB
aggregate filesize  : 32 GiB

Results: 
WARNING: The file "/beegfs/lgouveia/ior_2/testFile1" exists already and will be overwritten

access    bw(MiB/s)  IOPS       Latency(s)  block(KiB) xfer(KiB)  open(s)    wr/rd(s)   close(s)   total(s)   iter
------    ---------  ----       ----------  ---------- ---------  --------   --------   --------   --------   ----
write     1476.70    1476.76    0.002000    4194304    1024.00    0.002700   22.19      14.00      22.19      0   

Summary of all tests:
Operation   Max(MiB)   Min(MiB)  Mean(MiB)     StdDev   Max(OPs)   Min(OPs)  Mean(OPs)     StdDev    Mean(s) Stonewall(s) Stonewall(MiB) Test# #Tasks tPN reps fPP reord reordoff reordrand seed segcnt   blksiz    xsize aggs(MiB)   API RefNum
write        1476.70    1476.70    1476.70       0.00    1476.70    1476.70    1476.70       0.00   22.18997         NA            NA     0      8   8    1   0     0        1         0    0      1 4294967296  1048576   32768.0 POSIX      0
Finished            : Fri Jan 21 08:55:00 2022
Tracking /beegfs/lgouveia/ior_2/testFile1...
Tracking /beegfs/lgouveia/ior_2/testFileApp_2...
Tracking /beegfs/lgouveia/ior_2/testFileApp_1...



Writing tracked information to tracker.csv...
IOR-3.4.0+dev: MPI Coordinated Test of Parallel I/O
Began               : Fri Jan 21 08:56:01 2022
Command line        : /home/lgouveia/ior/bin/ior -w -t 1m -b 4096m -k -o /beegfs/lgouveia/ior_2/testFile1
Machine             : Linux bora001.plafrim.cluster
TestID              : 0
StartTime           : Fri Jan 21 08:56:01 2022
Path                : /beegfs/lgouveia/ior_2/testFile1
FS                  : 130.9 TiB   Used FS: 36.6%   Inodes: 0.0 Mi   Used Inodes: -nan%

Options: 
api                 : POSIX
apiVersion          : 
test filename       : /beegfs/lgouveia/ior_2/testFile1
access              : single-shared-file
type                : independent
segments            : 1
ordering in a file  : sequential
ordering inter file : no tasks offsets
nodes               : 1
tasks               : 8
clients per node    : 8
repetitions         : 1
xfersize            : 1 MiB
blocksize           : 4 GiB
aggregate filesize  : 32 GiB

Results: 
WARNING: The file "/beegfs/lgouveia/ior_2/testFile1" exists already and will be overwritten

access    bw(MiB/s)  IOPS       Latency(s)  block(KiB) xfer(KiB)  open(s)    wr/rd(s)   close(s)   total(s)   iter
------    ---------  ----       ----------  ---------- ---------  --------   --------   --------   --------   ----
write     1626.82    1626.91    0.002700    4194304    1024.00    0.003181   20.14      10.48      20.14      0   

Summary of all tests:
Operation   Max(MiB)   Min(MiB)  Mean(MiB)     StdDev   Max(OPs)   Min(OPs)  Mean(OPs)     StdDev    Mean(s) Stonewall(s) Stonewall(MiB) Test# #Tasks tPN reps fPP reord reordoff reordrand seed segcnt   blksiz    xsize aggs(MiB)   API RefNum
write        1626.82    1626.82    1626.82       0.00    1626.82    1626.82    1626.82       0.00   20.14239         NA            NA     0      8   8    1   0     0        1         0    0      1 4294967296  1048576   32768.0 POSIX      0
Finished            : Fri Jan 21 08:56:21 2022
Tracking /beegfs/lgouveia/ior_2/testFile1...
Tracking /beegfs/lgouveia/ior_2/testFileApp_2...
Tracking /beegfs/lgouveia/ior_2/testFileApp_1...



Writing tracked information to tracker.csv...
IOR-3.4.0+dev: MPI Coordinated Test of Parallel I/O
Began               : Fri Jan 21 08:57:22 2022
Command line        : /home/lgouveia/ior/bin/ior -w -t 1m -b 4096m -k -o /beegfs/lgouveia/ior_2/testFile1
Machine             : Linux bora001.plafrim.cluster
TestID              : 0
StartTime           : Fri Jan 21 08:57:22 2022
Path                : /beegfs/lgouveia/ior_2/testFile1
FS                  : 130.9 TiB   Used FS: 36.6%   Inodes: 0.0 Mi   Used Inodes: -nan%

Options: 
api                 : POSIX
apiVersion          : 
test filename       : /beegfs/lgouveia/ior_2/testFile1
access              : single-shared-file
type                : independent
segments            : 1
ordering in a file  : sequential
ordering inter file : no tasks offsets
nodes               : 1
tasks               : 8
clients per node    : 8
repetitions         : 1
xfersize            : 1 MiB
blocksize           : 4 GiB
aggregate filesize  : 32 GiB

Results: 
WARNING: The file "/beegfs/lgouveia/ior_2/testFile1" exists already and will be overwritten

access    bw(MiB/s)  IOPS       Latency(s)  block(KiB) xfer(KiB)  open(s)    wr/rd(s)   close(s)   total(s)   iter
------    ---------  ----       ----------  ---------- ---------  --------   --------   --------   --------   ----
write     1643.86    1643.96    0.001616    4194304    1024.00    0.003038   19.93      13.31      19.93      0   

Summary of all tests:
Operation   Max(MiB)   Min(MiB)  Mean(MiB)     StdDev   Max(OPs)   Min(OPs)  Mean(OPs)     StdDev    Mean(s) Stonewall(s) Stonewall(MiB) Test# #Tasks tPN reps fPP reord reordoff reordrand seed segcnt   blksiz    xsize aggs(MiB)   API RefNum
write        1643.86    1643.86    1643.86       0.00    1643.86    1643.86    1643.86       0.00   19.93358         NA            NA     0      8   8    1   0     0        1         0    0      1 4294967296  1048576   32768.0 POSIX      0
Finished            : Fri Jan 21 08:57:42 2022
Tracking /beegfs/lgouveia/ior_2/testFile1...
Tracking /beegfs/lgouveia/ior_2/testFileApp_2...
Tracking /beegfs/lgouveia/ior_2/testFileApp_1...



Writing tracked information to tracker.csv...
IOR-3.4.0+dev: MPI Coordinated Test of Parallel I/O
Began               : Fri Jan 21 08:58:43 2022
Command line        : /home/lgouveia/ior/bin/ior -w -t 1m -b 4096m -k -o /beegfs/lgouveia/ior_2/testFile1
Machine             : Linux bora001.plafrim.cluster
TestID              : 0
StartTime           : Fri Jan 21 08:58:43 2022
Path                : /beegfs/lgouveia/ior_2/testFile1
FS                  : 130.9 TiB   Used FS: 36.6%   Inodes: 0.0 Mi   Used Inodes: -nan%

Options: 
api                 : POSIX
apiVersion          : 
test filename       : /beegfs/lgouveia/ior_2/testFile1
access              : single-shared-file
type                : independent
segments            : 1
ordering in a file  : sequential
ordering inter file : no tasks offsets
nodes               : 1
tasks               : 8
clients per node    : 8
repetitions         : 1
xfersize            : 1 MiB
blocksize           : 4 GiB
aggregate filesize  : 32 GiB

Results: 
WARNING: The file "/beegfs/lgouveia/ior_2/testFile1" exists already and will be overwritten

access    bw(MiB/s)  IOPS       Latency(s)  block(KiB) xfer(KiB)  open(s)    wr/rd(s)   close(s)   total(s)   iter
------    ---------  ----       ----------  ---------- ---------  --------   --------   --------   --------   ----
write     1825.37    1825.50    0.001942    4194304    1024.00    0.003097   17.95      10.21      17.95      0   

Summary of all tests:
Operation   Max(MiB)   Min(MiB)  Mean(MiB)     StdDev   Max(OPs)   Min(OPs)  Mean(OPs)     StdDev    Mean(s) Stonewall(s) Stonewall(MiB) Test# #Tasks tPN reps fPP reord reordoff reordrand seed segcnt   blksiz    xsize aggs(MiB)   API RefNum
write        1825.37    1825.37    1825.37       0.00    1825.37    1825.37    1825.37       0.00   17.95139         NA            NA     0      8   8    1   0     0        1         0    0      1 4294967296  1048576   32768.0 POSIX      0
Finished            : Fri Jan 21 08:59:01 2022
Tracking /beegfs/lgouveia/ior_2/testFile1...
Tracking /beegfs/lgouveia/ior_2/testFileApp_2...
Tracking /beegfs/lgouveia/ior_2/testFileApp_1...



Writing tracked information to tracker.csv...
IOR-3.4.0+dev: MPI Coordinated Test of Parallel I/O
Began               : Fri Jan 21 09:00:02 2022
Command line        : /home/lgouveia/ior/bin/ior -w -t 1m -b 4096m -k -o /beegfs/lgouveia/ior_2/testFile1
Machine             : Linux bora001.plafrim.cluster
TestID              : 0
StartTime           : Fri Jan 21 09:00:02 2022
Path                : /beegfs/lgouveia/ior_2/testFile1
FS                  : 130.9 TiB   Used FS: 36.6%   Inodes: 0.0 Mi   Used Inodes: -nan%

Options: 
api                 : POSIX
apiVersion          : 
test filename       : /beegfs/lgouveia/ior_2/testFile1
access              : single-shared-file
type                : independent
segments            : 1
ordering in a file  : sequential
ordering inter file : no tasks offsets
nodes               : 1
tasks               : 8
clients per node    : 8
repetitions         : 1
xfersize            : 1 MiB
blocksize           : 4 GiB
aggregate filesize  : 32 GiB

Results: 
WARNING: The file "/beegfs/lgouveia/ior_2/testFile1" exists already and will be overwritten

access    bw(MiB/s)  IOPS       Latency(s)  block(KiB) xfer(KiB)  open(s)    wr/rd(s)   close(s)   total(s)   iter
------    ---------  ----       ----------  ---------- ---------  --------   --------   --------   --------   ----
write     1537.42    1537.50    0.004134    4194304    1024.00    0.003230   21.31      15.55      21.31      0   

Summary of all tests:
Operation   Max(MiB)   Min(MiB)  Mean(MiB)     StdDev   Max(OPs)   Min(OPs)  Mean(OPs)     StdDev    Mean(s) Stonewall(s) Stonewall(MiB) Test# #Tasks tPN reps fPP reord reordoff reordrand seed segcnt   blksiz    xsize aggs(MiB)   API RefNum
write        1537.42    1537.42    1537.42       0.00    1537.42    1537.42    1537.42       0.00   21.31367         NA            NA     0      8   8    1   0     0        1         0    0      1 4294967296  1048576   32768.0 POSIX      0
Finished            : Fri Jan 21 09:00:23 2022
Tracking /beegfs/lgouveia/ior_2/testFile1...
Tracking /beegfs/lgouveia/ior_2/testFileApp_2...
Tracking /beegfs/lgouveia/ior_2/testFileApp_1...



Writing tracked information to tracker.csv...
IOR-3.4.0+dev: MPI Coordinated Test of Parallel I/O
Began               : Fri Jan 21 09:01:24 2022
Command line        : /home/lgouveia/ior/bin/ior -w -t 1m -b 4096m -k -o /beegfs/lgouveia/ior_2/testFile1
Machine             : Linux bora001.plafrim.cluster
TestID              : 0
StartTime           : Fri Jan 21 09:01:24 2022
Path                : /beegfs/lgouveia/ior_2/testFile1
FS                  : 130.9 TiB   Used FS: 36.6%   Inodes: 0.0 Mi   Used Inodes: -nan%

Options: 
api                 : POSIX
apiVersion          : 
test filename       : /beegfs/lgouveia/ior_2/testFile1
access              : single-shared-file
type                : independent
segments            : 1
ordering in a file  : sequential
ordering inter file : no tasks offsets
nodes               : 1
tasks               : 8
clients per node    : 8
repetitions         : 1
xfersize            : 1 MiB
blocksize           : 4 GiB
aggregate filesize  : 32 GiB

Results: 
WARNING: The file "/beegfs/lgouveia/ior_2/testFile1" exists already and will be overwritten

access    bw(MiB/s)  IOPS       Latency(s)  block(KiB) xfer(KiB)  open(s)    wr/rd(s)   close(s)   total(s)   iter
------    ---------  ----       ----------  ---------- ---------  --------   --------   --------   --------   ----
write     1641.35    1641.46    0.002051    4194304    1024.00    0.003067   19.96      14.85      19.96      0   

Summary of all tests:
Operation   Max(MiB)   Min(MiB)  Mean(MiB)     StdDev   Max(OPs)   Min(OPs)  Mean(OPs)     StdDev    Mean(s) Stonewall(s) Stonewall(MiB) Test# #Tasks tPN reps fPP reord reordoff reordrand seed segcnt   blksiz    xsize aggs(MiB)   API RefNum
write        1641.35    1641.35    1641.35       0.00    1641.35    1641.35    1641.35       0.00   19.96403         NA            NA     0      8   8    1   0     0        1         0    0      1 4294967296  1048576   32768.0 POSIX      0
Finished            : Fri Jan 21 09:01:44 2022
Tracking /beegfs/lgouveia/ior_2/testFile1...
Tracking /beegfs/lgouveia/ior_2/testFileApp_2...
Tracking /beegfs/lgouveia/ior_2/testFileApp_1...



Writing tracked information to tracker.csv...
IOR-3.4.0+dev: MPI Coordinated Test of Parallel I/O
Began               : Fri Jan 21 09:02:45 2022
Command line        : /home/lgouveia/ior/bin/ior -w -t 1m -b 4096m -k -o /beegfs/lgouveia/ior_2/testFile1
Machine             : Linux bora001.plafrim.cluster
TestID              : 0
StartTime           : Fri Jan 21 09:02:45 2022
Path                : /beegfs/lgouveia/ior_2/testFile1
FS                  : 130.9 TiB   Used FS: 36.6%   Inodes: 0.0 Mi   Used Inodes: -nan%

Options: 
api                 : POSIX
apiVersion          : 
test filename       : /beegfs/lgouveia/ior_2/testFile1
access              : single-shared-file
type                : independent
segments            : 1
ordering in a file  : sequential
ordering inter file : no tasks offsets
nodes               : 1
tasks               : 8
clients per node    : 8
repetitions         : 1
xfersize            : 1 MiB
blocksize           : 4 GiB
aggregate filesize  : 32 GiB

Results: 
WARNING: The file "/beegfs/lgouveia/ior_2/testFile1" exists already and will be overwritten

access    bw(MiB/s)  IOPS       Latency(s)  block(KiB) xfer(KiB)  open(s)    wr/rd(s)   close(s)   total(s)   iter
------    ---------  ----       ----------  ---------- ---------  --------   --------   --------   --------   ----
write     1652.00    1652.09    0.001753    4194304    1024.00    0.002865   19.83      12.65      19.84      0   

Summary of all tests:
Operation   Max(MiB)   Min(MiB)  Mean(MiB)     StdDev   Max(OPs)   Min(OPs)  Mean(OPs)     StdDev    Mean(s) Stonewall(s) Stonewall(MiB) Test# #Tasks tPN reps fPP reord reordoff reordrand seed segcnt   blksiz    xsize aggs(MiB)   API RefNum
write        1652.00    1652.00    1652.00       0.00    1652.00    1652.00    1652.00       0.00   19.83532         NA            NA     0      8   8    1   0     0        1         0    0      1 4294967296  1048576   32768.0 POSIX      0
Finished            : Fri Jan 21 09:03:05 2022
Tracking /beegfs/lgouveia/ior_2/testFile1...
Tracking /beegfs/lgouveia/ior_2/testFileApp_2...
Tracking /beegfs/lgouveia/ior_2/testFileApp_1...



Writing tracked information to tracker.csv...
IOR-3.4.0+dev: MPI Coordinated Test of Parallel I/O
Began               : Fri Jan 21 09:04:06 2022
Command line        : /home/lgouveia/ior/bin/ior -w -t 1m -b 4096m -k -o /beegfs/lgouveia/ior_2/testFile1
Machine             : Linux bora001.plafrim.cluster
TestID              : 0
StartTime           : Fri Jan 21 09:04:06 2022
Path                : /beegfs/lgouveia/ior_2/testFile1
FS                  : 130.9 TiB   Used FS: 36.6%   Inodes: 0.0 Mi   Used Inodes: -nan%

Options: 
api                 : POSIX
apiVersion          : 
test filename       : /beegfs/lgouveia/ior_2/testFile1
access              : single-shared-file
type                : independent
segments            : 1
ordering in a file  : sequential
ordering inter file : no tasks offsets
nodes               : 1
tasks               : 8
clients per node    : 8
repetitions         : 1
xfersize            : 1 MiB
blocksize           : 4 GiB
aggregate filesize  : 32 GiB

Results: 
WARNING: The file "/beegfs/lgouveia/ior_2/testFile1" exists already and will be overwritten

access    bw(MiB/s)  IOPS       Latency(s)  block(KiB) xfer(KiB)  open(s)    wr/rd(s)   close(s)   total(s)   iter
------    ---------  ----       ----------  ---------- ---------  --------   --------   --------   --------   ----
write     1782.81    1782.91    0.001215    4194304    1024.00    0.003239   18.38      13.40      18.38      0   

Summary of all tests:
Operation   Max(MiB)   Min(MiB)  Mean(MiB)     StdDev   Max(OPs)   Min(OPs)  Mean(OPs)     StdDev    Mean(s) Stonewall(s) Stonewall(MiB) Test# #Tasks tPN reps fPP reord reordoff reordrand seed segcnt   blksiz    xsize aggs(MiB)   API RefNum
write        1782.81    1782.81    1782.81       0.00    1782.81    1782.81    1782.81       0.00   18.38002         NA            NA     0      8   8    1   0     0        1         0    0      1 4294967296  1048576   32768.0 POSIX      0
Finished            : Fri Jan 21 09:04:24 2022
Tracking /beegfs/lgouveia/ior_2/testFile1...
Tracking /beegfs/lgouveia/ior_2/testFileApp_2...
Tracking /beegfs/lgouveia/ior_2/testFileApp_1...



Writing tracked information to tracker.csv...
