===== My JOB Information ====
Node List:  bora001
my jobID:  1472346
Partition: routage
submit directory:  /home/lgouveia/luan-teylo/tests/omnipath/compute_nodes/2_target/01
submit host:  devel02.plafrim.cluster
In the directory: /home/lgouveia/luan-teylo/tests/omnipath/compute_nodes/2_target/01
As the user: lgouveia
============================
IOR-3.4.0+dev: MPI Coordinated Test of Parallel I/O
Began               : Fri Jan 21 07:53:26 2022
Command line        : /home/lgouveia/ior/bin/ior -w -t 1m -b 4096m -k -o /beegfs/lgouveia/ior_2/testFile1
Machine             : Linux bora001.plafrim.cluster
TestID              : 0
StartTime           : Fri Jan 21 07:53:26 2022
Path                : /beegfs/lgouveia/ior_2/testFile1
FS                  : 130.9 TiB   Used FS: 36.6%   Inodes: 0.0 Mi   Used Inodes: -nan%

Options: 
api                 : POSIX
apiVersion          : 
test filename       : /beegfs/lgouveia/ior_2/testFile1
access              : single-shared-file
type                : independent
segments            : 1
ordering in a file  : sequential
ordering inter file : no tasks offsets
nodes               : 1
tasks               : 8
clients per node    : 8
repetitions         : 1
xfersize            : 1 MiB
blocksize           : 4 GiB
aggregate filesize  : 32 GiB

Results: 
WARNING: The file "/beegfs/lgouveia/ior_2/testFile1" exists already and will be overwritten

access    bw(MiB/s)  IOPS       Latency(s)  block(KiB) xfer(KiB)  open(s)    wr/rd(s)   close(s)   total(s)   iter
------    ---------  ----       ----------  ---------- ---------  --------   --------   --------   --------   ----
write     1750.00    1750.13    0.002388    4194304    1024.00    0.003449   18.72      14.22      18.72      0   

Summary of all tests:
Operation   Max(MiB)   Min(MiB)  Mean(MiB)     StdDev   Max(OPs)   Min(OPs)  Mean(OPs)     StdDev    Mean(s) Stonewall(s) Stonewall(MiB) Test# #Tasks tPN reps fPP reord reordoff reordrand seed segcnt   blksiz    xsize aggs(MiB)   API RefNum
write        1750.00    1750.00    1750.00       0.00    1750.00    1750.00    1750.00       0.00   18.72452         NA            NA     0      8   8    1   0     0        1         0    0      1 4294967296  1048576   32768.0 POSIX      0
Finished            : Fri Jan 21 07:53:45 2022
Tracking /beegfs/lgouveia/ior_2/testFile1...
Tracking /beegfs/lgouveia/ior_2/testFileApp_2...
Tracking /beegfs/lgouveia/ior_2/testFileApp_1...



Writing tracked information to tracker.csv...
IOR-3.4.0+dev: MPI Coordinated Test of Parallel I/O
Began               : Fri Jan 21 07:54:47 2022
Command line        : /home/lgouveia/ior/bin/ior -w -t 1m -b 4096m -k -o /beegfs/lgouveia/ior_2/testFile1
Machine             : Linux bora001.plafrim.cluster
TestID              : 0
StartTime           : Fri Jan 21 07:54:47 2022
Path                : /beegfs/lgouveia/ior_2/testFile1
FS                  : 130.9 TiB   Used FS: 36.6%   Inodes: 0.0 Mi   Used Inodes: -nan%

Options: 
api                 : POSIX
apiVersion          : 
test filename       : /beegfs/lgouveia/ior_2/testFile1
access              : single-shared-file
type                : independent
segments            : 1
ordering in a file  : sequential
ordering inter file : no tasks offsets
nodes               : 1
tasks               : 8
clients per node    : 8
repetitions         : 1
xfersize            : 1 MiB
blocksize           : 4 GiB
aggregate filesize  : 32 GiB

Results: 
WARNING: The file "/beegfs/lgouveia/ior_2/testFile1" exists already and will be overwritten

access    bw(MiB/s)  IOPS       Latency(s)  block(KiB) xfer(KiB)  open(s)    wr/rd(s)   close(s)   total(s)   iter
------    ---------  ----       ----------  ---------- ---------  --------   --------   --------   --------   ----
write     1582.69    1582.79    0.002235    4194304    1024.00    0.003479   20.70      11.55      20.70      0   

Summary of all tests:
Operation   Max(MiB)   Min(MiB)  Mean(MiB)     StdDev   Max(OPs)   Min(OPs)  Mean(OPs)     StdDev    Mean(s) Stonewall(s) Stonewall(MiB) Test# #Tasks tPN reps fPP reord reordoff reordrand seed segcnt   blksiz    xsize aggs(MiB)   API RefNum
write        1582.69    1582.69    1582.69       0.00    1582.69    1582.69    1582.69       0.00   20.70403         NA            NA     0      8   8    1   0     0        1         0    0      1 4294967296  1048576   32768.0 POSIX      0
Finished            : Fri Jan 21 07:55:07 2022
Tracking /beegfs/lgouveia/ior_2/testFile1...
Tracking /beegfs/lgouveia/ior_2/testFileApp_2...
Tracking /beegfs/lgouveia/ior_2/testFileApp_1...



Writing tracked information to tracker.csv...
IOR-3.4.0+dev: MPI Coordinated Test of Parallel I/O
Began               : Fri Jan 21 07:56:08 2022
Command line        : /home/lgouveia/ior/bin/ior -w -t 1m -b 4096m -k -o /beegfs/lgouveia/ior_2/testFile1
Machine             : Linux bora001.plafrim.cluster
TestID              : 0
StartTime           : Fri Jan 21 07:56:08 2022
Path                : /beegfs/lgouveia/ior_2/testFile1
FS                  : 130.9 TiB   Used FS: 36.6%   Inodes: 0.0 Mi   Used Inodes: -nan%

Options: 
api                 : POSIX
apiVersion          : 
test filename       : /beegfs/lgouveia/ior_2/testFile1
access              : single-shared-file
type                : independent
segments            : 1
ordering in a file  : sequential
ordering inter file : no tasks offsets
nodes               : 1
tasks               : 8
clients per node    : 8
repetitions         : 1
xfersize            : 1 MiB
blocksize           : 4 GiB
aggregate filesize  : 32 GiB

Results: 
WARNING: The file "/beegfs/lgouveia/ior_2/testFile1" exists already and will be overwritten

access    bw(MiB/s)  IOPS       Latency(s)  block(KiB) xfer(KiB)  open(s)    wr/rd(s)   close(s)   total(s)   iter
------    ---------  ----       ----------  ---------- ---------  --------   --------   --------   --------   ----
write     1602.67    1602.76    0.003076    4194304    1024.00    0.002583   20.44      10.92      20.45      0   

Summary of all tests:
Operation   Max(MiB)   Min(MiB)  Mean(MiB)     StdDev   Max(OPs)   Min(OPs)  Mean(OPs)     StdDev    Mean(s) Stonewall(s) Stonewall(MiB) Test# #Tasks tPN reps fPP reord reordoff reordrand seed segcnt   blksiz    xsize aggs(MiB)   API RefNum
write        1602.67    1602.67    1602.67       0.00    1602.67    1602.67    1602.67       0.00   20.44592         NA            NA     0      8   8    1   0     0        1         0    0      1 4294967296  1048576   32768.0 POSIX      0
Finished            : Fri Jan 21 07:56:29 2022
Tracking /beegfs/lgouveia/ior_2/testFile1...
Tracking /beegfs/lgouveia/ior_2/testFileApp_2...
Tracking /beegfs/lgouveia/ior_2/testFileApp_1...



Writing tracked information to tracker.csv...
IOR-3.4.0+dev: MPI Coordinated Test of Parallel I/O
Began               : Fri Jan 21 07:57:29 2022
Command line        : /home/lgouveia/ior/bin/ior -w -t 1m -b 4096m -k -o /beegfs/lgouveia/ior_2/testFile1
Machine             : Linux bora001.plafrim.cluster
TestID              : 0
StartTime           : Fri Jan 21 07:57:29 2022
Path                : /beegfs/lgouveia/ior_2/testFile1
FS                  : 130.9 TiB   Used FS: 36.6%   Inodes: 0.0 Mi   Used Inodes: -nan%

Options: 
api                 : POSIX
apiVersion          : 
test filename       : /beegfs/lgouveia/ior_2/testFile1
access              : single-shared-file
type                : independent
segments            : 1
ordering in a file  : sequential
ordering inter file : no tasks offsets
nodes               : 1
tasks               : 8
clients per node    : 8
repetitions         : 1
xfersize            : 1 MiB
blocksize           : 4 GiB
aggregate filesize  : 32 GiB

Results: 
WARNING: The file "/beegfs/lgouveia/ior_2/testFile1" exists already and will be overwritten

access    bw(MiB/s)  IOPS       Latency(s)  block(KiB) xfer(KiB)  open(s)    wr/rd(s)   close(s)   total(s)   iter
------    ---------  ----       ----------  ---------- ---------  --------   --------   --------   --------   ----
write     1715.55    1715.64    0.002355    4194304    1024.00    0.002737   19.10      11.60      19.10      0   

Summary of all tests:
Operation   Max(MiB)   Min(MiB)  Mean(MiB)     StdDev   Max(OPs)   Min(OPs)  Mean(OPs)     StdDev    Mean(s) Stonewall(s) Stonewall(MiB) Test# #Tasks tPN reps fPP reord reordoff reordrand seed segcnt   blksiz    xsize aggs(MiB)   API RefNum
write        1715.55    1715.55    1715.55       0.00    1715.55    1715.55    1715.55       0.00   19.10063         NA            NA     0      8   8    1   0     0        1         0    0      1 4294967296  1048576   32768.0 POSIX      0
Finished            : Fri Jan 21 07:57:49 2022
Tracking /beegfs/lgouveia/ior_2/testFile1...
Tracking /beegfs/lgouveia/ior_2/testFileApp_2...
Tracking /beegfs/lgouveia/ior_2/testFileApp_1...



Writing tracked information to tracker.csv...
IOR-3.4.0+dev: MPI Coordinated Test of Parallel I/O
Began               : Fri Jan 21 07:58:49 2022
Command line        : /home/lgouveia/ior/bin/ior -w -t 1m -b 4096m -k -o /beegfs/lgouveia/ior_2/testFile1
Machine             : Linux bora001.plafrim.cluster
TestID              : 0
StartTime           : Fri Jan 21 07:58:49 2022
Path                : /beegfs/lgouveia/ior_2/testFile1
FS                  : 130.9 TiB   Used FS: 36.6%   Inodes: 0.0 Mi   Used Inodes: -nan%

Options: 
api                 : POSIX
apiVersion          : 
test filename       : /beegfs/lgouveia/ior_2/testFile1
access              : single-shared-file
type                : independent
segments            : 1
ordering in a file  : sequential
ordering inter file : no tasks offsets
nodes               : 1
tasks               : 8
clients per node    : 8
repetitions         : 1
xfersize            : 1 MiB
blocksize           : 4 GiB
aggregate filesize  : 32 GiB

Results: 
WARNING: The file "/beegfs/lgouveia/ior_2/testFile1" exists already and will be overwritten

access    bw(MiB/s)  IOPS       Latency(s)  block(KiB) xfer(KiB)  open(s)    wr/rd(s)   close(s)   total(s)   iter
------    ---------  ----       ----------  ---------- ---------  --------   --------   --------   --------   ----
write     1521.80    1521.87    0.001748    4194304    1024.00    0.002908   21.53      14.37      21.53      0   

Summary of all tests:
Operation   Max(MiB)   Min(MiB)  Mean(MiB)     StdDev   Max(OPs)   Min(OPs)  Mean(OPs)     StdDev    Mean(s) Stonewall(s) Stonewall(MiB) Test# #Tasks tPN reps fPP reord reordoff reordrand seed segcnt   blksiz    xsize aggs(MiB)   API RefNum
write        1521.80    1521.80    1521.80       0.00    1521.80    1521.80    1521.80       0.00   21.53235         NA            NA     0      8   8    1   0     0        1         0    0      1 4294967296  1048576   32768.0 POSIX      0
Finished            : Fri Jan 21 07:59:11 2022
Tracking /beegfs/lgouveia/ior_2/testFile1...
Tracking /beegfs/lgouveia/ior_2/testFileApp_2...
Tracking /beegfs/lgouveia/ior_2/testFileApp_1...



Writing tracked information to tracker.csv...
IOR-3.4.0+dev: MPI Coordinated Test of Parallel I/O
Began               : Fri Jan 21 08:00:12 2022
Command line        : /home/lgouveia/ior/bin/ior -w -t 1m -b 4096m -k -o /beegfs/lgouveia/ior_2/testFile1
Machine             : Linux bora001.plafrim.cluster
TestID              : 0
StartTime           : Fri Jan 21 08:00:12 2022
Path                : /beegfs/lgouveia/ior_2/testFile1
FS                  : 130.9 TiB   Used FS: 36.6%   Inodes: 0.0 Mi   Used Inodes: -nan%

Options: 
api                 : POSIX
apiVersion          : 
test filename       : /beegfs/lgouveia/ior_2/testFile1
access              : single-shared-file
type                : independent
segments            : 1
ordering in a file  : sequential
ordering inter file : no tasks offsets
nodes               : 1
tasks               : 8
clients per node    : 8
repetitions         : 1
xfersize            : 1 MiB
blocksize           : 4 GiB
aggregate filesize  : 32 GiB

Results: 
WARNING: The file "/beegfs/lgouveia/ior_2/testFile1" exists already and will be overwritten

access    bw(MiB/s)  IOPS       Latency(s)  block(KiB) xfer(KiB)  open(s)    wr/rd(s)   close(s)   total(s)   iter
------    ---------  ----       ----------  ---------- ---------  --------   --------   --------   --------   ----
write     1845.37    1845.46    0.002354    4194304    1024.00    0.002828   17.76      13.02      17.76      0   

Summary of all tests:
Operation   Max(MiB)   Min(MiB)  Mean(MiB)     StdDev   Max(OPs)   Min(OPs)  Mean(OPs)     StdDev    Mean(s) Stonewall(s) Stonewall(MiB) Test# #Tasks tPN reps fPP reord reordoff reordrand seed segcnt   blksiz    xsize aggs(MiB)   API RefNum
write        1845.37    1845.37    1845.37       0.00    1845.37    1845.37    1845.37       0.00   17.75691         NA            NA     0      8   8    1   0     0        1         0    0      1 4294967296  1048576   32768.0 POSIX      0
Finished            : Fri Jan 21 08:00:30 2022
Tracking /beegfs/lgouveia/ior_2/testFile1...
Tracking /beegfs/lgouveia/ior_2/testFileApp_2...
Tracking /beegfs/lgouveia/ior_2/testFileApp_1...



Writing tracked information to tracker.csv...
IOR-3.4.0+dev: MPI Coordinated Test of Parallel I/O
Began               : Fri Jan 21 08:01:31 2022
Command line        : /home/lgouveia/ior/bin/ior -w -t 1m -b 4096m -k -o /beegfs/lgouveia/ior_2/testFile1
Machine             : Linux bora001.plafrim.cluster
TestID              : 0
StartTime           : Fri Jan 21 08:01:31 2022
Path                : /beegfs/lgouveia/ior_2/testFile1
FS                  : 130.9 TiB   Used FS: 36.6%   Inodes: 0.0 Mi   Used Inodes: -nan%

Options: 
api                 : POSIX
apiVersion          : 
test filename       : /beegfs/lgouveia/ior_2/testFile1
access              : single-shared-file
type                : independent
segments            : 1
ordering in a file  : sequential
ordering inter file : no tasks offsets
nodes               : 1
tasks               : 8
clients per node    : 8
repetitions         : 1
xfersize            : 1 MiB
blocksize           : 4 GiB
aggregate filesize  : 32 GiB

Results: 
WARNING: The file "/beegfs/lgouveia/ior_2/testFile1" exists already and will be overwritten

access    bw(MiB/s)  IOPS       Latency(s)  block(KiB) xfer(KiB)  open(s)    wr/rd(s)   close(s)   total(s)   iter
------    ---------  ----       ----------  ---------- ---------  --------   --------   --------   --------   ----
write     1666.10    1666.21    0.001827    4194304    1024.00    0.002560   19.67      12.98      19.67      0   

Summary of all tests:
Operation   Max(MiB)   Min(MiB)  Mean(MiB)     StdDev   Max(OPs)   Min(OPs)  Mean(OPs)     StdDev    Mean(s) Stonewall(s) Stonewall(MiB) Test# #Tasks tPN reps fPP reord reordoff reordrand seed segcnt   blksiz    xsize aggs(MiB)   API RefNum
write        1666.10    1666.10    1666.10       0.00    1666.10    1666.10    1666.10       0.00   19.66748         NA            NA     0      8   8    1   0     0        1         0    0      1 4294967296  1048576   32768.0 POSIX      0
Finished            : Fri Jan 21 08:01:50 2022
Tracking /beegfs/lgouveia/ior_2/testFile1...
Tracking /beegfs/lgouveia/ior_2/testFileApp_2...
Tracking /beegfs/lgouveia/ior_2/testFileApp_1...



Writing tracked information to tracker.csv...
IOR-3.4.0+dev: MPI Coordinated Test of Parallel I/O
Began               : Fri Jan 21 08:02:51 2022
Command line        : /home/lgouveia/ior/bin/ior -w -t 1m -b 4096m -k -o /beegfs/lgouveia/ior_2/testFile1
Machine             : Linux bora001.plafrim.cluster
TestID              : 0
StartTime           : Fri Jan 21 08:02:51 2022
Path                : /beegfs/lgouveia/ior_2/testFile1
FS                  : 130.9 TiB   Used FS: 36.6%   Inodes: 0.0 Mi   Used Inodes: -nan%

Options: 
api                 : POSIX
apiVersion          : 
test filename       : /beegfs/lgouveia/ior_2/testFile1
access              : single-shared-file
type                : independent
segments            : 1
ordering in a file  : sequential
ordering inter file : no tasks offsets
nodes               : 1
tasks               : 8
clients per node    : 8
repetitions         : 1
xfersize            : 1 MiB
blocksize           : 4 GiB
aggregate filesize  : 32 GiB

Results: 
WARNING: The file "/beegfs/lgouveia/ior_2/testFile1" exists already and will be overwritten

access    bw(MiB/s)  IOPS       Latency(s)  block(KiB) xfer(KiB)  open(s)    wr/rd(s)   close(s)   total(s)   iter
------    ---------  ----       ----------  ---------- ---------  --------   --------   --------   --------   ----
write     1639.25    1639.35    0.001511    4194304    1024.00    0.002797   19.99      14.14      19.99      0   

Summary of all tests:
Operation   Max(MiB)   Min(MiB)  Mean(MiB)     StdDev   Max(OPs)   Min(OPs)  Mean(OPs)     StdDev    Mean(s) Stonewall(s) Stonewall(MiB) Test# #Tasks tPN reps fPP reord reordoff reordrand seed segcnt   blksiz    xsize aggs(MiB)   API RefNum
write        1639.25    1639.25    1639.25       0.00    1639.25    1639.25    1639.25       0.00   19.98958         NA            NA     0      8   8    1   0     0        1         0    0      1 4294967296  1048576   32768.0 POSIX      0
Finished            : Fri Jan 21 08:03:11 2022
Tracking /beegfs/lgouveia/ior_2/testFile1...
Tracking /beegfs/lgouveia/ior_2/testFileApp_2...
Tracking /beegfs/lgouveia/ior_2/testFileApp_1...



Writing tracked information to tracker.csv...
IOR-3.4.0+dev: MPI Coordinated Test of Parallel I/O
Began               : Fri Jan 21 08:04:12 2022
Command line        : /home/lgouveia/ior/bin/ior -w -t 1m -b 4096m -k -o /beegfs/lgouveia/ior_2/testFile1
Machine             : Linux bora001.plafrim.cluster
TestID              : 0
StartTime           : Fri Jan 21 08:04:12 2022
Path                : /beegfs/lgouveia/ior_2/testFile1
FS                  : 130.9 TiB   Used FS: 36.6%   Inodes: 0.0 Mi   Used Inodes: -nan%

Options: 
api                 : POSIX
apiVersion          : 
test filename       : /beegfs/lgouveia/ior_2/testFile1
access              : single-shared-file
type                : independent
segments            : 1
ordering in a file  : sequential
ordering inter file : no tasks offsets
nodes               : 1
tasks               : 8
clients per node    : 8
repetitions         : 1
xfersize            : 1 MiB
blocksize           : 4 GiB
aggregate filesize  : 32 GiB

Results: 
WARNING: The file "/beegfs/lgouveia/ior_2/testFile1" exists already and will be overwritten

access    bw(MiB/s)  IOPS       Latency(s)  block(KiB) xfer(KiB)  open(s)    wr/rd(s)   close(s)   total(s)   iter
------    ---------  ----       ----------  ---------- ---------  --------   --------   --------   --------   ----
write     1515.39    1515.48    0.003571    4194304    1024.00    0.002901   21.62      14.68      21.62      0   

Summary of all tests:
Operation   Max(MiB)   Min(MiB)  Mean(MiB)     StdDev   Max(OPs)   Min(OPs)  Mean(OPs)     StdDev    Mean(s) Stonewall(s) Stonewall(MiB) Test# #Tasks tPN reps fPP reord reordoff reordrand seed segcnt   blksiz    xsize aggs(MiB)   API RefNum
write        1515.39    1515.39    1515.39       0.00    1515.39    1515.39    1515.39       0.00   21.62341         NA            NA     0      8   8    1   0     0        1         0    0      1 4294967296  1048576   32768.0 POSIX      0
Finished            : Fri Jan 21 08:04:34 2022
Tracking /beegfs/lgouveia/ior_2/testFile1...
Tracking /beegfs/lgouveia/ior_2/testFileApp_2...
Tracking /beegfs/lgouveia/ior_2/testFileApp_1...



Writing tracked information to tracker.csv...
IOR-3.4.0+dev: MPI Coordinated Test of Parallel I/O
Began               : Fri Jan 21 08:05:34 2022
Command line        : /home/lgouveia/ior/bin/ior -w -t 1m -b 4096m -k -o /beegfs/lgouveia/ior_2/testFile1
Machine             : Linux bora001.plafrim.cluster
TestID              : 0
StartTime           : Fri Jan 21 08:05:34 2022
Path                : /beegfs/lgouveia/ior_2/testFile1
FS                  : 130.9 TiB   Used FS: 36.6%   Inodes: 0.0 Mi   Used Inodes: -nan%

Options: 
api                 : POSIX
apiVersion          : 
test filename       : /beegfs/lgouveia/ior_2/testFile1
access              : single-shared-file
type                : independent
segments            : 1
ordering in a file  : sequential
ordering inter file : no tasks offsets
nodes               : 1
tasks               : 8
clients per node    : 8
repetitions         : 1
xfersize            : 1 MiB
blocksize           : 4 GiB
aggregate filesize  : 32 GiB

Results: 
WARNING: The file "/beegfs/lgouveia/ior_2/testFile1" exists already and will be overwritten

access    bw(MiB/s)  IOPS       Latency(s)  block(KiB) xfer(KiB)  open(s)    wr/rd(s)   close(s)   total(s)   iter
------    ---------  ----       ----------  ---------- ---------  --------   --------   --------   --------   ----
write     1730.41    1730.50    0.001779    4194304    1024.00    0.002440   18.94      11.89      18.94      0   

Summary of all tests:
Operation   Max(MiB)   Min(MiB)  Mean(MiB)     StdDev   Max(OPs)   Min(OPs)  Mean(OPs)     StdDev    Mean(s) Stonewall(s) Stonewall(MiB) Test# #Tasks tPN reps fPP reord reordoff reordrand seed segcnt   blksiz    xsize aggs(MiB)   API RefNum
write        1730.41    1730.41    1730.41       0.00    1730.41    1730.41    1730.41       0.00   18.93652         NA            NA     0      8   8    1   0     0        1         0    0      1 4294967296  1048576   32768.0 POSIX      0
Finished            : Fri Jan 21 08:05:53 2022
Tracking /beegfs/lgouveia/ior_2/testFile1...
Tracking /beegfs/lgouveia/ior_2/testFileApp_2...
Tracking /beegfs/lgouveia/ior_2/testFileApp_1...



Writing tracked information to tracker.csv...
