===== My JOB Information ====
Node List:  bora001
my jobID:  1471395
Partition: routage
submit directory:  /home/lgouveia/luan-teylo/tests/omnipath/compute_nodes/8_targets/01
submit host:  devel02.plafrim.cluster
In the directory: /home/lgouveia/luan-teylo/tests/omnipath/compute_nodes/8_targets/01
As the user: lgouveia
============================
IOR-3.4.0+dev: MPI Coordinated Test of Parallel I/O
Began               : Mon Jan 17 14:24:42 2022
Command line        : /home/lgouveia/ior/bin/ior -w -t 1m -b 4096m -k -o /beegfs/lgouveia/ior_8/testFile1
Machine             : Linux bora001.plafrim.cluster
TestID              : 0
StartTime           : Mon Jan 17 14:24:42 2022
Path                : /beegfs/lgouveia/ior_8/testFile1
FS                  : 130.9 TiB   Used FS: 36.5%   Inodes: 0.0 Mi   Used Inodes: -nan%

Options: 
api                 : POSIX
apiVersion          : 
test filename       : /beegfs/lgouveia/ior_8/testFile1
access              : single-shared-file
type                : independent
segments            : 1
ordering in a file  : sequential
ordering inter file : no tasks offsets
nodes               : 1
tasks               : 8
clients per node    : 8
repetitions         : 1
xfersize            : 1 MiB
blocksize           : 4 GiB
aggregate filesize  : 32 GiB

Results: 
WARNING: The file "/beegfs/lgouveia/ior_8/testFile1" exists already and will be overwritten

access    bw(MiB/s)  IOPS       Latency(s)  block(KiB) xfer(KiB)  open(s)    wr/rd(s)   close(s)   total(s)   iter
------    ---------  ----       ----------  ---------- ---------  --------   --------   --------   --------   ----
write     1621.04    1621.15    0.002811    4194304    1024.00    0.005635   20.21      16.92      20.21      0   

Summary of all tests:
Operation   Max(MiB)   Min(MiB)  Mean(MiB)     StdDev   Max(OPs)   Min(OPs)  Mean(OPs)     StdDev    Mean(s) Stonewall(s) Stonewall(MiB) Test# #Tasks tPN reps fPP reord reordoff reordrand seed segcnt   blksiz    xsize aggs(MiB)   API RefNum
write        1621.04    1621.04    1621.04       0.00    1621.04    1621.04    1621.04       0.00   20.21415         NA            NA     0      8   8    1   0     0        1         0    0      1 4294967296  1048576   32768.0 POSIX      0
Finished            : Mon Jan 17 14:25:02 2022
Tracking /beegfs/lgouveia/ior_8/testFile1...
Tracking /beegfs/lgouveia/ior_8/testFileApp_2...
Tracking /beegfs/lgouveia/ior_8/testFileApp_1...



Writing tracked information to tracker.csv...
IOR-3.4.0+dev: MPI Coordinated Test of Parallel I/O
Began               : Mon Jan 17 14:26:03 2022
Command line        : /home/lgouveia/ior/bin/ior -w -t 1m -b 4096m -k -o /beegfs/lgouveia/ior_8/testFile1
Machine             : Linux bora001.plafrim.cluster
TestID              : 0
StartTime           : Mon Jan 17 14:26:03 2022
Path                : /beegfs/lgouveia/ior_8/testFile1
FS                  : 130.9 TiB   Used FS: 36.5%   Inodes: 0.0 Mi   Used Inodes: -nan%

Options: 
api                 : POSIX
apiVersion          : 
test filename       : /beegfs/lgouveia/ior_8/testFile1
access              : single-shared-file
type                : independent
segments            : 1
ordering in a file  : sequential
ordering inter file : no tasks offsets
nodes               : 1
tasks               : 8
clients per node    : 8
repetitions         : 1
xfersize            : 1 MiB
blocksize           : 4 GiB
aggregate filesize  : 32 GiB

Results: 
WARNING: The file "/beegfs/lgouveia/ior_8/testFile1" exists already and will be overwritten

access    bw(MiB/s)  IOPS       Latency(s)  block(KiB) xfer(KiB)  open(s)    wr/rd(s)   close(s)   total(s)   iter
------    ---------  ----       ----------  ---------- ---------  --------   --------   --------   --------   ----
write     1633.51    1633.61    0.002432    4194304    1024.00    0.004845   20.06      15.35      20.06      0   

Summary of all tests:
Operation   Max(MiB)   Min(MiB)  Mean(MiB)     StdDev   Max(OPs)   Min(OPs)  Mean(OPs)     StdDev    Mean(s) Stonewall(s) Stonewall(MiB) Test# #Tasks tPN reps fPP reord reordoff reordrand seed segcnt   blksiz    xsize aggs(MiB)   API RefNum
write        1633.51    1633.51    1633.51       0.00    1633.51    1633.51    1633.51       0.00   20.05993         NA            NA     0      8   8    1   0     0        1         0    0      1 4294967296  1048576   32768.0 POSIX      0
Finished            : Mon Jan 17 14:26:23 2022
Tracking /beegfs/lgouveia/ior_8/testFile1...
Tracking /beegfs/lgouveia/ior_8/testFileApp_2...
Tracking /beegfs/lgouveia/ior_8/testFileApp_1...



Writing tracked information to tracker.csv...
IOR-3.4.0+dev: MPI Coordinated Test of Parallel I/O
Began               : Mon Jan 17 14:27:24 2022
Command line        : /home/lgouveia/ior/bin/ior -w -t 1m -b 4096m -k -o /beegfs/lgouveia/ior_8/testFile1
Machine             : Linux bora001.plafrim.cluster
TestID              : 0
StartTime           : Mon Jan 17 14:27:24 2022
Path                : /beegfs/lgouveia/ior_8/testFile1
FS                  : 130.9 TiB   Used FS: 36.5%   Inodes: 0.0 Mi   Used Inodes: -nan%

Options: 
api                 : POSIX
apiVersion          : 
test filename       : /beegfs/lgouveia/ior_8/testFile1
access              : single-shared-file
type                : independent
segments            : 1
ordering in a file  : sequential
ordering inter file : no tasks offsets
nodes               : 1
tasks               : 8
clients per node    : 8
repetitions         : 1
xfersize            : 1 MiB
blocksize           : 4 GiB
aggregate filesize  : 32 GiB

Results: 
WARNING: The file "/beegfs/lgouveia/ior_8/testFile1" exists already and will be overwritten

access    bw(MiB/s)  IOPS       Latency(s)  block(KiB) xfer(KiB)  open(s)    wr/rd(s)   close(s)   total(s)   iter
------    ---------  ----       ----------  ---------- ---------  --------   --------   --------   --------   ----
write     1677.55    1677.66    0.002230    4194304    1024.00    0.004485   19.53      14.04      19.53      0   

Summary of all tests:
Operation   Max(MiB)   Min(MiB)  Mean(MiB)     StdDev   Max(OPs)   Min(OPs)  Mean(OPs)     StdDev    Mean(s) Stonewall(s) Stonewall(MiB) Test# #Tasks tPN reps fPP reord reordoff reordrand seed segcnt   blksiz    xsize aggs(MiB)   API RefNum
write        1677.55    1677.55    1677.55       0.00    1677.55    1677.55    1677.55       0.00   19.53327         NA            NA     0      8   8    1   0     0        1         0    0      1 4294967296  1048576   32768.0 POSIX      0
Finished            : Mon Jan 17 14:27:44 2022
Tracking /beegfs/lgouveia/ior_8/testFile1...
Tracking /beegfs/lgouveia/ior_8/testFileApp_2...
Tracking /beegfs/lgouveia/ior_8/testFileApp_1...



Writing tracked information to tracker.csv...
IOR-3.4.0+dev: MPI Coordinated Test of Parallel I/O
Began               : Mon Jan 17 14:28:45 2022
Command line        : /home/lgouveia/ior/bin/ior -w -t 1m -b 4096m -k -o /beegfs/lgouveia/ior_8/testFile1
Machine             : Linux bora001.plafrim.cluster
TestID              : 0
StartTime           : Mon Jan 17 14:28:45 2022
Path                : /beegfs/lgouveia/ior_8/testFile1
FS                  : 130.9 TiB   Used FS: 36.5%   Inodes: 0.0 Mi   Used Inodes: -nan%

Options: 
api                 : POSIX
apiVersion          : 
test filename       : /beegfs/lgouveia/ior_8/testFile1
access              : single-shared-file
type                : independent
segments            : 1
ordering in a file  : sequential
ordering inter file : no tasks offsets
nodes               : 1
tasks               : 8
clients per node    : 8
repetitions         : 1
xfersize            : 1 MiB
blocksize           : 4 GiB
aggregate filesize  : 32 GiB

Results: 
WARNING: The file "/beegfs/lgouveia/ior_8/testFile1" exists already and will be overwritten

access    bw(MiB/s)  IOPS       Latency(s)  block(KiB) xfer(KiB)  open(s)    wr/rd(s)   close(s)   total(s)   iter
------    ---------  ----       ----------  ---------- ---------  --------   --------   --------   --------   ----
write     1569.87    1569.96    0.001405    4194304    1024.00    0.003777   20.87      15.12      20.87      0   

Summary of all tests:
Operation   Max(MiB)   Min(MiB)  Mean(MiB)     StdDev   Max(OPs)   Min(OPs)  Mean(OPs)     StdDev    Mean(s) Stonewall(s) Stonewall(MiB) Test# #Tasks tPN reps fPP reord reordoff reordrand seed segcnt   blksiz    xsize aggs(MiB)   API RefNum
write        1569.87    1569.87    1569.87       0.00    1569.87    1569.87    1569.87       0.00   20.87308         NA            NA     0      8   8    1   0     0        1         0    0      1 4294967296  1048576   32768.0 POSIX      0
Finished            : Mon Jan 17 14:29:05 2022
Tracking /beegfs/lgouveia/ior_8/testFile1...
Tracking /beegfs/lgouveia/ior_8/testFileApp_2...
Tracking /beegfs/lgouveia/ior_8/testFileApp_1...



Writing tracked information to tracker.csv...
IOR-3.4.0+dev: MPI Coordinated Test of Parallel I/O
Began               : Mon Jan 17 14:30:06 2022
Command line        : /home/lgouveia/ior/bin/ior -w -t 1m -b 4096m -k -o /beegfs/lgouveia/ior_8/testFile1
Machine             : Linux bora001.plafrim.cluster
TestID              : 0
StartTime           : Mon Jan 17 14:30:06 2022
Path                : /beegfs/lgouveia/ior_8/testFile1
FS                  : 130.9 TiB   Used FS: 36.5%   Inodes: 0.0 Mi   Used Inodes: -nan%

Options: 
api                 : POSIX
apiVersion          : 
test filename       : /beegfs/lgouveia/ior_8/testFile1
access              : single-shared-file
type                : independent
segments            : 1
ordering in a file  : sequential
ordering inter file : no tasks offsets
nodes               : 1
tasks               : 8
clients per node    : 8
repetitions         : 1
xfersize            : 1 MiB
blocksize           : 4 GiB
aggregate filesize  : 32 GiB

Results: 
WARNING: The file "/beegfs/lgouveia/ior_8/testFile1" exists already and will be overwritten

access    bw(MiB/s)  IOPS       Latency(s)  block(KiB) xfer(KiB)  open(s)    wr/rd(s)   close(s)   total(s)   iter
------    ---------  ----       ----------  ---------- ---------  --------   --------   --------   --------   ----
write     1642.67    1642.78    0.002213    4194304    1024.00    0.003881   19.95      14.45      19.95      0   

Summary of all tests:
Operation   Max(MiB)   Min(MiB)  Mean(MiB)     StdDev   Max(OPs)   Min(OPs)  Mean(OPs)     StdDev    Mean(s) Stonewall(s) Stonewall(MiB) Test# #Tasks tPN reps fPP reord reordoff reordrand seed segcnt   blksiz    xsize aggs(MiB)   API RefNum
write        1642.67    1642.67    1642.67       0.00    1642.67    1642.67    1642.67       0.00   19.94796         NA            NA     0      8   8    1   0     0        1         0    0      1 4294967296  1048576   32768.0 POSIX      0
Finished            : Mon Jan 17 14:30:26 2022
Tracking /beegfs/lgouveia/ior_8/testFile1...
Tracking /beegfs/lgouveia/ior_8/testFileApp_2...
Tracking /beegfs/lgouveia/ior_8/testFileApp_1...



Writing tracked information to tracker.csv...
IOR-3.4.0+dev: MPI Coordinated Test of Parallel I/O
Began               : Mon Jan 17 14:31:27 2022
Command line        : /home/lgouveia/ior/bin/ior -w -t 1m -b 4096m -k -o /beegfs/lgouveia/ior_8/testFile1
Machine             : Linux bora001.plafrim.cluster
TestID              : 0
StartTime           : Mon Jan 17 14:31:27 2022
Path                : /beegfs/lgouveia/ior_8/testFile1
FS                  : 130.9 TiB   Used FS: 36.5%   Inodes: 0.0 Mi   Used Inodes: -nan%

Options: 
api                 : POSIX
apiVersion          : 
test filename       : /beegfs/lgouveia/ior_8/testFile1
access              : single-shared-file
type                : independent
segments            : 1
ordering in a file  : sequential
ordering inter file : no tasks offsets
nodes               : 1
tasks               : 8
clients per node    : 8
repetitions         : 1
xfersize            : 1 MiB
blocksize           : 4 GiB
aggregate filesize  : 32 GiB

Results: 
WARNING: The file "/beegfs/lgouveia/ior_8/testFile1" exists already and will be overwritten

access    bw(MiB/s)  IOPS       Latency(s)  block(KiB) xfer(KiB)  open(s)    wr/rd(s)   close(s)   total(s)   iter
------    ---------  ----       ----------  ---------- ---------  --------   --------   --------   --------   ----
write     1638.41    1638.52    0.001546    4194304    1024.00    0.003637   20.00      15.48      20.00      0   

Summary of all tests:
Operation   Max(MiB)   Min(MiB)  Mean(MiB)     StdDev   Max(OPs)   Min(OPs)  Mean(OPs)     StdDev    Mean(s) Stonewall(s) Stonewall(MiB) Test# #Tasks tPN reps fPP reord reordoff reordrand seed segcnt   blksiz    xsize aggs(MiB)   API RefNum
write        1638.41    1638.41    1638.41       0.00    1638.41    1638.41    1638.41       0.00   19.99987         NA            NA     0      8   8    1   0     0        1         0    0      1 4294967296  1048576   32768.0 POSIX      0
Finished            : Mon Jan 17 14:31:47 2022
Tracking /beegfs/lgouveia/ior_8/testFile1...
Tracking /beegfs/lgouveia/ior_8/testFileApp_2...
Tracking /beegfs/lgouveia/ior_8/testFileApp_1...



Writing tracked information to tracker.csv...
IOR-3.4.0+dev: MPI Coordinated Test of Parallel I/O
Began               : Mon Jan 17 14:32:48 2022
Command line        : /home/lgouveia/ior/bin/ior -w -t 1m -b 4096m -k -o /beegfs/lgouveia/ior_8/testFile1
Machine             : Linux bora001.plafrim.cluster
TestID              : 0
StartTime           : Mon Jan 17 14:32:48 2022
Path                : /beegfs/lgouveia/ior_8/testFile1
FS                  : 130.9 TiB   Used FS: 36.5%   Inodes: 0.0 Mi   Used Inodes: -nan%

Options: 
api                 : POSIX
apiVersion          : 
test filename       : /beegfs/lgouveia/ior_8/testFile1
access              : single-shared-file
type                : independent
segments            : 1
ordering in a file  : sequential
ordering inter file : no tasks offsets
nodes               : 1
tasks               : 8
clients per node    : 8
repetitions         : 1
xfersize            : 1 MiB
blocksize           : 4 GiB
aggregate filesize  : 32 GiB

Results: 
WARNING: The file "/beegfs/lgouveia/ior_8/testFile1" exists already and will be overwritten

access    bw(MiB/s)  IOPS       Latency(s)  block(KiB) xfer(KiB)  open(s)    wr/rd(s)   close(s)   total(s)   iter
------    ---------  ----       ----------  ---------- ---------  --------   --------   --------   --------   ----
write     1585.57    1585.67    0.001268    4194304    1024.00    0.004490   20.67      15.47      20.67      0   

Summary of all tests:
Operation   Max(MiB)   Min(MiB)  Mean(MiB)     StdDev   Max(OPs)   Min(OPs)  Mean(OPs)     StdDev    Mean(s) Stonewall(s) Stonewall(MiB) Test# #Tasks tPN reps fPP reord reordoff reordrand seed segcnt   blksiz    xsize aggs(MiB)   API RefNum
write        1585.57    1585.57    1585.57       0.00    1585.57    1585.57    1585.57       0.00   20.66634         NA            NA     0      8   8    1   0     0        1         0    0      1 4294967296  1048576   32768.0 POSIX      0
Finished            : Mon Jan 17 14:33:09 2022
Tracking /beegfs/lgouveia/ior_8/testFile1...
Tracking /beegfs/lgouveia/ior_8/testFileApp_2...
Tracking /beegfs/lgouveia/ior_8/testFileApp_1...



Writing tracked information to tracker.csv...
IOR-3.4.0+dev: MPI Coordinated Test of Parallel I/O
Began               : Mon Jan 17 14:34:10 2022
Command line        : /home/lgouveia/ior/bin/ior -w -t 1m -b 4096m -k -o /beegfs/lgouveia/ior_8/testFile1
Machine             : Linux bora001.plafrim.cluster
TestID              : 0
StartTime           : Mon Jan 17 14:34:10 2022
Path                : /beegfs/lgouveia/ior_8/testFile1
FS                  : 130.9 TiB   Used FS: 36.5%   Inodes: 0.0 Mi   Used Inodes: -nan%

Options: 
api                 : POSIX
apiVersion          : 
test filename       : /beegfs/lgouveia/ior_8/testFile1
access              : single-shared-file
type                : independent
segments            : 1
ordering in a file  : sequential
ordering inter file : no tasks offsets
nodes               : 1
tasks               : 8
clients per node    : 8
repetitions         : 1
xfersize            : 1 MiB
blocksize           : 4 GiB
aggregate filesize  : 32 GiB

Results: 
WARNING: The file "/beegfs/lgouveia/ior_8/testFile1" exists already and will be overwritten

access    bw(MiB/s)  IOPS       Latency(s)  block(KiB) xfer(KiB)  open(s)    wr/rd(s)   close(s)   total(s)   iter
------    ---------  ----       ----------  ---------- ---------  --------   --------   --------   --------   ----
write     1612.46    1612.59    0.002372    4194304    1024.00    0.005076   20.32      15.16      20.32      0   

Summary of all tests:
Operation   Max(MiB)   Min(MiB)  Mean(MiB)     StdDev   Max(OPs)   Min(OPs)  Mean(OPs)     StdDev    Mean(s) Stonewall(s) Stonewall(MiB) Test# #Tasks tPN reps fPP reord reordoff reordrand seed segcnt   blksiz    xsize aggs(MiB)   API RefNum
write        1612.46    1612.46    1612.46       0.00    1612.46    1612.46    1612.46       0.00   20.32173         NA            NA     0      8   8    1   0     0        1         0    0      1 4294967296  1048576   32768.0 POSIX      0
Finished            : Mon Jan 17 14:34:30 2022
Tracking /beegfs/lgouveia/ior_8/testFile1...
Tracking /beegfs/lgouveia/ior_8/testFileApp_2...
Tracking /beegfs/lgouveia/ior_8/testFileApp_1...



Writing tracked information to tracker.csv...
IOR-3.4.0+dev: MPI Coordinated Test of Parallel I/O
Began               : Mon Jan 17 14:35:31 2022
Command line        : /home/lgouveia/ior/bin/ior -w -t 1m -b 4096m -k -o /beegfs/lgouveia/ior_8/testFile1
Machine             : Linux bora001.plafrim.cluster
TestID              : 0
StartTime           : Mon Jan 17 14:35:31 2022
Path                : /beegfs/lgouveia/ior_8/testFile1
FS                  : 130.9 TiB   Used FS: 36.5%   Inodes: 0.0 Mi   Used Inodes: -nan%

Options: 
api                 : POSIX
apiVersion          : 
test filename       : /beegfs/lgouveia/ior_8/testFile1
access              : single-shared-file
type                : independent
segments            : 1
ordering in a file  : sequential
ordering inter file : no tasks offsets
nodes               : 1
tasks               : 8
clients per node    : 8
repetitions         : 1
xfersize            : 1 MiB
blocksize           : 4 GiB
aggregate filesize  : 32 GiB

Results: 
WARNING: The file "/beegfs/lgouveia/ior_8/testFile1" exists already and will be overwritten

access    bw(MiB/s)  IOPS       Latency(s)  block(KiB) xfer(KiB)  open(s)    wr/rd(s)   close(s)   total(s)   iter
------    ---------  ----       ----------  ---------- ---------  --------   --------   --------   --------   ----
write     1597.32    1597.41    0.002661    4194304    1024.00    0.005155   20.51      15.98      20.51      0   

Summary of all tests:
Operation   Max(MiB)   Min(MiB)  Mean(MiB)     StdDev   Max(OPs)   Min(OPs)  Mean(OPs)     StdDev    Mean(s) Stonewall(s) Stonewall(MiB) Test# #Tasks tPN reps fPP reord reordoff reordrand seed segcnt   blksiz    xsize aggs(MiB)   API RefNum
write        1597.32    1597.32    1597.32       0.00    1597.32    1597.32    1597.32       0.00   20.51437         NA            NA     0      8   8    1   0     0        1         0    0      1 4294967296  1048576   32768.0 POSIX      0
Finished            : Mon Jan 17 14:35:52 2022
Tracking /beegfs/lgouveia/ior_8/testFile1...
Tracking /beegfs/lgouveia/ior_8/testFileApp_2...
Tracking /beegfs/lgouveia/ior_8/testFileApp_1...



Writing tracked information to tracker.csv...
IOR-3.4.0+dev: MPI Coordinated Test of Parallel I/O
Began               : Mon Jan 17 14:36:52 2022
Command line        : /home/lgouveia/ior/bin/ior -w -t 1m -b 4096m -k -o /beegfs/lgouveia/ior_8/testFile1
Machine             : Linux bora001.plafrim.cluster
TestID              : 0
StartTime           : Mon Jan 17 14:36:52 2022
Path                : /beegfs/lgouveia/ior_8/testFile1
FS                  : 130.9 TiB   Used FS: 36.5%   Inodes: 0.0 Mi   Used Inodes: -nan%

Options: 
api                 : POSIX
apiVersion          : 
test filename       : /beegfs/lgouveia/ior_8/testFile1
access              : single-shared-file
type                : independent
segments            : 1
ordering in a file  : sequential
ordering inter file : no tasks offsets
nodes               : 1
tasks               : 8
clients per node    : 8
repetitions         : 1
xfersize            : 1 MiB
blocksize           : 4 GiB
aggregate filesize  : 32 GiB

Results: 
WARNING: The file "/beegfs/lgouveia/ior_8/testFile1" exists already and will be overwritten

access    bw(MiB/s)  IOPS       Latency(s)  block(KiB) xfer(KiB)  open(s)    wr/rd(s)   close(s)   total(s)   iter
------    ---------  ----       ----------  ---------- ---------  --------   --------   --------   --------   ----
write     1572.39    1572.49    0.002040    4194304    1024.00    0.004327   20.84      13.27      20.84      0   

Summary of all tests:
Operation   Max(MiB)   Min(MiB)  Mean(MiB)     StdDev   Max(OPs)   Min(OPs)  Mean(OPs)     StdDev    Mean(s) Stonewall(s) Stonewall(MiB) Test# #Tasks tPN reps fPP reord reordoff reordrand seed segcnt   blksiz    xsize aggs(MiB)   API RefNum
write        1572.39    1572.39    1572.39       0.00    1572.39    1572.39    1572.39       0.00   20.83967         NA            NA     0      8   8    1   0     0        1         0    0      1 4294967296  1048576   32768.0 POSIX      0
Finished            : Mon Jan 17 14:37:13 2022
Tracking /beegfs/lgouveia/ior_8/testFile1...
Tracking /beegfs/lgouveia/ior_8/testFileApp_2...
Tracking /beegfs/lgouveia/ior_8/testFileApp_1...



Writing tracked information to tracker.csv...
