access,bw,iops,latency,block,xfer,open,wr/rd,close,total,iter,start,end
write,2615.74,2615.98,0.007475,524288,1024.00,0.130454,12.53,10.12,12.53,0,Thu Feb 24 00:27:07 2022,Thu Feb 24 00:27:20 2022
write,2317.94,2318.47,0.013479,524288,1024.00,0.058978,14.13,12.43,14.14,0,Thu Feb 24 00:28:24 2022,Thu Feb 24 00:28:38 2022
write,2339.62,2339.80,0.010361,524288,1024.00,0.380402,14.00,11.92,14.01,0,Thu Feb 24 00:29:39 2022,Thu Feb 24 00:29:53 2022
write,2243.84,2244.01,0.012534,524288,1024.00,0.015583,14.60,12.63,14.60,0,Thu Feb 24 00:30:55 2022,Thu Feb 24 00:31:10 2022
write,2584.77,2585.17,0.004726,524288,1024.00,0.063953,12.68,10.26,12.68,0,Thu Feb 24 00:32:11 2022,Thu Feb 24 00:32:24 2022
write,2437.10,2437.35,0.017243,524288,1024.00,0.312776,13.44,11.61,13.45,0,Thu Feb 24 00:33:26 2022,Thu Feb 24 00:33:40 2022
write,2285.30,2285.79,0.024867,524288,1024.00,0.653519,14.34,12.03,14.34,0,Thu Feb 24 00:34:41 2022,Thu Feb 24 00:34:56 2022
write,2241.36,2241.55,0.028378,524288,1024.00,0.273513,14.62,12.51,14.62,0,Thu Feb 24 00:35:57 2022,Thu Feb 24 00:36:12 2022
write,2354.19,2354.41,0.021255,524288,1024.00,0.225352,13.92,12.03,13.92,0,Thu Feb 24 00:37:13 2022,Thu Feb 24 00:37:27 2022
write,2464.02,2464.30,0.022629,524288,1024.00,0.222190,13.30,11.24,13.30,0,Thu Feb 24 00:38:29 2022,Thu Feb 24 00:38:42 2022
write,2343.37,2343.62,0.008700,524288,1024.00,0.337640,13.98,12.04,13.98,0,Thu Feb 24 01:29:23 2022,Thu Feb 24 01:29:37 2022
write,2496.31,2496.50,0.011257,524288,1024.00,0.070004,13.13,11.32,13.13,0,Thu Feb 24 01:30:39 2022,Thu Feb 24 01:30:52 2022
write,2377.80,2377.99,0.004088,524288,1024.00,0.337355,13.78,11.71,13.78,0,Thu Feb 24 01:31:54 2022,Thu Feb 24 01:32:08 2022
write,2466.67,2466.91,0.012903,524288,1024.00,0.072381,13.28,11.11,13.28,0,Thu Feb 24 01:33:09 2022,Thu Feb 24 01:33:23 2022
write,2247.56,2247.71,0.004351,524288,1024.00,0.172670,14.58,12.35,14.58,0,Thu Feb 24 01:34:24 2022,Thu Feb 24 01:34:39 2022
write,2386.54,2386.72,0.012327,524288,1024.00,0.010605,13.73,11.70,13.73,0,Thu Feb 24 01:35:40 2022,Thu Feb 24 01:35:54 2022
write,2504.87,2505.21,0.012103,524288,1024.00,0.068281,13.08,10.59,13.08,0,Thu Feb 24 01:36:56 2022,Thu Feb 24 01:37:09 2022
write,2225.65,2225.81,0.024470,524288,1024.00,0.078383,14.72,12.32,14.72,0,Thu Feb 24 01:38:11 2022,Thu Feb 24 01:38:26 2022
write,2375.91,2376.07,0.024648,524288,1024.00,0.298656,13.79,11.58,13.79,0,Thu Feb 24 01:39:28 2022,Thu Feb 24 01:39:41 2022
write,2703.11,2703.31,0.016322,524288,1024.00,0.173359,12.12,10.17,12.12,0,Thu Feb 24 01:40:43 2022,Thu Feb 24 01:40:55 2022
write,2345.49,2345.62,0.012581,524288,1024.00,0.343627,13.97,11.88,13.97,0,Thu Feb 24 03:38:05 2022,Thu Feb 24 03:38:19 2022
write,2405.60,2405.78,0.003970,524288,1024.00,0.279602,13.62,11.59,13.62,0,Thu Feb 24 03:39:21 2022,Thu Feb 24 03:39:34 2022
write,2475.86,2476.05,0.008554,524288,1024.00,0.200851,13.23,10.98,13.23,0,Thu Feb 24 03:40:36 2022,Thu Feb 24 03:40:49 2022
write,2349.06,2349.22,0.007643,524288,1024.00,0.435573,13.95,11.61,13.95,0,Thu Feb 24 03:41:51 2022,Thu Feb 24 03:42:05 2022
write,2274.78,2274.95,0.012881,524288,1024.00,0.073493,14.40,12.22,14.40,0,Thu Feb 24 03:43:06 2022,Thu Feb 24 03:43:20 2022
write,2464.15,2464.89,0.010083,524288,1024.00,0.229390,13.29,11.60,13.30,0,Thu Feb 24 03:44:22 2022,Thu Feb 24 03:44:35 2022
write,2337.35,2337.52,0.014411,524288,1024.00,0.027632,14.02,12.09,14.02,0,Thu Feb 24 03:45:37 2022,Thu Feb 24 03:45:51 2022
write,2525.24,2525.44,0.018709,524288,1024.00,0.012697,12.98,10.81,12.98,0,Thu Feb 24 03:46:52 2022,Thu Feb 24 03:47:05 2022
write,2319.47,2319.63,0.008347,524288,1024.00,0.437665,14.13,11.46,14.13,0,Thu Feb 24 03:48:07 2022,Thu Feb 24 03:48:21 2022
write,2220.57,2220.72,0.027426,524288,1024.00,0.195963,14.76,12.12,14.76,0,Thu Feb 24 03:49:22 2022,Thu Feb 24 03:49:37 2022
write,2302.50,2302.69,0.013792,524288,1024.00,0.272005,14.23,11.72,14.23,0,Thu Feb 24 03:54:35 2022,Thu Feb 24 03:54:50 2022
write,2394.66,2394.81,0.023303,524288,1024.00,0.278913,13.68,11.69,13.68,0,Thu Feb 24 03:55:52 2022,Thu Feb 24 03:56:06 2022
write,2391.17,2391.48,0.011522,524288,1024.00,0.185658,13.70,11.36,13.70,0,Thu Feb 24 03:57:07 2022,Thu Feb 24 03:57:21 2022
write,2505.58,2505.80,0.014371,524288,1024.00,0.211995,13.08,11.14,13.08,0,Thu Feb 24 03:58:23 2022,Thu Feb 24 03:58:36 2022
write,2374.51,2374.72,0.008148,524288,1024.00,0.344056,13.80,11.46,13.80,0,Thu Feb 24 03:59:39 2022,Thu Feb 24 03:59:53 2022
write,2517.93,2518.32,0.008323,524288,1024.00,0.227417,13.01,10.97,13.01,0,Thu Feb 24 04:00:55 2022,Thu Feb 24 04:01:08 2022
write,2571.41,2571.61,0.012794,524288,1024.00,0.305865,12.74,10.22,12.74,0,Thu Feb 24 04:02:09 2022,Thu Feb 24 04:02:22 2022
write,2529.03,2529.38,0.015964,524288,1024.00,0.091417,12.95,10.91,12.96,0,Thu Feb 24 04:03:24 2022,Thu Feb 24 04:03:37 2022
write,2514.87,2515.05,0.015570,524288,1024.00,0.348649,13.03,10.97,13.03,0,Thu Feb 24 04:04:39 2022,Thu Feb 24 04:04:53 2022
write,2269.70,2269.84,0.004087,524288,1024.00,0.068568,14.44,12.34,14.44,0,Thu Feb 24 04:05:55 2022,Thu Feb 24 04:06:10 2022
write,2451.71,2451.90,0.008576,524288,1024.00,0.147192,13.36,11.15,13.37,0,Thu Feb 24 05:44:10 2022,Thu Feb 24 05:44:24 2022
write,2439.21,2439.43,0.017215,524288,1024.00,0.013812,13.43,11.19,13.43,0,Thu Feb 24 05:45:26 2022,Thu Feb 24 05:45:39 2022
write,2440.47,2440.86,0.007297,524288,1024.00,0.008675,13.42,11.65,13.43,0,Thu Feb 24 05:46:41 2022,Thu Feb 24 05:46:54 2022
write,2407.41,2407.58,0.010891,524288,1024.00,0.227115,13.61,11.35,13.61,0,Thu Feb 24 05:47:56 2022,Thu Feb 24 05:48:10 2022
write,2478.65,2478.94,0.007944,524288,1024.00,0.027596,13.22,10.94,13.22,0,Thu Feb 24 05:49:12 2022,Thu Feb 24 05:49:25 2022
write,2325.10,2325.34,0.011895,524288,1024.00,0.293379,14.09,11.61,14.09,0,Thu Feb 24 05:50:26 2022,Thu Feb 24 05:50:40 2022
write,2477.95,2478.32,0.009930,524288,1024.00,0.375084,13.22,11.22,13.22,0,Thu Feb 24 05:51:42 2022,Thu Feb 24 05:51:56 2022
write,2422.74,2422.94,0.004520,524288,1024.00,0.182310,13.52,11.16,13.53,0,Thu Feb 24 05:52:57 2022,Thu Feb 24 05:53:11 2022
write,2348.87,2349.01,0.007633,524288,1024.00,0.367770,13.95,11.65,13.95,0,Thu Feb 24 05:54:13 2022,Thu Feb 24 05:54:27 2022
write,2556.74,2556.92,0.012711,524288,1024.00,0.111557,12.82,10.64,12.82,0,Thu Feb 24 05:55:28 2022,Thu Feb 24 05:55:41 2022
write,2326.47,2326.61,0.021355,524288,1024.00,0.328868,14.08,12.29,14.08,0,Thu Feb 24 06:06:11 2022,Thu Feb 24 06:06:25 2022
write,2716.64,2717.21,0.007444,524288,1024.00,0.203345,12.06,10.37,12.06,0,Thu Feb 24 06:07:27 2022,Thu Feb 24 06:07:39 2022
write,2280.81,2280.97,0.024475,524288,1024.00,0.210096,14.37,12.08,14.37,0,Thu Feb 24 06:08:41 2022,Thu Feb 24 06:08:55 2022
write,2365.11,2365.31,0.013966,524288,1024.00,0.299151,13.85,11.34,13.85,0,Thu Feb 24 06:09:56 2022,Thu Feb 24 06:10:10 2022
write,2261.86,2262.01,0.021935,524288,1024.00,0.446729,14.49,12.20,14.49,0,Thu Feb 24 06:11:12 2022,Thu Feb 24 06:11:26 2022
write,2328.36,2328.53,0.022499,524288,1024.00,0.107925,14.07,11.85,14.07,0,Thu Feb 24 06:12:28 2022,Thu Feb 24 06:12:42 2022
write,2376.03,2376.36,0.010945,524288,1024.00,0.430229,13.79,11.72,13.79,0,Thu Feb 24 06:13:43 2022,Thu Feb 24 06:13:57 2022
write,2327.33,2327.48,0.013057,524288,1024.00,0.384026,14.08,11.75,14.08,0,Thu Feb 24 06:14:59 2022,Thu Feb 24 06:15:13 2022
write,2398.34,2398.58,0.009971,524288,1024.00,0.205484,13.66,11.57,13.66,0,Thu Feb 24 06:16:15 2022,Thu Feb 24 06:16:28 2022
write,2307.18,2307.32,0.011701,524288,1024.00,0.131724,14.20,11.81,14.20,0,Thu Feb 24 06:17:30 2022,Thu Feb 24 06:17:44 2022
write,2369.68,2369.89,0.024515,524288,1024.00,0.215508,13.83,11.30,13.83,0,Thu Feb 24 06:24:11 2022,Thu Feb 24 06:24:25 2022
write,2346.18,2346.33,0.020204,524288,1024.00,0.352311,13.97,11.67,13.97,0,Thu Feb 24 06:25:27 2022,Thu Feb 24 06:25:41 2022
write,2392.61,2392.76,0.018241,524288,1024.00,0.115443,13.69,11.01,13.70,0,Thu Feb 24 06:26:42 2022,Thu Feb 24 06:26:56 2022
write,2615.70,2615.95,0.018554,524288,1024.00,0.321942,12.53,10.55,12.53,0,Thu Feb 24 06:27:58 2022,Thu Feb 24 06:28:10 2022
write,2199.17,2199.34,0.008646,524288,1024.00,0.177574,14.90,12.44,14.90,0,Thu Feb 24 06:29:12 2022,Thu Feb 24 06:29:27 2022
write,2310.22,2310.37,0.007374,524288,1024.00,0.221958,14.18,11.95,14.18,0,Thu Feb 24 06:30:28 2022,Thu Feb 24 06:30:42 2022
write,2597.80,2598.65,0.003555,524288,1024.00,0.191152,12.61,10.79,12.61,0,Thu Feb 24 06:31:44 2022,Thu Feb 24 06:31:57 2022
write,2366.42,2366.68,0.016400,524288,1024.00,0.279255,13.85,11.14,13.85,0,Thu Feb 24 06:32:59 2022,Thu Feb 24 06:33:13 2022
write,2784.53,2785.07,0.016626,524288,1024.00,0.317887,11.77,9.88,11.77,0,Thu Feb 24 06:34:14 2022,Thu Feb 24 06:34:26 2022
write,2634.08,2634.43,0.013025,524288,1024.00,0.456881,12.44,10.46,12.44,0,Thu Feb 24 06:35:28 2022,Thu Feb 24 06:35:41 2022
write,2276.50,2276.70,0.017486,524288,1024.00,0.031749,14.39,12.25,14.39,0,Thu Feb 24 06:40:41 2022,Thu Feb 24 06:40:56 2022
write,2480.19,2480.48,0.017634,524288,1024.00,0.285365,13.21,11.26,13.21,0,Thu Feb 24 06:41:58 2022,Thu Feb 24 06:42:11 2022
write,2280.72,2280.86,0.006721,524288,1024.00,0.016196,14.37,11.72,14.37,0,Thu Feb 24 06:43:13 2022,Thu Feb 24 06:43:27 2022
write,2427.35,2427.54,0.014315,524288,1024.00,0.160371,13.50,11.53,13.50,0,Thu Feb 24 06:44:29 2022,Thu Feb 24 06:44:42 2022
write,2411.81,2412.07,0.013330,524288,1024.00,0.066065,13.59,11.58,13.59,0,Thu Feb 24 06:45:44 2022,Thu Feb 24 06:45:58 2022
write,2469.33,2469.46,0.008819,524288,1024.00,0.141914,13.27,11.32,13.27,0,Thu Feb 24 06:47:00 2022,Thu Feb 24 06:47:13 2022
write,2368.38,2368.59,0.010623,524288,1024.00,0.312404,13.83,11.77,13.84,0,Thu Feb 24 06:48:15 2022,Thu Feb 24 06:48:28 2022
write,2382.43,2382.61,0.019326,524288,1024.00,0.340551,13.75,11.59,13.75,0,Thu Feb 24 06:49:30 2022,Thu Feb 24 06:49:44 2022
write,2373.93,2374.19,0.011859,524288,1024.00,0.150737,13.80,11.82,13.80,0,Thu Feb 24 06:50:45 2022,Thu Feb 24 06:50:59 2022
write,2398.80,2399.06,0.023668,524288,1024.00,0.073974,13.66,11.68,13.66,0,Thu Feb 24 06:52:01 2022,Thu Feb 24 06:52:14 2022
