tracker_id,tracker_timestamp,file,size,ctime,mtime,storage_targets
52a09e3e,1637608728.089346,/beegfs/lgouveia/ior_4/testFile1,17179869184,1637608726.0,1637608726.0,201 103 104 102
c6e2c165,1637608792.639401,/beegfs/lgouveia/ior_4/testFile1,17179869184,1637608792.0,1637608792.0,201 104 103 102
6ebc6c80,1637608857.721916,/beegfs/lgouveia/ior_4/testFile1,17179869184,1637608857.0,1637608857.0,204 202 203 101
981249eb,1637608922.571986,/beegfs/lgouveia/ior_4/testFile1,17179869184,1637608922.0,1637608922.0,201 103 102 104
edaefcd9,1637608987.51172,/beegfs/lgouveia/ior_4/testFile1,17179869184,1637608987.0,1637608987.0,202 101 204 203
ef8af0b1,1637609052.381202,/beegfs/lgouveia/ior_4/testFile1,17179869184,1637609052.0,1637609052.0,201 104 102 103
0e058147,1637609117.530265,/beegfs/lgouveia/ior_4/testFile1,17179869184,1637609117.0,1637609117.0,204 202 101 203
360ccbd8,1637609182.479487,/beegfs/lgouveia/ior_4/testFile1,17179869184,1637609182.0,1637609182.0,103 104 102 201
c9fce550,1637609247.569292,/beegfs/lgouveia/ior_4/testFile1,17179869184,1637609247.0,1637609247.0,203 204 101 202
1644bb2d,1637609312.079537,/beegfs/lgouveia/ior_4/testFile1,17179869184,1637609311.0,1637609311.0,102 104 103 201
8eaf7289,1637609778.286813,/beegfs/lgouveia/ior_4/testFile1,17179869184,1637609777.0,1637609777.0,103 104 102 201
90cde20f,1637609843.223631,/beegfs/lgouveia/ior_4/testFile1,17179869184,1637609842.0,1637609842.0,101 204 202 203
9130bab4,1637609907.81096,/beegfs/lgouveia/ior_4/testFile1,17179869184,1637609907.0,1637609907.0,201 104 102 103
ae02a460,1637609972.345208,/beegfs/lgouveia/ior_4/testFile1,17179869184,1637609972.0,1637609972.0,103 102 104 201
442ed82a,1637610037.431127,/beegfs/lgouveia/ior_4/testFile1,17179869184,1637610037.0,1637610037.0,204 202 203 101
fe56caf4,1637610102.02373,/beegfs/lgouveia/ior_4/testFile1,17179869184,1637610101.0,1637610101.0,201 102 103 104
589eb312,1637610167.18025,/beegfs/lgouveia/ior_4/testFile1,17179869184,1637610166.0,1637610166.0,101 202 203 204
a94c4ab3,1637610231.804469,/beegfs/lgouveia/ior_4/testFile1,17179869184,1637610231.0,1637610231.0,104 201 103 102
cab57542,1637610296.320604,/beegfs/lgouveia/ior_4/testFile1,17179869184,1637610296.0,1637610296.0,102 201 104 103
ce39e663,1637610361.447447,/beegfs/lgouveia/ior_4/testFile1,17179869184,1637610361.0,1637610361.0,204 202 101 203
2bd84342,1637610992.010545,/beegfs/lgouveia/ior_4/testFile1,17179869184,1637610991.0,1637610991.0,104 103 201 102
784ef9fe,1637611057.067746,/beegfs/lgouveia/ior_4/testFile1,17179869184,1637611056.0,1637611056.0,204 101 203 202
33fa1a11,1637611121.798974,/beegfs/lgouveia/ior_4/testFile1,17179869184,1637611121.0,1637611121.0,102 103 104 201
aa3ac332,1637611186.355907,/beegfs/lgouveia/ior_4/testFile1,17179869184,1637611186.0,1637611186.0,201 103 102 104
d39f4c64,1637611251.504352,/beegfs/lgouveia/ior_4/testFile1,17179869184,1637611251.0,1637611251.0,203 101 202 204
547fb370,1637611316.148527,/beegfs/lgouveia/ior_4/testFile1,17179869184,1637611315.0,1637611315.0,102 103 104 201
72677c8c,1637611381.32868,/beegfs/lgouveia/ior_4/testFile1,17179869184,1637611381.0,1637611381.0,101 204 202 203
3baa7a60,1637611445.905114,/beegfs/lgouveia/ior_4/testFile1,17179869184,1637611445.0,1637611445.0,201 102 103 104
3f96409f,1637611510.729073,/beegfs/lgouveia/ior_4/testFile1,17179869184,1637611510.0,1637611510.0,201 104 103 102
7b819694,1637611575.656349,/beegfs/lgouveia/ior_4/testFile1,17179869184,1637611575.0,1637611575.0,203 204 202 101
c290bc82,1637612001.280897,/beegfs/lgouveia/ior_4/testFile1,17179869184,1637612000.0,1637612000.0,201 102 103 104
2c12dd63,1637612066.050817,/beegfs/lgouveia/ior_4/testFile1,17179869184,1637612065.0,1637612065.0,103 102 104 201
897e02f0,1637612131.169819,/beegfs/lgouveia/ior_4/testFile1,17179869184,1637612130.0,1637612130.0,101 203 202 204
9972ded3,1637612195.752758,/beegfs/lgouveia/ior_4/testFile1,17179869184,1637612195.0,1637612195.0,201 103 104 102
e2ed3f6b,1637612260.403265,/beegfs/lgouveia/ior_4/testFile1,17179869184,1637612260.0,1637612260.0,202 203 101 204
e01d6635,1637612325.040529,/beegfs/lgouveia/ior_4/testFile1,17179869184,1637612324.0,1637612324.0,201 104 102 103
eb9aeb7d,1637612389.713507,/beegfs/lgouveia/ior_4/testFile1,17179869184,1637612389.0,1637612389.0,104 102 201 103
eed7304d,1637612454.918587,/beegfs/lgouveia/ior_4/testFile1,17179869184,1637612454.0,1637612454.0,203 204 101 202
dc3a5623,1637612519.521915,/beegfs/lgouveia/ior_4/testFile1,17179869184,1637612519.0,1637612519.0,201 102 103 104
4e76bfd6,1637612584.5552,/beegfs/lgouveia/ior_4/testFile1,17179869184,1637612584.0,1637612584.0,203 202 101 204
72ce97e5,1637613146.085901,/beegfs/lgouveia/ior_4/testFile1,17179869184,1637613145.0,1637613145.0,201 104 103 102
34f2bb46,1637613211.255604,/beegfs/lgouveia/ior_4/testFile1,17179869184,1637613210.0,1637613210.0,101 203 202 204
2c61aa50,1637613275.947694,/beegfs/lgouveia/ior_4/testFile1,17179869184,1637613275.0,1637613275.0,104 102 103 201
c242fd67,1637613340.911739,/beegfs/lgouveia/ior_4/testFile1,17179869184,1637613340.0,1637613340.0,202 101 204 203
98b1e89f,1637613405.311107,/beegfs/lgouveia/ior_4/testFile1,17179869184,1637613405.0,1637613405.0,102 103 201 104
1b41034f,1637613470.37201,/beegfs/lgouveia/ior_4/testFile1,17179869184,1637613470.0,1637613470.0,202 101 203 204
74619f58,1637613535.034527,/beegfs/lgouveia/ior_4/testFile1,17179869184,1637613534.0,1637613534.0,104 201 102 103
56ffb8f5,1637613599.421749,/beegfs/lgouveia/ior_4/testFile1,17179869184,1637613599.0,1637613599.0,201 104 103 102
fc82f640,1637613664.452638,/beegfs/lgouveia/ior_4/testFile1,17179869184,1637613664.0,1637613664.0,202 101 204 203
c1491726,1637613729.098855,/beegfs/lgouveia/ior_4/testFile1,17179869184,1637613728.0,1637613728.0,103 104 102 201
8ad3ba11,1637613880.264173,/beegfs/lgouveia/ior_4/testFile1,17179869184,1637613879.0,1637613879.0,104 102 201 103
4abc412f,1637613945.349194,/beegfs/lgouveia/ior_4/testFile1,17179869184,1637613945.0,1637613945.0,203 202 101 204
0fe52ce4,1637614010.037231,/beegfs/lgouveia/ior_4/testFile1,17179869184,1637614009.0,1637614009.0,104 102 103 201
37a5b4ba,1637614074.832367,/beegfs/lgouveia/ior_4/testFile1,17179869184,1637614074.0,1637614074.0,202 101 203 204
d1b177c6,1637614139.488617,/beegfs/lgouveia/ior_4/testFile1,17179869184,1637614139.0,1637614139.0,201 103 104 102
8db5e3a4,1637614204.39746,/beegfs/lgouveia/ior_4/testFile1,17179869184,1637614204.0,1637614204.0,104 103 201 102
0fa2e62b,1637614269.387587,/beegfs/lgouveia/ior_4/testFile1,17179869184,1637614269.0,1637614269.0,203 204 101 202
886e665a,1637614333.876724,/beegfs/lgouveia/ior_4/testFile1,17179869184,1637614333.0,1637614333.0,103 201 102 104
20cf3ab9,1637614398.970523,/beegfs/lgouveia/ior_4/testFile1,17179869184,1637614398.0,1637614398.0,204 202 101 203
8c9eb27b,1637614463.631282,/beegfs/lgouveia/ior_4/testFile1,17179869184,1637614463.0,1637614463.0,104 201 102 103
af8972fb,1637614923.814545,/beegfs/lgouveia/ior_4/testFile1,17179869184,1637614923.0,1637614923.0,103 102 201 104
df6a6e97,1637614988.835356,/beegfs/lgouveia/ior_4/testFile1,17179869184,1637614988.0,1637614988.0,204 101 202 203
3aec3cf2,1637615053.201777,/beegfs/lgouveia/ior_4/testFile1,17179869184,1637615052.0,1637615052.0,201 103 102 104
9a530e6a,1637615118.514874,/beegfs/lgouveia/ior_4/testFile1,17179869184,1637615118.0,1637615118.0,101 204 202 203
90570397,1637615183.266112,/beegfs/lgouveia/ior_4/testFile1,17179869184,1637615183.0,1637615183.0,102 201 103 104
f64ab818,1637615248.16481,/beegfs/lgouveia/ior_4/testFile1,17179869184,1637615247.0,1637615247.0,204 101 202 203
751903b8,1637615312.587317,/beegfs/lgouveia/ior_4/testFile1,17179869184,1637615312.0,1637615312.0,201 104 102 103
560f36c7,1637615377.185141,/beegfs/lgouveia/ior_4/testFile1,17179869184,1637615376.0,1637615376.0,201 102 103 104
8e5a6437,1637615442.266377,/beegfs/lgouveia/ior_4/testFile1,17179869184,1637615442.0,1637615442.0,204 203 202 101
0be72913,1637615506.803858,/beegfs/lgouveia/ior_4/testFile1,17179869184,1637615506.0,1637615506.0,102 104 103 201
51d4bf23,1637615835.138511,/beegfs/lgouveia/ior_4/testFile1,17179869184,1637615833.0,1637615833.0,102 201 103 104
fdd787cc,1637615900.240981,/beegfs/lgouveia/ior_4/testFile1,17179869184,1637615899.0,1637615899.0,202 101 203 204
2e8deda9,1637615964.864276,/beegfs/lgouveia/ior_4/testFile1,17179869184,1637615964.0,1637615964.0,201 102 103 104
263c4d99,1637616029.814936,/beegfs/lgouveia/ior_4/testFile1,17179869184,1637616029.0,1637616029.0,203 101 202 204
989a4a26,1637616094.384168,/beegfs/lgouveia/ior_4/testFile1,17179869184,1637616094.0,1637616094.0,201 102 104 103
b6de5b98,1637616159.404136,/beegfs/lgouveia/ior_4/testFile1,17179869184,1637616159.0,1637616159.0,202 101 204 203
3ec73b87,1637616223.967778,/beegfs/lgouveia/ior_4/testFile1,17179869184,1637616223.0,1637616223.0,103 201 102 104
3806d456,1637616288.572214,/beegfs/lgouveia/ior_4/testFile1,17179869184,1637616288.0,1637616288.0,201 104 102 103
def3c00c,1637616353.995851,/beegfs/lgouveia/ior_4/testFile1,17179869184,1637616353.0,1637616353.0,101 202 204 203
3ca24364,1637616418.68926,/beegfs/lgouveia/ior_4/testFile1,17179869184,1637616418.0,1637616418.0,103 201 104 102
4a295c33,1637617044.98924,/beegfs/lgouveia/ior_4/testFile1,17179869184,1637617043.0,1637617043.0,104 103 201 102
7dc85f24,1637617110.30604,/beegfs/lgouveia/ior_4/testFile1,17179869184,1637617110.0,1637617110.0,203 202 204 101
7a867640,1637617174.96402,/beegfs/lgouveia/ior_4/testFile1,17179869184,1637617174.0,1637617174.0,201 103 104 102
7b58879a,1637617239.996939,/beegfs/lgouveia/ior_4/testFile1,17179869184,1637617239.0,1637617239.0,203 204 101 202
7e52ee1f,1637617304.639994,/beegfs/lgouveia/ior_4/testFile1,17179869184,1637617304.0,1637617304.0,201 103 102 104
67f08ccb,1637617369.891363,/beegfs/lgouveia/ior_4/testFile1,17179869184,1637617369.0,1637617369.0,101 203 204 202
8527051d,1637617434.471006,/beegfs/lgouveia/ior_4/testFile1,17179869184,1637617434.0,1637617434.0,201 104 103 102
e6320b2d,1637617499.166376,/beegfs/lgouveia/ior_4/testFile1,17179869184,1637617498.0,1637617498.0,104 102 103 201
2c0638ac,1637617564.268086,/beegfs/lgouveia/ior_4/testFile1,17179869184,1637617564.0,1637617564.0,203 101 204 202
618af592,1637617628.918676,/beegfs/lgouveia/ior_4/testFile1,17179869184,1637617628.0,1637617628.0,201 104 102 103
9c7130f2,1637618010.366338,/beegfs/lgouveia/ior_4/testFile1,17179869184,1637618009.0,1637618009.0,102 103 104 201
39933835,1637618075.146898,/beegfs/lgouveia/ior_4/testFile1,17179869184,1637618074.0,1637618074.0,103 102 104 201
fbfbbac0,1637618140.113869,/beegfs/lgouveia/ior_4/testFile1,17179869184,1637618139.0,1637618139.0,204 101 202 203
43b1e26e,1637618204.768267,/beegfs/lgouveia/ior_4/testFile1,17179869184,1637618204.0,1637618204.0,102 103 201 104
894dcf03,1637618270.048376,/beegfs/lgouveia/ior_4/testFile1,17179869184,1637618269.0,1637618269.0,204 203 101 202
ca4296e5,1637618334.717417,/beegfs/lgouveia/ior_4/testFile1,17179869184,1637618334.0,1637618334.0,104 201 103 102
869d2edf,1637618399.44024,/beegfs/lgouveia/ior_4/testFile1,17179869184,1637618399.0,1637618399.0,201 102 103 104
64e014e6,1637618464.466264,/beegfs/lgouveia/ior_4/testFile1,17179869184,1637618464.0,1637618464.0,101 203 204 202
289374f2,1637618529.12934,/beegfs/lgouveia/ior_4/testFile1,17179869184,1637618528.0,1637618528.0,103 201 102 104
48509ba8,1637618593.989928,/beegfs/lgouveia/ior_4/testFile1,17179869184,1637618593.0,1637618593.0,202 101 204 203
