===== My JOB Information ====
Node List:  bora[001-016]
my jobID:  1472330
Partition: routage
submit directory:  /home/lgouveia/luan-teylo/tests/omnipath/compute_nodes/1_target/16
submit host:  devel02.plafrim.cluster
In the directory: /home/lgouveia/luan-teylo/tests/omnipath/compute_nodes/1_target/16
As the user: lgouveia
============================
IOR-3.4.0+dev: MPI Coordinated Test of Parallel I/O
Began               : Fri Jan 21 02:52:51 2022
Command line        : /home/lgouveia/ior/bin/ior -w -t 1m -b 256m -k -o /beegfs/lgouveia/ior_1/testFile1
Machine             : Linux bora001.plafrim.cluster
TestID              : 0
StartTime           : Fri Jan 21 02:52:51 2022
Path                : /beegfs/lgouveia/ior_1/testFile1
FS                  : 130.9 TiB   Used FS: 36.6%   Inodes: 0.0 Mi   Used Inodes: -nan%

Options: 
api                 : POSIX
apiVersion          : 
test filename       : /beegfs/lgouveia/ior_1/testFile1
access              : single-shared-file
type                : independent
segments            : 1
ordering in a file  : sequential
ordering inter file : no tasks offsets
nodes               : 16
tasks               : 128
clients per node    : 8
repetitions         : 1
xfersize            : 1 MiB
blocksize           : 256 MiB
aggregate filesize  : 32 GiB

Results: 
WARNING: The file "/beegfs/lgouveia/ior_1/testFile1" exists already and will be overwritten

access    bw(MiB/s)  IOPS       Latency(s)  block(KiB) xfer(KiB)  open(s)    wr/rd(s)   close(s)   total(s)   iter
------    ---------  ----       ----------  ---------- ---------  --------   --------   --------   --------   ----
write     1746.30    1746.48    0.062066    262144     1024.00    0.183715   18.76      17.60      18.76      0   

Summary of all tests:
Operation   Max(MiB)   Min(MiB)  Mean(MiB)     StdDev   Max(OPs)   Min(OPs)  Mean(OPs)     StdDev    Mean(s) Stonewall(s) Stonewall(MiB) Test# #Tasks tPN reps fPP reord reordoff reordrand seed segcnt   blksiz    xsize aggs(MiB)   API RefNum
write        1746.30    1746.30    1746.30       0.00    1746.30    1746.30    1746.30       0.00   18.76424         NA            NA     0    128   8    1   0     0        1         0    0      1 268435456  1048576   32768.0 POSIX      0
Finished            : Fri Jan 21 02:53:10 2022
Tracking /beegfs/lgouveia/ior_1/testFile1...



Writing tracked information to tracker.csv...
IOR-3.4.0+dev: MPI Coordinated Test of Parallel I/O
Began               : Fri Jan 21 02:54:11 2022
Command line        : /home/lgouveia/ior/bin/ior -w -t 1m -b 256m -k -o /beegfs/lgouveia/ior_1/testFile1
Machine             : Linux bora001.plafrim.cluster
TestID              : 0
StartTime           : Fri Jan 21 02:54:11 2022
Path                : /beegfs/lgouveia/ior_1/testFile1
FS                  : 130.9 TiB   Used FS: 36.6%   Inodes: 0.0 Mi   Used Inodes: -nan%

Options: 
api                 : POSIX
apiVersion          : 
test filename       : /beegfs/lgouveia/ior_1/testFile1
access              : single-shared-file
type                : independent
segments            : 1
ordering in a file  : sequential
ordering inter file : no tasks offsets
nodes               : 16
tasks               : 128
clients per node    : 8
repetitions         : 1
xfersize            : 1 MiB
blocksize           : 256 MiB
aggregate filesize  : 32 GiB

Results: 
WARNING: The file "/beegfs/lgouveia/ior_1/testFile1" exists already and will be overwritten

access    bw(MiB/s)  IOPS       Latency(s)  block(KiB) xfer(KiB)  open(s)    wr/rd(s)   close(s)   total(s)   iter
------    ---------  ----       ----------  ---------- ---------  --------   --------   --------   --------   ----
write     1961.24    1961.45    0.017135    262144     1024.00    0.395896   16.71      15.57      16.71      0   

Summary of all tests:
Operation   Max(MiB)   Min(MiB)  Mean(MiB)     StdDev   Max(OPs)   Min(OPs)  Mean(OPs)     StdDev    Mean(s) Stonewall(s) Stonewall(MiB) Test# #Tasks tPN reps fPP reord reordoff reordrand seed segcnt   blksiz    xsize aggs(MiB)   API RefNum
write        1961.24    1961.24    1961.24       0.00    1961.24    1961.24    1961.24       0.00   16.70777         NA            NA     0    128   8    1   0     0        1         0    0      1 268435456  1048576   32768.0 POSIX      0
Finished            : Fri Jan 21 02:54:28 2022
Tracking /beegfs/lgouveia/ior_1/testFile1...



Writing tracked information to tracker.csv...
IOR-3.4.0+dev: MPI Coordinated Test of Parallel I/O
Began               : Fri Jan 21 02:55:30 2022
Command line        : /home/lgouveia/ior/bin/ior -w -t 1m -b 256m -k -o /beegfs/lgouveia/ior_1/testFile1
Machine             : Linux bora001.plafrim.cluster
TestID              : 0
StartTime           : Fri Jan 21 02:55:30 2022
Path                : /beegfs/lgouveia/ior_1/testFile1
FS                  : 130.9 TiB   Used FS: 36.6%   Inodes: 0.0 Mi   Used Inodes: -nan%

Options: 
api                 : POSIX
apiVersion          : 
test filename       : /beegfs/lgouveia/ior_1/testFile1
access              : single-shared-file
type                : independent
segments            : 1
ordering in a file  : sequential
ordering inter file : no tasks offsets
nodes               : 16
tasks               : 128
clients per node    : 8
repetitions         : 1
xfersize            : 1 MiB
blocksize           : 256 MiB
aggregate filesize  : 32 GiB

Results: 
WARNING: The file "/beegfs/lgouveia/ior_1/testFile1" exists already and will be overwritten

access    bw(MiB/s)  IOPS       Latency(s)  block(KiB) xfer(KiB)  open(s)    wr/rd(s)   close(s)   total(s)   iter
------    ---------  ----       ----------  ---------- ---------  --------   --------   --------   --------   ----
write     1613.63    1613.75    0.049126    262144     1024.00    0.179888   20.31      19.08      20.31      0   

Summary of all tests:
Operation   Max(MiB)   Min(MiB)  Mean(MiB)     StdDev   Max(OPs)   Min(OPs)  Mean(OPs)     StdDev    Mean(s) Stonewall(s) Stonewall(MiB) Test# #Tasks tPN reps fPP reord reordoff reordrand seed segcnt   blksiz    xsize aggs(MiB)   API RefNum
write        1613.63    1613.63    1613.63       0.00    1613.63    1613.63    1613.63       0.00   20.30701         NA            NA     0    128   8    1   0     0        1         0    0      1 268435456  1048576   32768.0 POSIX      0
Finished            : Fri Jan 21 02:55:50 2022
Tracking /beegfs/lgouveia/ior_1/testFile1...



Writing tracked information to tracker.csv...
IOR-3.4.0+dev: MPI Coordinated Test of Parallel I/O
Began               : Fri Jan 21 02:56:51 2022
Command line        : /home/lgouveia/ior/bin/ior -w -t 1m -b 256m -k -o /beegfs/lgouveia/ior_1/testFile1
Machine             : Linux bora001.plafrim.cluster
TestID              : 0
StartTime           : Fri Jan 21 02:56:51 2022
Path                : /beegfs/lgouveia/ior_1/testFile1
FS                  : 130.9 TiB   Used FS: 36.6%   Inodes: 0.0 Mi   Used Inodes: -nan%

Options: 
api                 : POSIX
apiVersion          : 
test filename       : /beegfs/lgouveia/ior_1/testFile1
access              : single-shared-file
type                : independent
segments            : 1
ordering in a file  : sequential
ordering inter file : no tasks offsets
nodes               : 16
tasks               : 128
clients per node    : 8
repetitions         : 1
xfersize            : 1 MiB
blocksize           : 256 MiB
aggregate filesize  : 32 GiB

Results: 
WARNING: The file "/beegfs/lgouveia/ior_1/testFile1" exists already and will be overwritten

access    bw(MiB/s)  IOPS       Latency(s)  block(KiB) xfer(KiB)  open(s)    wr/rd(s)   close(s)   total(s)   iter
------    ---------  ----       ----------  ---------- ---------  --------   --------   --------   --------   ----
write     1808.58    1808.73    0.030844    262144     1024.00    0.293022   18.12      16.60      18.12      0   

Summary of all tests:
Operation   Max(MiB)   Min(MiB)  Mean(MiB)     StdDev   Max(OPs)   Min(OPs)  Mean(OPs)     StdDev    Mean(s) Stonewall(s) Stonewall(MiB) Test# #Tasks tPN reps fPP reord reordoff reordrand seed segcnt   blksiz    xsize aggs(MiB)   API RefNum
write        1808.58    1808.58    1808.58       0.00    1808.58    1808.58    1808.58       0.00   18.11805         NA            NA     0    128   8    1   0     0        1         0    0      1 268435456  1048576   32768.0 POSIX      0
Finished            : Fri Jan 21 02:57:09 2022
Tracking /beegfs/lgouveia/ior_1/testFile1...



Writing tracked information to tracker.csv...
IOR-3.4.0+dev: MPI Coordinated Test of Parallel I/O
Began               : Fri Jan 21 02:58:11 2022
Command line        : /home/lgouveia/ior/bin/ior -w -t 1m -b 256m -k -o /beegfs/lgouveia/ior_1/testFile1
Machine             : Linux bora001.plafrim.cluster
TestID              : 0
StartTime           : Fri Jan 21 02:58:11 2022
Path                : /beegfs/lgouveia/ior_1/testFile1
FS                  : 130.9 TiB   Used FS: 36.6%   Inodes: 0.0 Mi   Used Inodes: -nan%

Options: 
api                 : POSIX
apiVersion          : 
test filename       : /beegfs/lgouveia/ior_1/testFile1
access              : single-shared-file
type                : independent
segments            : 1
ordering in a file  : sequential
ordering inter file : no tasks offsets
nodes               : 16
tasks               : 128
clients per node    : 8
repetitions         : 1
xfersize            : 1 MiB
blocksize           : 256 MiB
aggregate filesize  : 32 GiB

Results: 
WARNING: The file "/beegfs/lgouveia/ior_1/testFile1" exists already and will be overwritten

access    bw(MiB/s)  IOPS       Latency(s)  block(KiB) xfer(KiB)  open(s)    wr/rd(s)   close(s)   total(s)   iter
------    ---------  ----       ----------  ---------- ---------  --------   --------   --------   --------   ----
write     1686.27    1686.39    0.018160    262144     1024.00    0.229383   19.43      18.31      19.43      0   

Summary of all tests:
Operation   Max(MiB)   Min(MiB)  Mean(MiB)     StdDev   Max(OPs)   Min(OPs)  Mean(OPs)     StdDev    Mean(s) Stonewall(s) Stonewall(MiB) Test# #Tasks tPN reps fPP reord reordoff reordrand seed segcnt   blksiz    xsize aggs(MiB)   API RefNum
write        1686.27    1686.27    1686.27       0.00    1686.27    1686.27    1686.27       0.00   19.43229         NA            NA     0    128   8    1   0     0        1         0    0      1 268435456  1048576   32768.0 POSIX      0
Finished            : Fri Jan 21 02:58:30 2022
Tracking /beegfs/lgouveia/ior_1/testFile1...



Writing tracked information to tracker.csv...
IOR-3.4.0+dev: MPI Coordinated Test of Parallel I/O
Began               : Fri Jan 21 02:59:31 2022
Command line        : /home/lgouveia/ior/bin/ior -w -t 1m -b 256m -k -o /beegfs/lgouveia/ior_1/testFile1
Machine             : Linux bora001.plafrim.cluster
TestID              : 0
StartTime           : Fri Jan 21 02:59:31 2022
Path                : /beegfs/lgouveia/ior_1/testFile1
FS                  : 130.9 TiB   Used FS: 36.6%   Inodes: 0.0 Mi   Used Inodes: -nan%

Options: 
api                 : POSIX
apiVersion          : 
test filename       : /beegfs/lgouveia/ior_1/testFile1
access              : single-shared-file
type                : independent
segments            : 1
ordering in a file  : sequential
ordering inter file : no tasks offsets
nodes               : 16
tasks               : 128
clients per node    : 8
repetitions         : 1
xfersize            : 1 MiB
blocksize           : 256 MiB
aggregate filesize  : 32 GiB

Results: 
WARNING: The file "/beegfs/lgouveia/ior_1/testFile1" exists already and will be overwritten

access    bw(MiB/s)  IOPS       Latency(s)  block(KiB) xfer(KiB)  open(s)    wr/rd(s)   close(s)   total(s)   iter
------    ---------  ----       ----------  ---------- ---------  --------   --------   --------   --------   ----
write     1836.96    1837.13    0.061537    262144     1024.00    0.340326   17.84      16.34      17.84      0   

Summary of all tests:
Operation   Max(MiB)   Min(MiB)  Mean(MiB)     StdDev   Max(OPs)   Min(OPs)  Mean(OPs)     StdDev    Mean(s) Stonewall(s) Stonewall(MiB) Test# #Tasks tPN reps fPP reord reordoff reordrand seed segcnt   blksiz    xsize aggs(MiB)   API RefNum
write        1836.96    1836.96    1836.96       0.00    1836.96    1836.96    1836.96       0.00   17.83820         NA            NA     0    128   8    1   0     0        1         0    0      1 268435456  1048576   32768.0 POSIX      0
Finished            : Fri Jan 21 02:59:49 2022
Tracking /beegfs/lgouveia/ior_1/testFile1...



Writing tracked information to tracker.csv...
IOR-3.4.0+dev: MPI Coordinated Test of Parallel I/O
Began               : Fri Jan 21 03:00:51 2022
Command line        : /home/lgouveia/ior/bin/ior -w -t 1m -b 256m -k -o /beegfs/lgouveia/ior_1/testFile1
Machine             : Linux bora001.plafrim.cluster
TestID              : 0
StartTime           : Fri Jan 21 03:00:51 2022
Path                : /beegfs/lgouveia/ior_1/testFile1
FS                  : 130.9 TiB   Used FS: 36.6%   Inodes: 0.0 Mi   Used Inodes: -nan%

Options: 
api                 : POSIX
apiVersion          : 
test filename       : /beegfs/lgouveia/ior_1/testFile1
access              : single-shared-file
type                : independent
segments            : 1
ordering in a file  : sequential
ordering inter file : no tasks offsets
nodes               : 16
tasks               : 128
clients per node    : 8
repetitions         : 1
xfersize            : 1 MiB
blocksize           : 256 MiB
aggregate filesize  : 32 GiB

Results: 
WARNING: The file "/beegfs/lgouveia/ior_1/testFile1" exists already and will be overwritten

access    bw(MiB/s)  IOPS       Latency(s)  block(KiB) xfer(KiB)  open(s)    wr/rd(s)   close(s)   total(s)   iter
------    ---------  ----       ----------  ---------- ---------  --------   --------   --------   --------   ----
write     1778.01    1778.13    0.061426    262144     1024.00    0.198625   18.43      17.13      18.43      0   

Summary of all tests:
Operation   Max(MiB)   Min(MiB)  Mean(MiB)     StdDev   Max(OPs)   Min(OPs)  Mean(OPs)     StdDev    Mean(s) Stonewall(s) Stonewall(MiB) Test# #Tasks tPN reps fPP reord reordoff reordrand seed segcnt   blksiz    xsize aggs(MiB)   API RefNum
write        1778.01    1778.01    1778.01       0.00    1778.01    1778.01    1778.01       0.00   18.42963         NA            NA     0    128   8    1   0     0        1         0    0      1 268435456  1048576   32768.0 POSIX      0
Finished            : Fri Jan 21 03:01:09 2022
Tracking /beegfs/lgouveia/ior_1/testFile1...



Writing tracked information to tracker.csv...
IOR-3.4.0+dev: MPI Coordinated Test of Parallel I/O
Began               : Fri Jan 21 03:02:10 2022
Command line        : /home/lgouveia/ior/bin/ior -w -t 1m -b 256m -k -o /beegfs/lgouveia/ior_1/testFile1
Machine             : Linux bora001.plafrim.cluster
TestID              : 0
StartTime           : Fri Jan 21 03:02:10 2022
Path                : /beegfs/lgouveia/ior_1/testFile1
FS                  : 130.9 TiB   Used FS: 36.6%   Inodes: 0.0 Mi   Used Inodes: -nan%

Options: 
api                 : POSIX
apiVersion          : 
test filename       : /beegfs/lgouveia/ior_1/testFile1
access              : single-shared-file
type                : independent
segments            : 1
ordering in a file  : sequential
ordering inter file : no tasks offsets
nodes               : 16
tasks               : 128
clients per node    : 8
repetitions         : 1
xfersize            : 1 MiB
blocksize           : 256 MiB
aggregate filesize  : 32 GiB

Results: 
WARNING: The file "/beegfs/lgouveia/ior_1/testFile1" exists already and will be overwritten

access    bw(MiB/s)  IOPS       Latency(s)  block(KiB) xfer(KiB)  open(s)    wr/rd(s)   close(s)   total(s)   iter
------    ---------  ----       ----------  ---------- ---------  --------   --------   --------   --------   ----
write     1743.96    1744.08    0.051694    262144     1024.00    0.257866   18.79      17.64      18.79      0   

Summary of all tests:
Operation   Max(MiB)   Min(MiB)  Mean(MiB)     StdDev   Max(OPs)   Min(OPs)  Mean(OPs)     StdDev    Mean(s) Stonewall(s) Stonewall(MiB) Test# #Tasks tPN reps fPP reord reordoff reordrand seed segcnt   blksiz    xsize aggs(MiB)   API RefNum
write        1743.96    1743.96    1743.96       0.00    1743.96    1743.96    1743.96       0.00   18.78942         NA            NA     0    128   8    1   0     0        1         0    0      1 268435456  1048576   32768.0 POSIX      0
Finished            : Fri Jan 21 03:02:29 2022
Tracking /beegfs/lgouveia/ior_1/testFile1...



Writing tracked information to tracker.csv...
IOR-3.4.0+dev: MPI Coordinated Test of Parallel I/O
Began               : Fri Jan 21 03:03:30 2022
Command line        : /home/lgouveia/ior/bin/ior -w -t 1m -b 256m -k -o /beegfs/lgouveia/ior_1/testFile1
Machine             : Linux bora001.plafrim.cluster
TestID              : 0
StartTime           : Fri Jan 21 03:03:30 2022
Path                : /beegfs/lgouveia/ior_1/testFile1
FS                  : 130.9 TiB   Used FS: 36.6%   Inodes: 0.0 Mi   Used Inodes: -nan%

Options: 
api                 : POSIX
apiVersion          : 
test filename       : /beegfs/lgouveia/ior_1/testFile1
access              : single-shared-file
type                : independent
segments            : 1
ordering in a file  : sequential
ordering inter file : no tasks offsets
nodes               : 16
tasks               : 128
clients per node    : 8
repetitions         : 1
xfersize            : 1 MiB
blocksize           : 256 MiB
aggregate filesize  : 32 GiB

Results: 
WARNING: The file "/beegfs/lgouveia/ior_1/testFile1" exists already and will be overwritten

access    bw(MiB/s)  IOPS       Latency(s)  block(KiB) xfer(KiB)  open(s)    wr/rd(s)   close(s)   total(s)   iter
------    ---------  ----       ----------  ---------- ---------  --------   --------   --------   --------   ----
write     1721.67    1721.79    0.023134    262144     1024.00    0.290487   19.03      17.60      19.03      0   

Summary of all tests:
Operation   Max(MiB)   Min(MiB)  Mean(MiB)     StdDev   Max(OPs)   Min(OPs)  Mean(OPs)     StdDev    Mean(s) Stonewall(s) Stonewall(MiB) Test# #Tasks tPN reps fPP reord reordoff reordrand seed segcnt   blksiz    xsize aggs(MiB)   API RefNum
write        1721.67    1721.67    1721.67       0.00    1721.67    1721.67    1721.67       0.00   19.03273         NA            NA     0    128   8    1   0     0        1         0    0      1 268435456  1048576   32768.0 POSIX      0
Finished            : Fri Jan 21 03:03:49 2022
Tracking /beegfs/lgouveia/ior_1/testFile1...



Writing tracked information to tracker.csv...
IOR-3.4.0+dev: MPI Coordinated Test of Parallel I/O
Began               : Fri Jan 21 03:04:51 2022
Command line        : /home/lgouveia/ior/bin/ior -w -t 1m -b 256m -k -o /beegfs/lgouveia/ior_1/testFile1
Machine             : Linux bora001.plafrim.cluster
TestID              : 0
StartTime           : Fri Jan 21 03:04:51 2022
Path                : /beegfs/lgouveia/ior_1/testFile1
FS                  : 130.9 TiB   Used FS: 36.6%   Inodes: 0.0 Mi   Used Inodes: -nan%

Options: 
api                 : POSIX
apiVersion          : 
test filename       : /beegfs/lgouveia/ior_1/testFile1
access              : single-shared-file
type                : independent
segments            : 1
ordering in a file  : sequential
ordering inter file : no tasks offsets
nodes               : 16
tasks               : 128
clients per node    : 8
repetitions         : 1
xfersize            : 1 MiB
blocksize           : 256 MiB
aggregate filesize  : 32 GiB

Results: 
WARNING: The file "/beegfs/lgouveia/ior_1/testFile1" exists already and will be overwritten

access    bw(MiB/s)  IOPS       Latency(s)  block(KiB) xfer(KiB)  open(s)    wr/rd(s)   close(s)   total(s)   iter
------    ---------  ----       ----------  ---------- ---------  --------   --------   --------   --------   ----
write     1851.49    1851.64    0.064512    262144     1024.00    0.184915   17.70      16.10      17.70      0   

Summary of all tests:
Operation   Max(MiB)   Min(MiB)  Mean(MiB)     StdDev   Max(OPs)   Min(OPs)  Mean(OPs)     StdDev    Mean(s) Stonewall(s) Stonewall(MiB) Test# #Tasks tPN reps fPP reord reordoff reordrand seed segcnt   blksiz    xsize aggs(MiB)   API RefNum
write        1851.49    1851.49    1851.49       0.00    1851.49    1851.49    1851.49       0.00   17.69821         NA            NA     0    128   8    1   0     0        1         0    0      1 268435456  1048576   32768.0 POSIX      0
Finished            : Fri Jan 21 03:05:09 2022
Tracking /beegfs/lgouveia/ior_1/testFile1...



Writing tracked information to tracker.csv...
