===== My JOB Information ====
Node List:  bora[024-038]
my jobID:  1470161
Partition: routage
submit directory:  /home/lgouveia/luan-teylo/tests/omnipath/compute_nodes/4_targets/15
submit host:  devel01.plafrim.cluster
In the directory: /home/lgouveia/luan-teylo/tests/omnipath/compute_nodes/4_targets/15
As the user: lgouveia
============================
IOR-3.4.0+dev: MPI Coordinated Test of Parallel I/O
Began               : Mon Jan 10 14:12:29 2022
Command line        : /home/lgouveia/ior/bin/ior -w -t 1m -b 273m -k -o /beegfs/lgouveia/ior_4/testFile1
Machine             : Linux bora024.plafrim.cluster
TestID              : 0
StartTime           : Mon Jan 10 14:12:29 2022
Path                : /beegfs/lgouveia/ior_4/testFile1
FS                  : 130.9 TiB   Used FS: 36.6%   Inodes: 0.0 Mi   Used Inodes: -nan%

Options: 
api                 : POSIX
apiVersion          : 
test filename       : /beegfs/lgouveia/ior_4/testFile1
access              : single-shared-file
type                : independent
segments            : 1
ordering in a file  : sequential
ordering inter file : no tasks offsets
nodes               : 15
tasks               : 120
clients per node    : 8
repetitions         : 1
xfersize            : 1 MiB
blocksize           : 273 MiB
aggregate filesize  : 31.99 GiB

Results: 
WARNING: The file "/beegfs/lgouveia/ior_4/testFile1" exists already and will be overwritten

access    bw(MiB/s)  IOPS       Latency(s)  block(KiB) xfer(KiB)  open(s)    wr/rd(s)   close(s)   total(s)   iter
------    ---------  ----       ----------  ---------- ---------  --------   --------   --------   --------   ----
write     5357       5358       0.003169    279552     1024.00    0.164677   6.11       5.35       6.12       0   

Summary of all tests:
Operation   Max(MiB)   Min(MiB)  Mean(MiB)     StdDev   Max(OPs)   Min(OPs)  Mean(OPs)     StdDev    Mean(s) Stonewall(s) Stonewall(MiB) Test# #Tasks tPN reps fPP reord reordoff reordrand seed segcnt   blksiz    xsize aggs(MiB)   API RefNum
write        5356.94    5356.94    5356.94       0.00    5356.94    5356.94    5356.94       0.00    6.11544         NA            NA     0    120   8    1   0     0        1         0    0      1 286261248  1048576   32760.0 POSIX      0
Finished            : Mon Jan 10 14:12:35 2022
Tracking /beegfs/lgouveia/ior_4/testFile1...
Tracking /beegfs/lgouveia/ior_4/testFileApp_1...
Tracking /beegfs/lgouveia/ior_4/testFileApp_2...



Writing tracked information to tracker.csv...
IOR-3.4.0+dev: MPI Coordinated Test of Parallel I/O
Began               : Mon Jan 10 14:13:37 2022
Command line        : /home/lgouveia/ior/bin/ior -w -t 1m -b 273m -k -o /beegfs/lgouveia/ior_4/testFile1
Machine             : Linux bora024.plafrim.cluster
TestID              : 0
StartTime           : Mon Jan 10 14:13:37 2022
Path                : /beegfs/lgouveia/ior_4/testFile1
FS                  : 130.9 TiB   Used FS: 36.6%   Inodes: 0.0 Mi   Used Inodes: -nan%

Options: 
api                 : POSIX
apiVersion          : 
test filename       : /beegfs/lgouveia/ior_4/testFile1
access              : single-shared-file
type                : independent
segments            : 1
ordering in a file  : sequential
ordering inter file : no tasks offsets
nodes               : 15
tasks               : 120
clients per node    : 8
repetitions         : 1
xfersize            : 1 MiB
blocksize           : 273 MiB
aggregate filesize  : 31.99 GiB

Results: 
WARNING: The file "/beegfs/lgouveia/ior_4/testFile1" exists already and will be overwritten

access    bw(MiB/s)  IOPS       Latency(s)  block(KiB) xfer(KiB)  open(s)    wr/rd(s)   close(s)   total(s)   iter
------    ---------  ----       ----------  ---------- ---------  --------   --------   --------   --------   ----
write     5970       5970       0.016345    279552     1024.00    0.017806   5.49       4.77       5.49       0   

Summary of all tests:
Operation   Max(MiB)   Min(MiB)  Mean(MiB)     StdDev   Max(OPs)   Min(OPs)  Mean(OPs)     StdDev    Mean(s) Stonewall(s) Stonewall(MiB) Test# #Tasks tPN reps fPP reord reordoff reordrand seed segcnt   blksiz    xsize aggs(MiB)   API RefNum
write        5969.54    5969.54    5969.54       0.00    5969.54    5969.54    5969.54       0.00    5.48786         NA            NA     0    120   8    1   0     0        1         0    0      1 286261248  1048576   32760.0 POSIX      0
Finished            : Mon Jan 10 14:13:42 2022
Tracking /beegfs/lgouveia/ior_4/testFile1...
Tracking /beegfs/lgouveia/ior_4/testFileApp_1...
Tracking /beegfs/lgouveia/ior_4/testFileApp_2...



Writing tracked information to tracker.csv...
IOR-3.4.0+dev: MPI Coordinated Test of Parallel I/O
Began               : Mon Jan 10 14:14:44 2022
Command line        : /home/lgouveia/ior/bin/ior -w -t 1m -b 273m -k -o /beegfs/lgouveia/ior_4/testFile1
Machine             : Linux bora024.plafrim.cluster
TestID              : 0
StartTime           : Mon Jan 10 14:14:44 2022
Path                : /beegfs/lgouveia/ior_4/testFile1
FS                  : 130.9 TiB   Used FS: 36.6%   Inodes: 0.0 Mi   Used Inodes: -nan%

Options: 
api                 : POSIX
apiVersion          : 
test filename       : /beegfs/lgouveia/ior_4/testFile1
access              : single-shared-file
type                : independent
segments            : 1
ordering in a file  : sequential
ordering inter file : no tasks offsets
nodes               : 15
tasks               : 120
clients per node    : 8
repetitions         : 1
xfersize            : 1 MiB
blocksize           : 273 MiB
aggregate filesize  : 31.99 GiB

Results: 
WARNING: The file "/beegfs/lgouveia/ior_4/testFile1" exists already and will be overwritten

access    bw(MiB/s)  IOPS       Latency(s)  block(KiB) xfer(KiB)  open(s)    wr/rd(s)   close(s)   total(s)   iter
------    ---------  ----       ----------  ---------- ---------  --------   --------   --------   --------   ----
write     5715       5717       0.004556    279552     1024.00    0.010949   5.73       5.06       5.73       0   

Summary of all tests:
Operation   Max(MiB)   Min(MiB)  Mean(MiB)     StdDev   Max(OPs)   Min(OPs)  Mean(OPs)     StdDev    Mean(s) Stonewall(s) Stonewall(MiB) Test# #Tasks tPN reps fPP reord reordoff reordrand seed segcnt   blksiz    xsize aggs(MiB)   API RefNum
write        5715.02    5715.02    5715.02       0.00    5715.02    5715.02    5715.02       0.00    5.73226         NA            NA     0    120   8    1   0     0        1         0    0      1 286261248  1048576   32760.0 POSIX      0
Finished            : Mon Jan 10 14:14:50 2022
Tracking /beegfs/lgouveia/ior_4/testFile1...
Tracking /beegfs/lgouveia/ior_4/testFileApp_1...
Tracking /beegfs/lgouveia/ior_4/testFileApp_2...



Writing tracked information to tracker.csv...
IOR-3.4.0+dev: MPI Coordinated Test of Parallel I/O
Began               : Mon Jan 10 14:15:51 2022
Command line        : /home/lgouveia/ior/bin/ior -w -t 1m -b 273m -k -o /beegfs/lgouveia/ior_4/testFile1
Machine             : Linux bora024.plafrim.cluster
TestID              : 0
StartTime           : Mon Jan 10 14:15:51 2022
Path                : /beegfs/lgouveia/ior_4/testFile1
FS                  : 130.9 TiB   Used FS: 36.5%   Inodes: 0.0 Mi   Used Inodes: -nan%

Options: 
api                 : POSIX
apiVersion          : 
test filename       : /beegfs/lgouveia/ior_4/testFile1
access              : single-shared-file
type                : independent
segments            : 1
ordering in a file  : sequential
ordering inter file : no tasks offsets
nodes               : 15
tasks               : 120
clients per node    : 8
repetitions         : 1
xfersize            : 1 MiB
blocksize           : 273 MiB
aggregate filesize  : 31.99 GiB

Results: 
WARNING: The file "/beegfs/lgouveia/ior_4/testFile1" exists already and will be overwritten

access    bw(MiB/s)  IOPS       Latency(s)  block(KiB) xfer(KiB)  open(s)    wr/rd(s)   close(s)   total(s)   iter
------    ---------  ----       ----------  ---------- ---------  --------   --------   --------   --------   ----
write     5534       5535       0.005591    279552     1024.00    0.017738   5.92       5.14       5.92       0   

Summary of all tests:
Operation   Max(MiB)   Min(MiB)  Mean(MiB)     StdDev   Max(OPs)   Min(OPs)  Mean(OPs)     StdDev    Mean(s) Stonewall(s) Stonewall(MiB) Test# #Tasks tPN reps fPP reord reordoff reordrand seed segcnt   blksiz    xsize aggs(MiB)   API RefNum
write        5534.40    5534.40    5534.40       0.00    5534.40    5534.40    5534.40       0.00    5.91934         NA            NA     0    120   8    1   0     0        1         0    0      1 286261248  1048576   32760.0 POSIX      0
Finished            : Mon Jan 10 14:15:57 2022
Tracking /beegfs/lgouveia/ior_4/testFile1...
Tracking /beegfs/lgouveia/ior_4/testFileApp_1...
Tracking /beegfs/lgouveia/ior_4/testFileApp_2...



Writing tracked information to tracker.csv...
IOR-3.4.0+dev: MPI Coordinated Test of Parallel I/O
Began               : Mon Jan 10 14:16:58 2022
Command line        : /home/lgouveia/ior/bin/ior -w -t 1m -b 273m -k -o /beegfs/lgouveia/ior_4/testFile1
Machine             : Linux bora024.plafrim.cluster
TestID              : 0
StartTime           : Mon Jan 10 14:16:58 2022
Path                : /beegfs/lgouveia/ior_4/testFile1
FS                  : 130.9 TiB   Used FS: 36.6%   Inodes: 0.0 Mi   Used Inodes: -nan%

Options: 
api                 : POSIX
apiVersion          : 
test filename       : /beegfs/lgouveia/ior_4/testFile1
access              : single-shared-file
type                : independent
segments            : 1
ordering in a file  : sequential
ordering inter file : no tasks offsets
nodes               : 15
tasks               : 120
clients per node    : 8
repetitions         : 1
xfersize            : 1 MiB
blocksize           : 273 MiB
aggregate filesize  : 31.99 GiB

Results: 
WARNING: The file "/beegfs/lgouveia/ior_4/testFile1" exists already and will be overwritten

access    bw(MiB/s)  IOPS       Latency(s)  block(KiB) xfer(KiB)  open(s)    wr/rd(s)   close(s)   total(s)   iter
------    ---------  ----       ----------  ---------- ---------  --------   --------   --------   --------   ----
write     5884       5885       0.018227    279552     1024.00    0.020369   5.57       4.84       5.57       0   

Summary of all tests:
Operation   Max(MiB)   Min(MiB)  Mean(MiB)     StdDev   Max(OPs)   Min(OPs)  Mean(OPs)     StdDev    Mean(s) Stonewall(s) Stonewall(MiB) Test# #Tasks tPN reps fPP reord reordoff reordrand seed segcnt   blksiz    xsize aggs(MiB)   API RefNum
write        5884.25    5884.25    5884.25       0.00    5884.25    5884.25    5884.25       0.00    5.56740         NA            NA     0    120   8    1   0     0        1         0    0      1 286261248  1048576   32760.0 POSIX      0
Finished            : Mon Jan 10 14:17:04 2022
Tracking /beegfs/lgouveia/ior_4/testFile1...
Tracking /beegfs/lgouveia/ior_4/testFileApp_1...
Tracking /beegfs/lgouveia/ior_4/testFileApp_2...



Writing tracked information to tracker.csv...
IOR-3.4.0+dev: MPI Coordinated Test of Parallel I/O
Began               : Mon Jan 10 14:18:05 2022
Command line        : /home/lgouveia/ior/bin/ior -w -t 1m -b 273m -k -o /beegfs/lgouveia/ior_4/testFile1
Machine             : Linux bora024.plafrim.cluster
TestID              : 0
StartTime           : Mon Jan 10 14:18:05 2022
Path                : /beegfs/lgouveia/ior_4/testFile1
FS                  : 130.9 TiB   Used FS: 36.6%   Inodes: 0.0 Mi   Used Inodes: -nan%

Options: 
api                 : POSIX
apiVersion          : 
test filename       : /beegfs/lgouveia/ior_4/testFile1
access              : single-shared-file
type                : independent
segments            : 1
ordering in a file  : sequential
ordering inter file : no tasks offsets
nodes               : 15
tasks               : 120
clients per node    : 8
repetitions         : 1
xfersize            : 1 MiB
blocksize           : 273 MiB
aggregate filesize  : 31.99 GiB

Results: 
WARNING: The file "/beegfs/lgouveia/ior_4/testFile1" exists already and will be overwritten

access    bw(MiB/s)  IOPS       Latency(s)  block(KiB) xfer(KiB)  open(s)    wr/rd(s)   close(s)   total(s)   iter
------    ---------  ----       ----------  ---------- ---------  --------   --------   --------   --------   ----
write     5953       5955       0.011317    279552     1024.00    0.176598   5.50       4.76       5.50       0   

Summary of all tests:
Operation   Max(MiB)   Min(MiB)  Mean(MiB)     StdDev   Max(OPs)   Min(OPs)  Mean(OPs)     StdDev    Mean(s) Stonewall(s) Stonewall(MiB) Test# #Tasks tPN reps fPP reord reordoff reordrand seed segcnt   blksiz    xsize aggs(MiB)   API RefNum
write        5952.99    5952.99    5952.99       0.00    5952.99    5952.99    5952.99       0.00    5.50312         NA            NA     0    120   8    1   0     0        1         0    0      1 286261248  1048576   32760.0 POSIX      0
Finished            : Mon Jan 10 14:18:11 2022
Tracking /beegfs/lgouveia/ior_4/testFile1...
Tracking /beegfs/lgouveia/ior_4/testFileApp_1...
Tracking /beegfs/lgouveia/ior_4/testFileApp_2...



Writing tracked information to tracker.csv...
IOR-3.4.0+dev: MPI Coordinated Test of Parallel I/O
Began               : Mon Jan 10 14:19:12 2022
Command line        : /home/lgouveia/ior/bin/ior -w -t 1m -b 273m -k -o /beegfs/lgouveia/ior_4/testFile1
Machine             : Linux bora024.plafrim.cluster
TestID              : 0
StartTime           : Mon Jan 10 14:19:12 2022
Path                : /beegfs/lgouveia/ior_4/testFile1
FS                  : 130.9 TiB   Used FS: 36.5%   Inodes: 0.0 Mi   Used Inodes: -nan%

Options: 
api                 : POSIX
apiVersion          : 
test filename       : /beegfs/lgouveia/ior_4/testFile1
access              : single-shared-file
type                : independent
segments            : 1
ordering in a file  : sequential
ordering inter file : no tasks offsets
nodes               : 15
tasks               : 120
clients per node    : 8
repetitions         : 1
xfersize            : 1 MiB
blocksize           : 273 MiB
aggregate filesize  : 31.99 GiB

Results: 
WARNING: The file "/beegfs/lgouveia/ior_4/testFile1" exists already and will be overwritten

access    bw(MiB/s)  IOPS       Latency(s)  block(KiB) xfer(KiB)  open(s)    wr/rd(s)   close(s)   total(s)   iter
------    ---------  ----       ----------  ---------- ---------  --------   --------   --------   --------   ----
write     5530       5533       0.015366    279552     1024.00    0.018125   5.92       5.05       5.92       0   

Summary of all tests:
Operation   Max(MiB)   Min(MiB)  Mean(MiB)     StdDev   Max(OPs)   Min(OPs)  Mean(OPs)     StdDev    Mean(s) Stonewall(s) Stonewall(MiB) Test# #Tasks tPN reps fPP reord reordoff reordrand seed segcnt   blksiz    xsize aggs(MiB)   API RefNum
write        5529.99    5529.99    5529.99       0.00    5529.99    5529.99    5529.99       0.00    5.92406         NA            NA     0    120   8    1   0     0        1         0    0      1 286261248  1048576   32760.0 POSIX      0
Finished            : Mon Jan 10 14:19:18 2022
Tracking /beegfs/lgouveia/ior_4/testFile1...
Tracking /beegfs/lgouveia/ior_4/testFileApp_1...
Tracking /beegfs/lgouveia/ior_4/testFileApp_2...



Writing tracked information to tracker.csv...
IOR-3.4.0+dev: MPI Coordinated Test of Parallel I/O
Began               : Mon Jan 10 14:20:20 2022
Command line        : /home/lgouveia/ior/bin/ior -w -t 1m -b 273m -k -o /beegfs/lgouveia/ior_4/testFile1
Machine             : Linux bora024.plafrim.cluster
TestID              : 0
StartTime           : Mon Jan 10 14:20:20 2022
Path                : /beegfs/lgouveia/ior_4/testFile1
FS                  : 130.9 TiB   Used FS: 36.5%   Inodes: 0.0 Mi   Used Inodes: -nan%

Options: 
api                 : POSIX
apiVersion          : 
test filename       : /beegfs/lgouveia/ior_4/testFile1
access              : single-shared-file
type                : independent
segments            : 1
ordering in a file  : sequential
ordering inter file : no tasks offsets
nodes               : 15
tasks               : 120
clients per node    : 8
repetitions         : 1
xfersize            : 1 MiB
blocksize           : 273 MiB
aggregate filesize  : 31.99 GiB

Results: 
WARNING: The file "/beegfs/lgouveia/ior_4/testFile1" exists already and will be overwritten

access    bw(MiB/s)  IOPS       Latency(s)  block(KiB) xfer(KiB)  open(s)    wr/rd(s)   close(s)   total(s)   iter
------    ---------  ----       ----------  ---------- ---------  --------   --------   --------   --------   ----
write     5885       5886       0.007388    279552     1024.00    0.017970   5.57       4.80       5.57       0   

Summary of all tests:
Operation   Max(MiB)   Min(MiB)  Mean(MiB)     StdDev   Max(OPs)   Min(OPs)  Mean(OPs)     StdDev    Mean(s) Stonewall(s) Stonewall(MiB) Test# #Tasks tPN reps fPP reord reordoff reordrand seed segcnt   blksiz    xsize aggs(MiB)   API RefNum
write        5884.86    5884.86    5884.86       0.00    5884.86    5884.86    5884.86       0.00    5.56683         NA            NA     0    120   8    1   0     0        1         0    0      1 286261248  1048576   32760.0 POSIX      0
Finished            : Mon Jan 10 14:20:25 2022
Tracking /beegfs/lgouveia/ior_4/testFile1...
Tracking /beegfs/lgouveia/ior_4/testFileApp_1...
Tracking /beegfs/lgouveia/ior_4/testFileApp_2...



Writing tracked information to tracker.csv...
IOR-3.4.0+dev: MPI Coordinated Test of Parallel I/O
Began               : Mon Jan 10 14:21:27 2022
Command line        : /home/lgouveia/ior/bin/ior -w -t 1m -b 273m -k -o /beegfs/lgouveia/ior_4/testFile1
Machine             : Linux bora024.plafrim.cluster
TestID              : 0
StartTime           : Mon Jan 10 14:21:27 2022
Path                : /beegfs/lgouveia/ior_4/testFile1
FS                  : 130.9 TiB   Used FS: 36.6%   Inodes: 0.0 Mi   Used Inodes: -nan%

Options: 
api                 : POSIX
apiVersion          : 
test filename       : /beegfs/lgouveia/ior_4/testFile1
access              : single-shared-file
type                : independent
segments            : 1
ordering in a file  : sequential
ordering inter file : no tasks offsets
nodes               : 15
tasks               : 120
clients per node    : 8
repetitions         : 1
xfersize            : 1 MiB
blocksize           : 273 MiB
aggregate filesize  : 31.99 GiB

Results: 
WARNING: The file "/beegfs/lgouveia/ior_4/testFile1" exists already and will be overwritten

access    bw(MiB/s)  IOPS       Latency(s)  block(KiB) xfer(KiB)  open(s)    wr/rd(s)   close(s)   total(s)   iter
------    ---------  ----       ----------  ---------- ---------  --------   --------   --------   --------   ----
write     5571       5572       0.013052    279552     1024.00    0.016510   5.88       5.17       5.88       0   

Summary of all tests:
Operation   Max(MiB)   Min(MiB)  Mean(MiB)     StdDev   Max(OPs)   Min(OPs)  Mean(OPs)     StdDev    Mean(s) Stonewall(s) Stonewall(MiB) Test# #Tasks tPN reps fPP reord reordoff reordrand seed segcnt   blksiz    xsize aggs(MiB)   API RefNum
write        5570.75    5570.75    5570.75       0.00    5570.75    5570.75    5570.75       0.00    5.88071         NA            NA     0    120   8    1   0     0        1         0    0      1 286261248  1048576   32760.0 POSIX      0
Finished            : Mon Jan 10 14:21:32 2022
Tracking /beegfs/lgouveia/ior_4/testFile1...
Tracking /beegfs/lgouveia/ior_4/testFileApp_1...
Tracking /beegfs/lgouveia/ior_4/testFileApp_2...



Writing tracked information to tracker.csv...
IOR-3.4.0+dev: MPI Coordinated Test of Parallel I/O
Began               : Mon Jan 10 14:22:34 2022
Command line        : /home/lgouveia/ior/bin/ior -w -t 1m -b 273m -k -o /beegfs/lgouveia/ior_4/testFile1
Machine             : Linux bora024.plafrim.cluster
TestID              : 0
StartTime           : Mon Jan 10 14:22:34 2022
Path                : /beegfs/lgouveia/ior_4/testFile1
FS                  : 130.9 TiB   Used FS: 36.6%   Inodes: 0.0 Mi   Used Inodes: -nan%

Options: 
api                 : POSIX
apiVersion          : 
test filename       : /beegfs/lgouveia/ior_4/testFile1
access              : single-shared-file
type                : independent
segments            : 1
ordering in a file  : sequential
ordering inter file : no tasks offsets
nodes               : 15
tasks               : 120
clients per node    : 8
repetitions         : 1
xfersize            : 1 MiB
blocksize           : 273 MiB
aggregate filesize  : 31.99 GiB

Results: 
WARNING: The file "/beegfs/lgouveia/ior_4/testFile1" exists already and will be overwritten

access    bw(MiB/s)  IOPS       Latency(s)  block(KiB) xfer(KiB)  open(s)    wr/rd(s)   close(s)   total(s)   iter
------    ---------  ----       ----------  ---------- ---------  --------   --------   --------   --------   ----
write     5357       5358       0.021446    279552     1024.00    0.023203   6.11       5.28       6.12       0   

Summary of all tests:
Operation   Max(MiB)   Min(MiB)  Mean(MiB)     StdDev   Max(OPs)   Min(OPs)  Mean(OPs)     StdDev    Mean(s) Stonewall(s) Stonewall(MiB) Test# #Tasks tPN reps fPP reord reordoff reordrand seed segcnt   blksiz    xsize aggs(MiB)   API RefNum
write        5356.98    5356.98    5356.98       0.00    5356.98    5356.98    5356.98       0.00    6.11538         NA            NA     0    120   8    1   0     0        1         0    0      1 286261248  1048576   32760.0 POSIX      0
Finished            : Mon Jan 10 14:22:40 2022
Tracking /beegfs/lgouveia/ior_4/testFile1...
Tracking /beegfs/lgouveia/ior_4/testFileApp_1...
Tracking /beegfs/lgouveia/ior_4/testFileApp_2...



Writing tracked information to tracker.csv...
