access,bw,iops,latency,block,xfer,open,wr/rd,close,total,iter,start,end
write,1474.32,1474.38,0.004087,698368,1024.00,0.003978,22.20,19.42,22.20,0,Wed Jul 14 03:07:19 2021,Wed Jul 14 03:07:41 2021
write,1489.01,1489.09,0.012171,698368,1024.00,0.003957,21.98,19.18,21.99,0,Wed Jul 14 03:05:56 2021,Wed Jul 14 03:06:18 2021
write,1473.17,1473.25,0.004857,698368,1024.00,0.004202,22.22,19.41,22.22,0,Wed Jul 14 03:04:33 2021,Wed Jul 14 03:04:55 2021
write,1481.27,1481.37,0.004157,698368,1024.00,0.004794,22.10,19.26,22.10,0,Wed Jul 14 03:03:10 2021,Wed Jul 14 03:03:32 2021
write,1469.42,1469.47,0.022033,698368,1024.00,0.004735,22.28,19.25,22.28,0,Wed Jul 14 03:01:46 2021,Wed Jul 14 03:02:09 2021
write,1477.44,1477.54,0.032288,698368,1024.00,0.004968,22.16,19.34,22.16,0,Wed Jul 14 03:00:23 2021,Wed Jul 14 03:00:46 2021
write,1470.05,1470.12,0.004295,698368,1024.00,0.004875,22.27,19.34,22.27,0,Wed Jul 14 02:59:00 2021,Wed Jul 14 02:59:22 2021
write,1483.40,1483.52,0.012213,698368,1024.00,0.004957,22.07,19.27,22.07,0,Wed Jul 14 02:57:37 2021,Wed Jul 14 02:57:59 2021
write,1474.38,1474.46,0.008357,698368,1024.00,0.005009,22.20,19.25,22.20,0,Wed Jul 14 02:56:14 2021,Wed Jul 14 02:56:36 2021
write,1477.56,1477.63,0.008336,698368,1024.00,0.004851,22.15,19.25,22.16,0,Wed Jul 14 02:54:49 2021,Wed Jul 14 02:55:11 2021
write,1478.62,1478.70,0.012130,698368,1024.00,0.004394,22.14,19.30,22.14,0,Wed Jul 14 02:44:44 2021,Wed Jul 14 02:45:06 2021
write,1482.50,1482.59,0.008225,698368,1024.00,0.004673,22.08,19.29,22.08,0,Wed Jul 14 02:43:21 2021,Wed Jul 14 02:43:43 2021
write,1474.06,1474.13,0.012315,698368,1024.00,0.004815,22.21,19.38,22.21,0,Wed Jul 14 02:41:57 2021,Wed Jul 14 02:42:20 2021
write,1483.70,1483.77,0.010538,698368,1024.00,0.004517,22.06,19.18,22.06,0,Wed Jul 14 02:40:35 2021,Wed Jul 14 02:40:57 2021
write,1469.67,1469.73,0.032594,698368,1024.00,0.004811,22.27,19.46,22.27,0,Wed Jul 14 02:39:11 2021,Wed Jul 14 02:39:34 2021
write,1478.04,1478.15,0.009488,698368,1024.00,0.004705,22.15,19.35,22.15,0,Wed Jul 14 02:37:48 2021,Wed Jul 14 02:38:10 2021
write,1482.58,1482.66,0.012201,698368,1024.00,0.005138,22.08,19.25,22.08,0,Wed Jul 14 02:36:25 2021,Wed Jul 14 02:36:47 2021
write,1481.56,1481.65,0.008339,698368,1024.00,0.004647,22.09,19.29,22.10,0,Wed Jul 14 02:35:02 2021,Wed Jul 14 02:35:24 2021
write,1471.53,1471.64,0.015430,698368,1024.00,0.004174,22.24,19.36,22.25,0,Wed Jul 14 02:33:39 2021,Wed Jul 14 02:34:02 2021
write,1461.00,1461.06,0.015074,698368,1024.00,0.004598,22.41,19.50,22.41,0,Wed Jul 14 02:32:11 2021,Wed Jul 14 02:32:33 2021
write,1472.13,1472.20,0.008408,698368,1024.00,0.004775,22.24,19.38,22.24,0,Wed Jul 14 02:22:04 2021,Wed Jul 14 02:22:27 2021
write,1475.90,1475.96,0.022171,698368,1024.00,0.004700,22.18,19.28,22.18,0,Wed Jul 14 02:20:41 2021,Wed Jul 14 02:21:03 2021
write,1481.13,1481.20,0.032345,698368,1024.00,0.004867,22.10,19.21,22.10,0,Wed Jul 14 02:19:18 2021,Wed Jul 14 02:19:40 2021
write,1462.16,1462.24,0.006258,698368,1024.00,0.008278,22.39,19.46,22.39,0,Wed Jul 14 02:17:55 2021,Wed Jul 14 02:18:17 2021
write,1471.53,1471.61,0.018416,698368,1024.00,0.004787,22.24,19.35,22.25,0,Wed Jul 14 02:16:32 2021,Wed Jul 14 02:16:54 2021
write,1466.00,1466.08,0.004317,698368,1024.00,0.004710,22.33,19.48,22.33,0,Wed Jul 14 02:15:09 2021,Wed Jul 14 02:15:31 2021
write,1486.88,1486.96,0.019063,698368,1024.00,0.004638,22.02,19.19,22.02,0,Wed Jul 14 02:13:46 2021,Wed Jul 14 02:14:08 2021
write,1480.79,1480.86,0.031900,698368,1024.00,0.006340,22.11,19.31,22.11,0,Wed Jul 14 02:12:23 2021,Wed Jul 14 02:12:45 2021
write,1472.78,1472.88,0.020199,698368,1024.00,0.005042,22.23,19.35,22.23,0,Wed Jul 14 02:11:00 2021,Wed Jul 14 02:11:22 2021
write,1488.91,1488.99,0.012217,698368,1024.00,0.005202,21.99,19.19,21.99,0,Wed Jul 14 02:09:34 2021,Wed Jul 14 02:09:56 2021
write,1476.50,1476.58,0.012411,698368,1024.00,0.004705,22.17,19.22,22.17,0,Wed Jul 14 02:04:51 2021,Wed Jul 14 02:05:13 2021
write,1476.13,1476.22,0.014911,698368,1024.00,0.004862,22.18,19.36,22.18,0,Wed Jul 14 02:03:28 2021,Wed Jul 14 02:03:50 2021
write,1483.28,1483.36,0.004156,698368,1024.00,0.004781,22.07,19.23,22.07,0,Wed Jul 14 02:02:05 2021,Wed Jul 14 02:02:27 2021
write,1479.09,1479.18,0.010727,698368,1024.00,0.004976,22.13,19.32,22.13,0,Wed Jul 14 02:00:42 2021,Wed Jul 14 02:01:04 2021
write,1455.44,1455.53,0.032923,698368,1024.00,0.004370,22.49,19.66,22.49,0,Wed Jul 14 01:59:19 2021,Wed Jul 14 01:59:41 2021
write,1471.53,1471.62,0.012302,698368,1024.00,0.004929,22.24,19.33,22.25,0,Wed Jul 14 01:57:55 2021,Wed Jul 14 01:58:18 2021
write,1469.27,1469.34,0.004284,698368,1024.00,0.011427,22.28,19.46,22.28,0,Wed Jul 14 01:56:32 2021,Wed Jul 14 01:56:55 2021
write,1474.13,1474.28,0.004236,698368,1024.00,0.006676,22.20,19.38,22.21,0,Wed Jul 14 01:55:09 2021,Wed Jul 14 01:55:31 2021
write,1473.78,1473.86,0.014588,698368,1024.00,0.005420,22.21,19.26,22.21,0,Wed Jul 14 01:53:46 2021,Wed Jul 14 01:54:08 2021
write,1475.10,1475.18,0.008173,698368,1024.00,0.005007,22.19,19.40,22.19,0,Wed Jul 14 01:52:19 2021,Wed Jul 14 01:52:42 2021
write,1471.29,1471.36,0.012274,698368,1024.00,0.005336,22.25,18.26,22.25,0,Wed Jul 14 01:46:13 2021,Wed Jul 14 01:46:36 2021
write,1459.17,1459.24,0.004086,698368,1024.00,0.004573,22.43,19.65,22.43,0,Wed Jul 14 01:44:50 2021,Wed Jul 14 01:45:12 2021
write,1477.25,1477.34,0.004240,698368,1024.00,0.012308,22.16,19.30,22.16,0,Wed Jul 14 01:43:27 2021,Wed Jul 14 01:43:49 2021
write,1459.27,1459.34,0.032881,698368,1024.00,0.004970,22.43,19.63,22.43,0,Wed Jul 14 01:42:04 2021,Wed Jul 14 01:42:26 2021
write,1481.10,1481.18,0.012307,698368,1024.00,0.005006,22.10,19.26,22.10,0,Wed Jul 14 01:40:41 2021,Wed Jul 14 01:41:03 2021
write,1475.37,1475.45,0.020328,698368,1024.00,0.004695,22.19,19.40,22.19,0,Wed Jul 14 01:39:17 2021,Wed Jul 14 01:39:40 2021
write,1472.88,1472.98,0.014527,698368,1024.00,0.004885,22.22,19.40,22.23,0,Wed Jul 14 01:37:54 2021,Wed Jul 14 01:38:17 2021
write,1482.24,1482.33,0.008815,698368,1024.00,0.005474,22.08,19.18,22.09,0,Wed Jul 14 01:36:31 2021,Wed Jul 14 01:36:53 2021
write,1471.24,1471.32,0.008199,698368,1024.00,0.004554,22.25,19.39,22.25,0,Wed Jul 14 01:35:08 2021,Wed Jul 14 01:35:31 2021
write,1478.97,1479.05,0.012405,698368,1024.00,0.004642,22.13,19.31,22.13,0,Wed Jul 14 01:33:43 2021,Wed Jul 14 01:34:05 2021
write,1462.91,1463.00,0.004298,698368,1024.00,0.005485,22.38,19.44,22.38,0,Wed Jul 14 01:22:45 2021,Wed Jul 14 01:23:08 2021
write,1472.94,1473.01,0.012192,698368,1024.00,0.004815,22.22,19.42,22.22,0,Wed Jul 14 01:21:22 2021,Wed Jul 14 01:21:44 2021
write,1478.78,1478.86,0.008339,698368,1024.00,0.004891,22.14,19.24,22.14,0,Wed Jul 14 01:19:59 2021,Wed Jul 14 01:20:21 2021
write,1452.81,1452.88,0.030129,698368,1024.00,0.005217,22.53,19.67,22.53,0,Wed Jul 14 01:18:36 2021,Wed Jul 14 01:18:58 2021
write,1481.51,1481.61,0.031779,698368,1024.00,0.004865,22.09,19.20,22.10,0,Wed Jul 14 01:17:13 2021,Wed Jul 14 01:17:35 2021
write,1465.41,1465.50,0.012063,698368,1024.00,0.004853,22.34,19.54,22.34,0,Wed Jul 14 01:15:49 2021,Wed Jul 14 01:16:12 2021
write,1437.08,1437.16,0.032491,698368,1024.00,0.005674,22.78,20.05,22.78,0,Wed Jul 14 01:14:26 2021,Wed Jul 14 01:14:49 2021
write,1457.39,1457.47,0.004205,698368,1024.00,0.005114,22.46,19.61,22.46,0,Wed Jul 14 01:13:02 2021,Wed Jul 14 01:13:25 2021
write,1476.50,1476.58,0.014955,698368,1024.00,0.004888,22.17,19.27,22.17,0,Wed Jul 14 01:11:39 2021,Wed Jul 14 01:12:02 2021
write,1486.77,1486.84,0.028407,698368,1024.00,0.004200,22.02,19.18,22.02,0,Wed Jul 14 01:10:15 2021,Wed Jul 14 01:10:37 2021
write,1489.27,1489.34,0.008246,698368,1024.00,0.004716,21.98,19.20,21.98,0,Wed Jul 14 01:01:31 2021,Wed Jul 14 01:01:53 2021
write,1482.53,1482.61,0.016170,698368,1024.00,0.004820,22.08,19.26,22.08,0,Wed Jul 14 01:00:08 2021,Wed Jul 14 01:00:30 2021
write,1485.83,1485.91,0.016756,698368,1024.00,0.004736,22.03,19.20,22.03,0,Wed Jul 14 00:58:45 2021,Wed Jul 14 00:59:08 2021
write,1475.93,1476.01,0.010107,698368,1024.00,0.004557,22.18,19.34,22.18,0,Wed Jul 14 00:57:22 2021,Wed Jul 14 00:57:45 2021
write,1483.36,1483.69,0.008144,698368,1024.00,0.004991,22.06,19.26,22.07,0,Wed Jul 14 00:55:59 2021,Wed Jul 14 00:56:21 2021
write,1486.69,1486.76,0.017378,698368,1024.00,0.004759,22.02,19.19,22.02,0,Wed Jul 14 00:54:36 2021,Wed Jul 14 00:54:59 2021
write,1478.25,1478.33,0.008179,698368,1024.00,0.004908,22.14,19.26,22.15,0,Wed Jul 14 00:53:13 2021,Wed Jul 14 00:53:36 2021
write,1469.36,1469.43,0.004211,698368,1024.00,0.004838,22.28,19.44,22.28,0,Wed Jul 14 00:51:50 2021,Wed Jul 14 00:52:13 2021
write,1480.41,1480.49,0.008874,698368,1024.00,0.005048,22.11,19.32,22.11,0,Wed Jul 14 00:50:27 2021,Wed Jul 14 00:50:49 2021
write,1467.75,1467.82,0.019017,698368,1024.00,0.015207,22.30,19.46,22.30,0,Wed Jul 14 00:49:01 2021,Wed Jul 14 00:49:24 2021
write,1456.07,1456.14,0.004226,698368,1024.00,0.005206,22.48,19.62,22.48,0,Wed Jul 14 00:39:44 2021,Wed Jul 14 00:40:06 2021
write,1471.59,1471.68,0.012403,698368,1024.00,0.011626,22.24,19.30,22.25,0,Wed Jul 14 00:38:21 2021,Wed Jul 14 00:38:43 2021
write,1470.10,1470.21,0.016129,698368,1024.00,0.005089,22.27,19.44,22.27,0,Wed Jul 14 00:36:57 2021,Wed Jul 14 00:37:20 2021
write,1460.56,1460.62,0.008260,698368,1024.00,0.008056,22.41,19.55,22.41,0,Wed Jul 14 00:35:34 2021,Wed Jul 14 00:35:56 2021
write,1452.19,1452.28,0.032536,698368,1024.00,0.004749,22.54,19.72,22.54,0,Wed Jul 14 00:34:11 2021,Wed Jul 14 00:34:33 2021
write,1471.08,1471.15,0.011459,698368,1024.00,0.005122,22.25,19.40,22.25,0,Wed Jul 14 00:32:47 2021,Wed Jul 14 00:33:10 2021
write,1468.52,1468.60,0.013963,698368,1024.00,0.005005,22.29,19.57,22.29,0,Wed Jul 14 00:31:24 2021,Wed Jul 14 00:31:46 2021
write,1473.26,1473.35,0.008251,698368,1024.00,0.004982,22.22,19.39,22.22,0,Wed Jul 14 00:30:01 2021,Wed Jul 14 00:30:23 2021
write,1464.70,1464.77,0.011201,698368,1024.00,0.004749,22.35,19.56,22.35,0,Wed Jul 14 00:28:38 2021,Wed Jul 14 00:29:00 2021
write,1484.54,1484.62,0.004922,698368,1024.00,0.004507,22.05,19.19,22.05,0,Wed Jul 14 00:27:12 2021,Wed Jul 14 00:27:35 2021
write,1477.68,1477.77,0.008273,698368,1024.00,0.004921,22.15,19.30,22.15,0,Wed Jul 14 00:19:32 2021,Wed Jul 14 00:19:55 2021
write,1482.44,1482.51,0.008148,698368,1024.00,0.013371,22.08,19.25,22.08,0,Wed Jul 14 00:18:09 2021,Wed Jul 14 00:18:32 2021
write,1455.58,1455.65,0.008250,698368,1024.00,0.004436,22.49,19.68,22.49,0,Wed Jul 14 00:16:46 2021,Wed Jul 14 00:17:08 2021
write,1479.73,1479.81,0.012206,698368,1024.00,0.004726,22.12,19.32,22.12,0,Wed Jul 14 00:15:23 2021,Wed Jul 14 00:15:45 2021
write,1476.46,1476.54,0.032482,698368,1024.00,0.004734,22.17,19.39,22.17,0,Wed Jul 14 00:14:00 2021,Wed Jul 14 00:14:22 2021
write,1484.58,1484.67,0.012930,698368,1024.00,0.005449,22.05,19.29,22.05,0,Wed Jul 14 00:12:37 2021,Wed Jul 14 00:12:59 2021
write,1465.71,1465.80,0.011552,698368,1024.00,0.004926,22.33,19.44,22.33,0,Wed Jul 14 00:11:14 2021,Wed Jul 14 00:11:36 2021
write,1471.22,1471.31,0.004238,698368,1024.00,0.004970,22.25,19.40,22.25,0,Wed Jul 14 00:09:50 2021,Wed Jul 14 00:10:13 2021
write,1486.55,1486.61,0.008682,698368,1024.00,0.004811,22.02,19.21,22.02,0,Wed Jul 14 00:08:27 2021,Wed Jul 14 00:08:49 2021
write,1479.33,1479.42,0.012056,698368,1024.00,0.005118,22.13,19.42,22.13,0,Wed Jul 14 00:07:01 2021,Wed Jul 14 00:07:23 2021
write,1480.67,1480.72,0.030780,698368,1024.00,0.005103,22.11,19.23,22.11,0,Wed Jul 14 00:00:53 2021,Wed Jul 14 00:01:15 2021
write,1469.31,1469.38,0.012418,698368,1024.00,0.004893,22.28,19.42,22.28,0,Tue Jul 13 23:59:30 2021,Tue Jul 13 23:59:52 2021
write,1478.08,1478.16,0.022967,698368,1024.00,0.012785,22.15,19.30,22.15,0,Tue Jul 13 23:58:07 2021,Tue Jul 13 23:58:29 2021
write,1462.83,1462.92,0.008134,698368,1024.00,0.004719,22.38,19.55,22.38,0,Tue Jul 13 23:56:43 2021,Tue Jul 13 23:57:06 2021
write,1473.44,1473.53,0.008170,698368,1024.00,0.004962,22.22,19.40,22.22,0,Tue Jul 13 23:55:20 2021,Tue Jul 13 23:55:43 2021
write,1474.83,1474.91,0.011937,698368,1024.00,0.004651,22.20,19.31,22.20,0,Tue Jul 13 23:53:57 2021,Tue Jul 13 23:54:19 2021
write,1477.39,1477.46,0.004026,698368,1024.00,0.004993,22.16,19.41,22.16,0,Tue Jul 13 23:52:34 2021,Tue Jul 13 23:52:56 2021
write,1462.06,1462.14,0.008369,698368,1024.00,0.005031,22.39,19.48,22.39,0,Tue Jul 13 23:51:11 2021,Tue Jul 13 23:51:33 2021
write,1481.96,1482.06,0.008344,698368,1024.00,0.004868,22.09,19.31,22.09,0,Tue Jul 13 23:49:48 2021,Tue Jul 13 23:50:10 2021
write,1473.82,1473.91,0.012284,698368,1024.00,0.005670,22.21,19.29,22.21,0,Tue Jul 13 23:48:23 2021,Tue Jul 13 23:48:45 2021
