===== My JOB Information ====
Node List:  bora[001-008]
my jobID:  1471566
Partition: routage
submit directory:  /home/lgouveia/luan-teylo/tests/omnipath/compute_nodes/8_targets/08
submit host:  devel02.plafrim.cluster
In the directory: /home/lgouveia/luan-teylo/tests/omnipath/compute_nodes/8_targets/08
As the user: lgouveia
============================
IOR-3.4.0+dev: MPI Coordinated Test of Parallel I/O
Began               : Tue Jan 18 02:27:05 2022
Command line        : /home/lgouveia/ior/bin/ior -w -t 1m -b 512m -k -o /beegfs/lgouveia/ior_8/testFile1
Machine             : Linux bora001.plafrim.cluster
TestID              : 0
StartTime           : Tue Jan 18 02:27:05 2022
Path                : /beegfs/lgouveia/ior_8/testFile1
FS                  : 130.9 TiB   Used FS: 36.5%   Inodes: 0.0 Mi   Used Inodes: -nan%

Options: 
api                 : POSIX
apiVersion          : 
test filename       : /beegfs/lgouveia/ior_8/testFile1
access              : single-shared-file
type                : independent
segments            : 1
ordering in a file  : sequential
ordering inter file : no tasks offsets
nodes               : 8
tasks               : 64
clients per node    : 8
repetitions         : 1
xfersize            : 1 MiB
blocksize           : 512 MiB
aggregate filesize  : 32 GiB

Results: 
WARNING: The file "/beegfs/lgouveia/ior_8/testFile1" exists already and will be overwritten

access    bw(MiB/s)  IOPS       Latency(s)  block(KiB) xfer(KiB)  open(s)    wr/rd(s)   close(s)   total(s)   iter
------    ---------  ----       ----------  ---------- ---------  --------   --------   --------   --------   ----
write     7170       7172       0.008336    524288     1024.00    0.018634   4.57       3.53       4.57       0   

Summary of all tests:
Operation   Max(MiB)   Min(MiB)  Mean(MiB)     StdDev   Max(OPs)   Min(OPs)  Mean(OPs)     StdDev    Mean(s) Stonewall(s) Stonewall(MiB) Test# #Tasks tPN reps fPP reord reordoff reordrand seed segcnt   blksiz    xsize aggs(MiB)   API RefNum
write        7170.38    7170.38    7170.38       0.00    7170.38    7170.38    7170.38       0.00    4.56991         NA            NA     0     64   8    1   0     0        1         0    0      1 536870912  1048576   32768.0 POSIX      0
Finished            : Tue Jan 18 02:27:09 2022
Tracking /beegfs/lgouveia/ior_8/testFile1...
Tracking /beegfs/lgouveia/ior_8/testFileApp_2...
Tracking /beegfs/lgouveia/ior_8/testFileApp_1...



Writing tracked information to tracker.csv...
IOR-3.4.0+dev: MPI Coordinated Test of Parallel I/O
Began               : Tue Jan 18 02:28:10 2022
Command line        : /home/lgouveia/ior/bin/ior -w -t 1m -b 512m -k -o /beegfs/lgouveia/ior_8/testFile1
Machine             : Linux bora001.plafrim.cluster
TestID              : 0
StartTime           : Tue Jan 18 02:28:10 2022
Path                : /beegfs/lgouveia/ior_8/testFile1
FS                  : 130.9 TiB   Used FS: 36.5%   Inodes: 0.0 Mi   Used Inodes: -nan%

Options: 
api                 : POSIX
apiVersion          : 
test filename       : /beegfs/lgouveia/ior_8/testFile1
access              : single-shared-file
type                : independent
segments            : 1
ordering in a file  : sequential
ordering inter file : no tasks offsets
nodes               : 8
tasks               : 64
clients per node    : 8
repetitions         : 1
xfersize            : 1 MiB
blocksize           : 512 MiB
aggregate filesize  : 32 GiB

Results: 
WARNING: The file "/beegfs/lgouveia/ior_8/testFile1" exists already and will be overwritten

access    bw(MiB/s)  IOPS       Latency(s)  block(KiB) xfer(KiB)  open(s)    wr/rd(s)   close(s)   total(s)   iter
------    ---------  ----       ----------  ---------- ---------  --------   --------   --------   --------   ----
write     7559       7561       0.006553    524288     1024.00    0.018946   4.33       3.24       4.34       0   

Summary of all tests:
Operation   Max(MiB)   Min(MiB)  Mean(MiB)     StdDev   Max(OPs)   Min(OPs)  Mean(OPs)     StdDev    Mean(s) Stonewall(s) Stonewall(MiB) Test# #Tasks tPN reps fPP reord reordoff reordrand seed segcnt   blksiz    xsize aggs(MiB)   API RefNum
write        7558.61    7558.61    7558.61       0.00    7558.61    7558.61    7558.61       0.00    4.33519         NA            NA     0     64   8    1   0     0        1         0    0      1 536870912  1048576   32768.0 POSIX      0
Finished            : Tue Jan 18 02:28:15 2022
Tracking /beegfs/lgouveia/ior_8/testFile1...
Tracking /beegfs/lgouveia/ior_8/testFileApp_2...
Tracking /beegfs/lgouveia/ior_8/testFileApp_1...



Writing tracked information to tracker.csv...
IOR-3.4.0+dev: MPI Coordinated Test of Parallel I/O
Began               : Tue Jan 18 02:29:16 2022
Command line        : /home/lgouveia/ior/bin/ior -w -t 1m -b 512m -k -o /beegfs/lgouveia/ior_8/testFile1
Machine             : Linux bora001.plafrim.cluster
TestID              : 0
StartTime           : Tue Jan 18 02:29:16 2022
Path                : /beegfs/lgouveia/ior_8/testFile1
FS                  : 130.9 TiB   Used FS: 36.5%   Inodes: 0.0 Mi   Used Inodes: -nan%

Options: 
api                 : POSIX
apiVersion          : 
test filename       : /beegfs/lgouveia/ior_8/testFile1
access              : single-shared-file
type                : independent
segments            : 1
ordering in a file  : sequential
ordering inter file : no tasks offsets
nodes               : 8
tasks               : 64
clients per node    : 8
repetitions         : 1
xfersize            : 1 MiB
blocksize           : 512 MiB
aggregate filesize  : 32 GiB

Results: 
WARNING: The file "/beegfs/lgouveia/ior_8/testFile1" exists already and will be overwritten

access    bw(MiB/s)  IOPS       Latency(s)  block(KiB) xfer(KiB)  open(s)    wr/rd(s)   close(s)   total(s)   iter
------    ---------  ----       ----------  ---------- ---------  --------   --------   --------   --------   ----
write     7937       7940       0.006875    524288     1024.00    0.015662   4.13       3.40       4.13       0   

Summary of all tests:
Operation   Max(MiB)   Min(MiB)  Mean(MiB)     StdDev   Max(OPs)   Min(OPs)  Mean(OPs)     StdDev    Mean(s) Stonewall(s) Stonewall(MiB) Test# #Tasks tPN reps fPP reord reordoff reordrand seed segcnt   blksiz    xsize aggs(MiB)   API RefNum
write        7937.46    7937.46    7937.46       0.00    7937.46    7937.46    7937.46       0.00    4.12827         NA            NA     0     64   8    1   0     0        1         0    0      1 536870912  1048576   32768.0 POSIX      0
Finished            : Tue Jan 18 02:29:20 2022
Tracking /beegfs/lgouveia/ior_8/testFile1...
Tracking /beegfs/lgouveia/ior_8/testFileApp_2...
Tracking /beegfs/lgouveia/ior_8/testFileApp_1...



Writing tracked information to tracker.csv...
IOR-3.4.0+dev: MPI Coordinated Test of Parallel I/O
Began               : Tue Jan 18 02:30:21 2022
Command line        : /home/lgouveia/ior/bin/ior -w -t 1m -b 512m -k -o /beegfs/lgouveia/ior_8/testFile1
Machine             : Linux bora001.plafrim.cluster
TestID              : 0
StartTime           : Tue Jan 18 02:30:21 2022
Path                : /beegfs/lgouveia/ior_8/testFile1
FS                  : 130.9 TiB   Used FS: 36.5%   Inodes: 0.0 Mi   Used Inodes: -nan%

Options: 
api                 : POSIX
apiVersion          : 
test filename       : /beegfs/lgouveia/ior_8/testFile1
access              : single-shared-file
type                : independent
segments            : 1
ordering in a file  : sequential
ordering inter file : no tasks offsets
nodes               : 8
tasks               : 64
clients per node    : 8
repetitions         : 1
xfersize            : 1 MiB
blocksize           : 512 MiB
aggregate filesize  : 32 GiB

Results: 
WARNING: The file "/beegfs/lgouveia/ior_8/testFile1" exists already and will be overwritten

access    bw(MiB/s)  IOPS       Latency(s)  block(KiB) xfer(KiB)  open(s)    wr/rd(s)   close(s)   total(s)   iter
------    ---------  ----       ----------  ---------- ---------  --------   --------   --------   --------   ----
write     7630       7632       0.006301    524288     1024.00    0.017474   4.29       3.31       4.29       0   

Summary of all tests:
Operation   Max(MiB)   Min(MiB)  Mean(MiB)     StdDev   Max(OPs)   Min(OPs)  Mean(OPs)     StdDev    Mean(s) Stonewall(s) Stonewall(MiB) Test# #Tasks tPN reps fPP reord reordoff reordrand seed segcnt   blksiz    xsize aggs(MiB)   API RefNum
write        7629.51    7629.51    7629.51       0.00    7629.51    7629.51    7629.51       0.00    4.29490         NA            NA     0     64   8    1   0     0        1         0    0      1 536870912  1048576   32768.0 POSIX      0
Finished            : Tue Jan 18 02:30:25 2022
Tracking /beegfs/lgouveia/ior_8/testFile1...
Tracking /beegfs/lgouveia/ior_8/testFileApp_2...
Tracking /beegfs/lgouveia/ior_8/testFileApp_1...



Writing tracked information to tracker.csv...
IOR-3.4.0+dev: MPI Coordinated Test of Parallel I/O
Began               : Tue Jan 18 02:31:27 2022
Command line        : /home/lgouveia/ior/bin/ior -w -t 1m -b 512m -k -o /beegfs/lgouveia/ior_8/testFile1
Machine             : Linux bora001.plafrim.cluster
TestID              : 0
StartTime           : Tue Jan 18 02:31:27 2022
Path                : /beegfs/lgouveia/ior_8/testFile1
FS                  : 130.9 TiB   Used FS: 36.5%   Inodes: 0.0 Mi   Used Inodes: -nan%

Options: 
api                 : POSIX
apiVersion          : 
test filename       : /beegfs/lgouveia/ior_8/testFile1
access              : single-shared-file
type                : independent
segments            : 1
ordering in a file  : sequential
ordering inter file : no tasks offsets
nodes               : 8
tasks               : 64
clients per node    : 8
repetitions         : 1
xfersize            : 1 MiB
blocksize           : 512 MiB
aggregate filesize  : 32 GiB

Results: 
WARNING: The file "/beegfs/lgouveia/ior_8/testFile1" exists already and will be overwritten

access    bw(MiB/s)  IOPS       Latency(s)  block(KiB) xfer(KiB)  open(s)    wr/rd(s)   close(s)   total(s)   iter
------    ---------  ----       ----------  ---------- ---------  --------   --------   --------   --------   ----
write     7266       7268       0.007812    524288     1024.00    0.022261   4.51       3.50       4.51       0   

Summary of all tests:
Operation   Max(MiB)   Min(MiB)  Mean(MiB)     StdDev   Max(OPs)   Min(OPs)  Mean(OPs)     StdDev    Mean(s) Stonewall(s) Stonewall(MiB) Test# #Tasks tPN reps fPP reord reordoff reordrand seed segcnt   blksiz    xsize aggs(MiB)   API RefNum
write        7266.02    7266.02    7266.02       0.00    7266.02    7266.02    7266.02       0.00    4.50976         NA            NA     0     64   8    1   0     0        1         0    0      1 536870912  1048576   32768.0 POSIX      0
Finished            : Tue Jan 18 02:31:31 2022
Tracking /beegfs/lgouveia/ior_8/testFile1...
Tracking /beegfs/lgouveia/ior_8/testFileApp_2...
Tracking /beegfs/lgouveia/ior_8/testFileApp_1...



Writing tracked information to tracker.csv...
IOR-3.4.0+dev: MPI Coordinated Test of Parallel I/O
Began               : Tue Jan 18 02:32:32 2022
Command line        : /home/lgouveia/ior/bin/ior -w -t 1m -b 512m -k -o /beegfs/lgouveia/ior_8/testFile1
Machine             : Linux bora001.plafrim.cluster
TestID              : 0
StartTime           : Tue Jan 18 02:32:32 2022
Path                : /beegfs/lgouveia/ior_8/testFile1
FS                  : 130.9 TiB   Used FS: 36.5%   Inodes: 0.0 Mi   Used Inodes: -nan%

Options: 
api                 : POSIX
apiVersion          : 
test filename       : /beegfs/lgouveia/ior_8/testFile1
access              : single-shared-file
type                : independent
segments            : 1
ordering in a file  : sequential
ordering inter file : no tasks offsets
nodes               : 8
tasks               : 64
clients per node    : 8
repetitions         : 1
xfersize            : 1 MiB
blocksize           : 512 MiB
aggregate filesize  : 32 GiB

Results: 
WARNING: The file "/beegfs/lgouveia/ior_8/testFile1" exists already and will be overwritten

access    bw(MiB/s)  IOPS       Latency(s)  block(KiB) xfer(KiB)  open(s)    wr/rd(s)   close(s)   total(s)   iter
------    ---------  ----       ----------  ---------- ---------  --------   --------   --------   --------   ----
write     7257       7259       0.006702    524288     1024.00    0.008265   4.51       3.40       4.52       0   

Summary of all tests:
Operation   Max(MiB)   Min(MiB)  Mean(MiB)     StdDev   Max(OPs)   Min(OPs)  Mean(OPs)     StdDev    Mean(s) Stonewall(s) Stonewall(MiB) Test# #Tasks tPN reps fPP reord reordoff reordrand seed segcnt   blksiz    xsize aggs(MiB)   API RefNum
write        7257.14    7257.14    7257.14       0.00    7257.14    7257.14    7257.14       0.00    4.51528         NA            NA     0     64   8    1   0     0        1         0    0      1 536870912  1048576   32768.0 POSIX      0
Finished            : Tue Jan 18 02:32:37 2022
Tracking /beegfs/lgouveia/ior_8/testFile1...
Tracking /beegfs/lgouveia/ior_8/testFileApp_2...
Tracking /beegfs/lgouveia/ior_8/testFileApp_1...



Writing tracked information to tracker.csv...
IOR-3.4.0+dev: MPI Coordinated Test of Parallel I/O
Began               : Tue Jan 18 02:33:38 2022
Command line        : /home/lgouveia/ior/bin/ior -w -t 1m -b 512m -k -o /beegfs/lgouveia/ior_8/testFile1
Machine             : Linux bora001.plafrim.cluster
TestID              : 0
StartTime           : Tue Jan 18 02:33:38 2022
Path                : /beegfs/lgouveia/ior_8/testFile1
FS                  : 130.9 TiB   Used FS: 36.5%   Inodes: 0.0 Mi   Used Inodes: -nan%

Options: 
api                 : POSIX
apiVersion          : 
test filename       : /beegfs/lgouveia/ior_8/testFile1
access              : single-shared-file
type                : independent
segments            : 1
ordering in a file  : sequential
ordering inter file : no tasks offsets
nodes               : 8
tasks               : 64
clients per node    : 8
repetitions         : 1
xfersize            : 1 MiB
blocksize           : 512 MiB
aggregate filesize  : 32 GiB

Results: 
WARNING: The file "/beegfs/lgouveia/ior_8/testFile1" exists already and will be overwritten

access    bw(MiB/s)  IOPS       Latency(s)  block(KiB) xfer(KiB)  open(s)    wr/rd(s)   close(s)   total(s)   iter
------    ---------  ----       ----------  ---------- ---------  --------   --------   --------   --------   ----
write     7923       7926       0.007046    524288     1024.00    0.009015   4.13       3.45       4.14       0   

Summary of all tests:
Operation   Max(MiB)   Min(MiB)  Mean(MiB)     StdDev   Max(OPs)   Min(OPs)  Mean(OPs)     StdDev    Mean(s) Stonewall(s) Stonewall(MiB) Test# #Tasks tPN reps fPP reord reordoff reordrand seed segcnt   blksiz    xsize aggs(MiB)   API RefNum
write        7923.33    7923.33    7923.33       0.00    7923.33    7923.33    7923.33       0.00    4.13563         NA            NA     0     64   8    1   0     0        1         0    0      1 536870912  1048576   32768.0 POSIX      0
Finished            : Tue Jan 18 02:33:42 2022
Tracking /beegfs/lgouveia/ior_8/testFile1...
Tracking /beegfs/lgouveia/ior_8/testFileApp_2...
Tracking /beegfs/lgouveia/ior_8/testFileApp_1...



Writing tracked information to tracker.csv...
IOR-3.4.0+dev: MPI Coordinated Test of Parallel I/O
Began               : Tue Jan 18 02:34:43 2022
Command line        : /home/lgouveia/ior/bin/ior -w -t 1m -b 512m -k -o /beegfs/lgouveia/ior_8/testFile1
Machine             : Linux bora001.plafrim.cluster
TestID              : 0
StartTime           : Tue Jan 18 02:34:43 2022
Path                : /beegfs/lgouveia/ior_8/testFile1
FS                  : 130.9 TiB   Used FS: 36.5%   Inodes: 0.0 Mi   Used Inodes: -nan%

Options: 
api                 : POSIX
apiVersion          : 
test filename       : /beegfs/lgouveia/ior_8/testFile1
access              : single-shared-file
type                : independent
segments            : 1
ordering in a file  : sequential
ordering inter file : no tasks offsets
nodes               : 8
tasks               : 64
clients per node    : 8
repetitions         : 1
xfersize            : 1 MiB
blocksize           : 512 MiB
aggregate filesize  : 32 GiB

Results: 
WARNING: The file "/beegfs/lgouveia/ior_8/testFile1" exists already and will be overwritten

access    bw(MiB/s)  IOPS       Latency(s)  block(KiB) xfer(KiB)  open(s)    wr/rd(s)   close(s)   total(s)   iter
------    ---------  ----       ----------  ---------- ---------  --------   --------   --------   --------   ----
write     7180       7183       0.006891    524288     1024.00    0.014136   4.56       3.37       4.56       0   

Summary of all tests:
Operation   Max(MiB)   Min(MiB)  Mean(MiB)     StdDev   Max(OPs)   Min(OPs)  Mean(OPs)     StdDev    Mean(s) Stonewall(s) Stonewall(MiB) Test# #Tasks tPN reps fPP reord reordoff reordrand seed segcnt   blksiz    xsize aggs(MiB)   API RefNum
write        7180.46    7180.46    7180.46       0.00    7180.46    7180.46    7180.46       0.00    4.56350         NA            NA     0     64   8    1   0     0        1         0    0      1 536870912  1048576   32768.0 POSIX      0
Finished            : Tue Jan 18 02:34:48 2022
Tracking /beegfs/lgouveia/ior_8/testFile1...
Tracking /beegfs/lgouveia/ior_8/testFileApp_2...
Tracking /beegfs/lgouveia/ior_8/testFileApp_1...



Writing tracked information to tracker.csv...
IOR-3.4.0+dev: MPI Coordinated Test of Parallel I/O
Began               : Tue Jan 18 02:35:49 2022
Command line        : /home/lgouveia/ior/bin/ior -w -t 1m -b 512m -k -o /beegfs/lgouveia/ior_8/testFile1
Machine             : Linux bora001.plafrim.cluster
TestID              : 0
StartTime           : Tue Jan 18 02:35:49 2022
Path                : /beegfs/lgouveia/ior_8/testFile1
FS                  : 130.9 TiB   Used FS: 36.5%   Inodes: 0.0 Mi   Used Inodes: -nan%

Options: 
api                 : POSIX
apiVersion          : 
test filename       : /beegfs/lgouveia/ior_8/testFile1
access              : single-shared-file
type                : independent
segments            : 1
ordering in a file  : sequential
ordering inter file : no tasks offsets
nodes               : 8
tasks               : 64
clients per node    : 8
repetitions         : 1
xfersize            : 1 MiB
blocksize           : 512 MiB
aggregate filesize  : 32 GiB

Results: 
WARNING: The file "/beegfs/lgouveia/ior_8/testFile1" exists already and will be overwritten

access    bw(MiB/s)  IOPS       Latency(s)  block(KiB) xfer(KiB)  open(s)    wr/rd(s)   close(s)   total(s)   iter
------    ---------  ----       ----------  ---------- ---------  --------   --------   --------   --------   ----
write     7803       7805       0.007840    524288     1024.00    0.007343   4.20       3.62       4.20       0   

Summary of all tests:
Operation   Max(MiB)   Min(MiB)  Mean(MiB)     StdDev   Max(OPs)   Min(OPs)  Mean(OPs)     StdDev    Mean(s) Stonewall(s) Stonewall(MiB) Test# #Tasks tPN reps fPP reord reordoff reordrand seed segcnt   blksiz    xsize aggs(MiB)   API RefNum
write        7802.77    7802.77    7802.77       0.00    7802.77    7802.77    7802.77       0.00    4.19954         NA            NA     0     64   8    1   0     0        1         0    0      1 536870912  1048576   32768.0 POSIX      0
Finished            : Tue Jan 18 02:35:53 2022
Tracking /beegfs/lgouveia/ior_8/testFile1...
Tracking /beegfs/lgouveia/ior_8/testFileApp_2...
Tracking /beegfs/lgouveia/ior_8/testFileApp_1...



Writing tracked information to tracker.csv...
IOR-3.4.0+dev: MPI Coordinated Test of Parallel I/O
Began               : Tue Jan 18 02:36:54 2022
Command line        : /home/lgouveia/ior/bin/ior -w -t 1m -b 512m -k -o /beegfs/lgouveia/ior_8/testFile1
Machine             : Linux bora001.plafrim.cluster
TestID              : 0
StartTime           : Tue Jan 18 02:36:54 2022
Path                : /beegfs/lgouveia/ior_8/testFile1
FS                  : 130.9 TiB   Used FS: 36.5%   Inodes: 0.0 Mi   Used Inodes: -nan%

Options: 
api                 : POSIX
apiVersion          : 
test filename       : /beegfs/lgouveia/ior_8/testFile1
access              : single-shared-file
type                : independent
segments            : 1
ordering in a file  : sequential
ordering inter file : no tasks offsets
nodes               : 8
tasks               : 64
clients per node    : 8
repetitions         : 1
xfersize            : 1 MiB
blocksize           : 512 MiB
aggregate filesize  : 32 GiB

Results: 
WARNING: The file "/beegfs/lgouveia/ior_8/testFile1" exists already and will be overwritten

access    bw(MiB/s)  IOPS       Latency(s)  block(KiB) xfer(KiB)  open(s)    wr/rd(s)   close(s)   total(s)   iter
------    ---------  ----       ----------  ---------- ---------  --------   --------   --------   --------   ----
write     7039       7041       0.007106    524288     1024.00    0.015737   4.65       3.57       4.66       0   

Summary of all tests:
Operation   Max(MiB)   Min(MiB)  Mean(MiB)     StdDev   Max(OPs)   Min(OPs)  Mean(OPs)     StdDev    Mean(s) Stonewall(s) Stonewall(MiB) Test# #Tasks tPN reps fPP reord reordoff reordrand seed segcnt   blksiz    xsize aggs(MiB)   API RefNum
write        7039.07    7039.07    7039.07       0.00    7039.07    7039.07    7039.07       0.00    4.65516         NA            NA     0     64   8    1   0     0        1         0    0      1 536870912  1048576   32768.0 POSIX      0
Finished            : Tue Jan 18 02:36:59 2022
Tracking /beegfs/lgouveia/ior_8/testFile1...
Tracking /beegfs/lgouveia/ior_8/testFileApp_2...
Tracking /beegfs/lgouveia/ior_8/testFileApp_1...



Writing tracked information to tracker.csv...
