tracker_id,tracker_timestamp,file,size,ctime,mtime,storage_targets
34932b66,1639471991.259626,/beegfs/lgouveia/ior_4/testFile1,137438953472,1639471989.0,1639471989.0,103 201 104 102
cf81a25b,1639472141.573914,/beegfs/lgouveia/ior_4/testFile1,137438953472,1639472141.0,1639472141.0,103 102 104 201
1ab09c65,1639472291.810748,/beegfs/lgouveia/ior_4/testFile1,137438953472,1639472291.0,1639472291.0,103 201 104 102
09fdd79d,1639472441.992074,/beegfs/lgouveia/ior_4/testFile1,137438953472,1639472441.0,1639472441.0,102 104 201 103
4083e4f4,1639472592.655394,/beegfs/lgouveia/ior_4/testFile1,137438953472,1639472592.0,1639472592.0,204 202 101 203
4be7bf03,1639472743.403124,/beegfs/lgouveia/ior_4/testFile1,137438953472,1639472743.0,1639472743.0,202 203 204 101
b3d7e977,1639472893.841512,/beegfs/lgouveia/ior_4/testFile1,137438953472,1639472893.0,1639472893.0,202 101 204 203
9508d9d9,1639473043.762167,/beegfs/lgouveia/ior_4/testFile1,137438953472,1639473043.0,1639473043.0,101 204 202 203
3357b795,1639473195.676093,/beegfs/lgouveia/ior_4/testFile1,137438953472,1639473195.0,1639473195.0,102 201 103 104
929e097b,1639473347.896599,/beegfs/lgouveia/ior_4/testFile1,137438953472,1639473347.0,1639473347.0,103 102 201 104
ae4b9ade,1639473671.738827,/beegfs/lgouveia/ior_4/testFile1,137438953472,1639473669.0,1639473669.0,104 103 201 102
75fd09b4,1639473821.688762,/beegfs/lgouveia/ior_4/testFile1,137438953472,1639473821.0,1639473821.0,102 201 103 104
545b16d3,1639473971.759993,/beegfs/lgouveia/ior_4/testFile1,137438953472,1639473971.0,1639473971.0,201 103 102 104
10ff1714,1639474121.775363,/beegfs/lgouveia/ior_4/testFile1,137438953472,1639474121.0,1639474121.0,201 104 102 103
1328b4f6,1639474272.157317,/beegfs/lgouveia/ior_4/testFile1,137438953472,1639474271.0,1639474271.0,101 203 204 202
28d17765,1639474422.585061,/beegfs/lgouveia/ior_4/testFile1,137438953472,1639474422.0,1639474422.0,103 201 104 102
2bcf1ef3,1639474572.956326,/beegfs/lgouveia/ior_4/testFile1,137438953472,1639474572.0,1639474572.0,202 101 204 203
3569f7c1,1639474723.498523,/beegfs/lgouveia/ior_4/testFile1,137438953472,1639474723.0,1639474723.0,101 203 202 204
e35902b6,1639474874.2157,/beegfs/lgouveia/ior_4/testFile1,137438953472,1639474873.0,1639474873.0,104 103 102 201
612009cb,1639475024.426132,/beegfs/lgouveia/ior_4/testFile1,137438953472,1639475024.0,1639475024.0,103 201 102 104
b784aba7,1639475261.013482,/beegfs/lgouveia/ior_4/testFile1,137438953472,1639475259.0,1639475259.0,101 204 203 202
41485c92,1639475410.638558,/beegfs/lgouveia/ior_4/testFile1,137438953472,1639475410.0,1639475410.0,201 102 104 103
edd243c3,1639475560.370425,/beegfs/lgouveia/ior_4/testFile1,137438953472,1639475560.0,1639475560.0,203 101 204 202
ff8beadf,1639475710.250878,/beegfs/lgouveia/ior_4/testFile1,137438953472,1639475709.0,1639475709.0,103 102 104 201
23055024,1639475860.026597,/beegfs/lgouveia/ior_4/testFile1,137438953472,1639475859.0,1639475859.0,101 203 204 202
406011f8,1639476009.785607,/beegfs/lgouveia/ior_4/testFile1,137438953472,1639476009.0,1639476009.0,101 204 203 202
af0bd057,1639476159.672995,/beegfs/lgouveia/ior_4/testFile1,137438953472,1639476159.0,1639476159.0,202 203 101 204
f7bfcf2e,1639476309.028204,/beegfs/lgouveia/ior_4/testFile1,137438953472,1639476308.0,1639476308.0,203 204 101 202
093b0c76,1639476458.887702,/beegfs/lgouveia/ior_4/testFile1,137438953472,1639476458.0,1639476458.0,101 204 203 202
567aec5e,1639476608.554288,/beegfs/lgouveia/ior_4/testFile1,137438953472,1639476608.0,1639476608.0,102 104 201 103
14abeb5f,1639477061.956587,/beegfs/lgouveia/ior_4/testFile1,137438953472,1639477060.0,1639477060.0,103 104 201 102
408eb1b8,1639477213.417971,/beegfs/lgouveia/ior_4/testFile1,137438953472,1639477213.0,1639477213.0,201 102 103 104
876938fe,1639477363.33531,/beegfs/lgouveia/ior_4/testFile1,137438953472,1639477363.0,1639477363.0,202 101 204 203
95849c46,1639477512.968582,/beegfs/lgouveia/ior_4/testFile1,137438953472,1639477512.0,1639477512.0,202 204 203 101
96e3c821,1639477663.999425,/beegfs/lgouveia/ior_4/testFile1,137438953472,1639477663.0,1639477663.0,104 201 103 102
a77d0506,1639477814.577681,/beegfs/lgouveia/ior_4/testFile1,137438953472,1639477814.0,1639477814.0,102 201 103 104
fa93dfcf,1639477964.288432,/beegfs/lgouveia/ior_4/testFile1,137438953472,1639477964.0,1639477964.0,203 202 101 204
8a0dc77c,1639478116.877605,/beegfs/lgouveia/ior_4/testFile1,137438953472,1639478116.0,1639478116.0,104 201 102 103
5fc09109,1639478268.122084,/beegfs/lgouveia/ior_4/testFile1,137438953472,1639478267.0,1639478267.0,102 103 201 104
1fcb5574,1639478417.952246,/beegfs/lgouveia/ior_4/testFile1,137438953472,1639478417.0,1639478417.0,202 204 101 203
48783908,1639479162.986492,/beegfs/lgouveia/ior_4/testFile1,137438953472,1639479161.0,1639479161.0,103 201 102 104
01c40fea,1639479313.421331,/beegfs/lgouveia/ior_4/testFile1,137438953472,1639479313.0,1639479313.0,202 204 101 203
5f80f1f0,1639479463.510475,/beegfs/lgouveia/ior_4/testFile1,137438953472,1639479463.0,1639479463.0,101 203 204 202
ad9caf93,1639479614.864997,/beegfs/lgouveia/ior_4/testFile1,137438953472,1639479614.0,1639479614.0,102 104 103 201
b4019e34,1639479772.614984,/beegfs/lgouveia/ior_4/testFile1,137438953472,1639479772.0,1639479772.0,104 103 102 201
b5290b24,1639479924.003827,/beegfs/lgouveia/ior_4/testFile1,137438953472,1639479923.0,1639479923.0,102 103 104 201
da1cd5d9,1639480075.934198,/beegfs/lgouveia/ior_4/testFile1,137438953472,1639480075.0,1639480075.0,103 104 102 201
3c6700d6,1639480226.38474,/beegfs/lgouveia/ior_4/testFile1,137438953472,1639480226.0,1639480226.0,103 102 104 201
1c02a35b,1639480377.147903,/beegfs/lgouveia/ior_4/testFile1,137438953472,1639480376.0,1639480376.0,201 104 102 103
3d2156fa,1639480527.738507,/beegfs/lgouveia/ior_4/testFile1,137438953472,1639480527.0,1639480527.0,203 202 204 101
b1ecf7c0,1639481263.373002,/beegfs/lgouveia/ior_4/testFile1,137438953472,1639481260.0,1639481260.0,104 201 102 103
04529a06,1639481414.975829,/beegfs/lgouveia/ior_4/testFile1,137438953472,1639481414.0,1639481414.0,203 101 202 204
a4c0b4fd,1639481565.661567,/beegfs/lgouveia/ior_4/testFile1,137438953472,1639481565.0,1639481565.0,102 103 201 104
2d0e8630,1639481716.383573,/beegfs/lgouveia/ior_4/testFile1,137438953472,1639481716.0,1639481716.0,103 104 201 102
aea0c368,1639481867.50449,/beegfs/lgouveia/ior_4/testFile1,137438953472,1639481867.0,1639481867.0,201 103 104 102
45c8c75f,1639482021.845649,/beegfs/lgouveia/ior_4/testFile1,137438953472,1639482021.0,1639482021.0,202 101 204 203
9582401e,1639482176.215743,/beegfs/lgouveia/ior_4/testFile1,137438953472,1639482173.0,1639482173.0,202 203 101 204
e83f0deb,1639482328.922628,/beegfs/lgouveia/ior_4/testFile1,137438953472,1639482328.0,1639482328.0,103 102 201 104
6ff2ae19,1639482479.273665,/beegfs/lgouveia/ior_4/testFile1,137438953472,1639482479.0,1639482479.0,102 103 104 201
00bcf4e7,1639482629.454674,/beegfs/lgouveia/ior_4/testFile1,137438953472,1639482629.0,1639482629.0,203 101 202 204
df0a82a5,1639483031.931563,/beegfs/lgouveia/ior_4/testFile1,137438953472,1639483030.0,1639483030.0,201 104 102 103
77aeb31b,1639483183.0839,/beegfs/lgouveia/ior_4/testFile1,137438953472,1639483182.0,1639483182.0,104 102 201 103
b80a321d,1639483335.106944,/beegfs/lgouveia/ior_4/testFile1,137438953472,1639483334.0,1639483334.0,204 101 202 203
2d0c3171,1639483485.728746,/beegfs/lgouveia/ior_4/testFile1,137438953472,1639483485.0,1639483485.0,203 101 202 204
a0122455,1639483638.617378,/beegfs/lgouveia/ior_4/testFile1,137438953472,1639483638.0,1639483638.0,103 102 201 104
73bb0bd8,1639483788.88137,/beegfs/lgouveia/ior_4/testFile1,137438953472,1639483788.0,1639483788.0,201 103 104 102
29890c74,1639483939.938183,/beegfs/lgouveia/ior_4/testFile1,137438953472,1639483939.0,1639483939.0,103 104 102 201
6a64e170,1639484090.406822,/beegfs/lgouveia/ior_4/testFile1,137438953472,1639484090.0,1639484090.0,104 201 102 103
adf2c57b,1639484241.641995,/beegfs/lgouveia/ior_4/testFile1,137438953472,1639484241.0,1639484241.0,203 101 202 204
ab0cde8a,1639484392.293196,/beegfs/lgouveia/ior_4/testFile1,137438953472,1639484392.0,1639484392.0,202 203 204 101
931ce5fa,1639485013.079653,/beegfs/lgouveia/ior_4/testFile1,137438953472,1639485011.0,1639485011.0,203 101 204 202
8741c39e,1639485163.86743,/beegfs/lgouveia/ior_4/testFile1,137438953472,1639485163.0,1639485163.0,201 103 102 104
9635c6f9,1639485314.359114,/beegfs/lgouveia/ior_4/testFile1,137438953472,1639485314.0,1639485314.0,104 102 103 201
7a978137,1639485464.682494,/beegfs/lgouveia/ior_4/testFile1,137438953472,1639485464.0,1639485464.0,201 103 102 104
2c156a76,1639485615.191508,/beegfs/lgouveia/ior_4/testFile1,137438953472,1639485614.0,1639485614.0,104 103 201 102
54636262,1639485764.73276,/beegfs/lgouveia/ior_4/testFile1,137438953472,1639485764.0,1639485764.0,203 101 204 202
6b004248,1639485914.520954,/beegfs/lgouveia/ior_4/testFile1,137438953472,1639485914.0,1639485914.0,204 101 202 203
0b287861,1639486064.216371,/beegfs/lgouveia/ior_4/testFile1,137438953472,1639486063.0,1639486063.0,204 202 101 203
de5aa612,1639486214.946043,/beegfs/lgouveia/ior_4/testFile1,137438953472,1639486214.0,1639486214.0,104 102 103 201
8c7fd1ee,1639486365.406702,/beegfs/lgouveia/ior_4/testFile1,137438953472,1639486365.0,1639486365.0,201 102 103 104
c13316ec,1639486906.159725,/beegfs/lgouveia/ior_4/testFile1,137438953472,1639486903.0,1639486903.0,103 104 201 102
1d87b108,1639487056.005878,/beegfs/lgouveia/ior_4/testFile1,137438953472,1639487055.0,1639487055.0,203 202 204 101
3b519ab8,1639487205.963129,/beegfs/lgouveia/ior_4/testFile1,137438953472,1639487205.0,1639487205.0,104 102 103 201
39420119,1639487356.77974,/beegfs/lgouveia/ior_4/testFile1,137438953472,1639487356.0,1639487356.0,104 103 201 102
e905f2c7,1639487507.614976,/beegfs/lgouveia/ior_4/testFile1,137438953472,1639487507.0,1639487507.0,102 104 103 201
d8df566b,1639487657.347255,/beegfs/lgouveia/ior_4/testFile1,137438953472,1639487657.0,1639487657.0,203 202 101 204
41ab6974,1639487808.034399,/beegfs/lgouveia/ior_4/testFile1,137438953472,1639487807.0,1639487807.0,104 102 201 103
82798b2d,1639487959.134853,/beegfs/lgouveia/ior_4/testFile1,137438953472,1639487958.0,1639487958.0,103 104 201 102
a3d0b0fe,1639488110.053652,/beegfs/lgouveia/ior_4/testFile1,137438953472,1639488109.0,1639488109.0,204 203 202 101
ad38478a,1639488259.342309,/beegfs/lgouveia/ior_4/testFile1,137438953472,1639488259.0,1639488259.0,101 204 203 202
b0e117a9,1639489008.83217,/beegfs/lgouveia/ior_4/testFile1,137438953472,1639489006.0,1639489006.0,103 104 102 201
1b49291d,1639489169.074045,/beegfs/lgouveia/ior_4/testFile1,137438953472,1639489161.0,1639489161.0,104 201 103 102
7b8f6cde,1639489321.4274,/beegfs/lgouveia/ior_4/testFile1,137438953472,1639489321.0,1639489321.0,102 103 201 104
7fa28ad3,1639489473.690519,/beegfs/lgouveia/ior_4/testFile1,137438953472,1639489473.0,1639489473.0,104 103 201 102
40a28f3e,1639489623.260577,/beegfs/lgouveia/ior_4/testFile1,137438953472,1639489622.0,1639489622.0,204 101 202 203
3d8f18a4,1639489774.940887,/beegfs/lgouveia/ior_4/testFile1,137438953472,1639489774.0,1639489774.0,104 103 201 102
8079d16e,1639489924.701131,/beegfs/lgouveia/ior_4/testFile1,137438953472,1639489924.0,1639489924.0,204 101 203 202
58e20dcb,1639490076.09554,/beegfs/lgouveia/ior_4/testFile1,137438953472,1639490075.0,1639490075.0,201 103 102 104
de2ff234,1639490226.189637,/beegfs/lgouveia/ior_4/testFile1,137438953472,1639490225.0,1639490225.0,202 204 203 101
5b36db30,1639490376.463316,/beegfs/lgouveia/ior_4/testFile1,137438953472,1639490376.0,1639490376.0,203 204 101 202
