tracker_id,tracker_timestamp,file,size,ctime,mtime,storage_targets
c10b09ff,1625812930.387589,/beegfs/lgouveia/ior_4/testFile1,34359738368,1625812927.0,1625812927.0,102 104 201 103
3ebc7077,1625813028.089,/beegfs/lgouveia/ior_4/testFile1,34359738368,1625813027.0,1625813027.0,102 104 103 201
825e757e,1625813126.104755,/beegfs/lgouveia/ior_4/testFile1,34359738368,1625813125.0,1625813125.0,202 204 203 101
8d37b392,1625813223.287353,/beegfs/lgouveia/ior_4/testFile1,34359738368,1625813223.0,1625813223.0,102 104 103 201
f64d4814,1625813320.916915,/beegfs/lgouveia/ior_4/testFile1,34359738368,1625813320.0,1625813320.0,204 203 101 202
5386b3d4,1625813418.266562,/beegfs/lgouveia/ior_4/testFile1,34359738368,1625813418.0,1625813418.0,102 104 201 103
e8118b08,1625813515.7758,/beegfs/lgouveia/ior_4/testFile1,34359738368,1625813515.0,1625813515.0,104 102 103 201
7e7380e9,1625813613.813469,/beegfs/lgouveia/ior_4/testFile1,34359738368,1625813613.0,1625813613.0,102 104 201 103
6e5d8501,1625813711.38615,/beegfs/lgouveia/ior_4/testFile1,34359738368,1625813711.0,1625813711.0,202 204 101 203
c316c974,1625813809.07343,/beegfs/lgouveia/ior_4/testFile1,34359738368,1625813808.0,1625813808.0,204 101 202 203
27d7b676,1625814190.971001,/beegfs/lgouveia/ior_4/testFile1,34359738368,1625814188.0,1625814188.0,102 104 201 103
606a6da0,1625814288.754404,/beegfs/lgouveia/ior_4/testFile1,34359738368,1625814288.0,1625814288.0,103 104 201 102
fb6fc581,1625814386.794749,/beegfs/lgouveia/ior_4/testFile1,34359738368,1625814386.0,1625814386.0,102 103 201 104
04cbf582,1625814485.173571,/beegfs/lgouveia/ior_4/testFile1,34359738368,1625814484.0,1625814484.0,103 201 104 102
5b87c21c,1625814582.96346,/beegfs/lgouveia/ior_4/testFile1,34359738368,1625814582.0,1625814582.0,201 102 104 103
813e7fbf,1625814680.082378,/beegfs/lgouveia/ior_4/testFile1,34359738368,1625814679.0,1625814679.0,201 103 102 104
93fdebab,1625814777.446859,/beegfs/lgouveia/ior_4/testFile1,34359738368,1625814777.0,1625814777.0,104 201 103 102
5f604a2a,1625814874.815002,/beegfs/lgouveia/ior_4/testFile1,34359738368,1625814874.0,1625814874.0,101 203 202 204
a554e37d,1625814971.797009,/beegfs/lgouveia/ior_4/testFile1,34359738368,1625814971.0,1625814971.0,101 203 204 202
4b8c6753,1625815068.615672,/beegfs/lgouveia/ior_4/testFile1,34359738368,1625815068.0,1625815068.0,103 201 104 102
739289bf,1625815553.785843,/beegfs/lgouveia/ior_4/testFile1,34359738368,1625815551.0,1625815551.0,103 104 102 201
d6265bb8,1625815650.893954,/beegfs/lgouveia/ior_4/testFile1,34359738368,1625815650.0,1625815650.0,204 101 203 202
7ec1335b,1625815748.28991,/beegfs/lgouveia/ior_4/testFile1,34359738368,1625815748.0,1625815748.0,101 203 202 204
7e765ea3,1625815845.20592,/beegfs/lgouveia/ior_4/testFile1,34359738368,1625815844.0,1625815844.0,203 202 204 101
b5774af0,1625815942.415698,/beegfs/lgouveia/ior_4/testFile1,34359738368,1625815942.0,1625815942.0,203 204 101 202
f075df8a,1625816040.943888,/beegfs/lgouveia/ior_4/testFile1,34359738368,1625816040.0,1625816040.0,201 104 103 102
38d23987,1625816138.110529,/beegfs/lgouveia/ior_4/testFile1,34359738368,1625816137.0,1625816137.0,201 102 104 103
336c183e,1625816234.973635,/beegfs/lgouveia/ior_4/testFile1,34359738368,1625816234.0,1625816234.0,203 202 204 101
2954f05a,1625816332.475892,/beegfs/lgouveia/ior_4/testFile1,34359738368,1625816332.0,1625816332.0,103 102 201 104
9b393c12,1625816429.278221,/beegfs/lgouveia/ior_4/testFile1,34359738368,1625816429.0,1625816429.0,203 204 101 202
a8624ebb,1625817006.266733,/beegfs/lgouveia/ior_4/testFile1,34359738368,1625817001.0,1625817001.0,201 102 103 104
3d961cc4,1625817103.51718,/beegfs/lgouveia/ior_4/testFile1,34359738368,1625817103.0,1625817103.0,203 101 202 204
d5696d37,1625817201.01208,/beegfs/lgouveia/ior_4/testFile1,34359738368,1625817200.0,1625817200.0,201 102 103 104
336044e7,1625817298.374841,/beegfs/lgouveia/ior_4/testFile1,34359738368,1625817298.0,1625817298.0,103 104 201 102
6ea87ece,1625817397.803429,/beegfs/lgouveia/ior_4/testFile1,34359738368,1625817397.0,1625817397.0,204 203 202 101
1b63f55e,1625817495.206291,/beegfs/lgouveia/ior_4/testFile1,34359738368,1625817494.0,1625817494.0,203 101 204 202
21761ab9,1625817592.695545,/beegfs/lgouveia/ior_4/testFile1,34359738368,1625817592.0,1625817592.0,202 203 101 204
2e83fc2d,1625817690.540184,/beegfs/lgouveia/ior_4/testFile1,34359738368,1625817690.0,1625817690.0,103 102 201 104
3a243158,1625817788.116063,/beegfs/lgouveia/ior_4/testFile1,34359738368,1625817787.0,1625817787.0,201 104 102 103
f4bee012,1625817887.307437,/beegfs/lgouveia/ior_4/testFile1,34359738368,1625817887.0,1625817887.0,103 102 104 201
75f7b4e1,1625822233.263232,/beegfs/lgouveia/ior_4/testFile1,34359738368,1625822230.0,1625822230.0,204 101 203 202
0f7d2cfa,1625822330.98036,/beegfs/lgouveia/ior_4/testFile1,34359738368,1625822330.0,1625822330.0,101 204 203 202
5000fc91,1625822428.366186,/beegfs/lgouveia/ior_4/testFile1,34359738368,1625822428.0,1625822428.0,202 204 101 203
941375a1,1625822525.561594,/beegfs/lgouveia/ior_4/testFile1,34359738368,1625822525.0,1625822525.0,203 202 101 204
953f25f8,1625822623.702822,/beegfs/lgouveia/ior_4/testFile1,34359738368,1625822623.0,1625822623.0,104 201 102 103
d80fb422,1625822720.983984,/beegfs/lgouveia/ior_4/testFile1,34359738368,1625822720.0,1625822720.0,101 202 204 203
e0288d91,1625822818.404875,/beegfs/lgouveia/ior_4/testFile1,34359738368,1625822818.0,1625822818.0,204 203 101 202
37f0176f,1625822915.83284,/beegfs/lgouveia/ior_4/testFile1,34359738368,1625822915.0,1625822915.0,202 203 101 204
b633304f,1625823013.628392,/beegfs/lgouveia/ior_4/testFile1,34359738368,1625823013.0,1625823013.0,104 102 201 103
61292212,1625823111.187352,/beegfs/lgouveia/ior_4/testFile1,34359738368,1625823110.0,1625823110.0,104 201 103 102
6923d306,1625835943.844346,/beegfs/lgouveia/ior_4/testFile1,34359738368,1625835940.0,1625835940.0,102 201 104 103
4c4d2fca,1625836094.27554,/beegfs/lgouveia/ior_4/testFile1,34359738368,1625836094.0,1625836094.0,103 104 201 102
5c461faa,1625836192.543021,/beegfs/lgouveia/ior_4/testFile1,34359738368,1625836192.0,1625836192.0,103 104 102 201
2142f21b,1625836290.104769,/beegfs/lgouveia/ior_4/testFile1,34359738368,1625836289.0,1625836289.0,101 204 202 203
9c3a0b4a,1625836387.600157,/beegfs/lgouveia/ior_4/testFile1,34359738368,1625836387.0,1625836387.0,104 102 103 201
c4da2f7b,1625836487.013923,/beegfs/lgouveia/ior_4/testFile1,34359738368,1625836486.0,1625836486.0,102 104 103 201
d0a2529e,1625836584.825892,/beegfs/lgouveia/ior_4/testFile1,34359738368,1625836584.0,1625836584.0,104 102 201 103
f9a20128,1625836683.116327,/beegfs/lgouveia/ior_4/testFile1,34359738368,1625836682.0,1625836682.0,201 104 102 103
24a18c20,1625836781.30211,/beegfs/lgouveia/ior_4/testFile1,34359738368,1625836781.0,1625836781.0,204 203 202 101
f26495f5,1625836879.01176,/beegfs/lgouveia/ior_4/testFile1,34359738368,1625836878.0,1625836878.0,104 201 103 102
f5706c86,1625837268.270519,/beegfs/lgouveia/ior_4/testFile1,34359738368,1625837266.0,1625837266.0,203 204 202 101
c87c7223,1625837366.639323,/beegfs/lgouveia/ior_4/testFile1,34359738368,1625837366.0,1625837366.0,103 102 201 104
a43aa341,1625837464.103451,/beegfs/lgouveia/ior_4/testFile1,34359738368,1625837463.0,1625837463.0,103 201 102 104
0ac978e8,1625837561.950918,/beegfs/lgouveia/ior_4/testFile1,34359738368,1625837561.0,1625837561.0,203 204 202 101
d844ffed,1625837661.559078,/beegfs/lgouveia/ior_4/testFile1,34359738368,1625837661.0,1625837661.0,104 103 102 201
5266ce35,1625837759.725404,/beegfs/lgouveia/ior_4/testFile1,34359738368,1625837759.0,1625837759.0,103 102 201 104
8010ce55,1625837857.301798,/beegfs/lgouveia/ior_4/testFile1,34359738368,1625837857.0,1625837857.0,102 103 104 201
aa80122e,1625837955.235121,/beegfs/lgouveia/ior_4/testFile1,34359738368,1625837954.0,1625837954.0,203 204 101 202
9ef5095b,1625838052.308024,/beegfs/lgouveia/ior_4/testFile1,34359738368,1625838052.0,1625838052.0,102 104 103 201
a0dc028d,1625838149.365989,/beegfs/lgouveia/ior_4/testFile1,34359738368,1625838149.0,1625838149.0,102 104 103 201
7add34a6,1625838456.29054,/beegfs/lgouveia/ior_4/testFile1,34359738368,1625838453.0,1625838453.0,202 101 204 203
ccee7af3,1625838553.623377,/beegfs/lgouveia/ior_4/testFile1,34359738368,1625838553.0,1625838553.0,103 102 104 201
ef02e8aa,1625838651.032596,/beegfs/lgouveia/ior_4/testFile1,34359738368,1625838650.0,1625838650.0,103 102 201 104
6cc84840,1625838748.840555,/beegfs/lgouveia/ior_4/testFile1,34359738368,1625838748.0,1625838748.0,101 202 204 203
bf141211,1625838846.63035,/beegfs/lgouveia/ior_4/testFile1,34359738368,1625838846.0,1625838846.0,203 101 204 202
55312d7c,1625838943.940763,/beegfs/lgouveia/ior_4/testFile1,34359738368,1625838943.0,1625838943.0,204 202 101 203
a8a24f79,1625839041.753125,/beegfs/lgouveia/ior_4/testFile1,34359738368,1625839041.0,1625839041.0,203 101 202 204
e6153c85,1625839138.742776,/beegfs/lgouveia/ior_4/testFile1,34359738368,1625839138.0,1625839138.0,103 201 102 104
5af9b95a,1625839235.857188,/beegfs/lgouveia/ior_4/testFile1,34359738368,1625839235.0,1625839235.0,103 102 104 201
1f242ad1,1625839332.992478,/beegfs/lgouveia/ior_4/testFile1,34359738368,1625839332.0,1625839332.0,202 203 101 204
707aefa2,1625839956.269303,/beegfs/lgouveia/ior_4/testFile1,34359738368,1625839953.0,1625839953.0,104 201 103 102
cdfd83e9,1625840053.666986,/beegfs/lgouveia/ior_4/testFile1,34359738368,1625840053.0,1625840053.0,103 102 201 104
fea0e9a2,1625840150.372985,/beegfs/lgouveia/ior_4/testFile1,34359738368,1625840150.0,1625840150.0,103 102 104 201
4bf71716,1625840247.373953,/beegfs/lgouveia/ior_4/testFile1,34359738368,1625840247.0,1625840247.0,201 104 103 102
e8d6d7c3,1625840344.581004,/beegfs/lgouveia/ior_4/testFile1,34359738368,1625840344.0,1625840344.0,201 102 104 103
33019aba,1625840441.496631,/beegfs/lgouveia/ior_4/testFile1,34359738368,1625840441.0,1625840441.0,204 101 202 203
3d23940b,1625840539.238458,/beegfs/lgouveia/ior_4/testFile1,34359738368,1625840538.0,1625840538.0,202 204 101 203
37968a21,1625840636.565272,/beegfs/lgouveia/ior_4/testFile1,34359738368,1625840636.0,1625840636.0,203 202 101 204
48bfee60,1625840739.171635,/beegfs/lgouveia/ior_4/testFile1,34359738368,1625840738.0,1625840738.0,203 204 101 202
f6e65b1b,1625840836.263896,/beegfs/lgouveia/ior_4/testFile1,34359738368,1625840836.0,1625840836.0,204 203 101 202
e1cdc599,1625841455.673002,/beegfs/lgouveia/ior_4/testFile1,34359738368,1625841453.0,1625841453.0,103 104 102 201
8231284c,1625841552.437396,/beegfs/lgouveia/ior_4/testFile1,34359738368,1625841552.0,1625841552.0,104 102 103 201
0ca11269,1625841649.310057,/beegfs/lgouveia/ior_4/testFile1,34359738368,1625841649.0,1625841649.0,204 202 203 101
bc254695,1625841746.218057,/beegfs/lgouveia/ior_4/testFile1,34359738368,1625841745.0,1625841745.0,102 201 103 104
93e59c0a,1625841843.135013,/beegfs/lgouveia/ior_4/testFile1,34359738368,1625841842.0,1625841842.0,202 101 203 204
b2ee9cfd,1625841939.985269,/beegfs/lgouveia/ior_4/testFile1,34359738368,1625841939.0,1625841939.0,103 201 104 102
231a1d0a,1625842036.792744,/beegfs/lgouveia/ior_4/testFile1,34359738368,1625842036.0,1625842036.0,204 203 202 101
4057760f,1625842133.671375,/beegfs/lgouveia/ior_4/testFile1,34359738368,1625842133.0,1625842133.0,204 101 203 202
af9f1e0a,1625842230.506836,/beegfs/lgouveia/ior_4/testFile1,34359738368,1625842230.0,1625842230.0,202 203 204 101
5e724b12,1625842327.411449,/beegfs/lgouveia/ior_4/testFile1,34359738368,1625842327.0,1625842327.0,203 204 101 202
