===== My JOB Information ====
Node List:  bora[001-032]
my jobID:  1471705
Partition: routage
submit directory:  /home/lgouveia/luan-teylo/tests/omnipath/compute_nodes/8_targets/32
submit host:  devel02.plafrim.cluster
In the directory: /home/lgouveia/luan-teylo/tests/omnipath/compute_nodes/8_targets/32
As the user: lgouveia
============================
IOR-3.4.0+dev: MPI Coordinated Test of Parallel I/O
Began               : Tue Jan 18 13:37:47 2022
Command line        : /home/lgouveia/ior/bin/ior -w -t 1m -b 128m -k -o /beegfs/lgouveia/ior_8/testFile1
Machine             : Linux bora001.plafrim.cluster
TestID              : 0
StartTime           : Tue Jan 18 13:37:47 2022
Path                : /beegfs/lgouveia/ior_8/testFile1
FS                  : 130.9 TiB   Used FS: 36.6%   Inodes: 0.0 Mi   Used Inodes: -nan%

Options: 
api                 : POSIX
apiVersion          : 
test filename       : /beegfs/lgouveia/ior_8/testFile1
access              : single-shared-file
type                : independent
segments            : 1
ordering in a file  : sequential
ordering inter file : no tasks offsets
nodes               : 32
tasks               : 256
clients per node    : 8
repetitions         : 1
xfersize            : 1 MiB
blocksize           : 128 MiB
aggregate filesize  : 32 GiB

Results: 
WARNING: The file "/beegfs/lgouveia/ior_8/testFile1" exists already and will be overwritten

access    bw(MiB/s)  IOPS       Latency(s)  block(KiB) xfer(KiB)  open(s)    wr/rd(s)   close(s)   total(s)   iter
------    ---------  ----       ----------  ---------- ---------  --------   --------   --------   --------   ----
write     9089       9092       0.018290    131072     1024.00    0.591101   3.60       2.77       3.61       0   

Summary of all tests:
Operation   Max(MiB)   Min(MiB)  Mean(MiB)     StdDev   Max(OPs)   Min(OPs)  Mean(OPs)     StdDev    Mean(s) Stonewall(s) Stonewall(MiB) Test# #Tasks tPN reps fPP reord reordoff reordrand seed segcnt   blksiz    xsize aggs(MiB)   API RefNum
write        9088.77    9088.77    9088.77       0.00    9088.77    9088.77    9088.77       0.00    3.60533         NA            NA     0    256   8    1   0     0        1         0    0      1 134217728  1048576   32768.0 POSIX      0
Finished            : Tue Jan 18 13:37:51 2022
Tracking /beegfs/lgouveia/ior_8/testFile1...
Tracking /beegfs/lgouveia/ior_8/testFileApp_2...
Tracking /beegfs/lgouveia/ior_8/testFileApp_1...



Writing tracked information to tracker.csv...
IOR-3.4.0+dev: MPI Coordinated Test of Parallel I/O
Began               : Tue Jan 18 13:38:53 2022
Command line        : /home/lgouveia/ior/bin/ior -w -t 1m -b 128m -k -o /beegfs/lgouveia/ior_8/testFile1
Machine             : Linux bora001.plafrim.cluster
TestID              : 0
StartTime           : Tue Jan 18 13:38:53 2022
Path                : /beegfs/lgouveia/ior_8/testFile1
FS                  : 130.9 TiB   Used FS: 36.6%   Inodes: 0.0 Mi   Used Inodes: -nan%

Options: 
api                 : POSIX
apiVersion          : 
test filename       : /beegfs/lgouveia/ior_8/testFile1
access              : single-shared-file
type                : independent
segments            : 1
ordering in a file  : sequential
ordering inter file : no tasks offsets
nodes               : 32
tasks               : 256
clients per node    : 8
repetitions         : 1
xfersize            : 1 MiB
blocksize           : 128 MiB
aggregate filesize  : 32 GiB

Results: 
WARNING: The file "/beegfs/lgouveia/ior_8/testFile1" exists already and will be overwritten

access    bw(MiB/s)  IOPS       Latency(s)  block(KiB) xfer(KiB)  open(s)    wr/rd(s)   close(s)   total(s)   iter
------    ---------  ----       ----------  ---------- ---------  --------   --------   --------   --------   ----
write     9210       9213       0.026225    131072     1024.00    0.477007   3.56       2.84       3.56       0   

Summary of all tests:
Operation   Max(MiB)   Min(MiB)  Mean(MiB)     StdDev   Max(OPs)   Min(OPs)  Mean(OPs)     StdDev    Mean(s) Stonewall(s) Stonewall(MiB) Test# #Tasks tPN reps fPP reord reordoff reordrand seed segcnt   blksiz    xsize aggs(MiB)   API RefNum
write        9210.31    9210.31    9210.31       0.00    9210.31    9210.31    9210.31       0.00    3.55775         NA            NA     0    256   8    1   0     0        1         0    0      1 134217728  1048576   32768.0 POSIX      0
Finished            : Tue Jan 18 13:38:57 2022
Tracking /beegfs/lgouveia/ior_8/testFile1...
Tracking /beegfs/lgouveia/ior_8/testFileApp_2...
Tracking /beegfs/lgouveia/ior_8/testFileApp_1...



Writing tracked information to tracker.csv...
IOR-3.4.0+dev: MPI Coordinated Test of Parallel I/O
Began               : Tue Jan 18 13:39:59 2022
Command line        : /home/lgouveia/ior/bin/ior -w -t 1m -b 128m -k -o /beegfs/lgouveia/ior_8/testFile1
Machine             : Linux bora001.plafrim.cluster
TestID              : 0
StartTime           : Tue Jan 18 13:39:59 2022
Path                : /beegfs/lgouveia/ior_8/testFile1
FS                  : 130.9 TiB   Used FS: 36.6%   Inodes: 0.0 Mi   Used Inodes: -nan%

Options: 
api                 : POSIX
apiVersion          : 
test filename       : /beegfs/lgouveia/ior_8/testFile1
access              : single-shared-file
type                : independent
segments            : 1
ordering in a file  : sequential
ordering inter file : no tasks offsets
nodes               : 32
tasks               : 256
clients per node    : 8
repetitions         : 1
xfersize            : 1 MiB
blocksize           : 128 MiB
aggregate filesize  : 32 GiB

Results: 
WARNING: The file "/beegfs/lgouveia/ior_8/testFile1" exists already and will be overwritten

access    bw(MiB/s)  IOPS       Latency(s)  block(KiB) xfer(KiB)  open(s)    wr/rd(s)   close(s)   total(s)   iter
------    ---------  ----       ----------  ---------- ---------  --------   --------   --------   --------   ----
write     9077       9080       0.016969    131072     1024.00    0.405596   3.61       3.01       3.61       0   

Summary of all tests:
Operation   Max(MiB)   Min(MiB)  Mean(MiB)     StdDev   Max(OPs)   Min(OPs)  Mean(OPs)     StdDev    Mean(s) Stonewall(s) Stonewall(MiB) Test# #Tasks tPN reps fPP reord reordoff reordrand seed segcnt   blksiz    xsize aggs(MiB)   API RefNum
write        9077.01    9077.01    9077.01       0.00    9077.01    9077.01    9077.01       0.00    3.61000         NA            NA     0    256   8    1   0     0        1         0    0      1 134217728  1048576   32768.0 POSIX      0
Finished            : Tue Jan 18 13:40:02 2022
Tracking /beegfs/lgouveia/ior_8/testFile1...
Tracking /beegfs/lgouveia/ior_8/testFileApp_2...
Tracking /beegfs/lgouveia/ior_8/testFileApp_1...



Writing tracked information to tracker.csv...
IOR-3.4.0+dev: MPI Coordinated Test of Parallel I/O
Began               : Tue Jan 18 13:41:04 2022
Command line        : /home/lgouveia/ior/bin/ior -w -t 1m -b 128m -k -o /beegfs/lgouveia/ior_8/testFile1
Machine             : Linux bora001.plafrim.cluster
TestID              : 0
StartTime           : Tue Jan 18 13:41:04 2022
Path                : /beegfs/lgouveia/ior_8/testFile1
FS                  : 130.9 TiB   Used FS: 36.6%   Inodes: 0.0 Mi   Used Inodes: -nan%

Options: 
api                 : POSIX
apiVersion          : 
test filename       : /beegfs/lgouveia/ior_8/testFile1
access              : single-shared-file
type                : independent
segments            : 1
ordering in a file  : sequential
ordering inter file : no tasks offsets
nodes               : 32
tasks               : 256
clients per node    : 8
repetitions         : 1
xfersize            : 1 MiB
blocksize           : 128 MiB
aggregate filesize  : 32 GiB

Results: 
WARNING: The file "/beegfs/lgouveia/ior_8/testFile1" exists already and will be overwritten

access    bw(MiB/s)  IOPS       Latency(s)  block(KiB) xfer(KiB)  open(s)    wr/rd(s)   close(s)   total(s)   iter
------    ---------  ----       ----------  ---------- ---------  --------   --------   --------   --------   ----
write     8847       8850       0.026256    131072     1024.00    0.411586   3.70       3.06       3.70       0   

Summary of all tests:
Operation   Max(MiB)   Min(MiB)  Mean(MiB)     StdDev   Max(OPs)   Min(OPs)  Mean(OPs)     StdDev    Mean(s) Stonewall(s) Stonewall(MiB) Test# #Tasks tPN reps fPP reord reordoff reordrand seed segcnt   blksiz    xsize aggs(MiB)   API RefNum
write        8846.55    8846.55    8846.55       0.00    8846.55    8846.55    8846.55       0.00    3.70404         NA            NA     0    256   8    1   0     0        1         0    0      1 134217728  1048576   32768.0 POSIX      0
Finished            : Tue Jan 18 13:41:08 2022
Tracking /beegfs/lgouveia/ior_8/testFile1...
Tracking /beegfs/lgouveia/ior_8/testFileApp_2...
Tracking /beegfs/lgouveia/ior_8/testFileApp_1...



Writing tracked information to tracker.csv...
IOR-3.4.0+dev: MPI Coordinated Test of Parallel I/O
Began               : Tue Jan 18 13:42:10 2022
Command line        : /home/lgouveia/ior/bin/ior -w -t 1m -b 128m -k -o /beegfs/lgouveia/ior_8/testFile1
Machine             : Linux bora001.plafrim.cluster
TestID              : 0
StartTime           : Tue Jan 18 13:42:10 2022
Path                : /beegfs/lgouveia/ior_8/testFile1
FS                  : 130.9 TiB   Used FS: 36.6%   Inodes: 0.0 Mi   Used Inodes: -nan%

Options: 
api                 : POSIX
apiVersion          : 
test filename       : /beegfs/lgouveia/ior_8/testFile1
access              : single-shared-file
type                : independent
segments            : 1
ordering in a file  : sequential
ordering inter file : no tasks offsets
nodes               : 32
tasks               : 256
clients per node    : 8
repetitions         : 1
xfersize            : 1 MiB
blocksize           : 128 MiB
aggregate filesize  : 32 GiB

Results: 
WARNING: The file "/beegfs/lgouveia/ior_8/testFile1" exists already and will be overwritten

access    bw(MiB/s)  IOPS       Latency(s)  block(KiB) xfer(KiB)  open(s)    wr/rd(s)   close(s)   total(s)   iter
------    ---------  ----       ----------  ---------- ---------  --------   --------   --------   --------   ----
write     9088       9091       0.020041    131072     1024.00    0.519455   3.60       2.82       3.61       0   

Summary of all tests:
Operation   Max(MiB)   Min(MiB)  Mean(MiB)     StdDev   Max(OPs)   Min(OPs)  Mean(OPs)     StdDev    Mean(s) Stonewall(s) Stonewall(MiB) Test# #Tasks tPN reps fPP reord reordoff reordrand seed segcnt   blksiz    xsize aggs(MiB)   API RefNum
write        9088.32    9088.32    9088.32       0.00    9088.32    9088.32    9088.32       0.00    3.60551         NA            NA     0    256   8    1   0     0        1         0    0      1 134217728  1048576   32768.0 POSIX      0
Finished            : Tue Jan 18 13:42:13 2022
Tracking /beegfs/lgouveia/ior_8/testFile1...
Tracking /beegfs/lgouveia/ior_8/testFileApp_2...
Tracking /beegfs/lgouveia/ior_8/testFileApp_1...



Writing tracked information to tracker.csv...
IOR-3.4.0+dev: MPI Coordinated Test of Parallel I/O
Began               : Tue Jan 18 13:43:15 2022
Command line        : /home/lgouveia/ior/bin/ior -w -t 1m -b 128m -k -o /beegfs/lgouveia/ior_8/testFile1
Machine             : Linux bora001.plafrim.cluster
TestID              : 0
StartTime           : Tue Jan 18 13:43:15 2022
Path                : /beegfs/lgouveia/ior_8/testFile1
FS                  : 130.9 TiB   Used FS: 36.6%   Inodes: 0.0 Mi   Used Inodes: -nan%

Options: 
api                 : POSIX
apiVersion          : 
test filename       : /beegfs/lgouveia/ior_8/testFile1
access              : single-shared-file
type                : independent
segments            : 1
ordering in a file  : sequential
ordering inter file : no tasks offsets
nodes               : 32
tasks               : 256
clients per node    : 8
repetitions         : 1
xfersize            : 1 MiB
blocksize           : 128 MiB
aggregate filesize  : 32 GiB

Results: 
WARNING: The file "/beegfs/lgouveia/ior_8/testFile1" exists already and will be overwritten

access    bw(MiB/s)  IOPS       Latency(s)  block(KiB) xfer(KiB)  open(s)    wr/rd(s)   close(s)   total(s)   iter
------    ---------  ----       ----------  ---------- ---------  --------   --------   --------   --------   ----
write     8319       8322       0.022240    131072     1024.00    0.864680   3.94       2.72       3.94       0   

Summary of all tests:
Operation   Max(MiB)   Min(MiB)  Mean(MiB)     StdDev   Max(OPs)   Min(OPs)  Mean(OPs)     StdDev    Mean(s) Stonewall(s) Stonewall(MiB) Test# #Tasks tPN reps fPP reord reordoff reordrand seed segcnt   blksiz    xsize aggs(MiB)   API RefNum
write        8319.38    8319.38    8319.38       0.00    8319.38    8319.38    8319.38       0.00    3.93876         NA            NA     0    256   8    1   0     0        1         0    0      1 134217728  1048576   32768.0 POSIX      0
Finished            : Tue Jan 18 13:43:19 2022
Tracking /beegfs/lgouveia/ior_8/testFile1...
Tracking /beegfs/lgouveia/ior_8/testFileApp_2...
Tracking /beegfs/lgouveia/ior_8/testFileApp_1...



Writing tracked information to tracker.csv...
IOR-3.4.0+dev: MPI Coordinated Test of Parallel I/O
Began               : Tue Jan 18 13:44:21 2022
Command line        : /home/lgouveia/ior/bin/ior -w -t 1m -b 128m -k -o /beegfs/lgouveia/ior_8/testFile1
Machine             : Linux bora001.plafrim.cluster
TestID              : 0
StartTime           : Tue Jan 18 13:44:21 2022
Path                : /beegfs/lgouveia/ior_8/testFile1
FS                  : 130.9 TiB   Used FS: 36.6%   Inodes: 0.0 Mi   Used Inodes: -nan%

Options: 
api                 : POSIX
apiVersion          : 
test filename       : /beegfs/lgouveia/ior_8/testFile1
access              : single-shared-file
type                : independent
segments            : 1
ordering in a file  : sequential
ordering inter file : no tasks offsets
nodes               : 32
tasks               : 256
clients per node    : 8
repetitions         : 1
xfersize            : 1 MiB
blocksize           : 128 MiB
aggregate filesize  : 32 GiB

Results: 
WARNING: The file "/beegfs/lgouveia/ior_8/testFile1" exists already and will be overwritten

access    bw(MiB/s)  IOPS       Latency(s)  block(KiB) xfer(KiB)  open(s)    wr/rd(s)   close(s)   total(s)   iter
------    ---------  ----       ----------  ---------- ---------  --------   --------   --------   --------   ----
write     8203       8207       0.026065    131072     1024.00    0.711486   3.99       3.10       3.99       0   

Summary of all tests:
Operation   Max(MiB)   Min(MiB)  Mean(MiB)     StdDev   Max(OPs)   Min(OPs)  Mean(OPs)     StdDev    Mean(s) Stonewall(s) Stonewall(MiB) Test# #Tasks tPN reps fPP reord reordoff reordrand seed segcnt   blksiz    xsize aggs(MiB)   API RefNum
write        8203.14    8203.14    8203.14       0.00    8203.14    8203.14    8203.14       0.00    3.99457         NA            NA     0    256   8    1   0     0        1         0    0      1 134217728  1048576   32768.0 POSIX      0
Finished            : Tue Jan 18 13:44:25 2022
Tracking /beegfs/lgouveia/ior_8/testFile1...
Tracking /beegfs/lgouveia/ior_8/testFileApp_2...
Tracking /beegfs/lgouveia/ior_8/testFileApp_1...



Writing tracked information to tracker.csv...
IOR-3.4.0+dev: MPI Coordinated Test of Parallel I/O
Began               : Tue Jan 18 13:45:27 2022
Command line        : /home/lgouveia/ior/bin/ior -w -t 1m -b 128m -k -o /beegfs/lgouveia/ior_8/testFile1
Machine             : Linux bora001.plafrim.cluster
TestID              : 0
StartTime           : Tue Jan 18 13:45:27 2022
Path                : /beegfs/lgouveia/ior_8/testFile1
FS                  : 130.9 TiB   Used FS: 36.6%   Inodes: 0.0 Mi   Used Inodes: -nan%

Options: 
api                 : POSIX
apiVersion          : 
test filename       : /beegfs/lgouveia/ior_8/testFile1
access              : single-shared-file
type                : independent
segments            : 1
ordering in a file  : sequential
ordering inter file : no tasks offsets
nodes               : 32
tasks               : 256
clients per node    : 8
repetitions         : 1
xfersize            : 1 MiB
blocksize           : 128 MiB
aggregate filesize  : 32 GiB

Results: 
WARNING: The file "/beegfs/lgouveia/ior_8/testFile1" exists already and will be overwritten

access    bw(MiB/s)  IOPS       Latency(s)  block(KiB) xfer(KiB)  open(s)    wr/rd(s)   close(s)   total(s)   iter
------    ---------  ----       ----------  ---------- ---------  --------   --------   --------   --------   ----
write     9050       9054       0.022246    131072     1024.00    0.460994   3.62       2.75       3.62       0   

Summary of all tests:
Operation   Max(MiB)   Min(MiB)  Mean(MiB)     StdDev   Max(OPs)   Min(OPs)  Mean(OPs)     StdDev    Mean(s) Stonewall(s) Stonewall(MiB) Test# #Tasks tPN reps fPP reord reordoff reordrand seed segcnt   blksiz    xsize aggs(MiB)   API RefNum
write        9049.75    9049.75    9049.75       0.00    9049.75    9049.75    9049.75       0.00    3.62087         NA            NA     0    256   8    1   0     0        1         0    0      1 134217728  1048576   32768.0 POSIX      0
Finished            : Tue Jan 18 13:45:31 2022
Tracking /beegfs/lgouveia/ior_8/testFile1...
Tracking /beegfs/lgouveia/ior_8/testFileApp_2...
Tracking /beegfs/lgouveia/ior_8/testFileApp_1...



Writing tracked information to tracker.csv...
IOR-3.4.0+dev: MPI Coordinated Test of Parallel I/O
Began               : Tue Jan 18 13:46:33 2022
Command line        : /home/lgouveia/ior/bin/ior -w -t 1m -b 128m -k -o /beegfs/lgouveia/ior_8/testFile1
Machine             : Linux bora001.plafrim.cluster
TestID              : 0
StartTime           : Tue Jan 18 13:46:33 2022
Path                : /beegfs/lgouveia/ior_8/testFile1
FS                  : 130.9 TiB   Used FS: 36.6%   Inodes: 0.0 Mi   Used Inodes: -nan%

Options: 
api                 : POSIX
apiVersion          : 
test filename       : /beegfs/lgouveia/ior_8/testFile1
access              : single-shared-file
type                : independent
segments            : 1
ordering in a file  : sequential
ordering inter file : no tasks offsets
nodes               : 32
tasks               : 256
clients per node    : 8
repetitions         : 1
xfersize            : 1 MiB
blocksize           : 128 MiB
aggregate filesize  : 32 GiB

Results: 
WARNING: The file "/beegfs/lgouveia/ior_8/testFile1" exists already and will be overwritten

access    bw(MiB/s)  IOPS       Latency(s)  block(KiB) xfer(KiB)  open(s)    wr/rd(s)   close(s)   total(s)   iter
------    ---------  ----       ----------  ---------- ---------  --------   --------   --------   --------   ----
write     8375       8379       0.025132    131072     1024.00    0.852299   3.91       2.80       3.91       0   

Summary of all tests:
Operation   Max(MiB)   Min(MiB)  Mean(MiB)     StdDev   Max(OPs)   Min(OPs)  Mean(OPs)     StdDev    Mean(s) Stonewall(s) Stonewall(MiB) Test# #Tasks tPN reps fPP reord reordoff reordrand seed segcnt   blksiz    xsize aggs(MiB)   API RefNum
write        8375.23    8375.23    8375.23       0.00    8375.23    8375.23    8375.23       0.00    3.91249         NA            NA     0    256   8    1   0     0        1         0    0      1 134217728  1048576   32768.0 POSIX      0
Finished            : Tue Jan 18 13:46:37 2022
Tracking /beegfs/lgouveia/ior_8/testFile1...
Tracking /beegfs/lgouveia/ior_8/testFileApp_2...
Tracking /beegfs/lgouveia/ior_8/testFileApp_1...



Writing tracked information to tracker.csv...
IOR-3.4.0+dev: MPI Coordinated Test of Parallel I/O
Began               : Tue Jan 18 13:47:39 2022
Command line        : /home/lgouveia/ior/bin/ior -w -t 1m -b 128m -k -o /beegfs/lgouveia/ior_8/testFile1
Machine             : Linux bora001.plafrim.cluster
TestID              : 0
StartTime           : Tue Jan 18 13:47:39 2022
Path                : /beegfs/lgouveia/ior_8/testFile1
FS                  : 130.9 TiB   Used FS: 36.6%   Inodes: 0.0 Mi   Used Inodes: -nan%

Options: 
api                 : POSIX
apiVersion          : 
test filename       : /beegfs/lgouveia/ior_8/testFile1
access              : single-shared-file
type                : independent
segments            : 1
ordering in a file  : sequential
ordering inter file : no tasks offsets
nodes               : 32
tasks               : 256
clients per node    : 8
repetitions         : 1
xfersize            : 1 MiB
blocksize           : 128 MiB
aggregate filesize  : 32 GiB

Results: 
WARNING: The file "/beegfs/lgouveia/ior_8/testFile1" exists already and will be overwritten

access    bw(MiB/s)  IOPS       Latency(s)  block(KiB) xfer(KiB)  open(s)    wr/rd(s)   close(s)   total(s)   iter
------    ---------  ----       ----------  ---------- ---------  --------   --------   --------   --------   ----
write     8597       8601       0.015001    131072     1024.00    0.744112   3.81       2.83       3.81       0   

Summary of all tests:
Operation   Max(MiB)   Min(MiB)  Mean(MiB)     StdDev   Max(OPs)   Min(OPs)  Mean(OPs)     StdDev    Mean(s) Stonewall(s) Stonewall(MiB) Test# #Tasks tPN reps fPP reord reordoff reordrand seed segcnt   blksiz    xsize aggs(MiB)   API RefNum
write        8597.09    8597.09    8597.09       0.00    8597.09    8597.09    8597.09       0.00    3.81152         NA            NA     0    256   8    1   0     0        1         0    0      1 134217728  1048576   32768.0 POSIX      0
Finished            : Tue Jan 18 13:47:42 2022
Tracking /beegfs/lgouveia/ior_8/testFile1...
Tracking /beegfs/lgouveia/ior_8/testFileApp_2...
Tracking /beegfs/lgouveia/ior_8/testFileApp_1...



Writing tracked information to tracker.csv...
