===== My JOB Information ====
Node List:  bora[008-039]
my jobID:  1475619
Partition: routage
submit directory:  /home/lgouveia/luan-teylo/tests/omnipath/compute_nodes/4_targets/16_process/32
submit host:  devel02.plafrim.cluster
In the directory: /home/lgouveia/luan-teylo/tests/omnipath/compute_nodes/4_targets/16_process/32
As the user: lgouveia
============================
IOR-3.4.0+dev: MPI Coordinated Test of Parallel I/O
Began               : Sat Feb  5 10:53:07 2022
Command line        : /home/lgouveia/ior/bin/ior -w -t 1m -b 64m -k -o /beegfs/lgouveia/ior_4/testFile1
Machine             : Linux bora008.plafrim.cluster
TestID              : 0
StartTime           : Sat Feb  5 10:53:07 2022
Path                : /beegfs/lgouveia/ior_4/testFile1
FS                  : 130.9 TiB   Used FS: 37.1%   Inodes: 0.0 Mi   Used Inodes: -nan%

Options: 
api                 : POSIX
apiVersion          : 
test filename       : /beegfs/lgouveia/ior_4/testFile1
access              : single-shared-file
type                : independent
segments            : 1
ordering in a file  : sequential
ordering inter file : no tasks offsets
nodes               : 32
tasks               : 512
clients per node    : 16
repetitions         : 1
xfersize            : 1 MiB
blocksize           : 64 MiB
aggregate filesize  : 32 GiB

Results: 
WARNING: The file "/beegfs/lgouveia/ior_4/testFile1" exists already and will be overwritten

access    bw(MiB/s)  IOPS       Latency(s)  block(KiB) xfer(KiB)  open(s)    wr/rd(s)   close(s)   total(s)   iter
------    ---------  ----       ----------  ---------- ---------  --------   --------   --------   --------   ----
write     5786       5787       0.069742    65536      1024.00    4.32       5.66       5.12       5.66       0   

Summary of all tests:
Operation   Max(MiB)   Min(MiB)  Mean(MiB)     StdDev   Max(OPs)   Min(OPs)  Mean(OPs)     StdDev    Mean(s) Stonewall(s) Stonewall(MiB) Test# #Tasks tPN reps fPP reord reordoff reordrand seed segcnt   blksiz    xsize aggs(MiB)   API RefNum
write        5785.74    5785.74    5785.74       0.00    5785.74    5785.74    5785.74       0.00    5.66358         NA            NA     0    512  16    1   0     0        1         0    0      1 67108864  1048576   32768.0 POSIX      0
Finished            : Sat Feb  5 10:53:12 2022
Tracking /beegfs/lgouveia/ior_4/testFile1...



Writing tracked information to tracker.csv...
IOR-3.4.0+dev: MPI Coordinated Test of Parallel I/O
Began               : Sat Feb  5 10:54:16 2022
Command line        : /home/lgouveia/ior/bin/ior -w -t 1m -b 64m -k -o /beegfs/lgouveia/ior_4/testFile1
Machine             : Linux bora008.plafrim.cluster
TestID              : 0
StartTime           : Sat Feb  5 10:54:16 2022
Path                : /beegfs/lgouveia/ior_4/testFile1
FS                  : 130.9 TiB   Used FS: 37.1%   Inodes: 0.0 Mi   Used Inodes: -nan%

Options: 
api                 : POSIX
apiVersion          : 
test filename       : /beegfs/lgouveia/ior_4/testFile1
access              : single-shared-file
type                : independent
segments            : 1
ordering in a file  : sequential
ordering inter file : no tasks offsets
nodes               : 32
tasks               : 512
clients per node    : 16
repetitions         : 1
xfersize            : 1 MiB
blocksize           : 64 MiB
aggregate filesize  : 32 GiB

Results: 
WARNING: The file "/beegfs/lgouveia/ior_4/testFile1" exists already and will be overwritten

access    bw(MiB/s)  IOPS       Latency(s)  block(KiB) xfer(KiB)  open(s)    wr/rd(s)   close(s)   total(s)   iter
------    ---------  ----       ----------  ---------- ---------  --------   --------   --------   --------   ----
write     5575       5576       0.044388    65536      1024.00    0.413270   5.88       5.34       5.88       0   

Summary of all tests:
Operation   Max(MiB)   Min(MiB)  Mean(MiB)     StdDev   Max(OPs)   Min(OPs)  Mean(OPs)     StdDev    Mean(s) Stonewall(s) Stonewall(MiB) Test# #Tasks tPN reps fPP reord reordoff reordrand seed segcnt   blksiz    xsize aggs(MiB)   API RefNum
write        5574.93    5574.93    5574.93       0.00    5574.93    5574.93    5574.93       0.00    5.87774         NA            NA     0    512  16    1   0     0        1         0    0      1 67108864  1048576   32768.0 POSIX      0
Finished            : Sat Feb  5 10:54:22 2022
Tracking /beegfs/lgouveia/ior_4/testFile1...



Writing tracked information to tracker.csv...
IOR-3.4.0+dev: MPI Coordinated Test of Parallel I/O
Began               : Sat Feb  5 10:55:25 2022
Command line        : /home/lgouveia/ior/bin/ior -w -t 1m -b 64m -k -o /beegfs/lgouveia/ior_4/testFile1
Machine             : Linux bora008.plafrim.cluster
TestID              : 0
StartTime           : Sat Feb  5 10:55:25 2022
Path                : /beegfs/lgouveia/ior_4/testFile1
FS                  : 130.9 TiB   Used FS: 37.1%   Inodes: 0.0 Mi   Used Inodes: -nan%

Options: 
api                 : POSIX
apiVersion          : 
test filename       : /beegfs/lgouveia/ior_4/testFile1
access              : single-shared-file
type                : independent
segments            : 1
ordering in a file  : sequential
ordering inter file : no tasks offsets
nodes               : 32
tasks               : 512
clients per node    : 16
repetitions         : 1
xfersize            : 1 MiB
blocksize           : 64 MiB
aggregate filesize  : 32 GiB

Results: 
WARNING: The file "/beegfs/lgouveia/ior_4/testFile1" exists already and will be overwritten

access    bw(MiB/s)  IOPS       Latency(s)  block(KiB) xfer(KiB)  open(s)    wr/rd(s)   close(s)   total(s)   iter
------    ---------  ----       ----------  ---------- ---------  --------   --------   --------   --------   ----
write     6382       6384       0.047781    65536      1024.00    0.382257   5.13       4.63       5.13       0   

Summary of all tests:
Operation   Max(MiB)   Min(MiB)  Mean(MiB)     StdDev   Max(OPs)   Min(OPs)  Mean(OPs)     StdDev    Mean(s) Stonewall(s) Stonewall(MiB) Test# #Tasks tPN reps fPP reord reordoff reordrand seed segcnt   blksiz    xsize aggs(MiB)   API RefNum
write        6382.29    6382.29    6382.29       0.00    6382.29    6382.29    6382.29       0.00    5.13421         NA            NA     0    512  16    1   0     0        1         0    0      1 67108864  1048576   32768.0 POSIX      0
Finished            : Sat Feb  5 10:55:30 2022
Tracking /beegfs/lgouveia/ior_4/testFile1...



Writing tracked information to tracker.csv...
IOR-3.4.0+dev: MPI Coordinated Test of Parallel I/O
Began               : Sat Feb  5 10:56:34 2022
Command line        : /home/lgouveia/ior/bin/ior -w -t 1m -b 64m -k -o /beegfs/lgouveia/ior_4/testFile1
Machine             : Linux bora008.plafrim.cluster
TestID              : 0
StartTime           : Sat Feb  5 10:56:34 2022
Path                : /beegfs/lgouveia/ior_4/testFile1
FS                  : 130.9 TiB   Used FS: 37.1%   Inodes: 0.0 Mi   Used Inodes: -nan%

Options: 
api                 : POSIX
apiVersion          : 
test filename       : /beegfs/lgouveia/ior_4/testFile1
access              : single-shared-file
type                : independent
segments            : 1
ordering in a file  : sequential
ordering inter file : no tasks offsets
nodes               : 32
tasks               : 512
clients per node    : 16
repetitions         : 1
xfersize            : 1 MiB
blocksize           : 64 MiB
aggregate filesize  : 32 GiB

Results: 
WARNING: The file "/beegfs/lgouveia/ior_4/testFile1" exists already and will be overwritten

access    bw(MiB/s)  IOPS       Latency(s)  block(KiB) xfer(KiB)  open(s)    wr/rd(s)   close(s)   total(s)   iter
------    ---------  ----       ----------  ---------- ---------  --------   --------   --------   --------   ----
write     5884       5885       0.016773    65536      1024.00    0.474814   5.57       5.00       5.57       0   

Summary of all tests:
Operation   Max(MiB)   Min(MiB)  Mean(MiB)     StdDev   Max(OPs)   Min(OPs)  Mean(OPs)     StdDev    Mean(s) Stonewall(s) Stonewall(MiB) Test# #Tasks tPN reps fPP reord reordoff reordrand seed segcnt   blksiz    xsize aggs(MiB)   API RefNum
write        5883.72    5883.72    5883.72       0.00    5883.72    5883.72    5883.72       0.00    5.56927         NA            NA     0    512  16    1   0     0        1         0    0      1 67108864  1048576   32768.0 POSIX      0
Finished            : Sat Feb  5 10:56:39 2022
Tracking /beegfs/lgouveia/ior_4/testFile1...



Writing tracked information to tracker.csv...
IOR-3.4.0+dev: MPI Coordinated Test of Parallel I/O
Began               : Sat Feb  5 10:57:43 2022
Command line        : /home/lgouveia/ior/bin/ior -w -t 1m -b 64m -k -o /beegfs/lgouveia/ior_4/testFile1
Machine             : Linux bora008.plafrim.cluster
TestID              : 0
StartTime           : Sat Feb  5 10:57:43 2022
Path                : /beegfs/lgouveia/ior_4/testFile1
FS                  : 130.9 TiB   Used FS: 37.1%   Inodes: 0.0 Mi   Used Inodes: -nan%

Options: 
api                 : POSIX
apiVersion          : 
test filename       : /beegfs/lgouveia/ior_4/testFile1
access              : single-shared-file
type                : independent
segments            : 1
ordering in a file  : sequential
ordering inter file : no tasks offsets
nodes               : 32
tasks               : 512
clients per node    : 16
repetitions         : 1
xfersize            : 1 MiB
blocksize           : 64 MiB
aggregate filesize  : 32 GiB

Results: 
WARNING: The file "/beegfs/lgouveia/ior_4/testFile1" exists already and will be overwritten

access    bw(MiB/s)  IOPS       Latency(s)  block(KiB) xfer(KiB)  open(s)    wr/rd(s)   close(s)   total(s)   iter
------    ---------  ----       ----------  ---------- ---------  --------   --------   --------   --------   ----
write     5485       5487       0.083771    65536      1024.00    0.549320   5.97       5.31       5.97       0   

Summary of all tests:
Operation   Max(MiB)   Min(MiB)  Mean(MiB)     StdDev   Max(OPs)   Min(OPs)  Mean(OPs)     StdDev    Mean(s) Stonewall(s) Stonewall(MiB) Test# #Tasks tPN reps fPP reord reordoff reordrand seed segcnt   blksiz    xsize aggs(MiB)   API RefNum
write        5485.47    5485.47    5485.47       0.00    5485.47    5485.47    5485.47       0.00    5.97360         NA            NA     0    512  16    1   0     0        1         0    0      1 67108864  1048576   32768.0 POSIX      0
Finished            : Sat Feb  5 10:57:49 2022
Tracking /beegfs/lgouveia/ior_4/testFile1...



Writing tracked information to tracker.csv...
IOR-3.4.0+dev: MPI Coordinated Test of Parallel I/O
Began               : Sat Feb  5 10:58:52 2022
Command line        : /home/lgouveia/ior/bin/ior -w -t 1m -b 64m -k -o /beegfs/lgouveia/ior_4/testFile1
Machine             : Linux bora008.plafrim.cluster
TestID              : 0
StartTime           : Sat Feb  5 10:58:52 2022
Path                : /beegfs/lgouveia/ior_4/testFile1
FS                  : 130.9 TiB   Used FS: 37.1%   Inodes: 0.0 Mi   Used Inodes: -nan%

Options: 
api                 : POSIX
apiVersion          : 
test filename       : /beegfs/lgouveia/ior_4/testFile1
access              : single-shared-file
type                : independent
segments            : 1
ordering in a file  : sequential
ordering inter file : no tasks offsets
nodes               : 32
tasks               : 512
clients per node    : 16
repetitions         : 1
xfersize            : 1 MiB
blocksize           : 64 MiB
aggregate filesize  : 32 GiB

Results: 
WARNING: The file "/beegfs/lgouveia/ior_4/testFile1" exists already and will be overwritten

access    bw(MiB/s)  IOPS       Latency(s)  block(KiB) xfer(KiB)  open(s)    wr/rd(s)   close(s)   total(s)   iter
------    ---------  ----       ----------  ---------- ---------  --------   --------   --------   --------   ----
write     6077       6078       0.079516    65536      1024.00    0.462980   5.39       4.84       5.39       0   

Summary of all tests:
Operation   Max(MiB)   Min(MiB)  Mean(MiB)     StdDev   Max(OPs)   Min(OPs)  Mean(OPs)     StdDev    Mean(s) Stonewall(s) Stonewall(MiB) Test# #Tasks tPN reps fPP reord reordoff reordrand seed segcnt   blksiz    xsize aggs(MiB)   API RefNum
write        6076.78    6076.78    6076.78       0.00    6076.78    6076.78    6076.78       0.00    5.39233         NA            NA     0    512  16    1   0     0        1         0    0      1 67108864  1048576   32768.0 POSIX      0
Finished            : Sat Feb  5 10:58:57 2022
Tracking /beegfs/lgouveia/ior_4/testFile1...



Writing tracked information to tracker.csv...
IOR-3.4.0+dev: MPI Coordinated Test of Parallel I/O
Began               : Sat Feb  5 11:00:01 2022
Command line        : /home/lgouveia/ior/bin/ior -w -t 1m -b 64m -k -o /beegfs/lgouveia/ior_4/testFile1
Machine             : Linux bora008.plafrim.cluster
TestID              : 0
StartTime           : Sat Feb  5 11:00:01 2022
Path                : /beegfs/lgouveia/ior_4/testFile1
FS                  : 130.9 TiB   Used FS: 37.1%   Inodes: 0.0 Mi   Used Inodes: -nan%

Options: 
api                 : POSIX
apiVersion          : 
test filename       : /beegfs/lgouveia/ior_4/testFile1
access              : single-shared-file
type                : independent
segments            : 1
ordering in a file  : sequential
ordering inter file : no tasks offsets
nodes               : 32
tasks               : 512
clients per node    : 16
repetitions         : 1
xfersize            : 1 MiB
blocksize           : 64 MiB
aggregate filesize  : 32 GiB

Results: 
WARNING: The file "/beegfs/lgouveia/ior_4/testFile1" exists already and will be overwritten

access    bw(MiB/s)  IOPS       Latency(s)  block(KiB) xfer(KiB)  open(s)    wr/rd(s)   close(s)   total(s)   iter
------    ---------  ----       ----------  ---------- ---------  --------   --------   --------   --------   ----
write     6152       6153       0.064994    65536      1024.00    0.350848   5.33       4.83       5.33       0   

Summary of all tests:
Operation   Max(MiB)   Min(MiB)  Mean(MiB)     StdDev   Max(OPs)   Min(OPs)  Mean(OPs)     StdDev    Mean(s) Stonewall(s) Stonewall(MiB) Test# #Tasks tPN reps fPP reord reordoff reordrand seed segcnt   blksiz    xsize aggs(MiB)   API RefNum
write        6151.73    6151.73    6151.73       0.00    6151.73    6151.73    6151.73       0.00    5.32663         NA            NA     0    512  16    1   0     0        1         0    0      1 67108864  1048576   32768.0 POSIX      0
Finished            : Sat Feb  5 11:00:06 2022
Tracking /beegfs/lgouveia/ior_4/testFile1...



Writing tracked information to tracker.csv...
IOR-3.4.0+dev: MPI Coordinated Test of Parallel I/O
Began               : Sat Feb  5 11:01:09 2022
Command line        : /home/lgouveia/ior/bin/ior -w -t 1m -b 64m -k -o /beegfs/lgouveia/ior_4/testFile1
Machine             : Linux bora008.plafrim.cluster
TestID              : 0
StartTime           : Sat Feb  5 11:01:09 2022
Path                : /beegfs/lgouveia/ior_4/testFile1
FS                  : 130.9 TiB   Used FS: 37.1%   Inodes: 0.0 Mi   Used Inodes: -nan%

Options: 
api                 : POSIX
apiVersion          : 
test filename       : /beegfs/lgouveia/ior_4/testFile1
access              : single-shared-file
type                : independent
segments            : 1
ordering in a file  : sequential
ordering inter file : no tasks offsets
nodes               : 32
tasks               : 512
clients per node    : 16
repetitions         : 1
xfersize            : 1 MiB
blocksize           : 64 MiB
aggregate filesize  : 32 GiB

Results: 
WARNING: The file "/beegfs/lgouveia/ior_4/testFile1" exists already and will be overwritten

access    bw(MiB/s)  IOPS       Latency(s)  block(KiB) xfer(KiB)  open(s)    wr/rd(s)   close(s)   total(s)   iter
------    ---------  ----       ----------  ---------- ---------  --------   --------   --------   --------   ----
write     5682       5683       0.067030    65536      1024.00    0.480922   5.77       5.14       5.77       0   

Summary of all tests:
Operation   Max(MiB)   Min(MiB)  Mean(MiB)     StdDev   Max(OPs)   Min(OPs)  Mean(OPs)     StdDev    Mean(s) Stonewall(s) Stonewall(MiB) Test# #Tasks tPN reps fPP reord reordoff reordrand seed segcnt   blksiz    xsize aggs(MiB)   API RefNum
write        5681.97    5681.97    5681.97       0.00    5681.97    5681.97    5681.97       0.00    5.76701         NA            NA     0    512  16    1   0     0        1         0    0      1 67108864  1048576   32768.0 POSIX      0
Finished            : Sat Feb  5 11:01:15 2022
Tracking /beegfs/lgouveia/ior_4/testFile1...



Writing tracked information to tracker.csv...
IOR-3.4.0+dev: MPI Coordinated Test of Parallel I/O
Began               : Sat Feb  5 11:02:18 2022
Command line        : /home/lgouveia/ior/bin/ior -w -t 1m -b 64m -k -o /beegfs/lgouveia/ior_4/testFile1
Machine             : Linux bora008.plafrim.cluster
TestID              : 0
StartTime           : Sat Feb  5 11:02:18 2022
Path                : /beegfs/lgouveia/ior_4/testFile1
FS                  : 130.9 TiB   Used FS: 37.1%   Inodes: 0.0 Mi   Used Inodes: -nan%

Options: 
api                 : POSIX
apiVersion          : 
test filename       : /beegfs/lgouveia/ior_4/testFile1
access              : single-shared-file
type                : independent
segments            : 1
ordering in a file  : sequential
ordering inter file : no tasks offsets
nodes               : 32
tasks               : 512
clients per node    : 16
repetitions         : 1
xfersize            : 1 MiB
blocksize           : 64 MiB
aggregate filesize  : 32 GiB

Results: 
WARNING: The file "/beegfs/lgouveia/ior_4/testFile1" exists already and will be overwritten

access    bw(MiB/s)  IOPS       Latency(s)  block(KiB) xfer(KiB)  open(s)    wr/rd(s)   close(s)   total(s)   iter
------    ---------  ----       ----------  ---------- ---------  --------   --------   --------   --------   ----
write     5699       5700       0.075917    65536      1024.00    0.402518   5.75       5.23       5.75       0   

Summary of all tests:
Operation   Max(MiB)   Min(MiB)  Mean(MiB)     StdDev   Max(OPs)   Min(OPs)  Mean(OPs)     StdDev    Mean(s) Stonewall(s) Stonewall(MiB) Test# #Tasks tPN reps fPP reord reordoff reordrand seed segcnt   blksiz    xsize aggs(MiB)   API RefNum
write        5699.07    5699.07    5699.07       0.00    5699.07    5699.07    5699.07       0.00    5.74971         NA            NA     0    512  16    1   0     0        1         0    0      1 67108864  1048576   32768.0 POSIX      0
Finished            : Sat Feb  5 11:02:24 2022
Tracking /beegfs/lgouveia/ior_4/testFile1...



Writing tracked information to tracker.csv...
IOR-3.4.0+dev: MPI Coordinated Test of Parallel I/O
Began               : Sat Feb  5 11:03:28 2022
Command line        : /home/lgouveia/ior/bin/ior -w -t 1m -b 64m -k -o /beegfs/lgouveia/ior_4/testFile1
Machine             : Linux bora008.plafrim.cluster
TestID              : 0
StartTime           : Sat Feb  5 11:03:28 2022
Path                : /beegfs/lgouveia/ior_4/testFile1
FS                  : 130.9 TiB   Used FS: 37.1%   Inodes: 0.0 Mi   Used Inodes: -nan%

Options: 
api                 : POSIX
apiVersion          : 
test filename       : /beegfs/lgouveia/ior_4/testFile1
access              : single-shared-file
type                : independent
segments            : 1
ordering in a file  : sequential
ordering inter file : no tasks offsets
nodes               : 32
tasks               : 512
clients per node    : 16
repetitions         : 1
xfersize            : 1 MiB
blocksize           : 64 MiB
aggregate filesize  : 32 GiB

Results: 
WARNING: The file "/beegfs/lgouveia/ior_4/testFile1" exists already and will be overwritten

access    bw(MiB/s)  IOPS       Latency(s)  block(KiB) xfer(KiB)  open(s)    wr/rd(s)   close(s)   total(s)   iter
------    ---------  ----       ----------  ---------- ---------  --------   --------   --------   --------   ----
write     6266       6268       0.077762    65536      1024.00    0.439555   5.23       4.71       5.23       0   

Summary of all tests:
Operation   Max(MiB)   Min(MiB)  Mean(MiB)     StdDev   Max(OPs)   Min(OPs)  Mean(OPs)     StdDev    Mean(s) Stonewall(s) Stonewall(MiB) Test# #Tasks tPN reps fPP reord reordoff reordrand seed segcnt   blksiz    xsize aggs(MiB)   API RefNum
write        6266.43    6266.43    6266.43       0.00    6266.43    6266.43    6266.43       0.00    5.22913         NA            NA     0    512  16    1   0     0        1         0    0      1 67108864  1048576   32768.0 POSIX      0
Finished            : Sat Feb  5 11:03:33 2022
Tracking /beegfs/lgouveia/ior_4/testFile1...



Writing tracked information to tracker.csv...
