===== My JOB Information ====
Node List:  miriel[002,004,018-019,021,023,025-026]
my jobID:  1284583
Partition: routage
submit directory:  /home/lgouveia/luan-teylo/results/IOR/scalability_model/storage/04
submit host:  devel03.plafrim.cluster
In the directory: /home/lgouveia/luan-teylo/results/IOR/scalability_model/storage/04
As the user: lgouveia
============================
IOR-3.4.0+dev: MPI Coordinated Test of Parallel I/O
Began               : Sat Jun 26 21:55:14 2021
Command line        : /home/lgouveia/ior/bin/ior -w -t 1m -b 1024m -k -o /beegfs/lgouveia/ior_4/testFile1
Machine             : Linux miriel002.plafrim.cluster
TestID              : 0
StartTime           : Sat Jun 26 21:55:14 2021
Path                : /beegfs/lgouveia/ior_4/testFile1
FS                  : 130.9 TiB   Used FS: 20.9%   Inodes: 0.0 Mi   Used Inodes: -nan%

Options: 
api                 : POSIX
apiVersion          : 
test filename       : /beegfs/lgouveia/ior_4/testFile1
access              : single-shared-file
type                : independent
segments            : 1
ordering in a file  : sequential
ordering inter file : no tasks offsets
nodes               : 8
tasks               : 64
clients per node    : 8
repetitions         : 1
xfersize            : 1 MiB
blocksize           : 1 GiB
aggregate filesize  : 64 GiB

Results: 
WARNING: The file "/beegfs/lgouveia/ior_4/testFile1" exists already and will be overwritten

access    bw(MiB/s)  IOPS       Latency(s)  block(KiB) xfer(KiB)  open(s)    wr/rd(s)   close(s)   total(s)   iter
------    ---------  ----       ----------  ---------- ---------  --------   --------   --------   --------   ----
write     1472.04    1472.08    0.033006    1048576    1024.00    0.018449   44.52      39.40      44.52      0   

Summary of all tests:
Operation   Max(MiB)   Min(MiB)  Mean(MiB)     StdDev   Max(OPs)   Min(OPs)  Mean(OPs)     StdDev    Mean(s) Stonewall(s) Stonewall(MiB) Test# #Tasks tPN reps fPP reord reordoff reordrand seed segcnt   blksiz    xsize aggs(MiB)   API RefNum
write        1472.04    1472.04    1472.04       0.00    1472.04    1472.04    1472.04       0.00   44.52044         NA            NA     0     64   8    1   0     0        1         0    0      1 1073741824  1048576   65536.0 POSIX      0
Finished            : Sat Jun 26 21:55:58 2021
Tracking /beegfs/lgouveia/ior_4/testFile1...
Tracking /beegfs/lgouveia/ior_4/testFile2...



Writing tracked information to tracker.csv...
IOR-3.4.0+dev: MPI Coordinated Test of Parallel I/O
Began               : Sat Jun 26 21:57:01 2021
Command line        : /home/lgouveia/ior/bin/ior -w -t 1m -b 1024m -k -o /beegfs/lgouveia/ior_4/testFile1
Machine             : Linux miriel002.plafrim.cluster
TestID              : 0
StartTime           : Sat Jun 26 21:57:01 2021
Path                : /beegfs/lgouveia/ior_4/testFile1
FS                  : 130.9 TiB   Used FS: 20.9%   Inodes: 0.0 Mi   Used Inodes: -nan%

Options: 
api                 : POSIX
apiVersion          : 
test filename       : /beegfs/lgouveia/ior_4/testFile1
access              : single-shared-file
type                : independent
segments            : 1
ordering in a file  : sequential
ordering inter file : no tasks offsets
nodes               : 8
tasks               : 64
clients per node    : 8
repetitions         : 1
xfersize            : 1 MiB
blocksize           : 1 GiB
aggregate filesize  : 64 GiB

Results: 
WARNING: The file "/beegfs/lgouveia/ior_4/testFile1" exists already and will be overwritten

access    bw(MiB/s)  IOPS       Latency(s)  block(KiB) xfer(KiB)  open(s)    wr/rd(s)   close(s)   total(s)   iter
------    ---------  ----       ----------  ---------- ---------  --------   --------   --------   --------   ----
write     1473.35    1473.40    0.037223    1048576    1024.00    0.012774   44.48      38.82      44.48      0   

Summary of all tests:
Operation   Max(MiB)   Min(MiB)  Mean(MiB)     StdDev   Max(OPs)   Min(OPs)  Mean(OPs)     StdDev    Mean(s) Stonewall(s) Stonewall(MiB) Test# #Tasks tPN reps fPP reord reordoff reordrand seed segcnt   blksiz    xsize aggs(MiB)   API RefNum
write        1473.35    1473.35    1473.35       0.00    1473.35    1473.35    1473.35       0.00   44.48108         NA            NA     0     64   8    1   0     0        1         0    0      1 1073741824  1048576   65536.0 POSIX      0
Finished            : Sat Jun 26 21:57:45 2021
Tracking /beegfs/lgouveia/ior_4/testFile1...
Tracking /beegfs/lgouveia/ior_4/testFile2...



Writing tracked information to tracker.csv...
IOR-3.4.0+dev: MPI Coordinated Test of Parallel I/O
Began               : Sat Jun 26 21:58:46 2021
Command line        : /home/lgouveia/ior/bin/ior -w -t 1m -b 1024m -k -o /beegfs/lgouveia/ior_4/testFile1
Machine             : Linux miriel002.plafrim.cluster
TestID              : 0
StartTime           : Sat Jun 26 21:58:46 2021
Path                : /beegfs/lgouveia/ior_4/testFile1
FS                  : 130.9 TiB   Used FS: 20.9%   Inodes: 0.0 Mi   Used Inodes: -nan%

Options: 
api                 : POSIX
apiVersion          : 
test filename       : /beegfs/lgouveia/ior_4/testFile1
access              : single-shared-file
type                : independent
segments            : 1
ordering in a file  : sequential
ordering inter file : no tasks offsets
nodes               : 8
tasks               : 64
clients per node    : 8
repetitions         : 1
xfersize            : 1 MiB
blocksize           : 1 GiB
aggregate filesize  : 64 GiB

Results: 
WARNING: The file "/beegfs/lgouveia/ior_4/testFile1" exists already and will be overwritten

access    bw(MiB/s)  IOPS       Latency(s)  block(KiB) xfer(KiB)  open(s)    wr/rd(s)   close(s)   total(s)   iter
------    ---------  ----       ----------  ---------- ---------  --------   --------   --------   --------   ----
write     1468.93    1468.99    0.043565    1048576    1024.00    0.017107   44.61      39.09      44.61      0   

Summary of all tests:
Operation   Max(MiB)   Min(MiB)  Mean(MiB)     StdDev   Max(OPs)   Min(OPs)  Mean(OPs)     StdDev    Mean(s) Stonewall(s) Stonewall(MiB) Test# #Tasks tPN reps fPP reord reordoff reordrand seed segcnt   blksiz    xsize aggs(MiB)   API RefNum
write        1468.93    1468.93    1468.93       0.00    1468.93    1468.93    1468.93       0.00   44.61472         NA            NA     0     64   8    1   0     0        1         0    0      1 1073741824  1048576   65536.0 POSIX      0
Finished            : Sat Jun 26 21:59:30 2021
Tracking /beegfs/lgouveia/ior_4/testFile1...
Tracking /beegfs/lgouveia/ior_4/testFile2...



Writing tracked information to tracker.csv...
IOR-3.4.0+dev: MPI Coordinated Test of Parallel I/O
Began               : Sat Jun 26 22:00:31 2021
Command line        : /home/lgouveia/ior/bin/ior -w -t 1m -b 1024m -k -o /beegfs/lgouveia/ior_4/testFile1
Machine             : Linux miriel002.plafrim.cluster
TestID              : 0
StartTime           : Sat Jun 26 22:00:31 2021
Path                : /beegfs/lgouveia/ior_4/testFile1
FS                  : 130.9 TiB   Used FS: 20.9%   Inodes: 0.0 Mi   Used Inodes: -nan%

Options: 
api                 : POSIX
apiVersion          : 
test filename       : /beegfs/lgouveia/ior_4/testFile1
access              : single-shared-file
type                : independent
segments            : 1
ordering in a file  : sequential
ordering inter file : no tasks offsets
nodes               : 8
tasks               : 64
clients per node    : 8
repetitions         : 1
xfersize            : 1 MiB
blocksize           : 1 GiB
aggregate filesize  : 64 GiB

Results: 
WARNING: The file "/beegfs/lgouveia/ior_4/testFile1" exists already and will be overwritten

access    bw(MiB/s)  IOPS       Latency(s)  block(KiB) xfer(KiB)  open(s)    wr/rd(s)   close(s)   total(s)   iter
------    ---------  ----       ----------  ---------- ---------  --------   --------   --------   --------   ----
write     1479.13    1479.18    0.039529    1048576    1024.00    0.014366   44.31      38.72      44.31      0   

Summary of all tests:
Operation   Max(MiB)   Min(MiB)  Mean(MiB)     StdDev   Max(OPs)   Min(OPs)  Mean(OPs)     StdDev    Mean(s) Stonewall(s) Stonewall(MiB) Test# #Tasks tPN reps fPP reord reordoff reordrand seed segcnt   blksiz    xsize aggs(MiB)   API RefNum
write        1479.13    1479.13    1479.13       0.00    1479.13    1479.13    1479.13       0.00   44.30719         NA            NA     0     64   8    1   0     0        1         0    0      1 1073741824  1048576   65536.0 POSIX      0
Finished            : Sat Jun 26 22:01:16 2021
Tracking /beegfs/lgouveia/ior_4/testFile1...
Tracking /beegfs/lgouveia/ior_4/testFile2...



Writing tracked information to tracker.csv...
IOR-3.4.0+dev: MPI Coordinated Test of Parallel I/O
Began               : Sat Jun 26 22:02:16 2021
Command line        : /home/lgouveia/ior/bin/ior -w -t 1m -b 1024m -k -o /beegfs/lgouveia/ior_4/testFile1
Machine             : Linux miriel002.plafrim.cluster
TestID              : 0
StartTime           : Sat Jun 26 22:02:16 2021
Path                : /beegfs/lgouveia/ior_4/testFile1
FS                  : 130.9 TiB   Used FS: 20.9%   Inodes: 0.0 Mi   Used Inodes: -nan%

Options: 
api                 : POSIX
apiVersion          : 
test filename       : /beegfs/lgouveia/ior_4/testFile1
access              : single-shared-file
type                : independent
segments            : 1
ordering in a file  : sequential
ordering inter file : no tasks offsets
nodes               : 8
tasks               : 64
clients per node    : 8
repetitions         : 1
xfersize            : 1 MiB
blocksize           : 1 GiB
aggregate filesize  : 64 GiB

Results: 
WARNING: The file "/beegfs/lgouveia/ior_4/testFile1" exists already and will be overwritten

access    bw(MiB/s)  IOPS       Latency(s)  block(KiB) xfer(KiB)  open(s)    wr/rd(s)   close(s)   total(s)   iter
------    ---------  ----       ----------  ---------- ---------  --------   --------   --------   --------   ----
write     1476.57    1476.61    0.041865    1048576    1024.00    0.021639   44.38      39.00      44.38      0   

Summary of all tests:
Operation   Max(MiB)   Min(MiB)  Mean(MiB)     StdDev   Max(OPs)   Min(OPs)  Mean(OPs)     StdDev    Mean(s) Stonewall(s) Stonewall(MiB) Test# #Tasks tPN reps fPP reord reordoff reordrand seed segcnt   blksiz    xsize aggs(MiB)   API RefNum
write        1476.57    1476.57    1476.57       0.00    1476.57    1476.57    1476.57       0.00   44.38404         NA            NA     0     64   8    1   0     0        1         0    0      1 1073741824  1048576   65536.0 POSIX      0
Finished            : Sat Jun 26 22:03:01 2021
Tracking /beegfs/lgouveia/ior_4/testFile1...
Tracking /beegfs/lgouveia/ior_4/testFile2...



Writing tracked information to tracker.csv...
IOR-3.4.0+dev: MPI Coordinated Test of Parallel I/O
Began               : Sat Jun 26 22:04:02 2021
Command line        : /home/lgouveia/ior/bin/ior -w -t 1m -b 1024m -k -o /beegfs/lgouveia/ior_4/testFile1
Machine             : Linux miriel002.plafrim.cluster
TestID              : 0
StartTime           : Sat Jun 26 22:04:02 2021
Path                : /beegfs/lgouveia/ior_4/testFile1
FS                  : 130.9 TiB   Used FS: 20.9%   Inodes: 0.0 Mi   Used Inodes: -nan%

Options: 
api                 : POSIX
apiVersion          : 
test filename       : /beegfs/lgouveia/ior_4/testFile1
access              : single-shared-file
type                : independent
segments            : 1
ordering in a file  : sequential
ordering inter file : no tasks offsets
nodes               : 8
tasks               : 64
clients per node    : 8
repetitions         : 1
xfersize            : 1 MiB
blocksize           : 1 GiB
aggregate filesize  : 64 GiB

Results: 
WARNING: The file "/beegfs/lgouveia/ior_4/testFile1" exists already and will be overwritten

access    bw(MiB/s)  IOPS       Latency(s)  block(KiB) xfer(KiB)  open(s)    wr/rd(s)   close(s)   total(s)   iter
------    ---------  ----       ----------  ---------- ---------  --------   --------   --------   --------   ----
write     1469.53    1469.56    0.042289    1048576    1024.00    0.014113   44.60      39.24      44.60      0   

Summary of all tests:
Operation   Max(MiB)   Min(MiB)  Mean(MiB)     StdDev   Max(OPs)   Min(OPs)  Mean(OPs)     StdDev    Mean(s) Stonewall(s) Stonewall(MiB) Test# #Tasks tPN reps fPP reord reordoff reordrand seed segcnt   blksiz    xsize aggs(MiB)   API RefNum
write        1469.53    1469.53    1469.53       0.00    1469.53    1469.53    1469.53       0.00   44.59663         NA            NA     0     64   8    1   0     0        1         0    0      1 1073741824  1048576   65536.0 POSIX      0
Finished            : Sat Jun 26 22:04:46 2021
Tracking /beegfs/lgouveia/ior_4/testFile1...
Tracking /beegfs/lgouveia/ior_4/testFile2...



Writing tracked information to tracker.csv...
IOR-3.4.0+dev: MPI Coordinated Test of Parallel I/O
Began               : Sat Jun 26 22:05:47 2021
Command line        : /home/lgouveia/ior/bin/ior -w -t 1m -b 1024m -k -o /beegfs/lgouveia/ior_4/testFile1
Machine             : Linux miriel002.plafrim.cluster
TestID              : 0
StartTime           : Sat Jun 26 22:05:47 2021
Path                : /beegfs/lgouveia/ior_4/testFile1
FS                  : 130.9 TiB   Used FS: 20.9%   Inodes: 0.0 Mi   Used Inodes: -nan%

Options: 
api                 : POSIX
apiVersion          : 
test filename       : /beegfs/lgouveia/ior_4/testFile1
access              : single-shared-file
type                : independent
segments            : 1
ordering in a file  : sequential
ordering inter file : no tasks offsets
nodes               : 8
tasks               : 64
clients per node    : 8
repetitions         : 1
xfersize            : 1 MiB
blocksize           : 1 GiB
aggregate filesize  : 64 GiB

Results: 
WARNING: The file "/beegfs/lgouveia/ior_4/testFile1" exists already and will be overwritten

access    bw(MiB/s)  IOPS       Latency(s)  block(KiB) xfer(KiB)  open(s)    wr/rd(s)   close(s)   total(s)   iter
------    ---------  ----       ----------  ---------- ---------  --------   --------   --------   --------   ----
write     1465.17    1465.22    0.043309    1048576    1024.00    0.012228   44.73      39.30      44.73      0   

Summary of all tests:
Operation   Max(MiB)   Min(MiB)  Mean(MiB)     StdDev   Max(OPs)   Min(OPs)  Mean(OPs)     StdDev    Mean(s) Stonewall(s) Stonewall(MiB) Test# #Tasks tPN reps fPP reord reordoff reordrand seed segcnt   blksiz    xsize aggs(MiB)   API RefNum
write        1465.17    1465.17    1465.17       0.00    1465.17    1465.17    1465.17       0.00   44.72919         NA            NA     0     64   8    1   0     0        1         0    0      1 1073741824  1048576   65536.0 POSIX      0
Finished            : Sat Jun 26 22:06:32 2021
Tracking /beegfs/lgouveia/ior_4/testFile1...
Tracking /beegfs/lgouveia/ior_4/testFile2...



Writing tracked information to tracker.csv...
IOR-3.4.0+dev: MPI Coordinated Test of Parallel I/O
Began               : Sat Jun 26 22:07:33 2021
Command line        : /home/lgouveia/ior/bin/ior -w -t 1m -b 1024m -k -o /beegfs/lgouveia/ior_4/testFile1
Machine             : Linux miriel002.plafrim.cluster
TestID              : 0
StartTime           : Sat Jun 26 22:07:33 2021
Path                : /beegfs/lgouveia/ior_4/testFile1
FS                  : 130.9 TiB   Used FS: 20.9%   Inodes: 0.0 Mi   Used Inodes: -nan%

Options: 
api                 : POSIX
apiVersion          : 
test filename       : /beegfs/lgouveia/ior_4/testFile1
access              : single-shared-file
type                : independent
segments            : 1
ordering in a file  : sequential
ordering inter file : no tasks offsets
nodes               : 8
tasks               : 64
clients per node    : 8
repetitions         : 1
xfersize            : 1 MiB
blocksize           : 1 GiB
aggregate filesize  : 64 GiB

Results: 
WARNING: The file "/beegfs/lgouveia/ior_4/testFile1" exists already and will be overwritten

access    bw(MiB/s)  IOPS       Latency(s)  block(KiB) xfer(KiB)  open(s)    wr/rd(s)   close(s)   total(s)   iter
------    ---------  ----       ----------  ---------- ---------  --------   --------   --------   --------   ----
write     1466.55    1466.59    0.027280    1048576    1024.00    0.007398   44.69      39.48      44.69      0   

Summary of all tests:
Operation   Max(MiB)   Min(MiB)  Mean(MiB)     StdDev   Max(OPs)   Min(OPs)  Mean(OPs)     StdDev    Mean(s) Stonewall(s) Stonewall(MiB) Test# #Tasks tPN reps fPP reord reordoff reordrand seed segcnt   blksiz    xsize aggs(MiB)   API RefNum
write        1466.55    1466.55    1466.55       0.00    1466.55    1466.55    1466.55       0.00   44.68722         NA            NA     0     64   8    1   0     0        1         0    0      1 1073741824  1048576   65536.0 POSIX      0
Finished            : Sat Jun 26 22:08:17 2021
Tracking /beegfs/lgouveia/ior_4/testFile1...
Tracking /beegfs/lgouveia/ior_4/testFile2...



Writing tracked information to tracker.csv...
IOR-3.4.0+dev: MPI Coordinated Test of Parallel I/O
Began               : Sat Jun 26 22:09:18 2021
Command line        : /home/lgouveia/ior/bin/ior -w -t 1m -b 1024m -k -o /beegfs/lgouveia/ior_4/testFile1
Machine             : Linux miriel002.plafrim.cluster
TestID              : 0
StartTime           : Sat Jun 26 22:09:18 2021
Path                : /beegfs/lgouveia/ior_4/testFile1
FS                  : 130.9 TiB   Used FS: 20.9%   Inodes: 0.0 Mi   Used Inodes: -nan%

Options: 
api                 : POSIX
apiVersion          : 
test filename       : /beegfs/lgouveia/ior_4/testFile1
access              : single-shared-file
type                : independent
segments            : 1
ordering in a file  : sequential
ordering inter file : no tasks offsets
nodes               : 8
tasks               : 64
clients per node    : 8
repetitions         : 1
xfersize            : 1 MiB
blocksize           : 1 GiB
aggregate filesize  : 64 GiB

Results: 
WARNING: The file "/beegfs/lgouveia/ior_4/testFile1" exists already and will be overwritten

access    bw(MiB/s)  IOPS       Latency(s)  block(KiB) xfer(KiB)  open(s)    wr/rd(s)   close(s)   total(s)   iter
------    ---------  ----       ----------  ---------- ---------  --------   --------   --------   --------   ----
write     1479.46    1479.51    0.042667    1048576    1024.00    0.012932   44.30      39.01      44.30      0   

Summary of all tests:
Operation   Max(MiB)   Min(MiB)  Mean(MiB)     StdDev   Max(OPs)   Min(OPs)  Mean(OPs)     StdDev    Mean(s) Stonewall(s) Stonewall(MiB) Test# #Tasks tPN reps fPP reord reordoff reordrand seed segcnt   blksiz    xsize aggs(MiB)   API RefNum
write        1479.46    1479.46    1479.46       0.00    1479.46    1479.46    1479.46       0.00   44.29716         NA            NA     0     64   8    1   0     0        1         0    0      1 1073741824  1048576   65536.0 POSIX      0
Finished            : Sat Jun 26 22:10:02 2021
Tracking /beegfs/lgouveia/ior_4/testFile1...
Tracking /beegfs/lgouveia/ior_4/testFile2...



Writing tracked information to tracker.csv...
IOR-3.4.0+dev: MPI Coordinated Test of Parallel I/O
Began               : Sat Jun 26 22:11:03 2021
Command line        : /home/lgouveia/ior/bin/ior -w -t 1m -b 1024m -k -o /beegfs/lgouveia/ior_4/testFile1
Machine             : Linux miriel002.plafrim.cluster
TestID              : 0
StartTime           : Sat Jun 26 22:11:03 2021
Path                : /beegfs/lgouveia/ior_4/testFile1
FS                  : 130.9 TiB   Used FS: 20.9%   Inodes: 0.0 Mi   Used Inodes: -nan%

Options: 
api                 : POSIX
apiVersion          : 
test filename       : /beegfs/lgouveia/ior_4/testFile1
access              : single-shared-file
type                : independent
segments            : 1
ordering in a file  : sequential
ordering inter file : no tasks offsets
nodes               : 8
tasks               : 64
clients per node    : 8
repetitions         : 1
xfersize            : 1 MiB
blocksize           : 1 GiB
aggregate filesize  : 64 GiB

Results: 
WARNING: The file "/beegfs/lgouveia/ior_4/testFile1" exists already and will be overwritten

access    bw(MiB/s)  IOPS       Latency(s)  block(KiB) xfer(KiB)  open(s)    wr/rd(s)   close(s)   total(s)   iter
------    ---------  ----       ----------  ---------- ---------  --------   --------   --------   --------   ----
write     1477.28    1477.32    0.035061    1048576    1024.00    0.022900   44.36      39.05      44.36      0   

Summary of all tests:
Operation   Max(MiB)   Min(MiB)  Mean(MiB)     StdDev   Max(OPs)   Min(OPs)  Mean(OPs)     StdDev    Mean(s) Stonewall(s) Stonewall(MiB) Test# #Tasks tPN reps fPP reord reordoff reordrand seed segcnt   blksiz    xsize aggs(MiB)   API RefNum
write        1477.28    1477.28    1477.28       0.00    1477.28    1477.28    1477.28       0.00   44.36274         NA            NA     0     64   8    1   0     0        1         0    0      1 1073741824  1048576   65536.0 POSIX      0
Finished            : Sat Jun 26 22:11:48 2021
Tracking /beegfs/lgouveia/ior_4/testFile1...
Tracking /beegfs/lgouveia/ior_4/testFile2...



Writing tracked information to tracker.csv...
