===== My JOB Information ====
Node List:  miriel[002,004,018-019,021,023,025-026]
my jobID:  1284590
Partition: routage
submit directory:  /home/lgouveia/luan-teylo/results/IOR/scalability_model/storage/04
submit host:  devel03.plafrim.cluster
In the directory: /home/lgouveia/luan-teylo/results/IOR/scalability_model/storage/04
As the user: lgouveia
============================
IOR-3.4.0+dev: MPI Coordinated Test of Parallel I/O
Began               : Sat Jun 26 22:44:49 2021
Command line        : /home/lgouveia/ior/bin/ior -w -t 1m -b 1024m -k -o /beegfs/lgouveia/ior_4/testFile1
Machine             : Linux miriel002.plafrim.cluster
TestID              : 0
StartTime           : Sat Jun 26 22:44:49 2021
Path                : /beegfs/lgouveia/ior_4/testFile1
FS                  : 130.9 TiB   Used FS: 20.9%   Inodes: 0.0 Mi   Used Inodes: -nan%

Options: 
api                 : POSIX
apiVersion          : 
test filename       : /beegfs/lgouveia/ior_4/testFile1
access              : single-shared-file
type                : independent
segments            : 1
ordering in a file  : sequential
ordering inter file : no tasks offsets
nodes               : 8
tasks               : 64
clients per node    : 8
repetitions         : 1
xfersize            : 1 MiB
blocksize           : 1 GiB
aggregate filesize  : 64 GiB

Results: 
WARNING: The file "/beegfs/lgouveia/ior_4/testFile1" exists already and will be overwritten

access    bw(MiB/s)  IOPS       Latency(s)  block(KiB) xfer(KiB)  open(s)    wr/rd(s)   close(s)   total(s)   iter
------    ---------  ----       ----------  ---------- ---------  --------   --------   --------   --------   ----
write     1460.65    1460.69    0.041909    1048576    1024.00    0.018796   44.87      39.40      44.87      0   

Summary of all tests:
Operation   Max(MiB)   Min(MiB)  Mean(MiB)     StdDev   Max(OPs)   Min(OPs)  Mean(OPs)     StdDev    Mean(s) Stonewall(s) Stonewall(MiB) Test# #Tasks tPN reps fPP reord reordoff reordrand seed segcnt   blksiz    xsize aggs(MiB)   API RefNum
write        1460.65    1460.65    1460.65       0.00    1460.65    1460.65    1460.65       0.00   44.86764         NA            NA     0     64   8    1   0     0        1         0    0      1 1073741824  1048576   65536.0 POSIX      0
Finished            : Sat Jun 26 22:45:34 2021
Tracking /beegfs/lgouveia/ior_4/testFile1...
Tracking /beegfs/lgouveia/ior_4/testFile2...



Writing tracked information to tracker.csv...
IOR-3.4.0+dev: MPI Coordinated Test of Parallel I/O
Began               : Sat Jun 26 22:46:36 2021
Command line        : /home/lgouveia/ior/bin/ior -w -t 1m -b 1024m -k -o /beegfs/lgouveia/ior_4/testFile1
Machine             : Linux miriel002.plafrim.cluster
TestID              : 0
StartTime           : Sat Jun 26 22:46:36 2021
Path                : /beegfs/lgouveia/ior_4/testFile1
FS                  : 130.9 TiB   Used FS: 20.9%   Inodes: 0.0 Mi   Used Inodes: -nan%

Options: 
api                 : POSIX
apiVersion          : 
test filename       : /beegfs/lgouveia/ior_4/testFile1
access              : single-shared-file
type                : independent
segments            : 1
ordering in a file  : sequential
ordering inter file : no tasks offsets
nodes               : 8
tasks               : 64
clients per node    : 8
repetitions         : 1
xfersize            : 1 MiB
blocksize           : 1 GiB
aggregate filesize  : 64 GiB

Results: 
WARNING: The file "/beegfs/lgouveia/ior_4/testFile1" exists already and will be overwritten

access    bw(MiB/s)  IOPS       Latency(s)  block(KiB) xfer(KiB)  open(s)    wr/rd(s)   close(s)   total(s)   iter
------    ---------  ----       ----------  ---------- ---------  --------   --------   --------   --------   ----
write     1464.46    1464.50    0.036123    1048576    1024.00    0.007878   44.75      39.15      44.75      0   

Summary of all tests:
Operation   Max(MiB)   Min(MiB)  Mean(MiB)     StdDev   Max(OPs)   Min(OPs)  Mean(OPs)     StdDev    Mean(s) Stonewall(s) Stonewall(MiB) Test# #Tasks tPN reps fPP reord reordoff reordrand seed segcnt   blksiz    xsize aggs(MiB)   API RefNum
write        1464.46    1464.46    1464.46       0.00    1464.46    1464.46    1464.46       0.00   44.75102         NA            NA     0     64   8    1   0     0        1         0    0      1 1073741824  1048576   65536.0 POSIX      0
Finished            : Sat Jun 26 22:47:21 2021
Tracking /beegfs/lgouveia/ior_4/testFile1...
Tracking /beegfs/lgouveia/ior_4/testFile2...



Writing tracked information to tracker.csv...
IOR-3.4.0+dev: MPI Coordinated Test of Parallel I/O
Began               : Sat Jun 26 22:48:22 2021
Command line        : /home/lgouveia/ior/bin/ior -w -t 1m -b 1024m -k -o /beegfs/lgouveia/ior_4/testFile1
Machine             : Linux miriel002.plafrim.cluster
TestID              : 0
StartTime           : Sat Jun 26 22:48:22 2021
Path                : /beegfs/lgouveia/ior_4/testFile1
FS                  : 130.9 TiB   Used FS: 20.9%   Inodes: 0.0 Mi   Used Inodes: -nan%

Options: 
api                 : POSIX
apiVersion          : 
test filename       : /beegfs/lgouveia/ior_4/testFile1
access              : single-shared-file
type                : independent
segments            : 1
ordering in a file  : sequential
ordering inter file : no tasks offsets
nodes               : 8
tasks               : 64
clients per node    : 8
repetitions         : 1
xfersize            : 1 MiB
blocksize           : 1 GiB
aggregate filesize  : 64 GiB

Results: 
WARNING: The file "/beegfs/lgouveia/ior_4/testFile1" exists already and will be overwritten

access    bw(MiB/s)  IOPS       Latency(s)  block(KiB) xfer(KiB)  open(s)    wr/rd(s)   close(s)   total(s)   iter
------    ---------  ----       ----------  ---------- ---------  --------   --------   --------   --------   ----
write     1464.19    1464.24    0.030677    1048576    1024.00    0.008761   44.76      39.57      44.76      0   

Summary of all tests:
Operation   Max(MiB)   Min(MiB)  Mean(MiB)     StdDev   Max(OPs)   Min(OPs)  Mean(OPs)     StdDev    Mean(s) Stonewall(s) Stonewall(MiB) Test# #Tasks tPN reps fPP reord reordoff reordrand seed segcnt   blksiz    xsize aggs(MiB)   API RefNum
write        1464.19    1464.19    1464.19       0.00    1464.19    1464.19    1464.19       0.00   44.75907         NA            NA     0     64   8    1   0     0        1         0    0      1 1073741824  1048576   65536.0 POSIX      0
Finished            : Sat Jun 26 22:49:07 2021
Tracking /beegfs/lgouveia/ior_4/testFile1...
Tracking /beegfs/lgouveia/ior_4/testFile2...



Writing tracked information to tracker.csv...
IOR-3.4.0+dev: MPI Coordinated Test of Parallel I/O
Began               : Sat Jun 26 22:50:08 2021
Command line        : /home/lgouveia/ior/bin/ior -w -t 1m -b 1024m -k -o /beegfs/lgouveia/ior_4/testFile1
Machine             : Linux miriel002.plafrim.cluster
TestID              : 0
StartTime           : Sat Jun 26 22:50:08 2021
Path                : /beegfs/lgouveia/ior_4/testFile1
FS                  : 130.9 TiB   Used FS: 20.9%   Inodes: 0.0 Mi   Used Inodes: -nan%

Options: 
api                 : POSIX
apiVersion          : 
test filename       : /beegfs/lgouveia/ior_4/testFile1
access              : single-shared-file
type                : independent
segments            : 1
ordering in a file  : sequential
ordering inter file : no tasks offsets
nodes               : 8
tasks               : 64
clients per node    : 8
repetitions         : 1
xfersize            : 1 MiB
blocksize           : 1 GiB
aggregate filesize  : 64 GiB

Results: 
WARNING: The file "/beegfs/lgouveia/ior_4/testFile1" exists already and will be overwritten

access    bw(MiB/s)  IOPS       Latency(s)  block(KiB) xfer(KiB)  open(s)    wr/rd(s)   close(s)   total(s)   iter
------    ---------  ----       ----------  ---------- ---------  --------   --------   --------   --------   ----
write     1476.20    1476.25    0.030399    1048576    1024.00    0.014846   44.39      38.97      44.40      0   

Summary of all tests:
Operation   Max(MiB)   Min(MiB)  Mean(MiB)     StdDev   Max(OPs)   Min(OPs)  Mean(OPs)     StdDev    Mean(s) Stonewall(s) Stonewall(MiB) Test# #Tasks tPN reps fPP reord reordoff reordrand seed segcnt   blksiz    xsize aggs(MiB)   API RefNum
write        1476.20    1476.20    1476.20       0.00    1476.20    1476.20    1476.20       0.00   44.39501         NA            NA     0     64   8    1   0     0        1         0    0      1 1073741824  1048576   65536.0 POSIX      0
Finished            : Sat Jun 26 22:50:52 2021
Tracking /beegfs/lgouveia/ior_4/testFile1...
Tracking /beegfs/lgouveia/ior_4/testFile2...



Writing tracked information to tracker.csv...
IOR-3.4.0+dev: MPI Coordinated Test of Parallel I/O
Began               : Sat Jun 26 22:51:53 2021
Command line        : /home/lgouveia/ior/bin/ior -w -t 1m -b 1024m -k -o /beegfs/lgouveia/ior_4/testFile1
Machine             : Linux miriel002.plafrim.cluster
TestID              : 0
StartTime           : Sat Jun 26 22:51:53 2021
Path                : /beegfs/lgouveia/ior_4/testFile1
FS                  : 130.9 TiB   Used FS: 20.9%   Inodes: 0.0 Mi   Used Inodes: -nan%

Options: 
api                 : POSIX
apiVersion          : 
test filename       : /beegfs/lgouveia/ior_4/testFile1
access              : single-shared-file
type                : independent
segments            : 1
ordering in a file  : sequential
ordering inter file : no tasks offsets
nodes               : 8
tasks               : 64
clients per node    : 8
repetitions         : 1
xfersize            : 1 MiB
blocksize           : 1 GiB
aggregate filesize  : 64 GiB

Results: 
WARNING: The file "/beegfs/lgouveia/ior_4/testFile1" exists already and will be overwritten

access    bw(MiB/s)  IOPS       Latency(s)  block(KiB) xfer(KiB)  open(s)    wr/rd(s)   close(s)   total(s)   iter
------    ---------  ----       ----------  ---------- ---------  --------   --------   --------   --------   ----
write     1463.93    1463.98    0.026567    1048576    1024.00    0.009523   44.77      39.21      44.77      0   

Summary of all tests:
Operation   Max(MiB)   Min(MiB)  Mean(MiB)     StdDev   Max(OPs)   Min(OPs)  Mean(OPs)     StdDev    Mean(s) Stonewall(s) Stonewall(MiB) Test# #Tasks tPN reps fPP reord reordoff reordrand seed segcnt   blksiz    xsize aggs(MiB)   API RefNum
write        1463.93    1463.93    1463.93       0.00    1463.93    1463.93    1463.93       0.00   44.76719         NA            NA     0     64   8    1   0     0        1         0    0      1 1073741824  1048576   65536.0 POSIX      0
Finished            : Sat Jun 26 22:52:38 2021
Tracking /beegfs/lgouveia/ior_4/testFile1...
Tracking /beegfs/lgouveia/ior_4/testFile2...



Writing tracked information to tracker.csv...
IOR-3.4.0+dev: MPI Coordinated Test of Parallel I/O
Began               : Sat Jun 26 22:53:38 2021
Command line        : /home/lgouveia/ior/bin/ior -w -t 1m -b 1024m -k -o /beegfs/lgouveia/ior_4/testFile1
Machine             : Linux miriel002.plafrim.cluster
TestID              : 0
StartTime           : Sat Jun 26 22:53:38 2021
Path                : /beegfs/lgouveia/ior_4/testFile1
FS                  : 130.9 TiB   Used FS: 20.9%   Inodes: 0.0 Mi   Used Inodes: -nan%

Options: 
api                 : POSIX
apiVersion          : 
test filename       : /beegfs/lgouveia/ior_4/testFile1
access              : single-shared-file
type                : independent
segments            : 1
ordering in a file  : sequential
ordering inter file : no tasks offsets
nodes               : 8
tasks               : 64
clients per node    : 8
repetitions         : 1
xfersize            : 1 MiB
blocksize           : 1 GiB
aggregate filesize  : 64 GiB

Results: 
WARNING: The file "/beegfs/lgouveia/ior_4/testFile1" exists already and will be overwritten

access    bw(MiB/s)  IOPS       Latency(s)  block(KiB) xfer(KiB)  open(s)    wr/rd(s)   close(s)   total(s)   iter
------    ---------  ----       ----------  ---------- ---------  --------   --------   --------   --------   ----
write     1472.17    1472.22    0.043271    1048576    1024.00    0.014564   44.52      38.94      44.52      0   

Summary of all tests:
Operation   Max(MiB)   Min(MiB)  Mean(MiB)     StdDev   Max(OPs)   Min(OPs)  Mean(OPs)     StdDev    Mean(s) Stonewall(s) Stonewall(MiB) Test# #Tasks tPN reps fPP reord reordoff reordrand seed segcnt   blksiz    xsize aggs(MiB)   API RefNum
write        1472.17    1472.17    1472.17       0.00    1472.17    1472.17    1472.17       0.00   44.51650         NA            NA     0     64   8    1   0     0        1         0    0      1 1073741824  1048576   65536.0 POSIX      0
Finished            : Sat Jun 26 22:54:23 2021
Tracking /beegfs/lgouveia/ior_4/testFile1...
Tracking /beegfs/lgouveia/ior_4/testFile2...



Writing tracked information to tracker.csv...
IOR-3.4.0+dev: MPI Coordinated Test of Parallel I/O
Began               : Sat Jun 26 22:55:24 2021
Command line        : /home/lgouveia/ior/bin/ior -w -t 1m -b 1024m -k -o /beegfs/lgouveia/ior_4/testFile1
Machine             : Linux miriel002.plafrim.cluster
TestID              : 0
StartTime           : Sat Jun 26 22:55:24 2021
Path                : /beegfs/lgouveia/ior_4/testFile1
FS                  : 130.9 TiB   Used FS: 20.9%   Inodes: 0.0 Mi   Used Inodes: -nan%

Options: 
api                 : POSIX
apiVersion          : 
test filename       : /beegfs/lgouveia/ior_4/testFile1
access              : single-shared-file
type                : independent
segments            : 1
ordering in a file  : sequential
ordering inter file : no tasks offsets
nodes               : 8
tasks               : 64
clients per node    : 8
repetitions         : 1
xfersize            : 1 MiB
blocksize           : 1 GiB
aggregate filesize  : 64 GiB

Results: 
WARNING: The file "/beegfs/lgouveia/ior_4/testFile1" exists already and will be overwritten

access    bw(MiB/s)  IOPS       Latency(s)  block(KiB) xfer(KiB)  open(s)    wr/rd(s)   close(s)   total(s)   iter
------    ---------  ----       ----------  ---------- ---------  --------   --------   --------   --------   ----
write     1457.83    1457.88    0.034778    1048576    1024.00    0.015680   44.95      39.86      44.95      0   

Summary of all tests:
Operation   Max(MiB)   Min(MiB)  Mean(MiB)     StdDev   Max(OPs)   Min(OPs)  Mean(OPs)     StdDev    Mean(s) Stonewall(s) Stonewall(MiB) Test# #Tasks tPN reps fPP reord reordoff reordrand seed segcnt   blksiz    xsize aggs(MiB)   API RefNum
write        1457.83    1457.83    1457.83       0.00    1457.83    1457.83    1457.83       0.00   44.95459         NA            NA     0     64   8    1   0     0        1         0    0      1 1073741824  1048576   65536.0 POSIX      0
Finished            : Sat Jun 26 22:56:09 2021
Tracking /beegfs/lgouveia/ior_4/testFile1...
Tracking /beegfs/lgouveia/ior_4/testFile2...



Writing tracked information to tracker.csv...
IOR-3.4.0+dev: MPI Coordinated Test of Parallel I/O
Began               : Sat Jun 26 22:57:11 2021
Command line        : /home/lgouveia/ior/bin/ior -w -t 1m -b 1024m -k -o /beegfs/lgouveia/ior_4/testFile1
Machine             : Linux miriel002.plafrim.cluster
TestID              : 0
StartTime           : Sat Jun 26 22:57:11 2021
Path                : /beegfs/lgouveia/ior_4/testFile1
FS                  : 130.9 TiB   Used FS: 20.9%   Inodes: 0.0 Mi   Used Inodes: -nan%

Options: 
api                 : POSIX
apiVersion          : 
test filename       : /beegfs/lgouveia/ior_4/testFile1
access              : single-shared-file
type                : independent
segments            : 1
ordering in a file  : sequential
ordering inter file : no tasks offsets
nodes               : 8
tasks               : 64
clients per node    : 8
repetitions         : 1
xfersize            : 1 MiB
blocksize           : 1 GiB
aggregate filesize  : 64 GiB

Results: 
WARNING: The file "/beegfs/lgouveia/ior_4/testFile1" exists already and will be overwritten

access    bw(MiB/s)  IOPS       Latency(s)  block(KiB) xfer(KiB)  open(s)    wr/rd(s)   close(s)   total(s)   iter
------    ---------  ----       ----------  ---------- ---------  --------   --------   --------   --------   ----
write     1472.18    1472.22    0.030892    1048576    1024.00    0.019212   44.52      39.42      44.52      0   

Summary of all tests:
Operation   Max(MiB)   Min(MiB)  Mean(MiB)     StdDev   Max(OPs)   Min(OPs)  Mean(OPs)     StdDev    Mean(s) Stonewall(s) Stonewall(MiB) Test# #Tasks tPN reps fPP reord reordoff reordrand seed segcnt   blksiz    xsize aggs(MiB)   API RefNum
write        1472.18    1472.18    1472.18       0.00    1472.18    1472.18    1472.18       0.00   44.51631         NA            NA     0     64   8    1   0     0        1         0    0      1 1073741824  1048576   65536.0 POSIX      0
Finished            : Sat Jun 26 22:57:55 2021
Tracking /beegfs/lgouveia/ior_4/testFile1...
Tracking /beegfs/lgouveia/ior_4/testFile2...



Writing tracked information to tracker.csv...
IOR-3.4.0+dev: MPI Coordinated Test of Parallel I/O
Began               : Sat Jun 26 22:58:56 2021
Command line        : /home/lgouveia/ior/bin/ior -w -t 1m -b 1024m -k -o /beegfs/lgouveia/ior_4/testFile1
Machine             : Linux miriel002.plafrim.cluster
TestID              : 0
StartTime           : Sat Jun 26 22:58:56 2021
Path                : /beegfs/lgouveia/ior_4/testFile1
FS                  : 130.9 TiB   Used FS: 20.9%   Inodes: 0.0 Mi   Used Inodes: -nan%

Options: 
api                 : POSIX
apiVersion          : 
test filename       : /beegfs/lgouveia/ior_4/testFile1
access              : single-shared-file
type                : independent
segments            : 1
ordering in a file  : sequential
ordering inter file : no tasks offsets
nodes               : 8
tasks               : 64
clients per node    : 8
repetitions         : 1
xfersize            : 1 MiB
blocksize           : 1 GiB
aggregate filesize  : 64 GiB

Results: 
WARNING: The file "/beegfs/lgouveia/ior_4/testFile1" exists already and will be overwritten

access    bw(MiB/s)  IOPS       Latency(s)  block(KiB) xfer(KiB)  open(s)    wr/rd(s)   close(s)   total(s)   iter
------    ---------  ----       ----------  ---------- ---------  --------   --------   --------   --------   ----
write     1455.95    1455.99    0.043436    1048576    1024.00    0.016642   45.01      39.56      45.01      0   

Summary of all tests:
Operation   Max(MiB)   Min(MiB)  Mean(MiB)     StdDev   Max(OPs)   Min(OPs)  Mean(OPs)     StdDev    Mean(s) Stonewall(s) Stonewall(MiB) Test# #Tasks tPN reps fPP reord reordoff reordrand seed segcnt   blksiz    xsize aggs(MiB)   API RefNum
write        1455.95    1455.95    1455.95       0.00    1455.95    1455.95    1455.95       0.00   45.01252         NA            NA     0     64   8    1   0     0        1         0    0      1 1073741824  1048576   65536.0 POSIX      0
Finished            : Sat Jun 26 22:59:41 2021
Tracking /beegfs/lgouveia/ior_4/testFile1...
Tracking /beegfs/lgouveia/ior_4/testFile2...



Writing tracked information to tracker.csv...
IOR-3.4.0+dev: MPI Coordinated Test of Parallel I/O
Began               : Sat Jun 26 23:00:42 2021
Command line        : /home/lgouveia/ior/bin/ior -w -t 1m -b 1024m -k -o /beegfs/lgouveia/ior_4/testFile1
Machine             : Linux miriel002.plafrim.cluster
TestID              : 0
StartTime           : Sat Jun 26 23:00:42 2021
Path                : /beegfs/lgouveia/ior_4/testFile1
FS                  : 130.9 TiB   Used FS: 20.9%   Inodes: 0.0 Mi   Used Inodes: -nan%

Options: 
api                 : POSIX
apiVersion          : 
test filename       : /beegfs/lgouveia/ior_4/testFile1
access              : single-shared-file
type                : independent
segments            : 1
ordering in a file  : sequential
ordering inter file : no tasks offsets
nodes               : 8
tasks               : 64
clients per node    : 8
repetitions         : 1
xfersize            : 1 MiB
blocksize           : 1 GiB
aggregate filesize  : 64 GiB

Results: 
WARNING: The file "/beegfs/lgouveia/ior_4/testFile1" exists already and will be overwritten

access    bw(MiB/s)  IOPS       Latency(s)  block(KiB) xfer(KiB)  open(s)    wr/rd(s)   close(s)   total(s)   iter
------    ---------  ----       ----------  ---------- ---------  --------   --------   --------   --------   ----
write     1464.25    1464.28    0.041890    1048576    1024.00    0.013439   44.76      39.48      44.76      0   

Summary of all tests:
Operation   Max(MiB)   Min(MiB)  Mean(MiB)     StdDev   Max(OPs)   Min(OPs)  Mean(OPs)     StdDev    Mean(s) Stonewall(s) Stonewall(MiB) Test# #Tasks tPN reps fPP reord reordoff reordrand seed segcnt   blksiz    xsize aggs(MiB)   API RefNum
write        1464.25    1464.25    1464.25       0.00    1464.25    1464.25    1464.25       0.00   44.75753         NA            NA     0     64   8    1   0     0        1         0    0      1 1073741824  1048576   65536.0 POSIX      0
Finished            : Sat Jun 26 23:01:27 2021
Tracking /beegfs/lgouveia/ior_4/testFile1...
Tracking /beegfs/lgouveia/ior_4/testFile2...



Writing tracked information to tracker.csv...
