tracker_id,tracker_timestamp,file,size,ctime,mtime,storage_targets
26ce23be,1624731545.130513,/beegfs/lgouveia/ior_4/testFile1,68719476736,1624731537.0,1624731537.0,201 103 104 102
26ce23be,1624731545.130513,/beegfs/lgouveia/ior_4/testFile2,34359738368,1623679741.0,1623679741.0,102 103 104 201
35f503f1,1624731650.823978,/beegfs/lgouveia/ior_4/testFile1,68719476736,1624731650.0,1624731650.0,202 204 203 101
35f503f1,1624731650.823978,/beegfs/lgouveia/ior_4/testFile2,34359738368,1623679741.0,1623679741.0,102 103 104 201
630e97aa,1624731755.933816,/beegfs/lgouveia/ior_4/testFile1,68719476736,1624731755.0,1624731755.0,104 103 201 102
630e97aa,1624731755.933816,/beegfs/lgouveia/ior_4/testFile2,34359738368,1623679741.0,1623679741.0,102 103 104 201
0363f3d9,1624731861.689475,/beegfs/lgouveia/ior_4/testFile1,68719476736,1624731861.0,1624731861.0,202 101 204 203
0363f3d9,1624731861.689475,/beegfs/lgouveia/ior_4/testFile2,34359738368,1623679741.0,1623679741.0,102 103 104 201
51c3e9a2,1624731966.948947,/beegfs/lgouveia/ior_4/testFile1,68719476736,1624731966.0,1624731966.0,104 103 201 102
51c3e9a2,1624731966.948947,/beegfs/lgouveia/ior_4/testFile2,34359738368,1623679741.0,1623679741.0,102 103 104 201
71bd7d8c,1624732072.352579,/beegfs/lgouveia/ior_4/testFile1,68719476736,1624732072.0,1624732072.0,103 104 102 201
71bd7d8c,1624732072.352579,/beegfs/lgouveia/ior_4/testFile2,34359738368,1623679741.0,1623679741.0,102 103 104 201
f1cdf797,1624732180.705085,/beegfs/lgouveia/ior_4/testFile1,68719476736,1624732180.0,1624732180.0,202 204 101 203
f1cdf797,1624732180.705085,/beegfs/lgouveia/ior_4/testFile2,34359738368,1623679741.0,1623679741.0,102 103 104 201
3816002a,1624732286.316214,/beegfs/lgouveia/ior_4/testFile1,68719476736,1624732286.0,1624732286.0,201 102 103 104
3816002a,1624732286.316214,/beegfs/lgouveia/ior_4/testFile2,34359738368,1623679741.0,1623679741.0,102 103 104 201
24850c97,1624732393.591971,/beegfs/lgouveia/ior_4/testFile1,68719476736,1624732393.0,1624732393.0,101 203 202 204
24850c97,1624732393.591971,/beegfs/lgouveia/ior_4/testFile2,34359738368,1623679741.0,1623679741.0,102 103 104 201
b46767b5,1624732499.17428,/beegfs/lgouveia/ior_4/testFile1,68719476736,1624732498.0,1624732498.0,103 102 201 104
b46767b5,1624732499.17428,/beegfs/lgouveia/ior_4/testFile2,34359738368,1623679741.0,1623679741.0,102 103 104 201
c5ee2243,1624732888.482952,/beegfs/lgouveia/ior_4/testFile1,68719476736,1624732884.0,1624732884.0,102 103 104 201
c5ee2243,1624732888.482952,/beegfs/lgouveia/ior_4/testFile2,34359738368,1623679741.0,1623679741.0,102 103 104 201
3e17a36c,1624732994.032463,/beegfs/lgouveia/ior_4/testFile1,68719476736,1624732993.0,1624732993.0,203 101 204 202
3e17a36c,1624732994.032463,/beegfs/lgouveia/ior_4/testFile2,34359738368,1623679741.0,1623679741.0,102 103 104 201
9ba139e6,1624733099.828006,/beegfs/lgouveia/ior_4/testFile1,68719476736,1624733099.0,1624733099.0,104 102 103 201
9ba139e6,1624733099.828006,/beegfs/lgouveia/ior_4/testFile2,34359738368,1623679741.0,1623679741.0,102 103 104 201
83498303,1624733205.393478,/beegfs/lgouveia/ior_4/testFile1,68719476736,1624733205.0,1624733205.0,103 102 104 201
83498303,1624733205.393478,/beegfs/lgouveia/ior_4/testFile2,34359738368,1623679741.0,1623679741.0,102 103 104 201
7941efcb,1624733312.193583,/beegfs/lgouveia/ior_4/testFile1,68719476736,1624733311.0,1624733311.0,101 202 203 204
7941efcb,1624733312.193583,/beegfs/lgouveia/ior_4/testFile2,34359738368,1623679741.0,1623679741.0,102 103 104 201
66e3de32,1624733417.847138,/beegfs/lgouveia/ior_4/testFile1,68719476736,1624733417.0,1624733417.0,201 104 102 103
66e3de32,1624733417.847138,/beegfs/lgouveia/ior_4/testFile2,34359738368,1623679741.0,1623679741.0,102 103 104 201
8d786720,1624733523.294372,/beegfs/lgouveia/ior_4/testFile1,68719476736,1624733523.0,1624733523.0,104 102 103 201
8d786720,1624733523.294372,/beegfs/lgouveia/ior_4/testFile2,34359738368,1623679741.0,1623679741.0,102 103 104 201
c8bc29e5,1624733628.817374,/beegfs/lgouveia/ior_4/testFile1,68719476736,1624733628.0,1624733628.0,101 203 202 204
c8bc29e5,1624733628.817374,/beegfs/lgouveia/ior_4/testFile2,34359738368,1623679741.0,1623679741.0,102 103 104 201
c5280e64,1624733734.252017,/beegfs/lgouveia/ior_4/testFile1,68719476736,1624733733.0,1624733733.0,201 104 102 103
c5280e64,1624733734.252017,/beegfs/lgouveia/ior_4/testFile2,34359738368,1623679741.0,1623679741.0,102 103 104 201
1ec1ca66,1624733839.556252,/beegfs/lgouveia/ior_4/testFile1,68719476736,1624733839.0,1624733839.0,201 102 103 104
1ec1ca66,1624733839.556252,/beegfs/lgouveia/ior_4/testFile2,34359738368,1623679741.0,1623679741.0,102 103 104 201
c1318b4c,1624734333.505147,/beegfs/lgouveia/ior_4/testFile1,68719476736,1624734329.0,1624734329.0,201 104 102 103
c1318b4c,1624734333.505147,/beegfs/lgouveia/ior_4/testFile2,34359738368,1623679741.0,1623679741.0,102 103 104 201
ab058a0b,1624734439.132318,/beegfs/lgouveia/ior_4/testFile1,68719476736,1624734438.0,1624734438.0,201 102 103 104
ab058a0b,1624734439.132318,/beegfs/lgouveia/ior_4/testFile2,34359738368,1623679741.0,1623679741.0,102 103 104 201
9d47362e,1624734545.06555,/beegfs/lgouveia/ior_4/testFile1,68719476736,1624734544.0,1624734544.0,204 101 203 202
9d47362e,1624734545.06555,/beegfs/lgouveia/ior_4/testFile2,34359738368,1623679741.0,1623679741.0,102 103 104 201
7eb70dc4,1624734650.819344,/beegfs/lgouveia/ior_4/testFile1,68719476736,1624734650.0,1624734650.0,102 201 103 104
7eb70dc4,1624734650.819344,/beegfs/lgouveia/ior_4/testFile2,34359738368,1623679741.0,1623679741.0,102 103 104 201
63e4aa73,1624734756.511036,/beegfs/lgouveia/ior_4/testFile1,68719476736,1624734756.0,1624734756.0,201 103 102 104
63e4aa73,1624734756.511036,/beegfs/lgouveia/ior_4/testFile2,34359738368,1623679741.0,1623679741.0,102 103 104 201
f2dcfc2f,1624734861.975688,/beegfs/lgouveia/ior_4/testFile1,68719476736,1624734861.0,1624734861.0,202 203 204 101
f2dcfc2f,1624734861.975688,/beegfs/lgouveia/ior_4/testFile2,34359738368,1623679741.0,1623679741.0,102 103 104 201
f17f1850,1624734967.20026,/beegfs/lgouveia/ior_4/testFile1,68719476736,1624734966.0,1624734966.0,102 103 201 104
f17f1850,1624734967.20026,/beegfs/lgouveia/ior_4/testFile2,34359738368,1623679741.0,1623679741.0,102 103 104 201
591fa3c3,1624735072.629196,/beegfs/lgouveia/ior_4/testFile1,68719476736,1624735072.0,1624735072.0,201 104 102 103
591fa3c3,1624735072.629196,/beegfs/lgouveia/ior_4/testFile2,34359738368,1623679741.0,1623679741.0,102 103 104 201
04f2101c,1624735178.152982,/beegfs/lgouveia/ior_4/testFile1,68719476736,1624735177.0,1624735177.0,202 204 101 203
04f2101c,1624735178.152982,/beegfs/lgouveia/ior_4/testFile2,34359738368,1623679741.0,1623679741.0,102 103 104 201
35c66ed1,1624735283.389426,/beegfs/lgouveia/ior_4/testFile1,68719476736,1624735283.0,1624735283.0,103 102 201 104
35c66ed1,1624735283.389426,/beegfs/lgouveia/ior_4/testFile2,34359738368,1623679741.0,1623679741.0,102 103 104 201
24bac5ae,1624735869.114298,/beegfs/lgouveia/ior_4/testFile1,68719476736,1624735866.0,1624735866.0,104 103 201 102
24bac5ae,1624735869.114298,/beegfs/lgouveia/ior_4/testFile2,34359738368,1623679741.0,1623679741.0,102 103 104 201
ef6e116b,1624735974.614316,/beegfs/lgouveia/ior_4/testFile1,68719476736,1624735974.0,1624735974.0,103 104 102 201
ef6e116b,1624735974.614316,/beegfs/lgouveia/ior_4/testFile2,34359738368,1623679741.0,1623679741.0,102 103 104 201
14082aeb,1624736080.080858,/beegfs/lgouveia/ior_4/testFile1,68719476736,1624736079.0,1624736079.0,204 203 202 101
14082aeb,1624736080.080858,/beegfs/lgouveia/ior_4/testFile2,34359738368,1623679741.0,1623679741.0,102 103 104 201
f2dfa209,1624736185.847417,/beegfs/lgouveia/ior_4/testFile1,68719476736,1624736185.0,1624736185.0,104 102 103 201
f2dfa209,1624736185.847417,/beegfs/lgouveia/ior_4/testFile2,34359738368,1623679741.0,1623679741.0,102 103 104 201
8d60c70e,1624736291.355779,/beegfs/lgouveia/ior_4/testFile1,68719476736,1624736291.0,1624736291.0,202 203 204 101
8d60c70e,1624736291.355779,/beegfs/lgouveia/ior_4/testFile2,34359738368,1623679741.0,1623679741.0,102 103 104 201
08c69b53,1624736396.674098,/beegfs/lgouveia/ior_4/testFile1,68719476736,1624736396.0,1624736396.0,201 103 104 102
08c69b53,1624736396.674098,/beegfs/lgouveia/ior_4/testFile2,34359738368,1623679741.0,1623679741.0,102 103 104 201
1ff15324,1624736501.896798,/beegfs/lgouveia/ior_4/testFile1,68719476736,1624736501.0,1624736501.0,103 201 102 104
1ff15324,1624736501.896798,/beegfs/lgouveia/ior_4/testFile2,34359738368,1623679741.0,1623679741.0,102 103 104 201
8a4a415c,1624736607.165802,/beegfs/lgouveia/ior_4/testFile1,68719476736,1624736606.0,1624736606.0,203 204 202 101
8a4a415c,1624736607.165802,/beegfs/lgouveia/ior_4/testFile2,34359738368,1623679741.0,1623679741.0,102 103 104 201
3e3bf5cb,1624736712.335901,/beegfs/lgouveia/ior_4/testFile1,68719476736,1624736712.0,1624736712.0,201 102 103 104
3e3bf5cb,1624736712.335901,/beegfs/lgouveia/ior_4/testFile2,34359738368,1623679741.0,1623679741.0,102 103 104 201
d49c9fea,1624736817.736136,/beegfs/lgouveia/ior_4/testFile1,68719476736,1624736817.0,1624736817.0,103 104 201 102
d49c9fea,1624736817.736136,/beegfs/lgouveia/ior_4/testFile2,34359738368,1623679741.0,1623679741.0,102 103 104 201
dad52f4c,1624737360.393953,/beegfs/lgouveia/ior_4/testFile1,68719476736,1624737358.0,1624737358.0,103 102 104 201
dad52f4c,1624737360.393953,/beegfs/lgouveia/ior_4/testFile2,34359738368,1623679741.0,1623679741.0,102 103 104 201
09843c36,1624737465.856928,/beegfs/lgouveia/ior_4/testFile1,68719476736,1624737465.0,1624737465.0,201 104 102 103
09843c36,1624737465.856928,/beegfs/lgouveia/ior_4/testFile2,34359738368,1623679741.0,1623679741.0,102 103 104 201
7402cd62,1624737571.285008,/beegfs/lgouveia/ior_4/testFile1,68719476736,1624737570.0,1624737570.0,203 204 202 101
7402cd62,1624737571.285008,/beegfs/lgouveia/ior_4/testFile2,34359738368,1623679741.0,1623679741.0,102 103 104 201
cd501c1c,1624737676.411869,/beegfs/lgouveia/ior_4/testFile1,68719476736,1624737676.0,1624737676.0,104 102 201 103
cd501c1c,1624737676.411869,/beegfs/lgouveia/ior_4/testFile2,34359738368,1623679741.0,1623679741.0,102 103 104 201
467bd240,1624737781.60627,/beegfs/lgouveia/ior_4/testFile1,68719476736,1624737781.0,1624737781.0,102 104 201 103
467bd240,1624737781.60627,/beegfs/lgouveia/ior_4/testFile2,34359738368,1623679741.0,1623679741.0,102 103 104 201
8dd3caa6,1624737887.076923,/beegfs/lgouveia/ior_4/testFile1,68719476736,1624737886.0,1624737886.0,203 204 202 101
8dd3caa6,1624737887.076923,/beegfs/lgouveia/ior_4/testFile2,34359738368,1623679741.0,1623679741.0,102 103 104 201
65937b99,1624737992.657322,/beegfs/lgouveia/ior_4/testFile1,68719476736,1624737992.0,1624737992.0,103 201 104 102
65937b99,1624737992.657322,/beegfs/lgouveia/ior_4/testFile2,34359738368,1623679741.0,1623679741.0,102 103 104 201
ae666f12,1624738098.172827,/beegfs/lgouveia/ior_4/testFile1,68719476736,1624738097.0,1624738097.0,204 101 203 202
ae666f12,1624738098.172827,/beegfs/lgouveia/ior_4/testFile2,34359738368,1623679741.0,1623679741.0,102 103 104 201
6ccd4918,1624738203.290959,/beegfs/lgouveia/ior_4/testFile1,68719476736,1624738202.0,1624738202.0,201 104 103 102
6ccd4918,1624738203.290959,/beegfs/lgouveia/ior_4/testFile2,34359738368,1623679741.0,1623679741.0,102 103 104 201
8270a774,1624738308.472901,/beegfs/lgouveia/ior_4/testFile1,68719476736,1624738308.0,1624738308.0,104 103 201 102
8270a774,1624738308.472901,/beegfs/lgouveia/ior_4/testFile2,34359738368,1623679741.0,1623679741.0,102 103 104 201
b4720d2a,1624738994.578789,/beegfs/lgouveia/ior_4/testFile1,68719476736,1624738989.0,1624738989.0,104 102 103 201
b4720d2a,1624738994.578789,/beegfs/lgouveia/ior_4/testFile2,34359738368,1623679741.0,1623679741.0,102 103 104 201
d64a4ec7,1624739100.103068,/beegfs/lgouveia/ior_4/testFile1,68719476736,1624739099.0,1624739099.0,101 202 204 203
d64a4ec7,1624739100.103068,/beegfs/lgouveia/ior_4/testFile2,34359738368,1623679741.0,1623679741.0,102 103 104 201
aa8d5cc3,1624739205.341206,/beegfs/lgouveia/ior_4/testFile1,68719476736,1624739205.0,1624739205.0,201 104 102 103
aa8d5cc3,1624739205.341206,/beegfs/lgouveia/ior_4/testFile2,34359738368,1623679741.0,1623679741.0,102 103 104 201
7402ea87,1624739310.96981,/beegfs/lgouveia/ior_4/testFile1,68719476736,1624739310.0,1624739310.0,202 101 203 204
7402ea87,1624739310.96981,/beegfs/lgouveia/ior_4/testFile2,34359738368,1623679741.0,1623679741.0,102 103 104 201
cd679a88,1624739416.275438,/beegfs/lgouveia/ior_4/testFile1,68719476736,1624739415.0,1624739415.0,201 104 103 102
cd679a88,1624739416.275438,/beegfs/lgouveia/ior_4/testFile2,34359738368,1623679741.0,1623679741.0,102 103 104 201
aa06839e,1624739521.427302,/beegfs/lgouveia/ior_4/testFile1,68719476736,1624739521.0,1624739521.0,201 104 102 103
aa06839e,1624739521.427302,/beegfs/lgouveia/ior_4/testFile2,34359738368,1623679741.0,1623679741.0,102 103 104 201
5a7732ff,1624739627.100281,/beegfs/lgouveia/ior_4/testFile1,68719476736,1624739626.0,1624739626.0,101 202 203 204
5a7732ff,1624739627.100281,/beegfs/lgouveia/ior_4/testFile2,34359738368,1623679741.0,1623679741.0,102 103 104 201
0cbff88d,1624739732.224798,/beegfs/lgouveia/ior_4/testFile1,68719476736,1624739731.0,1624739731.0,102 103 201 104
0cbff88d,1624739732.224798,/beegfs/lgouveia/ior_4/testFile2,34359738368,1623679741.0,1623679741.0,102 103 104 201
dca005f7,1624739837.551988,/beegfs/lgouveia/ior_4/testFile1,68719476736,1624739837.0,1624739837.0,102 103 104 201
dca005f7,1624739837.551988,/beegfs/lgouveia/ior_4/testFile2,34359738368,1623679741.0,1623679741.0,102 103 104 201
f3aa476e,1624739942.874691,/beegfs/lgouveia/ior_4/testFile1,68719476736,1624739942.0,1624739942.0,202 203 204 101
f3aa476e,1624739942.874691,/beegfs/lgouveia/ior_4/testFile2,34359738368,1623679741.0,1623679741.0,102 103 104 201
bb58ffea,1624740336.298288,/beegfs/lgouveia/ior_4/testFile1,68719476736,1624740334.0,1624740334.0,204 202 101 203
bb58ffea,1624740336.298288,/beegfs/lgouveia/ior_4/testFile2,34359738368,1623679741.0,1623679741.0,102 103 104 201
cf58af57,1624740441.964884,/beegfs/lgouveia/ior_4/testFile1,68719476736,1624740441.0,1624740441.0,103 104 201 102
cf58af57,1624740441.964884,/beegfs/lgouveia/ior_4/testFile2,34359738368,1623679741.0,1623679741.0,102 103 104 201
d72a2442,1624740547.549811,/beegfs/lgouveia/ior_4/testFile1,68719476736,1624740547.0,1624740547.0,202 101 204 203
d72a2442,1624740547.549811,/beegfs/lgouveia/ior_4/testFile2,34359738368,1623679741.0,1623679741.0,102 103 104 201
b988ae86,1624740652.778605,/beegfs/lgouveia/ior_4/testFile1,68719476736,1624740652.0,1624740652.0,104 102 201 103
b988ae86,1624740652.778605,/beegfs/lgouveia/ior_4/testFile2,34359738368,1623679741.0,1623679741.0,102 103 104 201
461d20a3,1624740758.353185,/beegfs/lgouveia/ior_4/testFile1,68719476736,1624740758.0,1624740758.0,103 201 102 104
461d20a3,1624740758.353185,/beegfs/lgouveia/ior_4/testFile2,34359738368,1623679741.0,1623679741.0,102 103 104 201
3b6bcd8b,1624740863.697782,/beegfs/lgouveia/ior_4/testFile1,68719476736,1624740863.0,1624740863.0,204 203 202 101
3b6bcd8b,1624740863.697782,/beegfs/lgouveia/ior_4/testFile2,34359738368,1623679741.0,1623679741.0,102 103 104 201
fa51333f,1624740969.530403,/beegfs/lgouveia/ior_4/testFile1,68719476736,1624740969.0,1624740969.0,102 104 103 201
fa51333f,1624740969.530403,/beegfs/lgouveia/ior_4/testFile2,34359738368,1623679741.0,1623679741.0,102 103 104 201
f7a6d9cf,1624741076.148701,/beegfs/lgouveia/ior_4/testFile1,68719476736,1624741075.0,1624741075.0,102 103 201 104
f7a6d9cf,1624741076.148701,/beegfs/lgouveia/ior_4/testFile2,34359738368,1623679741.0,1623679741.0,102 103 104 201
29c6f112,1624741181.971586,/beegfs/lgouveia/ior_4/testFile1,68719476736,1624741181.0,1624741181.0,203 202 204 101
29c6f112,1624741181.971586,/beegfs/lgouveia/ior_4/testFile2,34359738368,1623679741.0,1623679741.0,102 103 104 201
5d1510c1,1624741287.548324,/beegfs/lgouveia/ior_4/testFile1,68719476736,1624741287.0,1624741287.0,201 104 102 103
5d1510c1,1624741287.548324,/beegfs/lgouveia/ior_4/testFile2,34359738368,1623679741.0,1623679741.0,102 103 104 201
7a374ddb,1624741591.313404,/beegfs/lgouveia/ior_4/testFile1,68719476736,1624741588.0,1624741588.0,102 104 201 103
7a374ddb,1624741591.313404,/beegfs/lgouveia/ior_4/testFile2,34359738368,1623679741.0,1623679741.0,102 103 104 201
0496343b,1624741697.348911,/beegfs/lgouveia/ior_4/testFile1,68719476736,1624741697.0,1624741697.0,203 204 101 202
0496343b,1624741697.348911,/beegfs/lgouveia/ior_4/testFile2,34359738368,1623679741.0,1623679741.0,102 103 104 201
308e428a,1624741802.756347,/beegfs/lgouveia/ior_4/testFile1,68719476736,1624741802.0,1624741802.0,103 102 104 201
308e428a,1624741802.756347,/beegfs/lgouveia/ior_4/testFile2,34359738368,1623679741.0,1623679741.0,102 103 104 201
f25a81b1,1624741908.755306,/beegfs/lgouveia/ior_4/testFile1,68719476736,1624741908.0,1624741908.0,204 101 202 203
f25a81b1,1624741908.755306,/beegfs/lgouveia/ior_4/testFile2,34359738368,1623679741.0,1623679741.0,102 103 104 201
f3084409,1624742013.983027,/beegfs/lgouveia/ior_4/testFile1,68719476736,1624742013.0,1624742013.0,202 204 203 101
f3084409,1624742013.983027,/beegfs/lgouveia/ior_4/testFile2,34359738368,1623679741.0,1623679741.0,102 103 104 201
c8966604,1624742119.196472,/beegfs/lgouveia/ior_4/testFile1,68719476736,1624742118.0,1624742118.0,103 102 104 201
c8966604,1624742119.196472,/beegfs/lgouveia/ior_4/testFile2,34359738368,1623679741.0,1623679741.0,102 103 104 201
e589c078,1624742224.651088,/beegfs/lgouveia/ior_4/testFile1,68719476736,1624742224.0,1624742224.0,104 102 201 103
e589c078,1624742224.651088,/beegfs/lgouveia/ior_4/testFile2,34359738368,1623679741.0,1623679741.0,102 103 104 201
ec154c41,1624742329.642627,/beegfs/lgouveia/ior_4/testFile1,68719476736,1624742329.0,1624742329.0,202 204 203 101
ec154c41,1624742329.642627,/beegfs/lgouveia/ior_4/testFile2,34359738368,1623679741.0,1623679741.0,102 103 104 201
2ff39443,1624742435.123803,/beegfs/lgouveia/ior_4/testFile1,68719476736,1624742434.0,1624742434.0,104 103 102 201
2ff39443,1624742435.123803,/beegfs/lgouveia/ior_4/testFile2,34359738368,1623679741.0,1623679741.0,102 103 104 201
3ee7c631,1624742540.489796,/beegfs/lgouveia/ior_4/testFile1,68719476736,1624742540.0,1624742540.0,104 201 103 102
3ee7c631,1624742540.489796,/beegfs/lgouveia/ior_4/testFile2,34359738368,1623679741.0,1623679741.0,102 103 104 201
479eb2ac,1624743170.633234,/beegfs/lgouveia/ior_4/testFile1,68719476736,1624743167.0,1624743167.0,102 104 103 201
479eb2ac,1624743170.633234,/beegfs/lgouveia/ior_4/testFile2,34359738368,1623679741.0,1623679741.0,102 103 104 201
bad8121c,1624743276.096571,/beegfs/lgouveia/ior_4/testFile1,68719476736,1624743275.0,1624743275.0,101 202 204 203
bad8121c,1624743276.096571,/beegfs/lgouveia/ior_4/testFile2,34359738368,1623679741.0,1623679741.0,102 103 104 201
366cd86c,1624743381.326838,/beegfs/lgouveia/ior_4/testFile1,68719476736,1624743381.0,1624743381.0,104 103 102 201
366cd86c,1624743381.326838,/beegfs/lgouveia/ior_4/testFile2,34359738368,1623679741.0,1623679741.0,102 103 104 201
6668b04b,1624743486.734927,/beegfs/lgouveia/ior_4/testFile1,68719476736,1624743486.0,1624743486.0,104 103 201 102
6668b04b,1624743486.734927,/beegfs/lgouveia/ior_4/testFile2,34359738368,1623679741.0,1623679741.0,102 103 104 201
1dc5e7c7,1624743592.076666,/beegfs/lgouveia/ior_4/testFile1,68719476736,1624743591.0,1624743591.0,202 204 203 101
1dc5e7c7,1624743592.076666,/beegfs/lgouveia/ior_4/testFile2,34359738368,1623679741.0,1623679741.0,102 103 104 201
02f06619,1624743697.267832,/beegfs/lgouveia/ior_4/testFile1,68719476736,1624743696.0,1624743696.0,103 104 201 102
02f06619,1624743697.267832,/beegfs/lgouveia/ior_4/testFile2,34359738368,1623679741.0,1623679741.0,102 103 104 201
220e61a0,1624743802.89884,/beegfs/lgouveia/ior_4/testFile1,68719476736,1624743802.0,1624743802.0,204 101 202 203
220e61a0,1624743802.89884,/beegfs/lgouveia/ior_4/testFile2,34359738368,1623679741.0,1623679741.0,102 103 104 201
cf5c2c88,1624743908.31342,/beegfs/lgouveia/ior_4/testFile1,68719476736,1624743908.0,1624743908.0,104 102 201 103
cf5c2c88,1624743908.31342,/beegfs/lgouveia/ior_4/testFile2,34359738368,1623679741.0,1623679741.0,102 103 104 201
0746ca2f,1624744013.631752,/beegfs/lgouveia/ior_4/testFile1,68719476736,1624744013.0,1624744013.0,102 201 103 104
0746ca2f,1624744013.631752,/beegfs/lgouveia/ior_4/testFile2,34359738368,1623679741.0,1623679741.0,102 103 104 201
19d1544d,1624744119.046328,/beegfs/lgouveia/ior_4/testFile1,68719476736,1624744118.0,1624744118.0,204 101 202 203
19d1544d,1624744119.046328,/beegfs/lgouveia/ior_4/testFile2,34359738368,1623679741.0,1623679741.0,102 103 104 201
d13c921e,1624744748.433702,/beegfs/lgouveia/ior_4/testFile1,68719476736,1624744746.0,1624744746.0,102 201 103 104
d13c921e,1624744748.433702,/beegfs/lgouveia/ior_4/testFile2,34359738368,1623679741.0,1623679741.0,102 103 104 201
be469cb3,1624744854.767515,/beegfs/lgouveia/ior_4/testFile1,68719476736,1624744854.0,1624744854.0,203 101 204 202
be469cb3,1624744854.767515,/beegfs/lgouveia/ior_4/testFile2,34359738368,1623679741.0,1623679741.0,102 103 104 201
81234532,1624744960.30098,/beegfs/lgouveia/ior_4/testFile1,68719476736,1624744959.0,1624744959.0,104 103 102 201
81234532,1624744960.30098,/beegfs/lgouveia/ior_4/testFile2,34359738368,1623679741.0,1623679741.0,102 103 104 201
47ce0025,1624745066.057885,/beegfs/lgouveia/ior_4/testFile1,68719476736,1624745065.0,1624745065.0,204 202 101 203
47ce0025,1624745066.057885,/beegfs/lgouveia/ior_4/testFile2,34359738368,1623679741.0,1623679741.0,102 103 104 201
0c363c2e,1624745171.16259,/beegfs/lgouveia/ior_4/testFile1,68719476736,1624745170.0,1624745170.0,103 104 201 102
0c363c2e,1624745171.16259,/beegfs/lgouveia/ior_4/testFile2,34359738368,1623679741.0,1623679741.0,102 103 104 201
239a9814,1624745276.651368,/beegfs/lgouveia/ior_4/testFile1,68719476736,1624745276.0,1624745276.0,102 104 201 103
239a9814,1624745276.651368,/beegfs/lgouveia/ior_4/testFile2,34359738368,1623679741.0,1623679741.0,102 103 104 201
f1bf9a76,1624745382.669713,/beegfs/lgouveia/ior_4/testFile1,68719476736,1624745382.0,1624745382.0,202 101 203 204
f1bf9a76,1624745382.669713,/beegfs/lgouveia/ior_4/testFile2,34359738368,1623679741.0,1623679741.0,102 103 104 201
c9afb2bb,1624745487.974018,/beegfs/lgouveia/ior_4/testFile1,68719476736,1624745487.0,1624745487.0,103 102 104 201
c9afb2bb,1624745487.974018,/beegfs/lgouveia/ior_4/testFile2,34359738368,1623679741.0,1623679741.0,102 103 104 201
35db15c7,1624745593.581472,/beegfs/lgouveia/ior_4/testFile1,68719476736,1624745593.0,1624745593.0,204 202 101 203
35db15c7,1624745593.581472,/beegfs/lgouveia/ior_4/testFile2,34359738368,1623679741.0,1623679741.0,102 103 104 201
9482e8c9,1624745699.02846,/beegfs/lgouveia/ior_4/testFile1,68719476736,1624745698.0,1624745698.0,201 104 102 103
9482e8c9,1624745699.02846,/beegfs/lgouveia/ior_4/testFile2,34359738368,1623679741.0,1623679741.0,102 103 104 201
