===== My JOB Information ====
Node List:  bora[015-024,037,039-041]
my jobID:  1466124
Partition: routage
submit directory:  /home/lgouveia/luan-teylo/tests/omnipath/compute_nodes/4_targets/14
submit host:  devel02.plafrim.cluster
In the directory: /home/lgouveia/luan-teylo/tests/omnipath/compute_nodes/4_targets/14
As the user: lgouveia
============================
IOR-3.4.0+dev: MPI Coordinated Test of Parallel I/O
Began               : Sun Dec 12 21:21:44 2021
Command line        : /home/lgouveia/ior/bin/ior -w -t 1m -b 292m -k -o /beegfs/lgouveia/ior_4/testFile1
Machine             : Linux bora015.plafrim.cluster
TestID              : 0
StartTime           : Sun Dec 12 21:21:44 2021
Path                : /beegfs/lgouveia/ior_4/testFile1
FS                  : 130.9 TiB   Used FS: 35.7%   Inodes: 0.0 Mi   Used Inodes: -nan%

Options: 
api                 : POSIX
apiVersion          : 
test filename       : /beegfs/lgouveia/ior_4/testFile1
access              : single-shared-file
type                : independent
segments            : 1
ordering in a file  : sequential
ordering inter file : no tasks offsets
nodes               : 14
tasks               : 112
clients per node    : 8
repetitions         : 1
xfersize            : 1 MiB
blocksize           : 292 MiB
aggregate filesize  : 31.94 GiB

Results: 
WARNING: The file "/beegfs/lgouveia/ior_4/testFile1" exists already and will be overwritten

access    bw(MiB/s)  IOPS       Latency(s)  block(KiB) xfer(KiB)  open(s)    wr/rd(s)   close(s)   total(s)   iter
------    ---------  ----       ----------  ---------- ---------  --------   --------   --------   --------   ----
write     5349       5351       0.003165    299008     1024.00    0.117099   6.11       5.49       6.11       0   

Summary of all tests:
Operation   Max(MiB)   Min(MiB)  Mean(MiB)     StdDev   Max(OPs)   Min(OPs)  Mean(OPs)     StdDev    Mean(s) Stonewall(s) Stonewall(MiB) Test# #Tasks tPN reps fPP reord reordoff reordrand seed segcnt   blksiz    xsize aggs(MiB)   API RefNum
write        5349.37    5349.37    5349.37       0.00    5349.37    5349.37    5349.37       0.00    6.11362         NA            NA     0    112   8    1   0     0        1         0    0      1 306184192  1048576   32704.0 POSIX      0
Finished            : Sun Dec 12 21:21:50 2021
Tracking /beegfs/lgouveia/ior_4/testFile1...



Writing tracked information to tracker.csv...
IOR-3.4.0+dev: MPI Coordinated Test of Parallel I/O
Began               : Sun Dec 12 21:22:52 2021
Command line        : /home/lgouveia/ior/bin/ior -w -t 1m -b 292m -k -o /beegfs/lgouveia/ior_4/testFile1
Machine             : Linux bora015.plafrim.cluster
TestID              : 0
StartTime           : Sun Dec 12 21:22:52 2021
Path                : /beegfs/lgouveia/ior_4/testFile1
FS                  : 130.9 TiB   Used FS: 35.7%   Inodes: 0.0 Mi   Used Inodes: -nan%

Options: 
api                 : POSIX
apiVersion          : 
test filename       : /beegfs/lgouveia/ior_4/testFile1
access              : single-shared-file
type                : independent
segments            : 1
ordering in a file  : sequential
ordering inter file : no tasks offsets
nodes               : 14
tasks               : 112
clients per node    : 8
repetitions         : 1
xfersize            : 1 MiB
blocksize           : 292 MiB
aggregate filesize  : 31.94 GiB

Results: 
WARNING: The file "/beegfs/lgouveia/ior_4/testFile1" exists already and will be overwritten

access    bw(MiB/s)  IOPS       Latency(s)  block(KiB) xfer(KiB)  open(s)    wr/rd(s)   close(s)   total(s)   iter
------    ---------  ----       ----------  ---------- ---------  --------   --------   --------   --------   ----
write     5777       5778       0.009679    299008     1024.00    0.038211   5.66       4.99       5.66       0   

Summary of all tests:
Operation   Max(MiB)   Min(MiB)  Mean(MiB)     StdDev   Max(OPs)   Min(OPs)  Mean(OPs)     StdDev    Mean(s) Stonewall(s) Stonewall(MiB) Test# #Tasks tPN reps fPP reord reordoff reordrand seed segcnt   blksiz    xsize aggs(MiB)   API RefNum
write        5777.21    5777.21    5777.21       0.00    5777.21    5777.21    5777.21       0.00    5.66087         NA            NA     0    112   8    1   0     0        1         0    0      1 306184192  1048576   32704.0 POSIX      0
Finished            : Sun Dec 12 21:22:57 2021
Tracking /beegfs/lgouveia/ior_4/testFile1...



Writing tracked information to tracker.csv...
IOR-3.4.0+dev: MPI Coordinated Test of Parallel I/O
Began               : Sun Dec 12 21:23:58 2021
Command line        : /home/lgouveia/ior/bin/ior -w -t 1m -b 292m -k -o /beegfs/lgouveia/ior_4/testFile1
Machine             : Linux bora015.plafrim.cluster
TestID              : 0
StartTime           : Sun Dec 12 21:23:58 2021
Path                : /beegfs/lgouveia/ior_4/testFile1
FS                  : 130.9 TiB   Used FS: 35.7%   Inodes: 0.0 Mi   Used Inodes: -nan%

Options: 
api                 : POSIX
apiVersion          : 
test filename       : /beegfs/lgouveia/ior_4/testFile1
access              : single-shared-file
type                : independent
segments            : 1
ordering in a file  : sequential
ordering inter file : no tasks offsets
nodes               : 14
tasks               : 112
clients per node    : 8
repetitions         : 1
xfersize            : 1 MiB
blocksize           : 292 MiB
aggregate filesize  : 31.94 GiB

Results: 
WARNING: The file "/beegfs/lgouveia/ior_4/testFile1" exists already and will be overwritten

access    bw(MiB/s)  IOPS       Latency(s)  block(KiB) xfer(KiB)  open(s)    wr/rd(s)   close(s)   total(s)   iter
------    ---------  ----       ----------  ---------- ---------  --------   --------   --------   --------   ----
write     5693       5694       0.017341    299008     1024.00    0.262645   5.74       4.98       5.74       0   

Summary of all tests:
Operation   Max(MiB)   Min(MiB)  Mean(MiB)     StdDev   Max(OPs)   Min(OPs)  Mean(OPs)     StdDev    Mean(s) Stonewall(s) Stonewall(MiB) Test# #Tasks tPN reps fPP reord reordoff reordrand seed segcnt   blksiz    xsize aggs(MiB)   API RefNum
write        5692.72    5692.72    5692.72       0.00    5692.72    5692.72    5692.72       0.00    5.74488         NA            NA     0    112   8    1   0     0        1         0    0      1 306184192  1048576   32704.0 POSIX      0
Finished            : Sun Dec 12 21:24:04 2021
Tracking /beegfs/lgouveia/ior_4/testFile1...



Writing tracked information to tracker.csv...
IOR-3.4.0+dev: MPI Coordinated Test of Parallel I/O
Began               : Sun Dec 12 21:25:05 2021
Command line        : /home/lgouveia/ior/bin/ior -w -t 1m -b 292m -k -o /beegfs/lgouveia/ior_4/testFile1
Machine             : Linux bora015.plafrim.cluster
TestID              : 0
StartTime           : Sun Dec 12 21:25:05 2021
Path                : /beegfs/lgouveia/ior_4/testFile1
FS                  : 130.9 TiB   Used FS: 35.7%   Inodes: 0.0 Mi   Used Inodes: -nan%

Options: 
api                 : POSIX
apiVersion          : 
test filename       : /beegfs/lgouveia/ior_4/testFile1
access              : single-shared-file
type                : independent
segments            : 1
ordering in a file  : sequential
ordering inter file : no tasks offsets
nodes               : 14
tasks               : 112
clients per node    : 8
repetitions         : 1
xfersize            : 1 MiB
blocksize           : 292 MiB
aggregate filesize  : 31.94 GiB

Results: 
WARNING: The file "/beegfs/lgouveia/ior_4/testFile1" exists already and will be overwritten

access    bw(MiB/s)  IOPS       Latency(s)  block(KiB) xfer(KiB)  open(s)    wr/rd(s)   close(s)   total(s)   iter
------    ---------  ----       ----------  ---------- ---------  --------   --------   --------   --------   ----
write     5490       5491       0.002695    299008     1024.00    0.193046   5.96       5.29       5.96       0   

Summary of all tests:
Operation   Max(MiB)   Min(MiB)  Mean(MiB)     StdDev   Max(OPs)   Min(OPs)  Mean(OPs)     StdDev    Mean(s) Stonewall(s) Stonewall(MiB) Test# #Tasks tPN reps fPP reord reordoff reordrand seed segcnt   blksiz    xsize aggs(MiB)   API RefNum
write        5490.02    5490.02    5490.02       0.00    5490.02    5490.02    5490.02       0.00    5.95699         NA            NA     0    112   8    1   0     0        1         0    0      1 306184192  1048576   32704.0 POSIX      0
Finished            : Sun Dec 12 21:25:11 2021
Tracking /beegfs/lgouveia/ior_4/testFile1...



Writing tracked information to tracker.csv...
IOR-3.4.0+dev: MPI Coordinated Test of Parallel I/O
Began               : Sun Dec 12 21:26:12 2021
Command line        : /home/lgouveia/ior/bin/ior -w -t 1m -b 292m -k -o /beegfs/lgouveia/ior_4/testFile1
Machine             : Linux bora015.plafrim.cluster
TestID              : 0
StartTime           : Sun Dec 12 21:26:12 2021
Path                : /beegfs/lgouveia/ior_4/testFile1
FS                  : 130.9 TiB   Used FS: 35.7%   Inodes: 0.0 Mi   Used Inodes: -nan%

Options: 
api                 : POSIX
apiVersion          : 
test filename       : /beegfs/lgouveia/ior_4/testFile1
access              : single-shared-file
type                : independent
segments            : 1
ordering in a file  : sequential
ordering inter file : no tasks offsets
nodes               : 14
tasks               : 112
clients per node    : 8
repetitions         : 1
xfersize            : 1 MiB
blocksize           : 292 MiB
aggregate filesize  : 31.94 GiB

Results: 
WARNING: The file "/beegfs/lgouveia/ior_4/testFile1" exists already and will be overwritten

access    bw(MiB/s)  IOPS       Latency(s)  block(KiB) xfer(KiB)  open(s)    wr/rd(s)   close(s)   total(s)   iter
------    ---------  ----       ----------  ---------- ---------  --------   --------   --------   --------   ----
write     5395       5396       0.002971    299008     1024.00    0.342533   6.06       5.22       6.06       0   

Summary of all tests:
Operation   Max(MiB)   Min(MiB)  Mean(MiB)     StdDev   Max(OPs)   Min(OPs)  Mean(OPs)     StdDev    Mean(s) Stonewall(s) Stonewall(MiB) Test# #Tasks tPN reps fPP reord reordoff reordrand seed segcnt   blksiz    xsize aggs(MiB)   API RefNum
write        5394.69    5394.69    5394.69       0.00    5394.69    5394.69    5394.69       0.00    6.06225         NA            NA     0    112   8    1   0     0        1         0    0      1 306184192  1048576   32704.0 POSIX      0
Finished            : Sun Dec 12 21:26:18 2021
Tracking /beegfs/lgouveia/ior_4/testFile1...



Writing tracked information to tracker.csv...
IOR-3.4.0+dev: MPI Coordinated Test of Parallel I/O
Began               : Sun Dec 12 21:27:19 2021
Command line        : /home/lgouveia/ior/bin/ior -w -t 1m -b 292m -k -o /beegfs/lgouveia/ior_4/testFile1
Machine             : Linux bora015.plafrim.cluster
TestID              : 0
StartTime           : Sun Dec 12 21:27:19 2021
Path                : /beegfs/lgouveia/ior_4/testFile1
FS                  : 130.9 TiB   Used FS: 35.7%   Inodes: 0.0 Mi   Used Inodes: -nan%

Options: 
api                 : POSIX
apiVersion          : 
test filename       : /beegfs/lgouveia/ior_4/testFile1
access              : single-shared-file
type                : independent
segments            : 1
ordering in a file  : sequential
ordering inter file : no tasks offsets
nodes               : 14
tasks               : 112
clients per node    : 8
repetitions         : 1
xfersize            : 1 MiB
blocksize           : 292 MiB
aggregate filesize  : 31.94 GiB

Results: 
WARNING: The file "/beegfs/lgouveia/ior_4/testFile1" exists already and will be overwritten

access    bw(MiB/s)  IOPS       Latency(s)  block(KiB) xfer(KiB)  open(s)    wr/rd(s)   close(s)   total(s)   iter
------    ---------  ----       ----------  ---------- ---------  --------   --------   --------   --------   ----
write     5363       5364       0.003023    299008     1024.00    0.314383   6.10       5.21       6.10       0   

Summary of all tests:
Operation   Max(MiB)   Min(MiB)  Mean(MiB)     StdDev   Max(OPs)   Min(OPs)  Mean(OPs)     StdDev    Mean(s) Stonewall(s) Stonewall(MiB) Test# #Tasks tPN reps fPP reord reordoff reordrand seed segcnt   blksiz    xsize aggs(MiB)   API RefNum
write        5363.12    5363.12    5363.12       0.00    5363.12    5363.12    5363.12       0.00    6.09795         NA            NA     0    112   8    1   0     0        1         0    0      1 306184192  1048576   32704.0 POSIX      0
Finished            : Sun Dec 12 21:27:25 2021
Tracking /beegfs/lgouveia/ior_4/testFile1...



Writing tracked information to tracker.csv...
IOR-3.4.0+dev: MPI Coordinated Test of Parallel I/O
Began               : Sun Dec 12 21:28:27 2021
Command line        : /home/lgouveia/ior/bin/ior -w -t 1m -b 292m -k -o /beegfs/lgouveia/ior_4/testFile1
Machine             : Linux bora015.plafrim.cluster
TestID              : 0
StartTime           : Sun Dec 12 21:28:27 2021
Path                : /beegfs/lgouveia/ior_4/testFile1
FS                  : 130.9 TiB   Used FS: 35.7%   Inodes: 0.0 Mi   Used Inodes: -nan%

Options: 
api                 : POSIX
apiVersion          : 
test filename       : /beegfs/lgouveia/ior_4/testFile1
access              : single-shared-file
type                : independent
segments            : 1
ordering in a file  : sequential
ordering inter file : no tasks offsets
nodes               : 14
tasks               : 112
clients per node    : 8
repetitions         : 1
xfersize            : 1 MiB
blocksize           : 292 MiB
aggregate filesize  : 31.94 GiB

Results: 
WARNING: The file "/beegfs/lgouveia/ior_4/testFile1" exists already and will be overwritten

access    bw(MiB/s)  IOPS       Latency(s)  block(KiB) xfer(KiB)  open(s)    wr/rd(s)   close(s)   total(s)   iter
------    ---------  ----       ----------  ---------- ---------  --------   --------   --------   --------   ----
write     5525       5527       0.005634    299008     1024.00    0.124183   5.92       5.16       5.92       0   

Summary of all tests:
Operation   Max(MiB)   Min(MiB)  Mean(MiB)     StdDev   Max(OPs)   Min(OPs)  Mean(OPs)     StdDev    Mean(s) Stonewall(s) Stonewall(MiB) Test# #Tasks tPN reps fPP reord reordoff reordrand seed segcnt   blksiz    xsize aggs(MiB)   API RefNum
write        5525.25    5525.25    5525.25       0.00    5525.25    5525.25    5525.25       0.00    5.91901         NA            NA     0    112   8    1   0     0        1         0    0      1 306184192  1048576   32704.0 POSIX      0
Finished            : Sun Dec 12 21:28:32 2021
Tracking /beegfs/lgouveia/ior_4/testFile1...



Writing tracked information to tracker.csv...
IOR-3.4.0+dev: MPI Coordinated Test of Parallel I/O
Began               : Sun Dec 12 21:29:33 2021
Command line        : /home/lgouveia/ior/bin/ior -w -t 1m -b 292m -k -o /beegfs/lgouveia/ior_4/testFile1
Machine             : Linux bora015.plafrim.cluster
TestID              : 0
StartTime           : Sun Dec 12 21:29:33 2021
Path                : /beegfs/lgouveia/ior_4/testFile1
FS                  : 130.9 TiB   Used FS: 35.7%   Inodes: 0.0 Mi   Used Inodes: -nan%

Options: 
api                 : POSIX
apiVersion          : 
test filename       : /beegfs/lgouveia/ior_4/testFile1
access              : single-shared-file
type                : independent
segments            : 1
ordering in a file  : sequential
ordering inter file : no tasks offsets
nodes               : 14
tasks               : 112
clients per node    : 8
repetitions         : 1
xfersize            : 1 MiB
blocksize           : 292 MiB
aggregate filesize  : 31.94 GiB

Results: 
WARNING: The file "/beegfs/lgouveia/ior_4/testFile1" exists already and will be overwritten

access    bw(MiB/s)  IOPS       Latency(s)  block(KiB) xfer(KiB)  open(s)    wr/rd(s)   close(s)   total(s)   iter
------    ---------  ----       ----------  ---------- ---------  --------   --------   --------   --------   ----
write     5537       5538       0.014339    299008     1024.00    0.307500   5.91       5.11       5.91       0   

Summary of all tests:
Operation   Max(MiB)   Min(MiB)  Mean(MiB)     StdDev   Max(OPs)   Min(OPs)  Mean(OPs)     StdDev    Mean(s) Stonewall(s) Stonewall(MiB) Test# #Tasks tPN reps fPP reord reordoff reordrand seed segcnt   blksiz    xsize aggs(MiB)   API RefNum
write        5537.27    5537.27    5537.27       0.00    5537.27    5537.27    5537.27       0.00    5.90616         NA            NA     0    112   8    1   0     0        1         0    0      1 306184192  1048576   32704.0 POSIX      0
Finished            : Sun Dec 12 21:29:39 2021
Tracking /beegfs/lgouveia/ior_4/testFile1...



Writing tracked information to tracker.csv...
IOR-3.4.0+dev: MPI Coordinated Test of Parallel I/O
Began               : Sun Dec 12 21:30:40 2021
Command line        : /home/lgouveia/ior/bin/ior -w -t 1m -b 292m -k -o /beegfs/lgouveia/ior_4/testFile1
Machine             : Linux bora015.plafrim.cluster
TestID              : 0
StartTime           : Sun Dec 12 21:30:40 2021
Path                : /beegfs/lgouveia/ior_4/testFile1
FS                  : 130.9 TiB   Used FS: 35.7%   Inodes: 0.0 Mi   Used Inodes: -nan%

Options: 
api                 : POSIX
apiVersion          : 
test filename       : /beegfs/lgouveia/ior_4/testFile1
access              : single-shared-file
type                : independent
segments            : 1
ordering in a file  : sequential
ordering inter file : no tasks offsets
nodes               : 14
tasks               : 112
clients per node    : 8
repetitions         : 1
xfersize            : 1 MiB
blocksize           : 292 MiB
aggregate filesize  : 31.94 GiB

Results: 
WARNING: The file "/beegfs/lgouveia/ior_4/testFile1" exists already and will be overwritten

access    bw(MiB/s)  IOPS       Latency(s)  block(KiB) xfer(KiB)  open(s)    wr/rd(s)   close(s)   total(s)   iter
------    ---------  ----       ----------  ---------- ---------  --------   --------   --------   --------   ----
write     5561       5563       0.016887    299008     1024.00    0.331077   5.88       4.92       5.88       0   

Summary of all tests:
Operation   Max(MiB)   Min(MiB)  Mean(MiB)     StdDev   Max(OPs)   Min(OPs)  Mean(OPs)     StdDev    Mean(s) Stonewall(s) Stonewall(MiB) Test# #Tasks tPN reps fPP reord reordoff reordrand seed segcnt   blksiz    xsize aggs(MiB)   API RefNum
write        5561.29    5561.29    5561.29       0.00    5561.29    5561.29    5561.29       0.00    5.88066         NA            NA     0    112   8    1   0     0        1         0    0      1 306184192  1048576   32704.0 POSIX      0
Finished            : Sun Dec 12 21:30:46 2021
Tracking /beegfs/lgouveia/ior_4/testFile1...



Writing tracked information to tracker.csv...
IOR-3.4.0+dev: MPI Coordinated Test of Parallel I/O
Began               : Sun Dec 12 21:31:47 2021
Command line        : /home/lgouveia/ior/bin/ior -w -t 1m -b 292m -k -o /beegfs/lgouveia/ior_4/testFile1
Machine             : Linux bora015.plafrim.cluster
TestID              : 0
StartTime           : Sun Dec 12 21:31:47 2021
Path                : /beegfs/lgouveia/ior_4/testFile1
FS                  : 130.9 TiB   Used FS: 35.7%   Inodes: 0.0 Mi   Used Inodes: -nan%

Options: 
api                 : POSIX
apiVersion          : 
test filename       : /beegfs/lgouveia/ior_4/testFile1
access              : single-shared-file
type                : independent
segments            : 1
ordering in a file  : sequential
ordering inter file : no tasks offsets
nodes               : 14
tasks               : 112
clients per node    : 8
repetitions         : 1
xfersize            : 1 MiB
blocksize           : 292 MiB
aggregate filesize  : 31.94 GiB

Results: 
WARNING: The file "/beegfs/lgouveia/ior_4/testFile1" exists already and will be overwritten

access    bw(MiB/s)  IOPS       Latency(s)  block(KiB) xfer(KiB)  open(s)    wr/rd(s)   close(s)   total(s)   iter
------    ---------  ----       ----------  ---------- ---------  --------   --------   --------   --------   ----
write     5534       5535       0.002519    299008     1024.00    0.194429   5.91       5.20       5.91       0   

Summary of all tests:
Operation   Max(MiB)   Min(MiB)  Mean(MiB)     StdDev   Max(OPs)   Min(OPs)  Mean(OPs)     StdDev    Mean(s) Stonewall(s) Stonewall(MiB) Test# #Tasks tPN reps fPP reord reordoff reordrand seed segcnt   blksiz    xsize aggs(MiB)   API RefNum
write        5534.50    5534.50    5534.50       0.00    5534.50    5534.50    5534.50       0.00    5.90912         NA            NA     0    112   8    1   0     0        1         0    0      1 306184192  1048576   32704.0 POSIX      0
Finished            : Sun Dec 12 21:31:53 2021
Tracking /beegfs/lgouveia/ior_4/testFile1...



Writing tracked information to tracker.csv...
