===== My JOB Information ====
Node List:  bora[015-024,037,039-041]
my jobID:  1466121
Partition: routage
submit directory:  /home/lgouveia/luan-teylo/tests/omnipath/compute_nodes/4_targets/14
submit host:  devel02.plafrim.cluster
In the directory: /home/lgouveia/luan-teylo/tests/omnipath/compute_nodes/4_targets/14
As the user: lgouveia
============================
IOR-3.4.0+dev: MPI Coordinated Test of Parallel I/O
Began               : Sun Dec 12 20:34:44 2021
Command line        : /home/lgouveia/ior/bin/ior -w -t 1m -b 292m -k -o /beegfs/lgouveia/ior_4/testFile1
Machine             : Linux bora015.plafrim.cluster
TestID              : 0
StartTime           : Sun Dec 12 20:34:44 2021
Path                : /beegfs/lgouveia/ior_4/testFile1
FS                  : 130.9 TiB   Used FS: 35.7%   Inodes: 0.0 Mi   Used Inodes: -nan%

Options: 
api                 : POSIX
apiVersion          : 
test filename       : /beegfs/lgouveia/ior_4/testFile1
access              : single-shared-file
type                : independent
segments            : 1
ordering in a file  : sequential
ordering inter file : no tasks offsets
nodes               : 14
tasks               : 112
clients per node    : 8
repetitions         : 1
xfersize            : 1 MiB
blocksize           : 292 MiB
aggregate filesize  : 31.94 GiB

Results: 
WARNING: The file "/beegfs/lgouveia/ior_4/testFile1" exists already and will be overwritten

access    bw(MiB/s)  IOPS       Latency(s)  block(KiB) xfer(KiB)  open(s)    wr/rd(s)   close(s)   total(s)   iter
------    ---------  ----       ----------  ---------- ---------  --------   --------   --------   --------   ----
write     5873       5874       0.016680    299008     1024.00    0.253553   5.57       4.76       5.57       0   

Summary of all tests:
Operation   Max(MiB)   Min(MiB)  Mean(MiB)     StdDev   Max(OPs)   Min(OPs)  Mean(OPs)     StdDev    Mean(s) Stonewall(s) Stonewall(MiB) Test# #Tasks tPN reps fPP reord reordoff reordrand seed segcnt   blksiz    xsize aggs(MiB)   API RefNum
write        5872.78    5872.78    5872.78       0.00    5872.78    5872.78    5872.78       0.00    5.56874         NA            NA     0    112   8    1   0     0        1         0    0      1 306184192  1048576   32704.0 POSIX      0
Finished            : Sun Dec 12 20:34:50 2021
Tracking /beegfs/lgouveia/ior_4/testFile1...



Writing tracked information to tracker.csv...
IOR-3.4.0+dev: MPI Coordinated Test of Parallel I/O
Began               : Sun Dec 12 20:35:52 2021
Command line        : /home/lgouveia/ior/bin/ior -w -t 1m -b 292m -k -o /beegfs/lgouveia/ior_4/testFile1
Machine             : Linux bora015.plafrim.cluster
TestID              : 0
StartTime           : Sun Dec 12 20:35:52 2021
Path                : /beegfs/lgouveia/ior_4/testFile1
FS                  : 130.9 TiB   Used FS: 35.7%   Inodes: 0.0 Mi   Used Inodes: -nan%

Options: 
api                 : POSIX
apiVersion          : 
test filename       : /beegfs/lgouveia/ior_4/testFile1
access              : single-shared-file
type                : independent
segments            : 1
ordering in a file  : sequential
ordering inter file : no tasks offsets
nodes               : 14
tasks               : 112
clients per node    : 8
repetitions         : 1
xfersize            : 1 MiB
blocksize           : 292 MiB
aggregate filesize  : 31.94 GiB

Results: 
WARNING: The file "/beegfs/lgouveia/ior_4/testFile1" exists already and will be overwritten

access    bw(MiB/s)  IOPS       Latency(s)  block(KiB) xfer(KiB)  open(s)    wr/rd(s)   close(s)   total(s)   iter
------    ---------  ----       ----------  ---------- ---------  --------   --------   --------   --------   ----
write     6468       6470       0.007123    299008     1024.00    0.236752   5.06       4.31       5.06       0   

Summary of all tests:
Operation   Max(MiB)   Min(MiB)  Mean(MiB)     StdDev   Max(OPs)   Min(OPs)  Mean(OPs)     StdDev    Mean(s) Stonewall(s) Stonewall(MiB) Test# #Tasks tPN reps fPP reord reordoff reordrand seed segcnt   blksiz    xsize aggs(MiB)   API RefNum
write        6468.17    6468.17    6468.17       0.00    6468.17    6468.17    6468.17       0.00    5.05615         NA            NA     0    112   8    1   0     0        1         0    0      1 306184192  1048576   32704.0 POSIX      0
Finished            : Sun Dec 12 20:35:57 2021
Tracking /beegfs/lgouveia/ior_4/testFile1...



Writing tracked information to tracker.csv...
IOR-3.4.0+dev: MPI Coordinated Test of Parallel I/O
Began               : Sun Dec 12 20:36:58 2021
Command line        : /home/lgouveia/ior/bin/ior -w -t 1m -b 292m -k -o /beegfs/lgouveia/ior_4/testFile1
Machine             : Linux bora015.plafrim.cluster
TestID              : 0
StartTime           : Sun Dec 12 20:36:58 2021
Path                : /beegfs/lgouveia/ior_4/testFile1
FS                  : 130.9 TiB   Used FS: 35.7%   Inodes: 0.0 Mi   Used Inodes: -nan%

Options: 
api                 : POSIX
apiVersion          : 
test filename       : /beegfs/lgouveia/ior_4/testFile1
access              : single-shared-file
type                : independent
segments            : 1
ordering in a file  : sequential
ordering inter file : no tasks offsets
nodes               : 14
tasks               : 112
clients per node    : 8
repetitions         : 1
xfersize            : 1 MiB
blocksize           : 292 MiB
aggregate filesize  : 31.94 GiB

Results: 
WARNING: The file "/beegfs/lgouveia/ior_4/testFile1" exists already and will be overwritten

access    bw(MiB/s)  IOPS       Latency(s)  block(KiB) xfer(KiB)  open(s)    wr/rd(s)   close(s)   total(s)   iter
------    ---------  ----       ----------  ---------- ---------  --------   --------   --------   --------   ----
write     5425       5426       0.017906    299008     1024.00    0.078777   6.03       5.39       6.03       0   

Summary of all tests:
Operation   Max(MiB)   Min(MiB)  Mean(MiB)     StdDev   Max(OPs)   Min(OPs)  Mean(OPs)     StdDev    Mean(s) Stonewall(s) Stonewall(MiB) Test# #Tasks tPN reps fPP reord reordoff reordrand seed segcnt   blksiz    xsize aggs(MiB)   API RefNum
write        5425.28    5425.28    5425.28       0.00    5425.28    5425.28    5425.28       0.00    6.02808         NA            NA     0    112   8    1   0     0        1         0    0      1 306184192  1048576   32704.0 POSIX      0
Finished            : Sun Dec 12 20:37:04 2021
Tracking /beegfs/lgouveia/ior_4/testFile1...



Writing tracked information to tracker.csv...
IOR-3.4.0+dev: MPI Coordinated Test of Parallel I/O
Began               : Sun Dec 12 20:38:05 2021
Command line        : /home/lgouveia/ior/bin/ior -w -t 1m -b 292m -k -o /beegfs/lgouveia/ior_4/testFile1
Machine             : Linux bora015.plafrim.cluster
TestID              : 0
StartTime           : Sun Dec 12 20:38:05 2021
Path                : /beegfs/lgouveia/ior_4/testFile1
FS                  : 130.9 TiB   Used FS: 35.7%   Inodes: 0.0 Mi   Used Inodes: -nan%

Options: 
api                 : POSIX
apiVersion          : 
test filename       : /beegfs/lgouveia/ior_4/testFile1
access              : single-shared-file
type                : independent
segments            : 1
ordering in a file  : sequential
ordering inter file : no tasks offsets
nodes               : 14
tasks               : 112
clients per node    : 8
repetitions         : 1
xfersize            : 1 MiB
blocksize           : 292 MiB
aggregate filesize  : 31.94 GiB

Results: 
WARNING: The file "/beegfs/lgouveia/ior_4/testFile1" exists already and will be overwritten

access    bw(MiB/s)  IOPS       Latency(s)  block(KiB) xfer(KiB)  open(s)    wr/rd(s)   close(s)   total(s)   iter
------    ---------  ----       ----------  ---------- ---------  --------   --------   --------   --------   ----
write     6031       6032       0.006844    299008     1024.00    0.334926   5.42       4.56       5.42       0   

Summary of all tests:
Operation   Max(MiB)   Min(MiB)  Mean(MiB)     StdDev   Max(OPs)   Min(OPs)  Mean(OPs)     StdDev    Mean(s) Stonewall(s) Stonewall(MiB) Test# #Tasks tPN reps fPP reord reordoff reordrand seed segcnt   blksiz    xsize aggs(MiB)   API RefNum
write        6031.33    6031.33    6031.33       0.00    6031.33    6031.33    6031.33       0.00    5.42235         NA            NA     0    112   8    1   0     0        1         0    0      1 306184192  1048576   32704.0 POSIX      0
Finished            : Sun Dec 12 20:38:11 2021
Tracking /beegfs/lgouveia/ior_4/testFile1...



Writing tracked information to tracker.csv...
IOR-3.4.0+dev: MPI Coordinated Test of Parallel I/O
Began               : Sun Dec 12 20:39:12 2021
Command line        : /home/lgouveia/ior/bin/ior -w -t 1m -b 292m -k -o /beegfs/lgouveia/ior_4/testFile1
Machine             : Linux bora015.plafrim.cluster
TestID              : 0
StartTime           : Sun Dec 12 20:39:12 2021
Path                : /beegfs/lgouveia/ior_4/testFile1
FS                  : 130.9 TiB   Used FS: 35.7%   Inodes: 0.0 Mi   Used Inodes: -nan%

Options: 
api                 : POSIX
apiVersion          : 
test filename       : /beegfs/lgouveia/ior_4/testFile1
access              : single-shared-file
type                : independent
segments            : 1
ordering in a file  : sequential
ordering inter file : no tasks offsets
nodes               : 14
tasks               : 112
clients per node    : 8
repetitions         : 1
xfersize            : 1 MiB
blocksize           : 292 MiB
aggregate filesize  : 31.94 GiB

Results: 
WARNING: The file "/beegfs/lgouveia/ior_4/testFile1" exists already and will be overwritten

access    bw(MiB/s)  IOPS       Latency(s)  block(KiB) xfer(KiB)  open(s)    wr/rd(s)   close(s)   total(s)   iter
------    ---------  ----       ----------  ---------- ---------  --------   --------   --------   --------   ----
write     6522       6523       0.004334    299008     1024.00    0.139517   5.01       4.29       5.01       0   

Summary of all tests:
Operation   Max(MiB)   Min(MiB)  Mean(MiB)     StdDev   Max(OPs)   Min(OPs)  Mean(OPs)     StdDev    Mean(s) Stonewall(s) Stonewall(MiB) Test# #Tasks tPN reps fPP reord reordoff reordrand seed segcnt   blksiz    xsize aggs(MiB)   API RefNum
write        6522.08    6522.08    6522.08       0.00    6522.08    6522.08    6522.08       0.00    5.01435         NA            NA     0    112   8    1   0     0        1         0    0      1 306184192  1048576   32704.0 POSIX      0
Finished            : Sun Dec 12 20:39:17 2021
Tracking /beegfs/lgouveia/ior_4/testFile1...



Writing tracked information to tracker.csv...
IOR-3.4.0+dev: MPI Coordinated Test of Parallel I/O
Began               : Sun Dec 12 20:40:18 2021
Command line        : /home/lgouveia/ior/bin/ior -w -t 1m -b 292m -k -o /beegfs/lgouveia/ior_4/testFile1
Machine             : Linux bora015.plafrim.cluster
TestID              : 0
StartTime           : Sun Dec 12 20:40:18 2021
Path                : /beegfs/lgouveia/ior_4/testFile1
FS                  : 130.9 TiB   Used FS: 35.7%   Inodes: 0.0 Mi   Used Inodes: -nan%

Options: 
api                 : POSIX
apiVersion          : 
test filename       : /beegfs/lgouveia/ior_4/testFile1
access              : single-shared-file
type                : independent
segments            : 1
ordering in a file  : sequential
ordering inter file : no tasks offsets
nodes               : 14
tasks               : 112
clients per node    : 8
repetitions         : 1
xfersize            : 1 MiB
blocksize           : 292 MiB
aggregate filesize  : 31.94 GiB

Results: 
WARNING: The file "/beegfs/lgouveia/ior_4/testFile1" exists already and will be overwritten

access    bw(MiB/s)  IOPS       Latency(s)  block(KiB) xfer(KiB)  open(s)    wr/rd(s)   close(s)   total(s)   iter
------    ---------  ----       ----------  ---------- ---------  --------   --------   --------   --------   ----
write     5722       5723       0.004638    299008     1024.00    0.096841   5.71       4.99       5.72       0   

Summary of all tests:
Operation   Max(MiB)   Min(MiB)  Mean(MiB)     StdDev   Max(OPs)   Min(OPs)  Mean(OPs)     StdDev    Mean(s) Stonewall(s) Stonewall(MiB) Test# #Tasks tPN reps fPP reord reordoff reordrand seed segcnt   blksiz    xsize aggs(MiB)   API RefNum
write        5721.59    5721.59    5721.59       0.00    5721.59    5721.59    5721.59       0.00    5.71589         NA            NA     0    112   8    1   0     0        1         0    0      1 306184192  1048576   32704.0 POSIX      0
Finished            : Sun Dec 12 20:40:24 2021
Tracking /beegfs/lgouveia/ior_4/testFile1...



Writing tracked information to tracker.csv...
IOR-3.4.0+dev: MPI Coordinated Test of Parallel I/O
Began               : Sun Dec 12 20:41:25 2021
Command line        : /home/lgouveia/ior/bin/ior -w -t 1m -b 292m -k -o /beegfs/lgouveia/ior_4/testFile1
Machine             : Linux bora015.plafrim.cluster
TestID              : 0
StartTime           : Sun Dec 12 20:41:25 2021
Path                : /beegfs/lgouveia/ior_4/testFile1
FS                  : 130.9 TiB   Used FS: 35.7%   Inodes: 0.0 Mi   Used Inodes: -nan%

Options: 
api                 : POSIX
apiVersion          : 
test filename       : /beegfs/lgouveia/ior_4/testFile1
access              : single-shared-file
type                : independent
segments            : 1
ordering in a file  : sequential
ordering inter file : no tasks offsets
nodes               : 14
tasks               : 112
clients per node    : 8
repetitions         : 1
xfersize            : 1 MiB
blocksize           : 292 MiB
aggregate filesize  : 31.94 GiB

Results: 
WARNING: The file "/beegfs/lgouveia/ior_4/testFile1" exists already and will be overwritten

access    bw(MiB/s)  IOPS       Latency(s)  block(KiB) xfer(KiB)  open(s)    wr/rd(s)   close(s)   total(s)   iter
------    ---------  ----       ----------  ---------- ---------  --------   --------   --------   --------   ----
write     6302       6304       0.009423    299008     1024.00    0.123417   5.19       4.35       5.19       0   

Summary of all tests:
Operation   Max(MiB)   Min(MiB)  Mean(MiB)     StdDev   Max(OPs)   Min(OPs)  Mean(OPs)     StdDev    Mean(s) Stonewall(s) Stonewall(MiB) Test# #Tasks tPN reps fPP reord reordoff reordrand seed segcnt   blksiz    xsize aggs(MiB)   API RefNum
write        6302.48    6302.48    6302.48       0.00    6302.48    6302.48    6302.48       0.00    5.18907         NA            NA     0    112   8    1   0     0        1         0    0      1 306184192  1048576   32704.0 POSIX      0
Finished            : Sun Dec 12 20:41:30 2021
Tracking /beegfs/lgouveia/ior_4/testFile1...



Writing tracked information to tracker.csv...
IOR-3.4.0+dev: MPI Coordinated Test of Parallel I/O
Began               : Sun Dec 12 20:42:31 2021
Command line        : /home/lgouveia/ior/bin/ior -w -t 1m -b 292m -k -o /beegfs/lgouveia/ior_4/testFile1
Machine             : Linux bora015.plafrim.cluster
TestID              : 0
StartTime           : Sun Dec 12 20:42:31 2021
Path                : /beegfs/lgouveia/ior_4/testFile1
FS                  : 130.9 TiB   Used FS: 35.7%   Inodes: 0.0 Mi   Used Inodes: -nan%

Options: 
api                 : POSIX
apiVersion          : 
test filename       : /beegfs/lgouveia/ior_4/testFile1
access              : single-shared-file
type                : independent
segments            : 1
ordering in a file  : sequential
ordering inter file : no tasks offsets
nodes               : 14
tasks               : 112
clients per node    : 8
repetitions         : 1
xfersize            : 1 MiB
blocksize           : 292 MiB
aggregate filesize  : 31.94 GiB

Results: 
WARNING: The file "/beegfs/lgouveia/ior_4/testFile1" exists already and will be overwritten

access    bw(MiB/s)  IOPS       Latency(s)  block(KiB) xfer(KiB)  open(s)    wr/rd(s)   close(s)   total(s)   iter
------    ---------  ----       ----------  ---------- ---------  --------   --------   --------   --------   ----
write     5708       5709       0.003072    299008     1024.00    0.188787   5.73       4.99       5.73       0   

Summary of all tests:
Operation   Max(MiB)   Min(MiB)  Mean(MiB)     StdDev   Max(OPs)   Min(OPs)  Mean(OPs)     StdDev    Mean(s) Stonewall(s) Stonewall(MiB) Test# #Tasks tPN reps fPP reord reordoff reordrand seed segcnt   blksiz    xsize aggs(MiB)   API RefNum
write        5708.16    5708.16    5708.16       0.00    5708.16    5708.16    5708.16       0.00    5.72934         NA            NA     0    112   8    1   0     0        1         0    0      1 306184192  1048576   32704.0 POSIX      0
Finished            : Sun Dec 12 20:42:37 2021
Tracking /beegfs/lgouveia/ior_4/testFile1...



Writing tracked information to tracker.csv...
IOR-3.4.0+dev: MPI Coordinated Test of Parallel I/O
Began               : Sun Dec 12 20:43:38 2021
Command line        : /home/lgouveia/ior/bin/ior -w -t 1m -b 292m -k -o /beegfs/lgouveia/ior_4/testFile1
Machine             : Linux bora015.plafrim.cluster
TestID              : 0
StartTime           : Sun Dec 12 20:43:38 2021
Path                : /beegfs/lgouveia/ior_4/testFile1
FS                  : 130.9 TiB   Used FS: 35.7%   Inodes: 0.0 Mi   Used Inodes: -nan%

Options: 
api                 : POSIX
apiVersion          : 
test filename       : /beegfs/lgouveia/ior_4/testFile1
access              : single-shared-file
type                : independent
segments            : 1
ordering in a file  : sequential
ordering inter file : no tasks offsets
nodes               : 14
tasks               : 112
clients per node    : 8
repetitions         : 1
xfersize            : 1 MiB
blocksize           : 292 MiB
aggregate filesize  : 31.94 GiB

Results: 
WARNING: The file "/beegfs/lgouveia/ior_4/testFile1" exists already and will be overwritten

access    bw(MiB/s)  IOPS       Latency(s)  block(KiB) xfer(KiB)  open(s)    wr/rd(s)   close(s)   total(s)   iter
------    ---------  ----       ----------  ---------- ---------  --------   --------   --------   --------   ----
write     5759       5760       0.004316    299008     1024.00    0.197995   5.68       4.75       5.68       0   

Summary of all tests:
Operation   Max(MiB)   Min(MiB)  Mean(MiB)     StdDev   Max(OPs)   Min(OPs)  Mean(OPs)     StdDev    Mean(s) Stonewall(s) Stonewall(MiB) Test# #Tasks tPN reps fPP reord reordoff reordrand seed segcnt   blksiz    xsize aggs(MiB)   API RefNum
write        5758.52    5758.52    5758.52       0.00    5758.52    5758.52    5758.52       0.00    5.67923         NA            NA     0    112   8    1   0     0        1         0    0      1 306184192  1048576   32704.0 POSIX      0
Finished            : Sun Dec 12 20:43:44 2021
Tracking /beegfs/lgouveia/ior_4/testFile1...



Writing tracked information to tracker.csv...
IOR-3.4.0+dev: MPI Coordinated Test of Parallel I/O
Began               : Sun Dec 12 20:44:45 2021
Command line        : /home/lgouveia/ior/bin/ior -w -t 1m -b 292m -k -o /beegfs/lgouveia/ior_4/testFile1
Machine             : Linux bora015.plafrim.cluster
TestID              : 0
StartTime           : Sun Dec 12 20:44:45 2021
Path                : /beegfs/lgouveia/ior_4/testFile1
FS                  : 130.9 TiB   Used FS: 35.7%   Inodes: 0.0 Mi   Used Inodes: -nan%

Options: 
api                 : POSIX
apiVersion          : 
test filename       : /beegfs/lgouveia/ior_4/testFile1
access              : single-shared-file
type                : independent
segments            : 1
ordering in a file  : sequential
ordering inter file : no tasks offsets
nodes               : 14
tasks               : 112
clients per node    : 8
repetitions         : 1
xfersize            : 1 MiB
blocksize           : 292 MiB
aggregate filesize  : 31.94 GiB

Results: 
WARNING: The file "/beegfs/lgouveia/ior_4/testFile1" exists already and will be overwritten

access    bw(MiB/s)  IOPS       Latency(s)  block(KiB) xfer(KiB)  open(s)    wr/rd(s)   close(s)   total(s)   iter
------    ---------  ----       ----------  ---------- ---------  --------   --------   --------   --------   ----
write     5362       5363       0.014453    299008     1024.00    0.168009   6.10       5.22       6.10       0   

Summary of all tests:
Operation   Max(MiB)   Min(MiB)  Mean(MiB)     StdDev   Max(OPs)   Min(OPs)  Mean(OPs)     StdDev    Mean(s) Stonewall(s) Stonewall(MiB) Test# #Tasks tPN reps fPP reord reordoff reordrand seed segcnt   blksiz    xsize aggs(MiB)   API RefNum
write        5361.98    5361.98    5361.98       0.00    5361.98    5361.98    5361.98       0.00    6.09924         NA            NA     0    112   8    1   0     0        1         0    0      1 306184192  1048576   32704.0 POSIX      0
Finished            : Sun Dec 12 20:44:51 2021
Tracking /beegfs/lgouveia/ior_4/testFile1...



Writing tracked information to tracker.csv...
