===== My JOB Information ====
Node List:  bora[015-024,037,039-041]
my jobID:  1466123
Partition: routage
submit directory:  /home/lgouveia/luan-teylo/tests/omnipath/compute_nodes/4_targets/14
submit host:  devel02.plafrim.cluster
In the directory: /home/lgouveia/luan-teylo/tests/omnipath/compute_nodes/4_targets/14
As the user: lgouveia
============================
IOR-3.4.0+dev: MPI Coordinated Test of Parallel I/O
Began               : Sun Dec 12 21:08:44 2021
Command line        : /home/lgouveia/ior/bin/ior -w -t 1m -b 292m -k -o /beegfs/lgouveia/ior_4/testFile1
Machine             : Linux bora015.plafrim.cluster
TestID              : 0
StartTime           : Sun Dec 12 21:08:44 2021
Path                : /beegfs/lgouveia/ior_4/testFile1
FS                  : 130.9 TiB   Used FS: 35.7%   Inodes: 0.0 Mi   Used Inodes: -nan%

Options: 
api                 : POSIX
apiVersion          : 
test filename       : /beegfs/lgouveia/ior_4/testFile1
access              : single-shared-file
type                : independent
segments            : 1
ordering in a file  : sequential
ordering inter file : no tasks offsets
nodes               : 14
tasks               : 112
clients per node    : 8
repetitions         : 1
xfersize            : 1 MiB
blocksize           : 292 MiB
aggregate filesize  : 31.94 GiB

Results: 
WARNING: The file "/beegfs/lgouveia/ior_4/testFile1" exists already and will be overwritten

access    bw(MiB/s)  IOPS       Latency(s)  block(KiB) xfer(KiB)  open(s)    wr/rd(s)   close(s)   total(s)   iter
------    ---------  ----       ----------  ---------- ---------  --------   --------   --------   --------   ----
write     5898       5899       0.002855    299008     1024.00    0.119834   5.54       4.95       5.55       0   

Summary of all tests:
Operation   Max(MiB)   Min(MiB)  Mean(MiB)     StdDev   Max(OPs)   Min(OPs)  Mean(OPs)     StdDev    Mean(s) Stonewall(s) Stonewall(MiB) Test# #Tasks tPN reps fPP reord reordoff reordrand seed segcnt   blksiz    xsize aggs(MiB)   API RefNum
write        5897.82    5897.82    5897.82       0.00    5897.82    5897.82    5897.82       0.00    5.54510         NA            NA     0    112   8    1   0     0        1         0    0      1 306184192  1048576   32704.0 POSIX      0
Finished            : Sun Dec 12 21:08:50 2021
Tracking /beegfs/lgouveia/ior_4/testFile1...



Writing tracked information to tracker.csv...
IOR-3.4.0+dev: MPI Coordinated Test of Parallel I/O
Began               : Sun Dec 12 21:09:51 2021
Command line        : /home/lgouveia/ior/bin/ior -w -t 1m -b 292m -k -o /beegfs/lgouveia/ior_4/testFile1
Machine             : Linux bora015.plafrim.cluster
TestID              : 0
StartTime           : Sun Dec 12 21:09:51 2021
Path                : /beegfs/lgouveia/ior_4/testFile1
FS                  : 130.9 TiB   Used FS: 35.7%   Inodes: 0.0 Mi   Used Inodes: -nan%

Options: 
api                 : POSIX
apiVersion          : 
test filename       : /beegfs/lgouveia/ior_4/testFile1
access              : single-shared-file
type                : independent
segments            : 1
ordering in a file  : sequential
ordering inter file : no tasks offsets
nodes               : 14
tasks               : 112
clients per node    : 8
repetitions         : 1
xfersize            : 1 MiB
blocksize           : 292 MiB
aggregate filesize  : 31.94 GiB

Results: 
WARNING: The file "/beegfs/lgouveia/ior_4/testFile1" exists already and will be overwritten

access    bw(MiB/s)  IOPS       Latency(s)  block(KiB) xfer(KiB)  open(s)    wr/rd(s)   close(s)   total(s)   iter
------    ---------  ----       ----------  ---------- ---------  --------   --------   --------   --------   ----
write     5811       5812       0.006335    299008     1024.00    0.145260   5.63       4.93       5.63       0   

Summary of all tests:
Operation   Max(MiB)   Min(MiB)  Mean(MiB)     StdDev   Max(OPs)   Min(OPs)  Mean(OPs)     StdDev    Mean(s) Stonewall(s) Stonewall(MiB) Test# #Tasks tPN reps fPP reord reordoff reordrand seed segcnt   blksiz    xsize aggs(MiB)   API RefNum
write        5810.77    5810.77    5810.77       0.00    5810.77    5810.77    5810.77       0.00    5.62817         NA            NA     0    112   8    1   0     0        1         0    0      1 306184192  1048576   32704.0 POSIX      0
Finished            : Sun Dec 12 21:09:57 2021
Tracking /beegfs/lgouveia/ior_4/testFile1...



Writing tracked information to tracker.csv...
IOR-3.4.0+dev: MPI Coordinated Test of Parallel I/O
Began               : Sun Dec 12 21:10:58 2021
Command line        : /home/lgouveia/ior/bin/ior -w -t 1m -b 292m -k -o /beegfs/lgouveia/ior_4/testFile1
Machine             : Linux bora015.plafrim.cluster
TestID              : 0
StartTime           : Sun Dec 12 21:10:58 2021
Path                : /beegfs/lgouveia/ior_4/testFile1
FS                  : 130.9 TiB   Used FS: 35.7%   Inodes: 0.0 Mi   Used Inodes: -nan%

Options: 
api                 : POSIX
apiVersion          : 
test filename       : /beegfs/lgouveia/ior_4/testFile1
access              : single-shared-file
type                : independent
segments            : 1
ordering in a file  : sequential
ordering inter file : no tasks offsets
nodes               : 14
tasks               : 112
clients per node    : 8
repetitions         : 1
xfersize            : 1 MiB
blocksize           : 292 MiB
aggregate filesize  : 31.94 GiB

Results: 
WARNING: The file "/beegfs/lgouveia/ior_4/testFile1" exists already and will be overwritten

access    bw(MiB/s)  IOPS       Latency(s)  block(KiB) xfer(KiB)  open(s)    wr/rd(s)   close(s)   total(s)   iter
------    ---------  ----       ----------  ---------- ---------  --------   --------   --------   --------   ----
write     6121       6122       0.008908    299008     1024.00    0.085856   5.34       4.39       5.34       0   

Summary of all tests:
Operation   Max(MiB)   Min(MiB)  Mean(MiB)     StdDev   Max(OPs)   Min(OPs)  Mean(OPs)     StdDev    Mean(s) Stonewall(s) Stonewall(MiB) Test# #Tasks tPN reps fPP reord reordoff reordrand seed segcnt   blksiz    xsize aggs(MiB)   API RefNum
write        6121.05    6121.05    6121.05       0.00    6121.05    6121.05    6121.05       0.00    5.34288         NA            NA     0    112   8    1   0     0        1         0    0      1 306184192  1048576   32704.0 POSIX      0
Finished            : Sun Dec 12 21:11:03 2021
Tracking /beegfs/lgouveia/ior_4/testFile1...



Writing tracked information to tracker.csv...
IOR-3.4.0+dev: MPI Coordinated Test of Parallel I/O
Began               : Sun Dec 12 21:12:04 2021
Command line        : /home/lgouveia/ior/bin/ior -w -t 1m -b 292m -k -o /beegfs/lgouveia/ior_4/testFile1
Machine             : Linux bora015.plafrim.cluster
TestID              : 0
StartTime           : Sun Dec 12 21:12:04 2021
Path                : /beegfs/lgouveia/ior_4/testFile1
FS                  : 130.9 TiB   Used FS: 35.7%   Inodes: 0.0 Mi   Used Inodes: -nan%

Options: 
api                 : POSIX
apiVersion          : 
test filename       : /beegfs/lgouveia/ior_4/testFile1
access              : single-shared-file
type                : independent
segments            : 1
ordering in a file  : sequential
ordering inter file : no tasks offsets
nodes               : 14
tasks               : 112
clients per node    : 8
repetitions         : 1
xfersize            : 1 MiB
blocksize           : 292 MiB
aggregate filesize  : 31.94 GiB

Results: 
WARNING: The file "/beegfs/lgouveia/ior_4/testFile1" exists already and will be overwritten

access    bw(MiB/s)  IOPS       Latency(s)  block(KiB) xfer(KiB)  open(s)    wr/rd(s)   close(s)   total(s)   iter
------    ---------  ----       ----------  ---------- ---------  --------   --------   --------   --------   ----
write     5780       5781       0.011189    299008     1024.00    0.124454   5.66       4.87       5.66       0   

Summary of all tests:
Operation   Max(MiB)   Min(MiB)  Mean(MiB)     StdDev   Max(OPs)   Min(OPs)  Mean(OPs)     StdDev    Mean(s) Stonewall(s) Stonewall(MiB) Test# #Tasks tPN reps fPP reord reordoff reordrand seed segcnt   blksiz    xsize aggs(MiB)   API RefNum
write        5780.20    5780.20    5780.20       0.00    5780.20    5780.20    5780.20       0.00    5.65793         NA            NA     0    112   8    1   0     0        1         0    0      1 306184192  1048576   32704.0 POSIX      0
Finished            : Sun Dec 12 21:12:10 2021
Tracking /beegfs/lgouveia/ior_4/testFile1...



Writing tracked information to tracker.csv...
IOR-3.4.0+dev: MPI Coordinated Test of Parallel I/O
Began               : Sun Dec 12 21:13:11 2021
Command line        : /home/lgouveia/ior/bin/ior -w -t 1m -b 292m -k -o /beegfs/lgouveia/ior_4/testFile1
Machine             : Linux bora015.plafrim.cluster
TestID              : 0
StartTime           : Sun Dec 12 21:13:11 2021
Path                : /beegfs/lgouveia/ior_4/testFile1
FS                  : 130.9 TiB   Used FS: 35.7%   Inodes: 0.0 Mi   Used Inodes: -nan%

Options: 
api                 : POSIX
apiVersion          : 
test filename       : /beegfs/lgouveia/ior_4/testFile1
access              : single-shared-file
type                : independent
segments            : 1
ordering in a file  : sequential
ordering inter file : no tasks offsets
nodes               : 14
tasks               : 112
clients per node    : 8
repetitions         : 1
xfersize            : 1 MiB
blocksize           : 292 MiB
aggregate filesize  : 31.94 GiB

Results: 
WARNING: The file "/beegfs/lgouveia/ior_4/testFile1" exists already and will be overwritten

access    bw(MiB/s)  IOPS       Latency(s)  block(KiB) xfer(KiB)  open(s)    wr/rd(s)   close(s)   total(s)   iter
------    ---------  ----       ----------  ---------- ---------  --------   --------   --------   --------   ----
write     6349       6351       0.003409    299008     1024.00    0.068223   5.15       4.48       5.15       0   

Summary of all tests:
Operation   Max(MiB)   Min(MiB)  Mean(MiB)     StdDev   Max(OPs)   Min(OPs)  Mean(OPs)     StdDev    Mean(s) Stonewall(s) Stonewall(MiB) Test# #Tasks tPN reps fPP reord reordoff reordrand seed segcnt   blksiz    xsize aggs(MiB)   API RefNum
write        6349.34    6349.34    6349.34       0.00    6349.34    6349.34    6349.34       0.00    5.15077         NA            NA     0    112   8    1   0     0        1         0    0      1 306184192  1048576   32704.0 POSIX      0
Finished            : Sun Dec 12 21:13:16 2021
Tracking /beegfs/lgouveia/ior_4/testFile1...



Writing tracked information to tracker.csv...
IOR-3.4.0+dev: MPI Coordinated Test of Parallel I/O
Began               : Sun Dec 12 21:14:17 2021
Command line        : /home/lgouveia/ior/bin/ior -w -t 1m -b 292m -k -o /beegfs/lgouveia/ior_4/testFile1
Machine             : Linux bora015.plafrim.cluster
TestID              : 0
StartTime           : Sun Dec 12 21:14:17 2021
Path                : /beegfs/lgouveia/ior_4/testFile1
FS                  : 130.9 TiB   Used FS: 35.7%   Inodes: 0.0 Mi   Used Inodes: -nan%

Options: 
api                 : POSIX
apiVersion          : 
test filename       : /beegfs/lgouveia/ior_4/testFile1
access              : single-shared-file
type                : independent
segments            : 1
ordering in a file  : sequential
ordering inter file : no tasks offsets
nodes               : 14
tasks               : 112
clients per node    : 8
repetitions         : 1
xfersize            : 1 MiB
blocksize           : 292 MiB
aggregate filesize  : 31.94 GiB

Results: 
WARNING: The file "/beegfs/lgouveia/ior_4/testFile1" exists already and will be overwritten

access    bw(MiB/s)  IOPS       Latency(s)  block(KiB) xfer(KiB)  open(s)    wr/rd(s)   close(s)   total(s)   iter
------    ---------  ----       ----------  ---------- ---------  --------   --------   --------   --------   ----
write     5879       5880       0.013136    299008     1024.00    0.208915   5.56       4.94       5.56       0   

Summary of all tests:
Operation   Max(MiB)   Min(MiB)  Mean(MiB)     StdDev   Max(OPs)   Min(OPs)  Mean(OPs)     StdDev    Mean(s) Stonewall(s) Stonewall(MiB) Test# #Tasks tPN reps fPP reord reordoff reordrand seed segcnt   blksiz    xsize aggs(MiB)   API RefNum
write        5878.88    5878.88    5878.88       0.00    5878.88    5878.88    5878.88       0.00    5.56297         NA            NA     0    112   8    1   0     0        1         0    0      1 306184192  1048576   32704.0 POSIX      0
Finished            : Sun Dec 12 21:14:23 2021
Tracking /beegfs/lgouveia/ior_4/testFile1...



Writing tracked information to tracker.csv...
IOR-3.4.0+dev: MPI Coordinated Test of Parallel I/O
Began               : Sun Dec 12 21:15:24 2021
Command line        : /home/lgouveia/ior/bin/ior -w -t 1m -b 292m -k -o /beegfs/lgouveia/ior_4/testFile1
Machine             : Linux bora015.plafrim.cluster
TestID              : 0
StartTime           : Sun Dec 12 21:15:24 2021
Path                : /beegfs/lgouveia/ior_4/testFile1
FS                  : 130.9 TiB   Used FS: 35.7%   Inodes: 0.0 Mi   Used Inodes: -nan%

Options: 
api                 : POSIX
apiVersion          : 
test filename       : /beegfs/lgouveia/ior_4/testFile1
access              : single-shared-file
type                : independent
segments            : 1
ordering in a file  : sequential
ordering inter file : no tasks offsets
nodes               : 14
tasks               : 112
clients per node    : 8
repetitions         : 1
xfersize            : 1 MiB
blocksize           : 292 MiB
aggregate filesize  : 31.94 GiB

Results: 
WARNING: The file "/beegfs/lgouveia/ior_4/testFile1" exists already and will be overwritten

access    bw(MiB/s)  IOPS       Latency(s)  block(KiB) xfer(KiB)  open(s)    wr/rd(s)   close(s)   total(s)   iter
------    ---------  ----       ----------  ---------- ---------  --------   --------   --------   --------   ----
write     5558       5559       0.002699    299008     1024.00    0.184628   5.88       5.22       5.88       0   

Summary of all tests:
Operation   Max(MiB)   Min(MiB)  Mean(MiB)     StdDev   Max(OPs)   Min(OPs)  Mean(OPs)     StdDev    Mean(s) Stonewall(s) Stonewall(MiB) Test# #Tasks tPN reps fPP reord reordoff reordrand seed segcnt   blksiz    xsize aggs(MiB)   API RefNum
write        5558.34    5558.34    5558.34       0.00    5558.34    5558.34    5558.34       0.00    5.88377         NA            NA     0    112   8    1   0     0        1         0    0      1 306184192  1048576   32704.0 POSIX      0
Finished            : Sun Dec 12 21:15:30 2021
Tracking /beegfs/lgouveia/ior_4/testFile1...



Writing tracked information to tracker.csv...
IOR-3.4.0+dev: MPI Coordinated Test of Parallel I/O
Began               : Sun Dec 12 21:16:31 2021
Command line        : /home/lgouveia/ior/bin/ior -w -t 1m -b 292m -k -o /beegfs/lgouveia/ior_4/testFile1
Machine             : Linux bora015.plafrim.cluster
TestID              : 0
StartTime           : Sun Dec 12 21:16:31 2021
Path                : /beegfs/lgouveia/ior_4/testFile1
FS                  : 130.9 TiB   Used FS: 35.7%   Inodes: 0.0 Mi   Used Inodes: -nan%

Options: 
api                 : POSIX
apiVersion          : 
test filename       : /beegfs/lgouveia/ior_4/testFile1
access              : single-shared-file
type                : independent
segments            : 1
ordering in a file  : sequential
ordering inter file : no tasks offsets
nodes               : 14
tasks               : 112
clients per node    : 8
repetitions         : 1
xfersize            : 1 MiB
blocksize           : 292 MiB
aggregate filesize  : 31.94 GiB

Results: 
WARNING: The file "/beegfs/lgouveia/ior_4/testFile1" exists already and will be overwritten

access    bw(MiB/s)  IOPS       Latency(s)  block(KiB) xfer(KiB)  open(s)    wr/rd(s)   close(s)   total(s)   iter
------    ---------  ----       ----------  ---------- ---------  --------   --------   --------   --------   ----
write     4950       4951       0.010470    299008     1024.00    0.185714   6.61       5.90       6.61       0   

Summary of all tests:
Operation   Max(MiB)   Min(MiB)  Mean(MiB)     StdDev   Max(OPs)   Min(OPs)  Mean(OPs)     StdDev    Mean(s) Stonewall(s) Stonewall(MiB) Test# #Tasks tPN reps fPP reord reordoff reordrand seed segcnt   blksiz    xsize aggs(MiB)   API RefNum
write        4949.92    4949.92    4949.92       0.00    4949.92    4949.92    4949.92       0.00    6.60698         NA            NA     0    112   8    1   0     0        1         0    0      1 306184192  1048576   32704.0 POSIX      0
Finished            : Sun Dec 12 21:16:37 2021
Tracking /beegfs/lgouveia/ior_4/testFile1...



Writing tracked information to tracker.csv...
IOR-3.4.0+dev: MPI Coordinated Test of Parallel I/O
Began               : Sun Dec 12 21:17:38 2021
Command line        : /home/lgouveia/ior/bin/ior -w -t 1m -b 292m -k -o /beegfs/lgouveia/ior_4/testFile1
Machine             : Linux bora015.plafrim.cluster
TestID              : 0
StartTime           : Sun Dec 12 21:17:38 2021
Path                : /beegfs/lgouveia/ior_4/testFile1
FS                  : 130.9 TiB   Used FS: 35.7%   Inodes: 0.0 Mi   Used Inodes: -nan%

Options: 
api                 : POSIX
apiVersion          : 
test filename       : /beegfs/lgouveia/ior_4/testFile1
access              : single-shared-file
type                : independent
segments            : 1
ordering in a file  : sequential
ordering inter file : no tasks offsets
nodes               : 14
tasks               : 112
clients per node    : 8
repetitions         : 1
xfersize            : 1 MiB
blocksize           : 292 MiB
aggregate filesize  : 31.94 GiB

Results: 
WARNING: The file "/beegfs/lgouveia/ior_4/testFile1" exists already and will be overwritten

access    bw(MiB/s)  IOPS       Latency(s)  block(KiB) xfer(KiB)  open(s)    wr/rd(s)   close(s)   total(s)   iter
------    ---------  ----       ----------  ---------- ---------  --------   --------   --------   --------   ----
write     5860       5861       0.002909    299008     1024.00    0.114735   5.58       4.88       5.58       0   

Summary of all tests:
Operation   Max(MiB)   Min(MiB)  Mean(MiB)     StdDev   Max(OPs)   Min(OPs)  Mean(OPs)     StdDev    Mean(s) Stonewall(s) Stonewall(MiB) Test# #Tasks tPN reps fPP reord reordoff reordrand seed segcnt   blksiz    xsize aggs(MiB)   API RefNum
write        5860.43    5860.43    5860.43       0.00    5860.43    5860.43    5860.43       0.00    5.58048         NA            NA     0    112   8    1   0     0        1         0    0      1 306184192  1048576   32704.0 POSIX      0
Finished            : Sun Dec 12 21:17:44 2021
Tracking /beegfs/lgouveia/ior_4/testFile1...



Writing tracked information to tracker.csv...
IOR-3.4.0+dev: MPI Coordinated Test of Parallel I/O
Began               : Sun Dec 12 21:18:45 2021
Command line        : /home/lgouveia/ior/bin/ior -w -t 1m -b 292m -k -o /beegfs/lgouveia/ior_4/testFile1
Machine             : Linux bora015.plafrim.cluster
TestID              : 0
StartTime           : Sun Dec 12 21:18:45 2021
Path                : /beegfs/lgouveia/ior_4/testFile1
FS                  : 130.9 TiB   Used FS: 35.7%   Inodes: 0.0 Mi   Used Inodes: -nan%

Options: 
api                 : POSIX
apiVersion          : 
test filename       : /beegfs/lgouveia/ior_4/testFile1
access              : single-shared-file
type                : independent
segments            : 1
ordering in a file  : sequential
ordering inter file : no tasks offsets
nodes               : 14
tasks               : 112
clients per node    : 8
repetitions         : 1
xfersize            : 1 MiB
blocksize           : 292 MiB
aggregate filesize  : 31.94 GiB

Results: 
WARNING: The file "/beegfs/lgouveia/ior_4/testFile1" exists already and will be overwritten

access    bw(MiB/s)  IOPS       Latency(s)  block(KiB) xfer(KiB)  open(s)    wr/rd(s)   close(s)   total(s)   iter
------    ---------  ----       ----------  ---------- ---------  --------   --------   --------   --------   ----
write     5582       5582       0.010501    299008     1024.00    0.161407   5.86       4.99       5.86       0   

Summary of all tests:
Operation   Max(MiB)   Min(MiB)  Mean(MiB)     StdDev   Max(OPs)   Min(OPs)  Mean(OPs)     StdDev    Mean(s) Stonewall(s) Stonewall(MiB) Test# #Tasks tPN reps fPP reord reordoff reordrand seed segcnt   blksiz    xsize aggs(MiB)   API RefNum
write        5581.54    5581.54    5581.54       0.00    5581.54    5581.54    5581.54       0.00    5.85932         NA            NA     0    112   8    1   0     0        1         0    0      1 306184192  1048576   32704.0 POSIX      0
Finished            : Sun Dec 12 21:18:51 2021
Tracking /beegfs/lgouveia/ior_4/testFile1...



Writing tracked information to tracker.csv...
