===== My JOB Information ====
Node List:  bora[002-033]
my jobID:  1445521
Partition: routage
submit directory:  /home/lgouveia/luan-teylo/tests/omnipath/storage_targets/01
submit host:  devel01.plafrim.cluster
In the directory: /home/lgouveia/luan-teylo/tests/omnipath/storage_targets/01
As the user: lgouveia
============================
IOR-3.4.0+dev: MPI Coordinated Test of Parallel I/O
Began               : Sat Oct  9 06:16:11 2021
Command line        : /home/lgouveia/ior/bin/ior -w -t 1m -b 128m -k -o /beegfs/lgouveia/ior_1/testFile1
Machine             : Linux bora002.plafrim.cluster
TestID              : 0
StartTime           : Sat Oct  9 06:16:11 2021
Path                : /beegfs/lgouveia/ior_1/testFile1
FS                  : 130.9 TiB   Used FS: 32.0%   Inodes: 0.0 Mi   Used Inodes: -nan%

Options: 
api                 : POSIX
apiVersion          : 
test filename       : /beegfs/lgouveia/ior_1/testFile1
access              : single-shared-file
type                : independent
segments            : 1
ordering in a file  : sequential
ordering inter file : no tasks offsets
nodes               : 32
tasks               : 256
clients per node    : 8
repetitions         : 1
xfersize            : 1 MiB
blocksize           : 128 MiB
aggregate filesize  : 32 GiB

Results: 
WARNING: The file "/beegfs/lgouveia/ior_1/testFile1" exists already and will be overwritten

access    bw(MiB/s)  IOPS       Latency(s)  block(KiB) xfer(KiB)  open(s)    wr/rd(s)   close(s)   total(s)   iter
------    ---------  ----       ----------  ---------- ---------  --------   --------   --------   --------   ----
write     1734.45    1734.52    0.108495    131072     1024.00    4.47       18.89      16.85      18.89      0   

Summary of all tests:
Operation   Max(MiB)   Min(MiB)  Mean(MiB)     StdDev   Max(OPs)   Min(OPs)  Mean(OPs)     StdDev    Mean(s) Stonewall(s) Stonewall(MiB) Test# #Tasks tPN reps fPP reord reordoff reordrand seed segcnt   blksiz    xsize aggs(MiB)   API RefNum
write        1734.45    1734.45    1734.45       0.00    1734.45    1734.45    1734.45       0.00   18.89246         NA            NA     0    256   8    1   0     0        1         0    0      1 134217728  1048576   32768.0 POSIX      0
Finished            : Sat Oct  9 06:16:30 2021
Tracking /beegfs/lgouveia/ior_1/testFile1...



Writing tracked information to tracker.csv...
IOR-3.4.0+dev: MPI Coordinated Test of Parallel I/O
Began               : Sat Oct  9 06:17:33 2021
Command line        : /home/lgouveia/ior/bin/ior -w -t 1m -b 128m -k -o /beegfs/lgouveia/ior_1/testFile1
Machine             : Linux bora002.plafrim.cluster
TestID              : 0
StartTime           : Sat Oct  9 06:17:33 2021
Path                : /beegfs/lgouveia/ior_1/testFile1
FS                  : 130.9 TiB   Used FS: 32.0%   Inodes: 0.0 Mi   Used Inodes: -nan%

Options: 
api                 : POSIX
apiVersion          : 
test filename       : /beegfs/lgouveia/ior_1/testFile1
access              : single-shared-file
type                : independent
segments            : 1
ordering in a file  : sequential
ordering inter file : no tasks offsets
nodes               : 32
tasks               : 256
clients per node    : 8
repetitions         : 1
xfersize            : 1 MiB
blocksize           : 128 MiB
aggregate filesize  : 32 GiB

Results: 
WARNING: The file "/beegfs/lgouveia/ior_1/testFile1" exists already and will be overwritten

access    bw(MiB/s)  IOPS       Latency(s)  block(KiB) xfer(KiB)  open(s)    wr/rd(s)   close(s)   total(s)   iter
------    ---------  ----       ----------  ---------- ---------  --------   --------   --------   --------   ----
write     1772.59    1772.98    0.082588    131072     1024.00    0.325997   18.48      16.93      18.49      0   

Summary of all tests:
Operation   Max(MiB)   Min(MiB)  Mean(MiB)     StdDev   Max(OPs)   Min(OPs)  Mean(OPs)     StdDev    Mean(s) Stonewall(s) Stonewall(MiB) Test# #Tasks tPN reps fPP reord reordoff reordrand seed segcnt   blksiz    xsize aggs(MiB)   API RefNum
write        1772.59    1772.59    1772.59       0.00    1772.59    1772.59    1772.59       0.00   18.48596         NA            NA     0    256   8    1   0     0        1         0    0      1 134217728  1048576   32768.0 POSIX      0
Finished            : Sat Oct  9 06:17:52 2021
Tracking /beegfs/lgouveia/ior_1/testFile1...



Writing tracked information to tracker.csv...
IOR-3.4.0+dev: MPI Coordinated Test of Parallel I/O
Began               : Sat Oct  9 06:18:54 2021
Command line        : /home/lgouveia/ior/bin/ior -w -t 1m -b 128m -k -o /beegfs/lgouveia/ior_1/testFile1
Machine             : Linux bora002.plafrim.cluster
TestID              : 0
StartTime           : Sat Oct  9 06:18:54 2021
Path                : /beegfs/lgouveia/ior_1/testFile1
FS                  : 130.9 TiB   Used FS: 32.0%   Inodes: 0.0 Mi   Used Inodes: -nan%

Options: 
api                 : POSIX
apiVersion          : 
test filename       : /beegfs/lgouveia/ior_1/testFile1
access              : single-shared-file
type                : independent
segments            : 1
ordering in a file  : sequential
ordering inter file : no tasks offsets
nodes               : 32
tasks               : 256
clients per node    : 8
repetitions         : 1
xfersize            : 1 MiB
blocksize           : 128 MiB
aggregate filesize  : 32 GiB

Results: 
WARNING: The file "/beegfs/lgouveia/ior_1/testFile1" exists already and will be overwritten

access    bw(MiB/s)  IOPS       Latency(s)  block(KiB) xfer(KiB)  open(s)    wr/rd(s)   close(s)   total(s)   iter
------    ---------  ----       ----------  ---------- ---------  --------   --------   --------   --------   ----
write     1718.90    1719.19    0.112885    131072     1024.00    0.032186   19.06      16.91      19.06      0   

Summary of all tests:
Operation   Max(MiB)   Min(MiB)  Mean(MiB)     StdDev   Max(OPs)   Min(OPs)  Mean(OPs)     StdDev    Mean(s) Stonewall(s) Stonewall(MiB) Test# #Tasks tPN reps fPP reord reordoff reordrand seed segcnt   blksiz    xsize aggs(MiB)   API RefNum
write        1718.90    1718.90    1718.90       0.00    1718.90    1718.90    1718.90       0.00   19.06330         NA            NA     0    256   8    1   0     0        1         0    0      1 134217728  1048576   32768.0 POSIX      0
Finished            : Sat Oct  9 06:19:13 2021
Tracking /beegfs/lgouveia/ior_1/testFile1...



Writing tracked information to tracker.csv...
IOR-3.4.0+dev: MPI Coordinated Test of Parallel I/O
Began               : Sat Oct  9 06:20:14 2021
Command line        : /home/lgouveia/ior/bin/ior -w -t 1m -b 128m -k -o /beegfs/lgouveia/ior_1/testFile1
Machine             : Linux bora002.plafrim.cluster
TestID              : 0
StartTime           : Sat Oct  9 06:20:14 2021
Path                : /beegfs/lgouveia/ior_1/testFile1
FS                  : 130.9 TiB   Used FS: 32.0%   Inodes: 0.0 Mi   Used Inodes: -nan%

Options: 
api                 : POSIX
apiVersion          : 
test filename       : /beegfs/lgouveia/ior_1/testFile1
access              : single-shared-file
type                : independent
segments            : 1
ordering in a file  : sequential
ordering inter file : no tasks offsets
nodes               : 32
tasks               : 256
clients per node    : 8
repetitions         : 1
xfersize            : 1 MiB
blocksize           : 128 MiB
aggregate filesize  : 32 GiB

Results: 
WARNING: The file "/beegfs/lgouveia/ior_1/testFile1" exists already and will be overwritten

access    bw(MiB/s)  IOPS       Latency(s)  block(KiB) xfer(KiB)  open(s)    wr/rd(s)   close(s)   total(s)   iter
------    ---------  ----       ----------  ---------- ---------  --------   --------   --------   --------   ----
write     1838.89    1839.30    0.044670    131072     1024.00    0.393729   17.82      16.17      17.82      0   

Summary of all tests:
Operation   Max(MiB)   Min(MiB)  Mean(MiB)     StdDev   Max(OPs)   Min(OPs)  Mean(OPs)     StdDev    Mean(s) Stonewall(s) Stonewall(MiB) Test# #Tasks tPN reps fPP reord reordoff reordrand seed segcnt   blksiz    xsize aggs(MiB)   API RefNum
write        1838.89    1838.89    1838.89       0.00    1838.89    1838.89    1838.89       0.00   17.81948         NA            NA     0    256   8    1   0     0        1         0    0      1 134217728  1048576   32768.0 POSIX      0
Finished            : Sat Oct  9 06:20:32 2021
Tracking /beegfs/lgouveia/ior_1/testFile1...



Writing tracked information to tracker.csv...
IOR-3.4.0+dev: MPI Coordinated Test of Parallel I/O
Began               : Sat Oct  9 06:21:34 2021
Command line        : /home/lgouveia/ior/bin/ior -w -t 1m -b 128m -k -o /beegfs/lgouveia/ior_1/testFile1
Machine             : Linux bora002.plafrim.cluster
TestID              : 0
StartTime           : Sat Oct  9 06:21:34 2021
Path                : /beegfs/lgouveia/ior_1/testFile1
FS                  : 130.9 TiB   Used FS: 32.0%   Inodes: 0.0 Mi   Used Inodes: -nan%

Options: 
api                 : POSIX
apiVersion          : 
test filename       : /beegfs/lgouveia/ior_1/testFile1
access              : single-shared-file
type                : independent
segments            : 1
ordering in a file  : sequential
ordering inter file : no tasks offsets
nodes               : 32
tasks               : 256
clients per node    : 8
repetitions         : 1
xfersize            : 1 MiB
blocksize           : 128 MiB
aggregate filesize  : 32 GiB

Results: 
WARNING: The file "/beegfs/lgouveia/ior_1/testFile1" exists already and will be overwritten

access    bw(MiB/s)  IOPS       Latency(s)  block(KiB) xfer(KiB)  open(s)    wr/rd(s)   close(s)   total(s)   iter
------    ---------  ----       ----------  ---------- ---------  --------   --------   --------   --------   ----
write     1759.80    1760.08    0.097041    131072     1024.00    0.219237   18.62      17.15      18.62      0   

Summary of all tests:
Operation   Max(MiB)   Min(MiB)  Mean(MiB)     StdDev   Max(OPs)   Min(OPs)  Mean(OPs)     StdDev    Mean(s) Stonewall(s) Stonewall(MiB) Test# #Tasks tPN reps fPP reord reordoff reordrand seed segcnt   blksiz    xsize aggs(MiB)   API RefNum
write        1759.80    1759.80    1759.80       0.00    1759.80    1759.80    1759.80       0.00   18.62025         NA            NA     0    256   8    1   0     0        1         0    0      1 134217728  1048576   32768.0 POSIX      0
Finished            : Sat Oct  9 06:21:52 2021
Tracking /beegfs/lgouveia/ior_1/testFile1...



Writing tracked information to tracker.csv...
IOR-3.4.0+dev: MPI Coordinated Test of Parallel I/O
Began               : Sat Oct  9 06:22:54 2021
Command line        : /home/lgouveia/ior/bin/ior -w -t 1m -b 128m -k -o /beegfs/lgouveia/ior_1/testFile1
Machine             : Linux bora002.plafrim.cluster
TestID              : 0
StartTime           : Sat Oct  9 06:22:54 2021
Path                : /beegfs/lgouveia/ior_1/testFile1
FS                  : 130.9 TiB   Used FS: 32.0%   Inodes: 0.0 Mi   Used Inodes: -nan%

Options: 
api                 : POSIX
apiVersion          : 
test filename       : /beegfs/lgouveia/ior_1/testFile1
access              : single-shared-file
type                : independent
segments            : 1
ordering in a file  : sequential
ordering inter file : no tasks offsets
nodes               : 32
tasks               : 256
clients per node    : 8
repetitions         : 1
xfersize            : 1 MiB
blocksize           : 128 MiB
aggregate filesize  : 32 GiB

Results: 
WARNING: The file "/beegfs/lgouveia/ior_1/testFile1" exists already and will be overwritten

access    bw(MiB/s)  IOPS       Latency(s)  block(KiB) xfer(KiB)  open(s)    wr/rd(s)   close(s)   total(s)   iter
------    ---------  ----       ----------  ---------- ---------  --------   --------   --------   --------   ----
write     1862.21    1862.51    0.114211    131072     1024.00    0.308713   17.59      16.05      17.60      0   

Summary of all tests:
Operation   Max(MiB)   Min(MiB)  Mean(MiB)     StdDev   Max(OPs)   Min(OPs)  Mean(OPs)     StdDev    Mean(s) Stonewall(s) Stonewall(MiB) Test# #Tasks tPN reps fPP reord reordoff reordrand seed segcnt   blksiz    xsize aggs(MiB)   API RefNum
write        1862.21    1862.21    1862.21       0.00    1862.21    1862.21    1862.21       0.00   17.59634         NA            NA     0    256   8    1   0     0        1         0    0      1 134217728  1048576   32768.0 POSIX      0
Finished            : Sat Oct  9 06:23:12 2021
Tracking /beegfs/lgouveia/ior_1/testFile1...



Writing tracked information to tracker.csv...
IOR-3.4.0+dev: MPI Coordinated Test of Parallel I/O
Began               : Sat Oct  9 06:24:13 2021
Command line        : /home/lgouveia/ior/bin/ior -w -t 1m -b 128m -k -o /beegfs/lgouveia/ior_1/testFile1
Machine             : Linux bora002.plafrim.cluster
TestID              : 0
StartTime           : Sat Oct  9 06:24:13 2021
Path                : /beegfs/lgouveia/ior_1/testFile1
FS                  : 130.9 TiB   Used FS: 32.0%   Inodes: 0.0 Mi   Used Inodes: -nan%

Options: 
api                 : POSIX
apiVersion          : 
test filename       : /beegfs/lgouveia/ior_1/testFile1
access              : single-shared-file
type                : independent
segments            : 1
ordering in a file  : sequential
ordering inter file : no tasks offsets
nodes               : 32
tasks               : 256
clients per node    : 8
repetitions         : 1
xfersize            : 1 MiB
blocksize           : 128 MiB
aggregate filesize  : 32 GiB

Results: 
WARNING: The file "/beegfs/lgouveia/ior_1/testFile1" exists already and will be overwritten

access    bw(MiB/s)  IOPS       Latency(s)  block(KiB) xfer(KiB)  open(s)    wr/rd(s)   close(s)   total(s)   iter
------    ---------  ----       ----------  ---------- ---------  --------   --------   --------   --------   ----
write     1763.05    1763.23    0.114220    131072     1024.00    0.440027   18.58      16.77      18.59      0   

Summary of all tests:
Operation   Max(MiB)   Min(MiB)  Mean(MiB)     StdDev   Max(OPs)   Min(OPs)  Mean(OPs)     StdDev    Mean(s) Stonewall(s) Stonewall(MiB) Test# #Tasks tPN reps fPP reord reordoff reordrand seed segcnt   blksiz    xsize aggs(MiB)   API RefNum
write        1763.05    1763.05    1763.05       0.00    1763.05    1763.05    1763.05       0.00   18.58596         NA            NA     0    256   8    1   0     0        1         0    0      1 134217728  1048576   32768.0 POSIX      0
Finished            : Sat Oct  9 06:24:32 2021
Tracking /beegfs/lgouveia/ior_1/testFile1...



Writing tracked information to tracker.csv...
IOR-3.4.0+dev: MPI Coordinated Test of Parallel I/O
Began               : Sat Oct  9 06:25:33 2021
Command line        : /home/lgouveia/ior/bin/ior -w -t 1m -b 128m -k -o /beegfs/lgouveia/ior_1/testFile1
Machine             : Linux bora002.plafrim.cluster
TestID              : 0
StartTime           : Sat Oct  9 06:25:33 2021
Path                : /beegfs/lgouveia/ior_1/testFile1
FS                  : 130.9 TiB   Used FS: 32.0%   Inodes: 0.0 Mi   Used Inodes: -nan%

Options: 
api                 : POSIX
apiVersion          : 
test filename       : /beegfs/lgouveia/ior_1/testFile1
access              : single-shared-file
type                : independent
segments            : 1
ordering in a file  : sequential
ordering inter file : no tasks offsets
nodes               : 32
tasks               : 256
clients per node    : 8
repetitions         : 1
xfersize            : 1 MiB
blocksize           : 128 MiB
aggregate filesize  : 32 GiB

Results: 
WARNING: The file "/beegfs/lgouveia/ior_1/testFile1" exists already and will be overwritten

access    bw(MiB/s)  IOPS       Latency(s)  block(KiB) xfer(KiB)  open(s)    wr/rd(s)   close(s)   total(s)   iter
------    ---------  ----       ----------  ---------- ---------  --------   --------   --------   --------   ----
write     1782.86    1783.12    0.121597    131072     1024.00    0.409032   18.38      16.92      18.38      0   

Summary of all tests:
Operation   Max(MiB)   Min(MiB)  Mean(MiB)     StdDev   Max(OPs)   Min(OPs)  Mean(OPs)     StdDev    Mean(s) Stonewall(s) Stonewall(MiB) Test# #Tasks tPN reps fPP reord reordoff reordrand seed segcnt   blksiz    xsize aggs(MiB)   API RefNum
write        1782.86    1782.86    1782.86       0.00    1782.86    1782.86    1782.86       0.00   18.37941         NA            NA     0    256   8    1   0     0        1         0    0      1 134217728  1048576   32768.0 POSIX      0
Finished            : Sat Oct  9 06:25:52 2021
Tracking /beegfs/lgouveia/ior_1/testFile1...



Writing tracked information to tracker.csv...
IOR-3.4.0+dev: MPI Coordinated Test of Parallel I/O
Began               : Sat Oct  9 06:26:53 2021
Command line        : /home/lgouveia/ior/bin/ior -w -t 1m -b 128m -k -o /beegfs/lgouveia/ior_1/testFile1
Machine             : Linux bora002.plafrim.cluster
TestID              : 0
StartTime           : Sat Oct  9 06:26:53 2021
Path                : /beegfs/lgouveia/ior_1/testFile1
FS                  : 130.9 TiB   Used FS: 32.0%   Inodes: 0.0 Mi   Used Inodes: -nan%

Options: 
api                 : POSIX
apiVersion          : 
test filename       : /beegfs/lgouveia/ior_1/testFile1
access              : single-shared-file
type                : independent
segments            : 1
ordering in a file  : sequential
ordering inter file : no tasks offsets
nodes               : 32
tasks               : 256
clients per node    : 8
repetitions         : 1
xfersize            : 1 MiB
blocksize           : 128 MiB
aggregate filesize  : 32 GiB

Results: 
WARNING: The file "/beegfs/lgouveia/ior_1/testFile1" exists already and will be overwritten

access    bw(MiB/s)  IOPS       Latency(s)  block(KiB) xfer(KiB)  open(s)    wr/rd(s)   close(s)   total(s)   iter
------    ---------  ----       ----------  ---------- ---------  --------   --------   --------   --------   ----
write     1949.79    1950.20    0.082413    131072     1024.00    0.424791   16.80      14.97      16.81      0   

Summary of all tests:
Operation   Max(MiB)   Min(MiB)  Mean(MiB)     StdDev   Max(OPs)   Min(OPs)  Mean(OPs)     StdDev    Mean(s) Stonewall(s) Stonewall(MiB) Test# #Tasks tPN reps fPP reord reordoff reordrand seed segcnt   blksiz    xsize aggs(MiB)   API RefNum
write        1949.79    1949.79    1949.79       0.00    1949.79    1949.79    1949.79       0.00   16.80589         NA            NA     0    256   8    1   0     0        1         0    0      1 134217728  1048576   32768.0 POSIX      0
Finished            : Sat Oct  9 06:27:10 2021
Tracking /beegfs/lgouveia/ior_1/testFile1...



Writing tracked information to tracker.csv...
IOR-3.4.0+dev: MPI Coordinated Test of Parallel I/O
Began               : Sat Oct  9 06:28:12 2021
Command line        : /home/lgouveia/ior/bin/ior -w -t 1m -b 128m -k -o /beegfs/lgouveia/ior_1/testFile1
Machine             : Linux bora002.plafrim.cluster
TestID              : 0
StartTime           : Sat Oct  9 06:28:12 2021
Path                : /beegfs/lgouveia/ior_1/testFile1
FS                  : 130.9 TiB   Used FS: 32.0%   Inodes: 0.0 Mi   Used Inodes: -nan%

Options: 
api                 : POSIX
apiVersion          : 
test filename       : /beegfs/lgouveia/ior_1/testFile1
access              : single-shared-file
type                : independent
segments            : 1
ordering in a file  : sequential
ordering inter file : no tasks offsets
nodes               : 32
tasks               : 256
clients per node    : 8
repetitions         : 1
xfersize            : 1 MiB
blocksize           : 128 MiB
aggregate filesize  : 32 GiB

Results: 
WARNING: The file "/beegfs/lgouveia/ior_1/testFile1" exists already and will be overwritten

access    bw(MiB/s)  IOPS       Latency(s)  block(KiB) xfer(KiB)  open(s)    wr/rd(s)   close(s)   total(s)   iter
------    ---------  ----       ----------  ---------- ---------  --------   --------   --------   --------   ----
write     1879.06    1879.37    0.077579    131072     1024.00    0.363976   17.44      15.84      17.44      0   

Summary of all tests:
Operation   Max(MiB)   Min(MiB)  Mean(MiB)     StdDev   Max(OPs)   Min(OPs)  Mean(OPs)     StdDev    Mean(s) Stonewall(s) Stonewall(MiB) Test# #Tasks tPN reps fPP reord reordoff reordrand seed segcnt   blksiz    xsize aggs(MiB)   API RefNum
write        1879.06    1879.06    1879.06       0.00    1879.06    1879.06    1879.06       0.00   17.43852         NA            NA     0    256   8    1   0     0        1         0    0      1 134217728  1048576   32768.0 POSIX      0
Finished            : Sat Oct  9 06:28:29 2021
Tracking /beegfs/lgouveia/ior_1/testFile1...



Writing tracked information to tracker.csv...
