access,bw,iops,latency,block,xfer,open,wr/rd,close,total,iter,start,end
write,1476.52,1476.60,0.002827,1048576,1024.00,0.007207,22.19,19.37,22.19,0,Tue Dec 14 02:47:08 2021,Tue Dec 14 02:47:30 2021
write,1474.84,1474.91,0.007689,1048576,1024.00,0.009282,22.22,19.29,22.22,0,Tue Dec 14 02:48:31 2021,Tue Dec 14 02:48:54 2021
write,1460.31,1460.38,0.010807,1048576,1024.00,0.004941,22.44,19.61,22.44,0,Tue Dec 14 02:49:54 2021,Tue Dec 14 02:50:17 2021
write,1379.99,1380.06,0.020592,1048576,1024.00,0.006273,23.74,20.62,23.75,0,Tue Dec 14 02:51:17 2021,Tue Dec 14 02:51:41 2021
write,1450.17,1450.23,0.015884,1048576,1024.00,0.005018,22.59,19.57,22.60,0,Tue Dec 14 02:52:42 2021,Tue Dec 14 02:53:04 2021
write,1453.89,1453.95,0.011324,1048576,1024.00,0.005254,22.54,19.46,22.54,0,Tue Dec 14 02:54:05 2021,Tue Dec 14 02:54:28 2021
write,1446.51,1446.59,0.015128,1048576,1024.00,0.005778,22.65,19.63,22.65,0,Tue Dec 14 02:55:28 2021,Tue Dec 14 02:55:51 2021
write,1464.24,1464.32,0.021851,1048576,1024.00,0.005038,22.38,19.36,22.38,0,Tue Dec 14 02:56:52 2021,Tue Dec 14 02:57:14 2021
write,1445.70,1445.77,0.013588,1048576,1024.00,0.005595,22.66,19.47,22.67,0,Tue Dec 14 02:58:15 2021,Tue Dec 14 02:58:37 2021
write,1459.55,1459.62,0.020414,1048576,1024.00,0.005193,22.45,19.51,22.45,0,Tue Dec 14 02:59:38 2021,Tue Dec 14 03:00:01 2021
write,1457.54,1457.62,0.011106,1048576,1024.00,0.005971,22.48,19.61,22.48,0,Tue Dec 14 03:08:38 2021,Tue Dec 14 03:09:01 2021
write,1449.10,1449.16,0.014128,1048576,1024.00,0.006390,22.61,19.50,22.61,0,Tue Dec 14 03:10:02 2021,Tue Dec 14 03:10:24 2021
write,1475.43,1475.49,0.002816,1048576,1024.00,0.005133,22.21,19.36,22.21,0,Tue Dec 14 03:11:25 2021,Tue Dec 14 03:11:47 2021
write,1465.73,1465.80,0.013577,1048576,1024.00,0.005472,22.35,19.38,22.36,0,Tue Dec 14 03:12:48 2021,Tue Dec 14 03:13:10 2021
write,1461.81,1461.88,0.021888,1048576,1024.00,0.005751,22.41,19.50,22.42,0,Tue Dec 14 03:14:11 2021,Tue Dec 14 03:14:33 2021
write,1465.97,1466.03,0.018337,1048576,1024.00,0.004512,22.35,19.43,22.35,0,Tue Dec 14 03:15:34 2021,Tue Dec 14 03:15:56 2021
write,1465.76,1465.83,0.002868,1048576,1024.00,0.005818,22.35,19.46,22.36,0,Tue Dec 14 03:16:57 2021,Tue Dec 14 03:17:19 2021
write,1457.26,1457.31,0.002762,1048576,1024.00,0.006294,22.49,19.66,22.49,0,Tue Dec 14 03:18:20 2021,Tue Dec 14 03:18:42 2021
write,1479.51,1479.59,0.015378,1048576,1024.00,0.005721,22.15,19.30,22.15,0,Tue Dec 14 03:19:43 2021,Tue Dec 14 03:20:05 2021
write,1470.86,1470.93,0.013435,1048576,1024.00,0.005882,22.28,19.33,22.28,0,Tue Dec 14 03:21:06 2021,Tue Dec 14 03:21:28 2021
write,1476.91,1477.00,0.016089,1048576,1024.00,0.004567,22.19,19.33,22.19,0,Tue Dec 14 03:28:38 2021,Tue Dec 14 03:29:01 2021
write,1459.27,1459.34,0.019320,1048576,1024.00,0.005120,22.45,19.50,22.46,0,Tue Dec 14 03:30:03 2021,Tue Dec 14 03:30:25 2021
write,1467.41,1467.49,0.013550,1048576,1024.00,0.005340,22.33,19.47,22.33,0,Tue Dec 14 03:31:26 2021,Tue Dec 14 03:31:48 2021
write,1458.37,1458.44,0.021804,1048576,1024.00,0.005963,22.47,19.38,22.47,0,Tue Dec 14 03:32:49 2021,Tue Dec 14 03:33:11 2021
write,1455.11,1455.22,0.021988,1048576,1024.00,0.005212,22.52,19.30,22.52,0,Tue Dec 14 03:34:12 2021,Tue Dec 14 03:34:35 2021
write,1459.41,1459.49,0.005566,1048576,1024.00,0.004948,22.45,19.48,22.45,0,Tue Dec 14 03:35:35 2021,Tue Dec 14 03:35:58 2021
write,1465.44,1465.52,0.010466,1048576,1024.00,0.005811,22.36,19.39,22.36,0,Tue Dec 14 03:36:58 2021,Tue Dec 14 03:37:21 2021
write,1467.83,1467.91,0.021798,1048576,1024.00,0.005578,22.32,19.49,22.32,0,Tue Dec 14 03:38:21 2021,Tue Dec 14 03:38:44 2021
write,1460.60,1460.66,0.021905,1048576,1024.00,0.006626,22.43,19.41,22.43,0,Tue Dec 14 03:39:44 2021,Tue Dec 14 03:40:07 2021
write,1457.37,1457.45,0.021954,1048576,1024.00,0.005432,22.48,19.64,22.48,0,Tue Dec 14 03:41:08 2021,Tue Dec 14 03:41:30 2021
write,1452.54,1452.60,0.011068,1048576,1024.00,0.005224,22.56,19.60,22.56,0,Tue Dec 14 03:48:38 2021,Tue Dec 14 03:49:01 2021
write,1459.98,1460.06,0.011831,1048576,1024.00,0.005971,22.44,19.56,22.44,0,Tue Dec 14 03:50:03 2021,Tue Dec 14 03:50:25 2021
write,1461.42,1461.51,0.008674,1048576,1024.00,0.005586,22.42,19.46,22.42,0,Tue Dec 14 03:51:26 2021,Tue Dec 14 03:51:48 2021
write,1468.33,1468.42,0.018771,1048576,1024.00,0.005048,22.32,19.31,22.32,0,Tue Dec 14 03:52:49 2021,Tue Dec 14 03:53:11 2021
write,1465.07,1465.16,0.018066,1048576,1024.00,0.005252,22.36,19.45,22.37,0,Tue Dec 14 03:54:12 2021,Tue Dec 14 03:54:35 2021
write,1464.02,1464.10,0.018670,1048576,1024.00,0.005999,22.38,19.43,22.38,0,Tue Dec 14 03:55:35 2021,Tue Dec 14 03:55:58 2021
write,1466.21,1466.29,0.018888,1048576,1024.00,0.004904,22.35,19.38,22.35,0,Tue Dec 14 03:56:58 2021,Tue Dec 14 03:57:21 2021
write,1466.62,1466.68,0.021722,1048576,1024.00,0.004726,22.34,19.50,22.34,0,Tue Dec 14 03:58:21 2021,Tue Dec 14 03:58:44 2021
write,1472.05,1472.13,0.018136,1048576,1024.00,0.005718,22.26,19.40,22.26,0,Tue Dec 14 03:59:44 2021,Tue Dec 14 04:00:07 2021
write,1481.32,1481.40,0.007550,1048576,1024.00,0.006123,22.12,19.22,22.12,0,Tue Dec 14 04:01:07 2021,Tue Dec 14 04:01:29 2021
write,1462.90,1462.97,0.010688,1048576,1024.00,0.004681,22.40,19.40,22.40,0,Tue Dec 14 04:10:38 2021,Tue Dec 14 04:11:01 2021
write,1456.93,1457.00,0.020343,1048576,1024.00,0.005248,22.49,19.46,22.49,0,Tue Dec 14 04:12:03 2021,Tue Dec 14 04:12:25 2021
write,1451.13,1451.18,0.002931,1048576,1024.00,0.004801,22.58,19.69,22.58,0,Tue Dec 14 04:13:26 2021,Tue Dec 14 04:13:48 2021
write,1472.21,1472.26,0.013668,1048576,1024.00,0.005858,22.26,19.37,22.26,0,Tue Dec 14 04:14:49 2021,Tue Dec 14 04:15:11 2021
write,1456.14,1456.18,0.010946,1048576,1024.00,0.004793,22.50,19.63,22.50,0,Tue Dec 14 04:16:12 2021,Tue Dec 14 04:16:35 2021
write,1466.67,1467.89,0.021697,1048576,1024.00,0.005880,22.32,19.43,22.34,0,Tue Dec 14 04:17:35 2021,Tue Dec 14 04:17:58 2021
write,1461.34,1461.38,0.021896,1048576,1024.00,0.004590,22.42,19.46,22.42,0,Tue Dec 14 04:18:58 2021,Tue Dec 14 04:19:21 2021
write,1474.61,1474.67,0.010950,1048576,1024.00,0.004448,22.22,19.35,22.22,0,Tue Dec 14 04:20:21 2021,Tue Dec 14 04:20:44 2021
write,1465.51,1465.56,0.002782,1048576,1024.00,0.006224,22.36,19.52,22.36,0,Tue Dec 14 04:21:44 2021,Tue Dec 14 04:22:07 2021
write,1466.47,1466.53,0.019249,1048576,1024.00,0.006105,22.34,19.53,22.34,0,Tue Dec 14 04:23:07 2021,Tue Dec 14 04:23:30 2021
write,1462.60,1462.65,0.021874,1048576,1024.00,0.005947,22.40,19.42,22.40,0,Tue Dec 14 04:30:38 2021,Tue Dec 14 04:31:01 2021
write,1460.64,1460.69,0.021818,1048576,1024.00,0.005348,22.43,19.45,22.43,0,Tue Dec 14 04:32:03 2021,Tue Dec 14 04:32:25 2021
write,1471.13,1471.18,0.002793,1048576,1024.00,0.005843,22.27,19.46,22.27,0,Tue Dec 14 04:33:26 2021,Tue Dec 14 04:33:48 2021
write,1452.03,1452.07,0.011266,1048576,1024.00,0.005628,22.57,19.56,22.57,0,Tue Dec 14 04:34:49 2021,Tue Dec 14 04:35:12 2021
write,1452.41,1452.45,0.002958,1048576,1024.00,0.006015,22.56,19.60,22.56,0,Tue Dec 14 04:36:12 2021,Tue Dec 14 04:36:35 2021
write,1474.96,1475.02,0.009357,1048576,1024.00,0.006630,22.22,19.37,22.22,0,Tue Dec 14 04:37:36 2021,Tue Dec 14 04:37:58 2021
write,1470.52,1470.57,0.002767,1048576,1024.00,0.006466,22.28,19.45,22.28,0,Tue Dec 14 04:38:58 2021,Tue Dec 14 04:39:21 2021
write,1468.50,1468.55,0.002933,1048576,1024.00,0.004680,22.31,19.31,22.31,0,Tue Dec 14 04:40:21 2021,Tue Dec 14 04:40:44 2021
write,1456.30,1456.36,0.008439,1048576,1024.00,0.005713,22.50,19.49,22.50,0,Tue Dec 14 04:41:44 2021,Tue Dec 14 04:42:07 2021
write,1467.45,1467.49,0.016770,1048576,1024.00,0.005458,22.33,19.47,22.33,0,Tue Dec 14 04:43:08 2021,Tue Dec 14 04:43:30 2021
write,1453.95,1454.01,0.017171,1048576,1024.00,0.005305,22.54,19.52,22.54,0,Tue Dec 14 04:53:08 2021,Tue Dec 14 04:53:31 2021
write,1460.51,1460.56,0.002915,1048576,1024.00,0.005542,22.44,19.46,22.44,0,Tue Dec 14 04:54:32 2021,Tue Dec 14 04:54:54 2021
write,1468.72,1468.78,0.013605,1048576,1024.00,0.005418,22.31,19.32,22.31,0,Tue Dec 14 04:55:55 2021,Tue Dec 14 04:56:17 2021
write,1466.88,1466.93,0.002840,1048576,1024.00,0.005265,22.34,19.53,22.34,0,Tue Dec 14 04:57:18 2021,Tue Dec 14 04:57:40 2021
write,1467.75,1467.84,0.017676,1048576,1024.00,0.006300,22.32,19.45,22.33,0,Tue Dec 14 04:58:41 2021,Tue Dec 14 04:59:03 2021
write,1477.97,1478.06,0.013557,1048576,1024.00,0.005851,22.17,19.26,22.17,0,Tue Dec 14 05:00:04 2021,Tue Dec 14 05:00:26 2021
write,1467.94,1468.03,0.002872,1048576,1024.00,0.006787,22.32,19.41,22.32,0,Tue Dec 14 05:01:27 2021,Tue Dec 14 05:01:49 2021
write,1476.91,1477.01,0.016975,1048576,1024.00,0.005223,22.19,19.39,22.19,0,Tue Dec 14 05:02:50 2021,Tue Dec 14 05:03:12 2021
write,1446.29,1446.35,0.011428,1048576,1024.00,0.005995,22.66,19.64,22.66,0,Tue Dec 14 05:04:13 2021,Tue Dec 14 05:04:35 2021
write,1466.20,1466.28,0.017631,1048576,1024.00,0.005822,22.35,19.29,22.35,0,Tue Dec 14 05:05:36 2021,Tue Dec 14 05:05:58 2021
write,1447.28,1447.36,0.013985,1048576,1024.00,0.005478,22.64,19.70,22.64,0,Tue Dec 14 05:08:38 2021,Tue Dec 14 05:09:01 2021
write,1478.79,1478.88,0.012991,1048576,1024.00,0.005232,22.16,19.27,22.16,0,Tue Dec 14 05:10:02 2021,Tue Dec 14 05:10:24 2021
write,1442.81,1442.90,0.002967,1048576,1024.00,0.004752,22.71,19.69,22.71,0,Tue Dec 14 05:11:25 2021,Tue Dec 14 05:11:48 2021
write,1468.99,1469.07,0.002946,1048576,1024.00,0.005974,22.31,19.29,22.31,0,Tue Dec 14 05:12:48 2021,Tue Dec 14 05:13:11 2021
write,1471.39,1471.46,0.011179,1048576,1024.00,0.006292,22.27,19.28,22.27,0,Tue Dec 14 05:14:11 2021,Tue Dec 14 05:14:33 2021
write,1458.70,1458.77,0.002794,1048576,1024.00,0.006897,22.46,19.60,22.46,0,Tue Dec 14 05:15:34 2021,Tue Dec 14 05:15:57 2021
write,1473.17,1473.23,0.021651,1048576,1024.00,0.006158,22.24,19.35,22.24,0,Tue Dec 14 05:16:57 2021,Tue Dec 14 05:17:20 2021
write,1466.69,1466.77,0.002820,1048576,1024.00,0.006422,22.34,19.45,22.34,0,Tue Dec 14 05:18:20 2021,Tue Dec 14 05:18:43 2021
write,1463.47,1463.54,0.015322,1048576,1024.00,0.006790,22.39,19.40,22.39,0,Tue Dec 14 05:19:43 2021,Tue Dec 14 05:20:06 2021
write,1468.19,1468.26,0.009084,1048576,1024.00,0.006708,22.32,19.44,22.32,0,Tue Dec 14 05:21:06 2021,Tue Dec 14 05:21:29 2021
write,1429.76,1429.82,0.020655,1048576,1024.00,0.005829,22.92,19.95,22.92,0,Tue Dec 14 05:29:09 2021,Tue Dec 14 05:29:32 2021
write,1464.49,1464.55,0.002802,1048576,1024.00,0.005744,22.37,19.53,22.38,0,Tue Dec 14 05:30:34 2021,Tue Dec 14 05:30:56 2021
write,1465.94,1466.01,0.019153,1048576,1024.00,0.006375,22.35,19.40,22.35,0,Tue Dec 14 05:31:57 2021,Tue Dec 14 05:32:19 2021
write,1468.59,1468.70,0.008297,1048576,1024.00,0.006824,22.31,19.34,22.31,0,Tue Dec 14 05:33:20 2021,Tue Dec 14 05:33:42 2021
write,1445.85,1445.96,0.019117,1048576,1024.00,0.005227,22.66,19.67,22.66,0,Tue Dec 14 05:34:43 2021,Tue Dec 14 05:35:05 2021
write,1460.92,1461.00,0.021885,1048576,1024.00,0.006111,22.43,19.59,22.43,0,Tue Dec 14 05:36:06 2021,Tue Dec 14 05:36:29 2021
write,1471.96,1472.03,0.015015,1048576,1024.00,0.006055,22.26,19.35,22.26,0,Tue Dec 14 05:37:29 2021,Tue Dec 14 05:37:52 2021
write,1470.57,1470.65,0.016315,1048576,1024.00,0.004800,22.28,19.41,22.28,0,Tue Dec 14 05:38:52 2021,Tue Dec 14 05:39:14 2021
write,1466.78,1466.86,0.019896,1048576,1024.00,0.005528,22.34,19.40,22.34,0,Tue Dec 14 05:40:15 2021,Tue Dec 14 05:40:38 2021
write,1463.98,1464.06,0.017555,1048576,1024.00,0.004843,22.38,19.44,22.38,0,Tue Dec 14 05:41:38 2021,Tue Dec 14 05:42:01 2021
write,1450.23,1450.30,0.011781,1048576,1024.00,0.005257,22.59,19.65,22.60,0,Tue Dec 14 05:45:38 2021,Tue Dec 14 05:46:01 2021
write,1464.88,1464.95,0.018949,1048576,1024.00,0.005847,22.37,19.40,22.37,0,Tue Dec 14 05:47:02 2021,Tue Dec 14 05:47:24 2021
write,1474.21,1474.28,0.002865,1048576,1024.00,0.005357,22.23,19.29,22.23,0,Tue Dec 14 05:48:25 2021,Tue Dec 14 05:48:47 2021
write,1461.68,1461.75,0.016676,1048576,1024.00,0.005064,22.42,19.32,22.42,0,Tue Dec 14 05:49:48 2021,Tue Dec 14 05:50:10 2021
write,1456.98,1457.05,0.002953,1048576,1024.00,0.005430,22.49,19.60,22.49,0,Tue Dec 14 05:51:11 2021,Tue Dec 14 05:51:33 2021
write,1458.93,1458.99,0.017867,1048576,1024.00,0.005299,22.46,19.59,22.46,0,Tue Dec 14 05:52:34 2021,Tue Dec 14 05:52:57 2021
write,1447.00,1447.08,0.022007,1048576,1024.00,0.005664,22.64,19.62,22.65,0,Tue Dec 14 05:53:57 2021,Tue Dec 14 05:54:20 2021
write,1466.23,1466.32,0.002756,1048576,1024.00,0.006264,22.35,19.53,22.35,0,Tue Dec 14 05:55:21 2021,Tue Dec 14 05:55:43 2021
write,1471.67,1471.74,0.009033,1048576,1024.00,0.005197,22.26,19.31,22.27,0,Tue Dec 14 05:56:44 2021,Tue Dec 14 05:57:06 2021
write,1469.92,1470.00,0.013814,1048576,1024.00,0.005085,22.29,19.43,22.29,0,Tue Dec 14 05:58:07 2021,Tue Dec 14 05:58:29 2021
