===== My JOB Information ====
Node List:  bora[026-033]
my jobID:  1363540
Partition: routage
submit directory:  /home/lgouveia/luan-teylo/results/IOR/scalability_model/storage_targets/04
submit host:  devel03.plafrim.cluster
In the directory: /home/lgouveia/luan-teylo/results/IOR/scalability_model/storage_targets/04
As the user: lgouveia
============================
IOR-3.4.0+dev: MPI Coordinated Test of Parallel I/O
Began               : Fri Jul 16 23:29:18 2021
Command line        : /home/lgouveia/ior/bin/ior -w -t 1m -b 1024m -k -o /beegfs/lgouveia/ior_4/testFile1
Machine             : Linux bora026.plafrim.cluster
TestID              : 0
StartTime           : Fri Jul 16 23:29:18 2021
Path                : /beegfs/lgouveia/ior_4/testFile1
FS                  : 130.9 TiB   Used FS: 20.9%   Inodes: 0.0 Mi   Used Inodes: -nan%

Options: 
api                 : POSIX
apiVersion          : 
test filename       : /beegfs/lgouveia/ior_4/testFile1
access              : single-shared-file
type                : independent
segments            : 1
ordering in a file  : sequential
ordering inter file : no tasks offsets
nodes               : 8
tasks               : 64
clients per node    : 8
repetitions         : 1
xfersize            : 1 MiB
blocksize           : 1 GiB
aggregate filesize  : 64 GiB

Results: 
WARNING: The file "/beegfs/lgouveia/ior_4/testFile1" exists already and will be overwritten

access    bw(MiB/s)  IOPS       Latency(s)  block(KiB) xfer(KiB)  open(s)    wr/rd(s)   close(s)   total(s)   iter
------    ---------  ----       ----------  ---------- ---------  --------   --------   --------   --------   ----
write     1480.92    1480.97    0.019084    1048576    1024.00    0.006208   44.25      38.64      44.25      0   

Summary of all tests:
Operation   Max(MiB)   Min(MiB)  Mean(MiB)     StdDev   Max(OPs)   Min(OPs)  Mean(OPs)     StdDev    Mean(s) Stonewall(s) Stonewall(MiB) Test# #Tasks tPN reps fPP reord reordoff reordrand seed segcnt   blksiz    xsize aggs(MiB)   API RefNum
write        1480.92    1480.92    1480.92       0.00    1480.92    1480.92    1480.92       0.00   44.25348         NA            NA     0     64   8    1   0     0        1         0    0      1 1073741824  1048576   65536.0 POSIX      0
Finished            : Fri Jul 16 23:30:03 2021
Tracking /beegfs/lgouveia/ior_4/testFile1...



Writing tracked information to tracker.csv...
IOR-3.4.0+dev: MPI Coordinated Test of Parallel I/O
Began               : Fri Jul 16 23:31:05 2021
Command line        : /home/lgouveia/ior/bin/ior -w -t 1m -b 1024m -k -o /beegfs/lgouveia/ior_4/testFile1
Machine             : Linux bora026.plafrim.cluster
TestID              : 0
StartTime           : Fri Jul 16 23:31:05 2021
Path                : /beegfs/lgouveia/ior_4/testFile1
FS                  : 130.9 TiB   Used FS: 20.9%   Inodes: 0.0 Mi   Used Inodes: -nan%

Options: 
api                 : POSIX
apiVersion          : 
test filename       : /beegfs/lgouveia/ior_4/testFile1
access              : single-shared-file
type                : independent
segments            : 1
ordering in a file  : sequential
ordering inter file : no tasks offsets
nodes               : 8
tasks               : 64
clients per node    : 8
repetitions         : 1
xfersize            : 1 MiB
blocksize           : 1 GiB
aggregate filesize  : 64 GiB

Results: 
WARNING: The file "/beegfs/lgouveia/ior_4/testFile1" exists already and will be overwritten

access    bw(MiB/s)  IOPS       Latency(s)  block(KiB) xfer(KiB)  open(s)    wr/rd(s)   close(s)   total(s)   iter
------    ---------  ----       ----------  ---------- ---------  --------   --------   --------   --------   ----
write     1471.61    1471.91    0.017806    1048576    1024.00    0.010645   44.52      38.91      44.53      0   

Summary of all tests:
Operation   Max(MiB)   Min(MiB)  Mean(MiB)     StdDev   Max(OPs)   Min(OPs)  Mean(OPs)     StdDev    Mean(s) Stonewall(s) Stonewall(MiB) Test# #Tasks tPN reps fPP reord reordoff reordrand seed segcnt   blksiz    xsize aggs(MiB)   API RefNum
write        1471.61    1471.61    1471.61       0.00    1471.61    1471.61    1471.61       0.00   44.53364         NA            NA     0     64   8    1   0     0        1         0    0      1 1073741824  1048576   65536.0 POSIX      0
Finished            : Fri Jul 16 23:31:50 2021
Tracking /beegfs/lgouveia/ior_4/testFile1...



Writing tracked information to tracker.csv...
IOR-3.4.0+dev: MPI Coordinated Test of Parallel I/O
Began               : Fri Jul 16 23:32:51 2021
Command line        : /home/lgouveia/ior/bin/ior -w -t 1m -b 1024m -k -o /beegfs/lgouveia/ior_4/testFile1
Machine             : Linux bora026.plafrim.cluster
TestID              : 0
StartTime           : Fri Jul 16 23:32:51 2021
Path                : /beegfs/lgouveia/ior_4/testFile1
FS                  : 130.9 TiB   Used FS: 20.9%   Inodes: 0.0 Mi   Used Inodes: -nan%

Options: 
api                 : POSIX
apiVersion          : 
test filename       : /beegfs/lgouveia/ior_4/testFile1
access              : single-shared-file
type                : independent
segments            : 1
ordering in a file  : sequential
ordering inter file : no tasks offsets
nodes               : 8
tasks               : 64
clients per node    : 8
repetitions         : 1
xfersize            : 1 MiB
blocksize           : 1 GiB
aggregate filesize  : 64 GiB

Results: 
WARNING: The file "/beegfs/lgouveia/ior_4/testFile1" exists already and will be overwritten

access    bw(MiB/s)  IOPS       Latency(s)  block(KiB) xfer(KiB)  open(s)    wr/rd(s)   close(s)   total(s)   iter
------    ---------  ----       ----------  ---------- ---------  --------   --------   --------   --------   ----
write     1444.75    1444.79    0.044108    1048576    1024.00    0.006819   45.36      39.54      45.36      0   

Summary of all tests:
Operation   Max(MiB)   Min(MiB)  Mean(MiB)     StdDev   Max(OPs)   Min(OPs)  Mean(OPs)     StdDev    Mean(s) Stonewall(s) Stonewall(MiB) Test# #Tasks tPN reps fPP reord reordoff reordrand seed segcnt   blksiz    xsize aggs(MiB)   API RefNum
write        1444.75    1444.75    1444.75       0.00    1444.75    1444.75    1444.75       0.00   45.36149         NA            NA     0     64   8    1   0     0        1         0    0      1 1073741824  1048576   65536.0 POSIX      0
Finished            : Fri Jul 16 23:33:36 2021
Tracking /beegfs/lgouveia/ior_4/testFile1...



Writing tracked information to tracker.csv...
IOR-3.4.0+dev: MPI Coordinated Test of Parallel I/O
Began               : Fri Jul 16 23:34:37 2021
Command line        : /home/lgouveia/ior/bin/ior -w -t 1m -b 1024m -k -o /beegfs/lgouveia/ior_4/testFile1
Machine             : Linux bora026.plafrim.cluster
TestID              : 0
StartTime           : Fri Jul 16 23:34:37 2021
Path                : /beegfs/lgouveia/ior_4/testFile1
FS                  : 130.9 TiB   Used FS: 20.9%   Inodes: 0.0 Mi   Used Inodes: -nan%

Options: 
api                 : POSIX
apiVersion          : 
test filename       : /beegfs/lgouveia/ior_4/testFile1
access              : single-shared-file
type                : independent
segments            : 1
ordering in a file  : sequential
ordering inter file : no tasks offsets
nodes               : 8
tasks               : 64
clients per node    : 8
repetitions         : 1
xfersize            : 1 MiB
blocksize           : 1 GiB
aggregate filesize  : 64 GiB

Results: 
WARNING: The file "/beegfs/lgouveia/ior_4/testFile1" exists already and will be overwritten

access    bw(MiB/s)  IOPS       Latency(s)  block(KiB) xfer(KiB)  open(s)    wr/rd(s)   close(s)   total(s)   iter
------    ---------  ----       ----------  ---------- ---------  --------   --------   --------   --------   ----
write     1473.23    1473.27    0.038144    1048576    1024.00    0.010205   44.48      38.66      44.48      0   

Summary of all tests:
Operation   Max(MiB)   Min(MiB)  Mean(MiB)     StdDev   Max(OPs)   Min(OPs)  Mean(OPs)     StdDev    Mean(s) Stonewall(s) Stonewall(MiB) Test# #Tasks tPN reps fPP reord reordoff reordrand seed segcnt   blksiz    xsize aggs(MiB)   API RefNum
write        1473.23    1473.23    1473.23       0.00    1473.23    1473.23    1473.23       0.00   44.48449         NA            NA     0     64   8    1   0     0        1         0    0      1 1073741824  1048576   65536.0 POSIX      0
Finished            : Fri Jul 16 23:35:21 2021
Tracking /beegfs/lgouveia/ior_4/testFile1...



Writing tracked information to tracker.csv...
IOR-3.4.0+dev: MPI Coordinated Test of Parallel I/O
Began               : Fri Jul 16 23:36:22 2021
Command line        : /home/lgouveia/ior/bin/ior -w -t 1m -b 1024m -k -o /beegfs/lgouveia/ior_4/testFile1
Machine             : Linux bora026.plafrim.cluster
TestID              : 0
StartTime           : Fri Jul 16 23:36:22 2021
Path                : /beegfs/lgouveia/ior_4/testFile1
FS                  : 130.9 TiB   Used FS: 20.9%   Inodes: 0.0 Mi   Used Inodes: -nan%

Options: 
api                 : POSIX
apiVersion          : 
test filename       : /beegfs/lgouveia/ior_4/testFile1
access              : single-shared-file
type                : independent
segments            : 1
ordering in a file  : sequential
ordering inter file : no tasks offsets
nodes               : 8
tasks               : 64
clients per node    : 8
repetitions         : 1
xfersize            : 1 MiB
blocksize           : 1 GiB
aggregate filesize  : 64 GiB

Results: 
WARNING: The file "/beegfs/lgouveia/ior_4/testFile1" exists already and will be overwritten

access    bw(MiB/s)  IOPS       Latency(s)  block(KiB) xfer(KiB)  open(s)    wr/rd(s)   close(s)   total(s)   iter
------    ---------  ----       ----------  ---------- ---------  --------   --------   --------   --------   ----
write     1472.40    1472.45    0.043457    1048576    1024.00    0.006180   44.51      38.73      44.51      0   

Summary of all tests:
Operation   Max(MiB)   Min(MiB)  Mean(MiB)     StdDev   Max(OPs)   Min(OPs)  Mean(OPs)     StdDev    Mean(s) Stonewall(s) Stonewall(MiB) Test# #Tasks tPN reps fPP reord reordoff reordrand seed segcnt   blksiz    xsize aggs(MiB)   API RefNum
write        1472.40    1472.40    1472.40       0.00    1472.40    1472.40    1472.40       0.00   44.50967         NA            NA     0     64   8    1   0     0        1         0    0      1 1073741824  1048576   65536.0 POSIX      0
Finished            : Fri Jul 16 23:37:07 2021
Tracking /beegfs/lgouveia/ior_4/testFile1...



Writing tracked information to tracker.csv...
IOR-3.4.0+dev: MPI Coordinated Test of Parallel I/O
Began               : Fri Jul 16 23:38:08 2021
Command line        : /home/lgouveia/ior/bin/ior -w -t 1m -b 1024m -k -o /beegfs/lgouveia/ior_4/testFile1
Machine             : Linux bora026.plafrim.cluster
TestID              : 0
StartTime           : Fri Jul 16 23:38:08 2021
Path                : /beegfs/lgouveia/ior_4/testFile1
FS                  : 130.9 TiB   Used FS: 20.9%   Inodes: 0.0 Mi   Used Inodes: -nan%

Options: 
api                 : POSIX
apiVersion          : 
test filename       : /beegfs/lgouveia/ior_4/testFile1
access              : single-shared-file
type                : independent
segments            : 1
ordering in a file  : sequential
ordering inter file : no tasks offsets
nodes               : 8
tasks               : 64
clients per node    : 8
repetitions         : 1
xfersize            : 1 MiB
blocksize           : 1 GiB
aggregate filesize  : 64 GiB

Results: 
WARNING: The file "/beegfs/lgouveia/ior_4/testFile1" exists already and will be overwritten

access    bw(MiB/s)  IOPS       Latency(s)  block(KiB) xfer(KiB)  open(s)    wr/rd(s)   close(s)   total(s)   iter
------    ---------  ----       ----------  ---------- ---------  --------   --------   --------   --------   ----
write     1474.76    1474.80    0.022200    1048576    1024.00    0.017123   44.44      38.67      44.44      0   

Summary of all tests:
Operation   Max(MiB)   Min(MiB)  Mean(MiB)     StdDev   Max(OPs)   Min(OPs)  Mean(OPs)     StdDev    Mean(s) Stonewall(s) Stonewall(MiB) Test# #Tasks tPN reps fPP reord reordoff reordrand seed segcnt   blksiz    xsize aggs(MiB)   API RefNum
write        1474.76    1474.76    1474.76       0.00    1474.76    1474.76    1474.76       0.00   44.43843         NA            NA     0     64   8    1   0     0        1         0    0      1 1073741824  1048576   65536.0 POSIX      0
Finished            : Fri Jul 16 23:38:52 2021
Tracking /beegfs/lgouveia/ior_4/testFile1...



Writing tracked information to tracker.csv...
IOR-3.4.0+dev: MPI Coordinated Test of Parallel I/O
Began               : Fri Jul 16 23:39:53 2021
Command line        : /home/lgouveia/ior/bin/ior -w -t 1m -b 1024m -k -o /beegfs/lgouveia/ior_4/testFile1
Machine             : Linux bora026.plafrim.cluster
TestID              : 0
StartTime           : Fri Jul 16 23:39:53 2021
Path                : /beegfs/lgouveia/ior_4/testFile1
FS                  : 130.9 TiB   Used FS: 20.9%   Inodes: 0.0 Mi   Used Inodes: -nan%

Options: 
api                 : POSIX
apiVersion          : 
test filename       : /beegfs/lgouveia/ior_4/testFile1
access              : single-shared-file
type                : independent
segments            : 1
ordering in a file  : sequential
ordering inter file : no tasks offsets
nodes               : 8
tasks               : 64
clients per node    : 8
repetitions         : 1
xfersize            : 1 MiB
blocksize           : 1 GiB
aggregate filesize  : 64 GiB

Results: 
WARNING: The file "/beegfs/lgouveia/ior_4/testFile1" exists already and will be overwritten

access    bw(MiB/s)  IOPS       Latency(s)  block(KiB) xfer(KiB)  open(s)    wr/rd(s)   close(s)   total(s)   iter
------    ---------  ----       ----------  ---------- ---------  --------   --------   --------   --------   ----
write     1469.14    1469.19    0.025929    1048576    1024.00    0.009755   44.61      38.81      44.61      0   

Summary of all tests:
Operation   Max(MiB)   Min(MiB)  Mean(MiB)     StdDev   Max(OPs)   Min(OPs)  Mean(OPs)     StdDev    Mean(s) Stonewall(s) Stonewall(MiB) Test# #Tasks tPN reps fPP reord reordoff reordrand seed segcnt   blksiz    xsize aggs(MiB)   API RefNum
write        1469.14    1469.14    1469.14       0.00    1469.14    1469.14    1469.14       0.00   44.60834         NA            NA     0     64   8    1   0     0        1         0    0      1 1073741824  1048576   65536.0 POSIX      0
Finished            : Fri Jul 16 23:40:38 2021
Tracking /beegfs/lgouveia/ior_4/testFile1...



Writing tracked information to tracker.csv...
IOR-3.4.0+dev: MPI Coordinated Test of Parallel I/O
Began               : Fri Jul 16 23:41:38 2021
Command line        : /home/lgouveia/ior/bin/ior -w -t 1m -b 1024m -k -o /beegfs/lgouveia/ior_4/testFile1
Machine             : Linux bora026.plafrim.cluster
TestID              : 0
StartTime           : Fri Jul 16 23:41:38 2021
Path                : /beegfs/lgouveia/ior_4/testFile1
FS                  : 130.9 TiB   Used FS: 20.9%   Inodes: 0.0 Mi   Used Inodes: -nan%

Options: 
api                 : POSIX
apiVersion          : 
test filename       : /beegfs/lgouveia/ior_4/testFile1
access              : single-shared-file
type                : independent
segments            : 1
ordering in a file  : sequential
ordering inter file : no tasks offsets
nodes               : 8
tasks               : 64
clients per node    : 8
repetitions         : 1
xfersize            : 1 MiB
blocksize           : 1 GiB
aggregate filesize  : 64 GiB

Results: 
WARNING: The file "/beegfs/lgouveia/ior_4/testFile1" exists already and will be overwritten

access    bw(MiB/s)  IOPS       Latency(s)  block(KiB) xfer(KiB)  open(s)    wr/rd(s)   close(s)   total(s)   iter
------    ---------  ----       ----------  ---------- ---------  --------   --------   --------   --------   ----
write     1473.47    1473.51    0.033999    1048576    1024.00    0.007781   44.48      38.75      44.48      0   

Summary of all tests:
Operation   Max(MiB)   Min(MiB)  Mean(MiB)     StdDev   Max(OPs)   Min(OPs)  Mean(OPs)     StdDev    Mean(s) Stonewall(s) Stonewall(MiB) Test# #Tasks tPN reps fPP reord reordoff reordrand seed segcnt   blksiz    xsize aggs(MiB)   API RefNum
write        1473.47    1473.47    1473.47       0.00    1473.47    1473.47    1473.47       0.00   44.47721         NA            NA     0     64   8    1   0     0        1         0    0      1 1073741824  1048576   65536.0 POSIX      0
Finished            : Fri Jul 16 23:42:23 2021
Tracking /beegfs/lgouveia/ior_4/testFile1...



Writing tracked information to tracker.csv...
IOR-3.4.0+dev: MPI Coordinated Test of Parallel I/O
Began               : Fri Jul 16 23:43:24 2021
Command line        : /home/lgouveia/ior/bin/ior -w -t 1m -b 1024m -k -o /beegfs/lgouveia/ior_4/testFile1
Machine             : Linux bora026.plafrim.cluster
TestID              : 0
StartTime           : Fri Jul 16 23:43:24 2021
Path                : /beegfs/lgouveia/ior_4/testFile1
FS                  : 130.9 TiB   Used FS: 20.9%   Inodes: 0.0 Mi   Used Inodes: -nan%

Options: 
api                 : POSIX
apiVersion          : 
test filename       : /beegfs/lgouveia/ior_4/testFile1
access              : single-shared-file
type                : independent
segments            : 1
ordering in a file  : sequential
ordering inter file : no tasks offsets
nodes               : 8
tasks               : 64
clients per node    : 8
repetitions         : 1
xfersize            : 1 MiB
blocksize           : 1 GiB
aggregate filesize  : 64 GiB

Results: 
WARNING: The file "/beegfs/lgouveia/ior_4/testFile1" exists already and will be overwritten

access    bw(MiB/s)  IOPS       Latency(s)  block(KiB) xfer(KiB)  open(s)    wr/rd(s)   close(s)   total(s)   iter
------    ---------  ----       ----------  ---------- ---------  --------   --------   --------   --------   ----
write     1471.03    1471.07    0.038182    1048576    1024.00    0.015411   44.55      38.68      44.55      0   

Summary of all tests:
Operation   Max(MiB)   Min(MiB)  Mean(MiB)     StdDev   Max(OPs)   Min(OPs)  Mean(OPs)     StdDev    Mean(s) Stonewall(s) Stonewall(MiB) Test# #Tasks tPN reps fPP reord reordoff reordrand seed segcnt   blksiz    xsize aggs(MiB)   API RefNum
write        1471.03    1471.03    1471.03       0.00    1471.03    1471.03    1471.03       0.00   44.55107         NA            NA     0     64   8    1   0     0        1         0    0      1 1073741824  1048576   65536.0 POSIX      0
Finished            : Fri Jul 16 23:44:08 2021
Tracking /beegfs/lgouveia/ior_4/testFile1...



Writing tracked information to tracker.csv...
IOR-3.4.0+dev: MPI Coordinated Test of Parallel I/O
Began               : Fri Jul 16 23:45:09 2021
Command line        : /home/lgouveia/ior/bin/ior -w -t 1m -b 1024m -k -o /beegfs/lgouveia/ior_4/testFile1
Machine             : Linux bora026.plafrim.cluster
TestID              : 0
StartTime           : Fri Jul 16 23:45:09 2021
Path                : /beegfs/lgouveia/ior_4/testFile1
FS                  : 130.9 TiB   Used FS: 20.9%   Inodes: 0.0 Mi   Used Inodes: -nan%

Options: 
api                 : POSIX
apiVersion          : 
test filename       : /beegfs/lgouveia/ior_4/testFile1
access              : single-shared-file
type                : independent
segments            : 1
ordering in a file  : sequential
ordering inter file : no tasks offsets
nodes               : 8
tasks               : 64
clients per node    : 8
repetitions         : 1
xfersize            : 1 MiB
blocksize           : 1 GiB
aggregate filesize  : 64 GiB

Results: 
WARNING: The file "/beegfs/lgouveia/ior_4/testFile1" exists already and will be overwritten

access    bw(MiB/s)  IOPS       Latency(s)  block(KiB) xfer(KiB)  open(s)    wr/rd(s)   close(s)   total(s)   iter
------    ---------  ----       ----------  ---------- ---------  --------   --------   --------   --------   ----
write     1464.98    1465.03    0.043629    1048576    1024.00    0.011965   44.73      38.98      44.74      0   

Summary of all tests:
Operation   Max(MiB)   Min(MiB)  Mean(MiB)     StdDev   Max(OPs)   Min(OPs)  Mean(OPs)     StdDev    Mean(s) Stonewall(s) Stonewall(MiB) Test# #Tasks tPN reps fPP reord reordoff reordrand seed segcnt   blksiz    xsize aggs(MiB)   API RefNum
write        1464.98    1464.98    1464.98       0.00    1464.98    1464.98    1464.98       0.00   44.73512         NA            NA     0     64   8    1   0     0        1         0    0      1 1073741824  1048576   65536.0 POSIX      0
Finished            : Fri Jul 16 23:45:54 2021
Tracking /beegfs/lgouveia/ior_4/testFile1...



Writing tracked information to tracker.csv...
