access,bw,iops,latency,block,xfer,open,wr/rd,close,total,iter,start,end
write,1056.32,1056.35,0.046472,1048576,1024.00,0.006330,62.04,54.74,62.04,0,Wed Jul 21 13:05:59 2021,Wed Jul 21 13:07:01 2021
write,1104.03,1104.05,0.023931,1048576,1024.00,0.007076,59.36,51.92,59.36,0,Wed Jul 21 13:08:04 2021,Wed Jul 21 13:09:03 2021
write,1092.89,1092.91,0.046940,1048576,1024.00,0.009764,59.96,52.59,59.97,0,Wed Jul 21 13:10:04 2021,Wed Jul 21 13:11:04 2021
write,1085.57,1085.59,0.030064,1048576,1024.00,0.007897,60.37,53.05,60.37,0,Wed Jul 21 13:12:05 2021,Wed Jul 21 13:13:06 2021
write,1079.88,1079.91,0.015389,1048576,1024.00,0.009113,60.69,53.26,60.69,0,Wed Jul 21 13:14:07 2021,Wed Jul 21 13:15:07 2021
write,1089.93,1089.95,0.031173,1048576,1024.00,0.006608,60.13,52.76,60.13,0,Wed Jul 21 13:16:08 2021,Wed Jul 21 13:17:08 2021
write,1109.32,1109.34,0.021667,1048576,1024.00,0.006253,59.08,51.70,59.08,0,Wed Jul 21 13:18:09 2021,Wed Jul 21 13:19:08 2021
write,1099.95,1099.97,0.057365,1048576,1024.00,0.007436,59.58,52.22,59.58,0,Wed Jul 21 13:20:09 2021,Wed Jul 21 13:21:09 2021
write,1101.46,1101.48,0.024361,1048576,1024.00,0.007635,59.50,52.00,59.50,0,Wed Jul 21 13:22:10 2021,Wed Jul 21 13:23:09 2021
write,1085.78,1085.80,0.021896,1048576,1024.00,0.005734,60.36,52.92,60.36,0,Wed Jul 21 13:24:10 2021,Wed Jul 21 13:25:10 2021
write,1107.30,1107.33,0.035843,1048576,1024.00,0.007424,59.18,51.75,59.19,0,Wed Jul 21 13:30:57 2021,Wed Jul 21 13:31:56 2021
write,1106.77,1106.79,0.021767,1048576,1024.00,0.006163,59.21,51.78,59.21,0,Wed Jul 21 13:32:58 2021,Wed Jul 21 13:33:57 2021
write,1110.33,1110.35,0.011535,1048576,1024.00,0.007412,59.02,51.54,59.02,0,Wed Jul 21 13:34:58 2021,Wed Jul 21 13:35:57 2021
write,1112.03,1112.05,0.030467,1048576,1024.00,0.007349,58.93,51.49,58.93,0,Wed Jul 21 13:36:58 2021,Wed Jul 21 13:37:57 2021
write,1107.11,1107.13,0.057558,1048576,1024.00,0.005928,59.19,51.70,59.20,0,Wed Jul 21 13:38:58 2021,Wed Jul 21 13:39:57 2021
write,1079.73,1079.74,0.059139,1048576,1024.00,0.006649,60.70,53.23,60.70,0,Wed Jul 21 13:40:58 2021,Wed Jul 21 13:41:59 2021
write,1107.50,1107.53,0.030266,1048576,1024.00,0.007733,59.17,51.77,59.17,0,Wed Jul 21 13:43:00 2021,Wed Jul 21 13:43:59 2021
write,1098.86,1098.89,0.031581,1048576,1024.00,0.007032,59.64,52.24,59.64,0,Wed Jul 21 13:45:00 2021,Wed Jul 21 13:45:59 2021
write,1108.37,1108.39,0.052498,1048576,1024.00,0.006453,59.13,51.71,59.13,0,Wed Jul 21 13:47:00 2021,Wed Jul 21 13:47:59 2021
write,1111.04,1111.05,0.056960,1048576,1024.00,0.007524,58.99,51.64,58.99,0,Wed Jul 21 13:49:00 2021,Wed Jul 21 13:49:59 2021
write,1099.41,1099.43,0.049260,1048576,1024.00,0.007773,59.61,51.96,59.61,0,Wed Jul 21 13:57:27 2021,Wed Jul 21 13:58:26 2021
write,1103.85,1103.88,0.057946,1048576,1024.00,0.007525,59.37,51.54,59.37,0,Wed Jul 21 13:59:28 2021,Wed Jul 21 14:00:28 2021
write,1107.45,1107.47,0.033106,1048576,1024.00,0.007048,59.18,51.60,59.18,0,Wed Jul 21 14:01:29 2021,Wed Jul 21 14:02:28 2021
write,1107.95,1107.97,0.053170,1048576,1024.00,0.007055,59.15,51.72,59.15,0,Wed Jul 21 14:03:29 2021,Wed Jul 21 14:04:28 2021
write,1056.95,1056.97,0.060480,1048576,1024.00,0.007565,62.00,54.37,62.00,0,Wed Jul 21 14:05:29 2021,Wed Jul 21 14:06:31 2021
write,1108.97,1108.99,0.035699,1048576,1024.00,0.007246,59.10,51.64,59.10,0,Wed Jul 21 14:07:32 2021,Wed Jul 21 14:08:31 2021
write,1108.45,1108.48,0.050574,1048576,1024.00,0.007269,59.12,51.64,59.12,0,Wed Jul 21 14:09:32 2021,Wed Jul 21 14:10:31 2021
write,1099.28,1099.30,0.058159,1048576,1024.00,0.005731,59.62,51.98,59.62,0,Wed Jul 21 14:11:32 2021,Wed Jul 21 14:12:31 2021
write,1104.78,1104.79,0.036325,1048576,1024.00,0.006292,59.32,51.86,59.32,0,Wed Jul 21 14:13:32 2021,Wed Jul 21 14:14:32 2021
write,1111.23,1111.25,0.045626,1048576,1024.00,0.007533,58.97,51.56,58.98,0,Wed Jul 21 14:15:32 2021,Wed Jul 21 14:16:31 2021
write,1108.39,1108.41,0.033103,1048576,1024.00,0.006186,59.13,51.61,59.13,0,Wed Jul 21 14:25:29 2021,Wed Jul 21 14:26:28 2021
write,1079.44,1079.46,0.030658,1048576,1024.00,0.005939,60.71,53.30,60.71,0,Wed Jul 21 14:27:32 2021,Wed Jul 21 14:28:33 2021
write,1090.48,1090.50,0.011396,1048576,1024.00,0.009762,60.10,52.65,60.10,0,Wed Jul 21 14:29:33 2021,Wed Jul 21 14:30:34 2021
write,1100.79,1100.81,0.052717,1048576,1024.00,0.007628,59.53,52.03,59.54,0,Wed Jul 21 14:31:34 2021,Wed Jul 21 14:32:34 2021
write,1110.93,1110.95,0.033029,1048576,1024.00,0.007460,58.99,51.49,58.99,0,Wed Jul 21 14:33:35 2021,Wed Jul 21 14:34:34 2021
write,1112.21,1112.23,0.017422,1048576,1024.00,0.007859,58.92,51.56,58.92,0,Wed Jul 21 14:35:35 2021,Wed Jul 21 14:36:34 2021
write,1103.92,1103.94,0.054168,1048576,1024.00,0.007122,59.37,51.96,59.37,0,Wed Jul 21 14:37:35 2021,Wed Jul 21 14:38:34 2021
write,1108.48,1108.50,0.035919,1048576,1024.00,0.007599,59.12,51.59,59.12,0,Wed Jul 21 14:39:35 2021,Wed Jul 21 14:40:34 2021
write,836.49,836.50,0.026145,1048576,1024.00,0.007072,78.35,70.84,78.35,0,Wed Jul 21 14:41:35 2021,Wed Jul 21 14:42:53 2021
write,1102.81,1102.84,0.058031,1048576,1024.00,0.006317,59.42,52.06,59.43,0,Wed Jul 21 14:43:54 2021,Wed Jul 21 14:44:54 2021
write,1109.85,1109.87,0.054903,1048576,1024.00,0.005751,59.05,51.59,59.05,0,Wed Jul 21 14:53:27 2021,Wed Jul 21 14:54:26 2021
write,1105.19,1105.21,0.039509,1048576,1024.00,0.006487,59.30,51.80,59.30,0,Wed Jul 21 14:55:28 2021,Wed Jul 21 14:56:28 2021
write,1100.37,1100.39,0.030652,1048576,1024.00,0.007320,59.56,52.11,59.56,0,Wed Jul 21 14:57:29 2021,Wed Jul 21 14:58:28 2021
write,1111.32,1111.34,0.029655,1048576,1024.00,0.007025,58.97,51.58,58.97,0,Wed Jul 21 14:59:29 2021,Wed Jul 21 15:00:28 2021
write,1110.74,1110.76,0.036006,1048576,1024.00,0.006870,59.00,51.54,59.00,0,Wed Jul 21 15:01:29 2021,Wed Jul 21 15:02:28 2021
write,1100.47,1100.49,0.056156,1048576,1024.00,0.006978,59.55,52.15,59.55,0,Wed Jul 21 15:03:29 2021,Wed Jul 21 15:04:28 2021
write,1090.45,1090.47,0.041939,1048576,1024.00,0.005989,60.10,52.72,60.10,0,Wed Jul 21 15:05:35 2021,Wed Jul 21 15:06:35 2021
write,1102.95,1102.97,0.057725,1048576,1024.00,0.006932,59.42,51.92,59.42,0,Wed Jul 21 15:07:36 2021,Wed Jul 21 15:08:35 2021
write,1101.39,1101.41,0.057232,1048576,1024.00,0.006091,59.50,52.02,59.50,0,Wed Jul 21 15:09:36 2021,Wed Jul 21 15:10:36 2021
write,1039.38,1039.40,0.057566,1048576,1024.00,0.007275,63.05,55.54,63.05,0,Wed Jul 21 15:11:36 2021,Wed Jul 21 15:12:40 2021
write,1091.75,1091.77,0.015334,1048576,1024.00,0.005382,60.03,52.52,60.03,0,Wed Jul 21 16:00:29 2021,Wed Jul 21 16:01:29 2021
write,1095.49,1095.51,0.038137,1048576,1024.00,0.005297,59.82,52.24,59.82,0,Wed Jul 21 16:02:32 2021,Wed Jul 21 16:03:32 2021
write,1101.05,1101.06,0.057308,1048576,1024.00,0.006655,59.52,52.07,59.52,0,Wed Jul 21 16:04:33 2021,Wed Jul 21 16:05:32 2021
write,1104.53,1104.56,0.030228,1048576,1024.00,0.007090,59.33,51.90,59.33,0,Wed Jul 21 16:06:33 2021,Wed Jul 21 16:07:32 2021
write,1106.42,1106.44,0.029068,1048576,1024.00,0.005426,59.23,51.79,59.23,0,Wed Jul 21 16:08:33 2021,Wed Jul 21 16:09:32 2021
write,1105.19,1105.20,0.028534,1048576,1024.00,0.005166,59.30,51.89,59.30,0,Wed Jul 21 16:10:33 2021,Wed Jul 21 16:11:33 2021
write,1101.47,1101.49,0.053558,1048576,1024.00,0.005635,59.50,52.01,59.50,0,Wed Jul 21 16:12:34 2021,Wed Jul 21 16:13:33 2021
write,1099.53,1099.56,0.029426,1048576,1024.00,0.005650,59.60,52.10,59.60,0,Wed Jul 21 16:14:34 2021,Wed Jul 21 16:15:34 2021
write,1100.11,1100.13,0.046830,1048576,1024.00,0.005598,59.57,52.06,59.57,0,Wed Jul 21 16:16:35 2021,Wed Jul 21 16:17:34 2021
write,1105.63,1105.65,0.022540,1048576,1024.00,0.005981,59.27,51.81,59.27,0,Wed Jul 21 16:18:35 2021,Wed Jul 21 16:19:34 2021
write,1109.11,1109.13,0.014378,1048576,1024.00,0.006396,59.09,51.71,59.09,0,Wed Jul 21 16:25:29 2021,Wed Jul 21 16:26:28 2021
write,1110.41,1110.44,0.030124,1048576,1024.00,0.007102,59.02,51.69,59.02,0,Wed Jul 21 16:27:30 2021,Wed Jul 21 16:28:29 2021
write,1101.81,1101.84,0.035185,1048576,1024.00,0.006207,59.48,51.98,59.48,0,Wed Jul 21 16:29:30 2021,Wed Jul 21 16:30:30 2021
write,1105.33,1105.35,0.052441,1048576,1024.00,0.007090,59.29,51.88,59.29,0,Wed Jul 21 16:31:31 2021,Wed Jul 21 16:32:30 2021
write,1084.09,1084.11,0.028371,1048576,1024.00,0.006811,60.45,52.61,60.45,0,Wed Jul 21 16:33:31 2021,Wed Jul 21 16:34:31 2021
write,1103.89,1103.92,0.054056,1048576,1024.00,0.005722,59.37,52.06,59.37,0,Wed Jul 21 16:35:32 2021,Wed Jul 21 16:36:32 2021
write,1094.57,1094.59,0.043168,1048576,1024.00,0.005693,59.87,52.40,59.87,0,Wed Jul 21 16:37:32 2021,Wed Jul 21 16:38:32 2021
write,1103.45,1103.46,0.044986,1048576,1024.00,0.007062,59.39,51.84,59.39,0,Wed Jul 21 16:39:33 2021,Wed Jul 21 16:40:33 2021
write,1096.50,1096.52,0.045828,1048576,1024.00,0.005531,59.77,52.37,59.77,0,Wed Jul 21 16:41:33 2021,Wed Jul 21 16:42:33 2021
write,1083.59,1083.61,0.052133,1048576,1024.00,0.005876,60.48,52.96,60.48,0,Wed Jul 21 16:43:34 2021,Wed Jul 21 16:44:35 2021
write,1083.21,1083.23,0.058738,1048576,1024.00,0.005453,60.50,52.95,60.50,0,Wed Jul 21 16:48:58 2021,Wed Jul 21 16:49:59 2021
write,1095.61,1095.63,0.044846,1048576,1024.00,0.007052,59.82,52.46,59.82,0,Wed Jul 21 16:51:05 2021,Wed Jul 21 16:52:05 2021
write,1096.31,1096.34,0.058090,1048576,1024.00,0.005445,59.78,52.34,59.78,0,Wed Jul 21 16:53:06 2021,Wed Jul 21 16:54:06 2021
write,1091.65,1091.67,0.051091,1048576,1024.00,0.005124,60.03,52.54,60.03,0,Wed Jul 21 16:55:06 2021,Wed Jul 21 16:56:06 2021
write,1095.63,1095.65,0.047981,1048576,1024.00,0.005448,59.81,52.33,59.82,0,Wed Jul 21 16:57:07 2021,Wed Jul 21 16:58:07 2021
write,1097.53,1097.55,0.051916,1048576,1024.00,0.006446,59.71,52.30,59.71,0,Wed Jul 21 16:59:08 2021,Wed Jul 21 17:00:08 2021
write,1097.41,1097.42,0.052797,1048576,1024.00,0.005607,59.72,52.31,59.72,0,Wed Jul 21 17:01:09 2021,Wed Jul 21 17:02:09 2021
write,1106.72,1106.74,0.034718,1048576,1024.00,0.007117,59.22,51.77,59.22,0,Wed Jul 21 17:03:09 2021,Wed Jul 21 17:04:09 2021
write,1085.66,1085.68,0.058864,1048576,1024.00,0.006756,60.36,52.97,60.37,0,Wed Jul 21 17:05:10 2021,Wed Jul 21 17:06:10 2021
write,1086.24,1086.26,0.028739,1048576,1024.00,0.006881,60.33,52.81,60.33,0,Wed Jul 21 17:07:11 2021,Wed Jul 21 17:08:11 2021
write,1088.80,1088.82,0.031336,1048576,1024.00,0.005427,60.19,52.73,60.19,0,Wed Jul 21 17:18:00 2021,Wed Jul 21 17:19:00 2021
write,1098.85,1098.87,0.051019,1048576,1024.00,0.007375,59.64,52.23,59.64,0,Wed Jul 21 17:20:03 2021,Wed Jul 21 17:21:03 2021
write,1086.58,1086.60,0.058882,1048576,1024.00,0.006285,60.31,52.74,60.31,0,Wed Jul 21 17:22:04 2021,Wed Jul 21 17:23:04 2021
write,1091.51,1091.54,0.058590,1048576,1024.00,0.005669,60.04,52.64,60.04,0,Wed Jul 21 17:24:05 2021,Wed Jul 21 17:25:05 2021
write,1083.77,1083.79,0.050751,1048576,1024.00,0.006886,60.47,52.94,60.47,0,Wed Jul 21 17:26:06 2021,Wed Jul 21 17:27:07 2021
write,1090.15,1090.17,0.026272,1048576,1024.00,0.007271,60.12,52.69,60.12,0,Wed Jul 21 17:28:07 2021,Wed Jul 21 17:29:08 2021
write,1096.18,1096.20,0.054616,1048576,1024.00,0.006756,59.78,52.30,59.79,0,Wed Jul 21 17:30:08 2021,Wed Jul 21 17:31:08 2021
write,1102.42,1102.44,0.029792,1048576,1024.00,0.005593,59.45,52.00,59.45,0,Wed Jul 21 17:32:09 2021,Wed Jul 21 17:33:09 2021
write,1098.71,1098.73,0.046218,1048576,1024.00,0.006108,59.65,52.20,59.65,0,Wed Jul 21 17:34:10 2021,Wed Jul 21 17:35:09 2021
write,1101.58,1101.59,0.049590,1048576,1024.00,0.006511,59.49,51.97,59.49,0,Wed Jul 21 17:36:10 2021,Wed Jul 21 17:37:10 2021
write,1097.61,1097.64,0.057038,1048576,1024.00,0.006511,59.71,52.23,59.71,0,Wed Jul 21 17:47:00 2021,Wed Jul 21 17:48:00 2021
write,1106.72,1106.75,0.053845,1048576,1024.00,0.006083,59.22,51.79,59.22,0,Wed Jul 21 17:49:04 2021,Wed Jul 21 17:50:04 2021
write,1108.16,1108.18,0.020425,1048576,1024.00,0.007398,59.14,51.73,59.14,0,Wed Jul 21 17:51:05 2021,Wed Jul 21 17:52:04 2021
write,1098.07,1098.10,0.045201,1048576,1024.00,0.005677,59.68,52.28,59.68,0,Wed Jul 21 17:53:05 2021,Wed Jul 21 17:54:04 2021
write,1079.15,1079.17,0.052082,1048576,1024.00,0.005972,60.73,53.29,60.73,0,Wed Jul 21 17:55:05 2021,Wed Jul 21 17:56:06 2021
write,1065.13,1065.15,0.059952,1048576,1024.00,0.005534,61.53,54.08,61.53,0,Wed Jul 21 17:57:07 2021,Wed Jul 21 17:58:08 2021
write,1095.86,1095.88,0.053873,1048576,1024.00,0.007002,59.80,52.27,59.80,0,Wed Jul 21 17:59:09 2021,Wed Jul 21 18:00:09 2021
write,1096.62,1096.65,0.049071,1048576,1024.00,0.005609,59.76,52.27,59.76,0,Wed Jul 21 18:01:10 2021,Wed Jul 21 18:02:10 2021
write,1103.58,1103.60,0.053596,1048576,1024.00,0.005528,59.38,51.65,59.38,0,Wed Jul 21 18:03:11 2021,Wed Jul 21 18:04:10 2021
write,1095.35,1095.37,0.058423,1048576,1024.00,0.006123,59.83,52.24,59.83,0,Wed Jul 21 18:05:11 2021,Wed Jul 21 18:06:11 2021
