IOR-3.4.0+dev: MPI Coordinated Test of Parallel I/O
Began               : Fri Jan 14 08:44:25 2022
Command line        : /home/lgouveia/ior/bin/ior -w -t 1m -b 512m -k -o /beegfs/lgouveia/ior_8/testFileApp_1
Machine             : Linux bora010.plafrim.cluster
TestID              : 0
StartTime           : Fri Jan 14 08:44:25 2022
Path                : /beegfs/lgouveia/ior_8/testFileApp_1
FS                  : 130.9 TiB   Used FS: 36.5%   Inodes: 0.0 Mi   Used Inodes: -nan%

Options: 
api                 : POSIX
apiVersion          : 
test filename       : /beegfs/lgouveia/ior_8/testFileApp_1
access              : single-shared-file
type                : independent
segments            : 1
ordering in a file  : sequential
ordering inter file : no tasks offsets
nodes               : 8
tasks               : 64
clients per node    : 8
repetitions         : 1
xfersize            : 1 MiB
blocksize           : 512 MiB
aggregate filesize  : 32 GiB

Results: 
WARNING: The file "/beegfs/lgouveia/ior_8/testFileApp_1" exists already and will be overwritten

access    bw(MiB/s)  IOPS       Latency(s)  block(KiB) xfer(KiB)  open(s)    wr/rd(s)   close(s)   total(s)   iter
------    ---------  ----       ----------  ---------- ---------  --------   --------   --------   --------   ----
write     4648       4649       0.012205    524288     1024.00    0.045324   7.05       5.74       7.05       0   

Summary of all tests:
Operation   Max(MiB)   Min(MiB)  Mean(MiB)     StdDev   Max(OPs)   Min(OPs)  Mean(OPs)     StdDev    Mean(s) Stonewall(s) Stonewall(MiB) Test# #Tasks tPN reps fPP reord reordoff reordrand seed segcnt   blksiz    xsize aggs(MiB)   API RefNum
write        4648.34    4648.34    4648.34       0.00    4648.34    4648.34    4648.34       0.00    7.04939         NA            NA     0     64   8    1   0     0        1         0    0      1 536870912  1048576   32768.0 POSIX      0
Finished            : Fri Jan 14 08:44:32 2022
IOR-3.4.0+dev: MPI Coordinated Test of Parallel I/O
Began               : Fri Jan 14 08:45:34 2022
Command line        : /home/lgouveia/ior/bin/ior -w -t 1m -b 512m -k -o /beegfs/lgouveia/ior_8/testFileApp_1
Machine             : Linux bora010.plafrim.cluster
TestID              : 0
StartTime           : Fri Jan 14 08:45:34 2022
Path                : /beegfs/lgouveia/ior_8/testFileApp_1
FS                  : 130.9 TiB   Used FS: 36.5%   Inodes: 0.0 Mi   Used Inodes: -nan%

Options: 
api                 : POSIX
apiVersion          : 
test filename       : /beegfs/lgouveia/ior_8/testFileApp_1
access              : single-shared-file
type                : independent
segments            : 1
ordering in a file  : sequential
ordering inter file : no tasks offsets
nodes               : 8
tasks               : 64
clients per node    : 8
repetitions         : 1
xfersize            : 1 MiB
blocksize           : 512 MiB
aggregate filesize  : 32 GiB

Results: 
WARNING: The file "/beegfs/lgouveia/ior_8/testFileApp_1" exists already and will be overwritten

access    bw(MiB/s)  IOPS       Latency(s)  block(KiB) xfer(KiB)  open(s)    wr/rd(s)   close(s)   total(s)   iter
------    ---------  ----       ----------  ---------- ---------  --------   --------   --------   --------   ----
write     4675       4676       0.013273    524288     1024.00    0.051365   7.01       5.47       7.01       0   

Summary of all tests:
Operation   Max(MiB)   Min(MiB)  Mean(MiB)     StdDev   Max(OPs)   Min(OPs)  Mean(OPs)     StdDev    Mean(s) Stonewall(s) Stonewall(MiB) Test# #Tasks tPN reps fPP reord reordoff reordrand seed segcnt   blksiz    xsize aggs(MiB)   API RefNum
write        4675.30    4675.30    4675.30       0.00    4675.30    4675.30    4675.30       0.00    7.00874         NA            NA     0     64   8    1   0     0        1         0    0      1 536870912  1048576   32768.0 POSIX      0
Finished            : Fri Jan 14 08:45:41 2022
IOR-3.4.0+dev: MPI Coordinated Test of Parallel I/O
Began               : Fri Jan 14 08:46:42 2022
Command line        : /home/lgouveia/ior/bin/ior -w -t 1m -b 512m -k -o /beegfs/lgouveia/ior_8/testFileApp_1
Machine             : Linux bora010.plafrim.cluster
TestID              : 0
StartTime           : Fri Jan 14 08:46:42 2022
Path                : /beegfs/lgouveia/ior_8/testFileApp_1
FS                  : 130.9 TiB   Used FS: 36.5%   Inodes: 0.0 Mi   Used Inodes: -nan%

Options: 
api                 : POSIX
apiVersion          : 
test filename       : /beegfs/lgouveia/ior_8/testFileApp_1
access              : single-shared-file
type                : independent
segments            : 1
ordering in a file  : sequential
ordering inter file : no tasks offsets
nodes               : 8
tasks               : 64
clients per node    : 8
repetitions         : 1
xfersize            : 1 MiB
blocksize           : 512 MiB
aggregate filesize  : 32 GiB

Results: 
WARNING: The file "/beegfs/lgouveia/ior_8/testFileApp_1" exists already and will be overwritten

access    bw(MiB/s)  IOPS       Latency(s)  block(KiB) xfer(KiB)  open(s)    wr/rd(s)   close(s)   total(s)   iter
------    ---------  ----       ----------  ---------- ---------  --------   --------   --------   --------   ----
write     4747       4747       0.008156    524288     1024.00    0.260198   6.90       5.43       6.90       0   

Summary of all tests:
Operation   Max(MiB)   Min(MiB)  Mean(MiB)     StdDev   Max(OPs)   Min(OPs)  Mean(OPs)     StdDev    Mean(s) Stonewall(s) Stonewall(MiB) Test# #Tasks tPN reps fPP reord reordoff reordrand seed segcnt   blksiz    xsize aggs(MiB)   API RefNum
write        4746.62    4746.62    4746.62       0.00    4746.62    4746.62    4746.62       0.00    6.90343         NA            NA     0     64   8    1   0     0        1         0    0      1 536870912  1048576   32768.0 POSIX      0
Finished            : Fri Jan 14 08:46:49 2022
IOR-3.4.0+dev: MPI Coordinated Test of Parallel I/O
Began               : Fri Jan 14 08:47:50 2022
Command line        : /home/lgouveia/ior/bin/ior -w -t 1m -b 512m -k -o /beegfs/lgouveia/ior_8/testFileApp_1
Machine             : Linux bora010.plafrim.cluster
TestID              : 0
StartTime           : Fri Jan 14 08:47:50 2022
Path                : /beegfs/lgouveia/ior_8/testFileApp_1
FS                  : 130.9 TiB   Used FS: 36.5%   Inodes: 0.0 Mi   Used Inodes: -nan%

Options: 
api                 : POSIX
apiVersion          : 
test filename       : /beegfs/lgouveia/ior_8/testFileApp_1
access              : single-shared-file
type                : independent
segments            : 1
ordering in a file  : sequential
ordering inter file : no tasks offsets
nodes               : 8
tasks               : 64
clients per node    : 8
repetitions         : 1
xfersize            : 1 MiB
blocksize           : 512 MiB
aggregate filesize  : 32 GiB

Results: 
WARNING: The file "/beegfs/lgouveia/ior_8/testFileApp_1" exists already and will be overwritten

access    bw(MiB/s)  IOPS       Latency(s)  block(KiB) xfer(KiB)  open(s)    wr/rd(s)   close(s)   total(s)   iter
------    ---------  ----       ----------  ---------- ---------  --------   --------   --------   --------   ----
write     4972       4973       0.011849    524288     1024.00    0.024548   6.59       5.41       6.59       0   

Summary of all tests:
Operation   Max(MiB)   Min(MiB)  Mean(MiB)     StdDev   Max(OPs)   Min(OPs)  Mean(OPs)     StdDev    Mean(s) Stonewall(s) Stonewall(MiB) Test# #Tasks tPN reps fPP reord reordoff reordrand seed segcnt   blksiz    xsize aggs(MiB)   API RefNum
write        4972.43    4972.43    4972.43       0.00    4972.43    4972.43    4972.43       0.00    6.58994         NA            NA     0     64   8    1   0     0        1         0    0      1 536870912  1048576   32768.0 POSIX      0
Finished            : Fri Jan 14 08:47:57 2022
IOR-3.4.0+dev: MPI Coordinated Test of Parallel I/O
Began               : Fri Jan 14 08:48:58 2022
Command line        : /home/lgouveia/ior/bin/ior -w -t 1m -b 512m -k -o /beegfs/lgouveia/ior_8/testFileApp_1
Machine             : Linux bora010.plafrim.cluster
TestID              : 0
StartTime           : Fri Jan 14 08:48:58 2022
Path                : /beegfs/lgouveia/ior_8/testFileApp_1
FS                  : 130.9 TiB   Used FS: 36.5%   Inodes: 0.0 Mi   Used Inodes: -nan%

Options: 
api                 : POSIX
apiVersion          : 
test filename       : /beegfs/lgouveia/ior_8/testFileApp_1
access              : single-shared-file
type                : independent
segments            : 1
ordering in a file  : sequential
ordering inter file : no tasks offsets
nodes               : 8
tasks               : 64
clients per node    : 8
repetitions         : 1
xfersize            : 1 MiB
blocksize           : 512 MiB
aggregate filesize  : 32 GiB

Results: 
WARNING: The file "/beegfs/lgouveia/ior_8/testFileApp_1" exists already and will be overwritten

access    bw(MiB/s)  IOPS       Latency(s)  block(KiB) xfer(KiB)  open(s)    wr/rd(s)   close(s)   total(s)   iter
------    ---------  ----       ----------  ---------- ---------  --------   --------   --------   --------   ----
write     5155       5156       0.012275    524288     1024.00    0.050517   6.36       5.26       6.36       0   

Summary of all tests:
Operation   Max(MiB)   Min(MiB)  Mean(MiB)     StdDev   Max(OPs)   Min(OPs)  Mean(OPs)     StdDev    Mean(s) Stonewall(s) Stonewall(MiB) Test# #Tasks tPN reps fPP reord reordoff reordrand seed segcnt   blksiz    xsize aggs(MiB)   API RefNum
write        5155.07    5155.07    5155.07       0.00    5155.07    5155.07    5155.07       0.00    6.35646         NA            NA     0     64   8    1   0     0        1         0    0      1 536870912  1048576   32768.0 POSIX      0
Finished            : Fri Jan 14 08:49:04 2022
IOR-3.4.0+dev: MPI Coordinated Test of Parallel I/O
Began               : Fri Jan 14 08:50:06 2022
Command line        : /home/lgouveia/ior/bin/ior -w -t 1m -b 512m -k -o /beegfs/lgouveia/ior_8/testFileApp_1
Machine             : Linux bora010.plafrim.cluster
TestID              : 0
StartTime           : Fri Jan 14 08:50:06 2022
Path                : /beegfs/lgouveia/ior_8/testFileApp_1
FS                  : 130.9 TiB   Used FS: 36.5%   Inodes: 0.0 Mi   Used Inodes: -nan%

Options: 
api                 : POSIX
apiVersion          : 
test filename       : /beegfs/lgouveia/ior_8/testFileApp_1
access              : single-shared-file
type                : independent
segments            : 1
ordering in a file  : sequential
ordering inter file : no tasks offsets
nodes               : 8
tasks               : 64
clients per node    : 8
repetitions         : 1
xfersize            : 1 MiB
blocksize           : 512 MiB
aggregate filesize  : 32 GiB

Results: 
WARNING: The file "/beegfs/lgouveia/ior_8/testFileApp_1" exists already and will be overwritten

access    bw(MiB/s)  IOPS       Latency(s)  block(KiB) xfer(KiB)  open(s)    wr/rd(s)   close(s)   total(s)   iter
------    ---------  ----       ----------  ---------- ---------  --------   --------   --------   --------   ----
write     4543       4543       0.013731    524288     1024.00    0.041942   7.21       5.77       7.21       0   

Summary of all tests:
Operation   Max(MiB)   Min(MiB)  Mean(MiB)     StdDev   Max(OPs)   Min(OPs)  Mean(OPs)     StdDev    Mean(s) Stonewall(s) Stonewall(MiB) Test# #Tasks tPN reps fPP reord reordoff reordrand seed segcnt   blksiz    xsize aggs(MiB)   API RefNum
write        4542.56    4542.56    4542.56       0.00    4542.56    4542.56    4542.56       0.00    7.21355         NA            NA     0     64   8    1   0     0        1         0    0      1 536870912  1048576   32768.0 POSIX      0
Finished            : Fri Jan 14 08:50:13 2022
IOR-3.4.0+dev: MPI Coordinated Test of Parallel I/O
Began               : Fri Jan 14 08:51:15 2022
Command line        : /home/lgouveia/ior/bin/ior -w -t 1m -b 512m -k -o /beegfs/lgouveia/ior_8/testFileApp_1
Machine             : Linux bora010.plafrim.cluster
TestID              : 0
StartTime           : Fri Jan 14 08:51:15 2022
Path                : /beegfs/lgouveia/ior_8/testFileApp_1
FS                  : 130.9 TiB   Used FS: 36.5%   Inodes: 0.0 Mi   Used Inodes: -nan%

Options: 
api                 : POSIX
apiVersion          : 
test filename       : /beegfs/lgouveia/ior_8/testFileApp_1
access              : single-shared-file
type                : independent
segments            : 1
ordering in a file  : sequential
ordering inter file : no tasks offsets
nodes               : 8
tasks               : 64
clients per node    : 8
repetitions         : 1
xfersize            : 1 MiB
blocksize           : 512 MiB
aggregate filesize  : 32 GiB

Results: 
WARNING: The file "/beegfs/lgouveia/ior_8/testFileApp_1" exists already and will be overwritten

access    bw(MiB/s)  IOPS       Latency(s)  block(KiB) xfer(KiB)  open(s)    wr/rd(s)   close(s)   total(s)   iter
------    ---------  ----       ----------  ---------- ---------  --------   --------   --------   --------   ----
write     4798       4799       0.013283    524288     1024.00    0.029518   6.83       5.52       6.83       0   

Summary of all tests:
Operation   Max(MiB)   Min(MiB)  Mean(MiB)     StdDev   Max(OPs)   Min(OPs)  Mean(OPs)     StdDev    Mean(s) Stonewall(s) Stonewall(MiB) Test# #Tasks tPN reps fPP reord reordoff reordrand seed segcnt   blksiz    xsize aggs(MiB)   API RefNum
write        4798.34    4798.34    4798.34       0.00    4798.34    4798.34    4798.34       0.00    6.82902         NA            NA     0     64   8    1   0     0        1         0    0      1 536870912  1048576   32768.0 POSIX      0
Finished            : Fri Jan 14 08:51:21 2022
IOR-3.4.0+dev: MPI Coordinated Test of Parallel I/O
Began               : Fri Jan 14 08:52:23 2022
Command line        : /home/lgouveia/ior/bin/ior -w -t 1m -b 512m -k -o /beegfs/lgouveia/ior_8/testFileApp_1
Machine             : Linux bora010.plafrim.cluster
TestID              : 0
StartTime           : Fri Jan 14 08:52:23 2022
Path                : /beegfs/lgouveia/ior_8/testFileApp_1
FS                  : 130.9 TiB   Used FS: 36.5%   Inodes: 0.0 Mi   Used Inodes: -nan%

Options: 
api                 : POSIX
apiVersion          : 
test filename       : /beegfs/lgouveia/ior_8/testFileApp_1
access              : single-shared-file
type                : independent
segments            : 1
ordering in a file  : sequential
ordering inter file : no tasks offsets
nodes               : 8
tasks               : 64
clients per node    : 8
repetitions         : 1
xfersize            : 1 MiB
blocksize           : 512 MiB
aggregate filesize  : 32 GiB

Results: 
WARNING: The file "/beegfs/lgouveia/ior_8/testFileApp_1" exists already and will be overwritten

access    bw(MiB/s)  IOPS       Latency(s)  block(KiB) xfer(KiB)  open(s)    wr/rd(s)   close(s)   total(s)   iter
------    ---------  ----       ----------  ---------- ---------  --------   --------   --------   --------   ----
write     4579       4580       0.004719    524288     1024.00    0.094219   7.15       5.72       7.16       0   

Summary of all tests:
Operation   Max(MiB)   Min(MiB)  Mean(MiB)     StdDev   Max(OPs)   Min(OPs)  Mean(OPs)     StdDev    Mean(s) Stonewall(s) Stonewall(MiB) Test# #Tasks tPN reps fPP reord reordoff reordrand seed segcnt   blksiz    xsize aggs(MiB)   API RefNum
write        4579.32    4579.32    4579.32       0.00    4579.32    4579.32    4579.32       0.00    7.15565         NA            NA     0     64   8    1   0     0        1         0    0      1 536870912  1048576   32768.0 POSIX      0
Finished            : Fri Jan 14 08:52:30 2022
IOR-3.4.0+dev: MPI Coordinated Test of Parallel I/O
Began               : Fri Jan 14 08:53:31 2022
Command line        : /home/lgouveia/ior/bin/ior -w -t 1m -b 512m -k -o /beegfs/lgouveia/ior_8/testFileApp_1
Machine             : Linux bora010.plafrim.cluster
TestID              : 0
StartTime           : Fri Jan 14 08:53:31 2022
Path                : /beegfs/lgouveia/ior_8/testFileApp_1
FS                  : 130.9 TiB   Used FS: 36.5%   Inodes: 0.0 Mi   Used Inodes: -nan%

Options: 
api                 : POSIX
apiVersion          : 
test filename       : /beegfs/lgouveia/ior_8/testFileApp_1
access              : single-shared-file
type                : independent
segments            : 1
ordering in a file  : sequential
ordering inter file : no tasks offsets
nodes               : 8
tasks               : 64
clients per node    : 8
repetitions         : 1
xfersize            : 1 MiB
blocksize           : 512 MiB
aggregate filesize  : 32 GiB

Results: 
WARNING: The file "/beegfs/lgouveia/ior_8/testFileApp_1" exists already and will be overwritten

access    bw(MiB/s)  IOPS       Latency(s)  block(KiB) xfer(KiB)  open(s)    wr/rd(s)   close(s)   total(s)   iter
------    ---------  ----       ----------  ---------- ---------  --------   --------   --------   --------   ----
write     4700       4701       0.012509    524288     1024.00    0.084671   6.97       5.28       6.97       0   

Summary of all tests:
Operation   Max(MiB)   Min(MiB)  Mean(MiB)     StdDev   Max(OPs)   Min(OPs)  Mean(OPs)     StdDev    Mean(s) Stonewall(s) Stonewall(MiB) Test# #Tasks tPN reps fPP reord reordoff reordrand seed segcnt   blksiz    xsize aggs(MiB)   API RefNum
write        4700.24    4700.24    4700.24       0.00    4700.24    4700.24    4700.24       0.00    6.97156         NA            NA     0     64   8    1   0     0        1         0    0      1 536870912  1048576   32768.0 POSIX      0
Finished            : Fri Jan 14 08:53:38 2022
IOR-3.4.0+dev: MPI Coordinated Test of Parallel I/O
Began               : Fri Jan 14 08:54:39 2022
Command line        : /home/lgouveia/ior/bin/ior -w -t 1m -b 512m -k -o /beegfs/lgouveia/ior_8/testFileApp_1
Machine             : Linux bora010.plafrim.cluster
TestID              : 0
StartTime           : Fri Jan 14 08:54:39 2022
Path                : /beegfs/lgouveia/ior_8/testFileApp_1
FS                  : 130.9 TiB   Used FS: 36.5%   Inodes: 0.0 Mi   Used Inodes: -nan%

Options: 
api                 : POSIX
apiVersion          : 
test filename       : /beegfs/lgouveia/ior_8/testFileApp_1
access              : single-shared-file
type                : independent
segments            : 1
ordering in a file  : sequential
ordering inter file : no tasks offsets
nodes               : 8
tasks               : 64
clients per node    : 8
repetitions         : 1
xfersize            : 1 MiB
blocksize           : 512 MiB
aggregate filesize  : 32 GiB

Results: 
WARNING: The file "/beegfs/lgouveia/ior_8/testFileApp_1" exists already and will be overwritten

access    bw(MiB/s)  IOPS       Latency(s)  block(KiB) xfer(KiB)  open(s)    wr/rd(s)   close(s)   total(s)   iter
------    ---------  ----       ----------  ---------- ---------  --------   --------   --------   --------   ----
write     4754       4755       0.012669    524288     1024.00    0.019292   6.89       5.76       6.89       0   

Summary of all tests:
Operation   Max(MiB)   Min(MiB)  Mean(MiB)     StdDev   Max(OPs)   Min(OPs)  Mean(OPs)     StdDev    Mean(s) Stonewall(s) Stonewall(MiB) Test# #Tasks tPN reps fPP reord reordoff reordrand seed segcnt   blksiz    xsize aggs(MiB)   API RefNum
write        4754.25    4754.25    4754.25       0.00    4754.25    4754.25    4754.25       0.00    6.89235         NA            NA     0     64   8    1   0     0        1         0    0      1 536870912  1048576   32768.0 POSIX      0
Finished            : Fri Jan 14 08:54:46 2022
