===== My JOB Information ====
Node List:  miriel[002-004,011-015,028-031,039-042]
my jobID:  1475311
Partition: routage
submit directory:  /home/lgouveia/luan-teylo/tests/ethernet/scalability_model/compute_nodes/4_targets/16_process/16
submit host:  devel02.plafrim.cluster
In the directory: /home/lgouveia/luan-teylo/tests/ethernet/scalability_model/compute_nodes/4_targets/16_process/16
As the user: lgouveia
============================
IOR-3.4.0+dev: MPI Coordinated Test of Parallel I/O
Began               : Fri Feb  4 10:56:12 2022
Command line        : /home/lgouveia/ior/bin/ior -w -t 1m -b 128m -k -o /beegfs/lgouveia/ior_4/testFile1
Machine             : Linux miriel002.plafrim.cluster
TestID              : 0
StartTime           : Fri Feb  4 10:56:12 2022
Path                : /beegfs/lgouveia/ior_4/testFile1
FS                  : 130.9 TiB   Used FS: 37.1%   Inodes: 0.0 Mi   Used Inodes: -nan%

Options: 
api                 : POSIX
apiVersion          : 
test filename       : /beegfs/lgouveia/ior_4/testFile1
access              : single-shared-file
type                : independent
segments            : 1
ordering in a file  : sequential
ordering inter file : no tasks offsets
nodes               : 16
tasks               : 256
clients per node    : 16
repetitions         : 1
xfersize            : 1 MiB
blocksize           : 128 MiB
aggregate filesize  : 32 GiB

Results: 
WARNING: The file "/beegfs/lgouveia/ior_4/testFile1" exists already and will be overwritten

access    bw(MiB/s)  IOPS       Latency(s)  block(KiB) xfer(KiB)  open(s)    wr/rd(s)   close(s)   total(s)   iter
------    ---------  ----       ----------  ---------- ---------  --------   --------   --------   --------   ----
write     1474.68    1474.77    0.107743    131072     1024.00    0.147488   22.22      20.88      22.22      0   

Summary of all tests:
Operation   Max(MiB)   Min(MiB)  Mean(MiB)     StdDev   Max(OPs)   Min(OPs)  Mean(OPs)     StdDev    Mean(s) Stonewall(s) Stonewall(MiB) Test# #Tasks tPN reps fPP reord reordoff reordrand seed segcnt   blksiz    xsize aggs(MiB)   API RefNum
write        1474.68    1474.68    1474.68       0.00    1474.68    1474.68    1474.68       0.00   22.22038         NA            NA     0    256  16    1   0     0        1         0    0      1 134217728  1048576   32768.0 POSIX      0
Finished            : Fri Feb  4 10:56:35 2022
Tracking /beegfs/lgouveia/ior_4/testFile1...



Writing tracked information to tracker.csv...
IOR-3.4.0+dev: MPI Coordinated Test of Parallel I/O
Began               : Fri Feb  4 10:57:37 2022
Command line        : /home/lgouveia/ior/bin/ior -w -t 1m -b 128m -k -o /beegfs/lgouveia/ior_4/testFile1
Machine             : Linux miriel002.plafrim.cluster
TestID              : 0
StartTime           : Fri Feb  4 10:57:37 2022
Path                : /beegfs/lgouveia/ior_4/testFile1
FS                  : 130.9 TiB   Used FS: 37.1%   Inodes: 0.0 Mi   Used Inodes: -nan%

Options: 
api                 : POSIX
apiVersion          : 
test filename       : /beegfs/lgouveia/ior_4/testFile1
access              : single-shared-file
type                : independent
segments            : 1
ordering in a file  : sequential
ordering inter file : no tasks offsets
nodes               : 16
tasks               : 256
clients per node    : 16
repetitions         : 1
xfersize            : 1 MiB
blocksize           : 128 MiB
aggregate filesize  : 32 GiB

Results: 
WARNING: The file "/beegfs/lgouveia/ior_4/testFile1" exists already and will be overwritten

access    bw(MiB/s)  IOPS       Latency(s)  block(KiB) xfer(KiB)  open(s)    wr/rd(s)   close(s)   total(s)   iter
------    ---------  ----       ----------  ---------- ---------  --------   --------   --------   --------   ----
write     1455.63    1455.72    0.130929    131072     1024.00    0.182447   22.51      21.02      22.51      0   

Summary of all tests:
Operation   Max(MiB)   Min(MiB)  Mean(MiB)     StdDev   Max(OPs)   Min(OPs)  Mean(OPs)     StdDev    Mean(s) Stonewall(s) Stonewall(MiB) Test# #Tasks tPN reps fPP reord reordoff reordrand seed segcnt   blksiz    xsize aggs(MiB)   API RefNum
write        1455.63    1455.63    1455.63       0.00    1455.63    1455.63    1455.63       0.00   22.51125         NA            NA     0    256  16    1   0     0        1         0    0      1 134217728  1048576   32768.0 POSIX      0
Finished            : Fri Feb  4 10:57:59 2022
Tracking /beegfs/lgouveia/ior_4/testFile1...



Writing tracked information to tracker.csv...
IOR-3.4.0+dev: MPI Coordinated Test of Parallel I/O
Began               : Fri Feb  4 10:59:01 2022
Command line        : /home/lgouveia/ior/bin/ior -w -t 1m -b 128m -k -o /beegfs/lgouveia/ior_4/testFile1
Machine             : Linux miriel002.plafrim.cluster
TestID              : 0
StartTime           : Fri Feb  4 10:59:01 2022
Path                : /beegfs/lgouveia/ior_4/testFile1
FS                  : 130.9 TiB   Used FS: 37.1%   Inodes: 0.0 Mi   Used Inodes: -nan%

Options: 
api                 : POSIX
apiVersion          : 
test filename       : /beegfs/lgouveia/ior_4/testFile1
access              : single-shared-file
type                : independent
segments            : 1
ordering in a file  : sequential
ordering inter file : no tasks offsets
nodes               : 16
tasks               : 256
clients per node    : 16
repetitions         : 1
xfersize            : 1 MiB
blocksize           : 128 MiB
aggregate filesize  : 32 GiB

Results: 
WARNING: The file "/beegfs/lgouveia/ior_4/testFile1" exists already and will be overwritten

access    bw(MiB/s)  IOPS       Latency(s)  block(KiB) xfer(KiB)  open(s)    wr/rd(s)   close(s)   total(s)   iter
------    ---------  ----       ----------  ---------- ---------  --------   --------   --------   --------   ----
write     1464.28    1464.37    0.153477    131072     1024.00    0.220106   22.38      20.77      22.38      0   

Summary of all tests:
Operation   Max(MiB)   Min(MiB)  Mean(MiB)     StdDev   Max(OPs)   Min(OPs)  Mean(OPs)     StdDev    Mean(s) Stonewall(s) Stonewall(MiB) Test# #Tasks tPN reps fPP reord reordoff reordrand seed segcnt   blksiz    xsize aggs(MiB)   API RefNum
write        1464.28    1464.28    1464.28       0.00    1464.28    1464.28    1464.28       0.00   22.37817         NA            NA     0    256  16    1   0     0        1         0    0      1 134217728  1048576   32768.0 POSIX      0
Finished            : Fri Feb  4 10:59:24 2022
Tracking /beegfs/lgouveia/ior_4/testFile1...



Writing tracked information to tracker.csv...
IOR-3.4.0+dev: MPI Coordinated Test of Parallel I/O
Began               : Fri Feb  4 11:00:25 2022
Command line        : /home/lgouveia/ior/bin/ior -w -t 1m -b 128m -k -o /beegfs/lgouveia/ior_4/testFile1
Machine             : Linux miriel002.plafrim.cluster
TestID              : 0
StartTime           : Fri Feb  4 11:00:25 2022
Path                : /beegfs/lgouveia/ior_4/testFile1
FS                  : 130.9 TiB   Used FS: 37.1%   Inodes: 0.0 Mi   Used Inodes: -nan%

Options: 
api                 : POSIX
apiVersion          : 
test filename       : /beegfs/lgouveia/ior_4/testFile1
access              : single-shared-file
type                : independent
segments            : 1
ordering in a file  : sequential
ordering inter file : no tasks offsets
nodes               : 16
tasks               : 256
clients per node    : 16
repetitions         : 1
xfersize            : 1 MiB
blocksize           : 128 MiB
aggregate filesize  : 32 GiB

Results: 
WARNING: The file "/beegfs/lgouveia/ior_4/testFile1" exists already and will be overwritten

access    bw(MiB/s)  IOPS       Latency(s)  block(KiB) xfer(KiB)  open(s)    wr/rd(s)   close(s)   total(s)   iter
------    ---------  ----       ----------  ---------- ---------  --------   --------   --------   --------   ----
write     1461.75    1461.83    0.098397    131072     1024.00    0.454317   22.42      20.81      22.42      0   

Summary of all tests:
Operation   Max(MiB)   Min(MiB)  Mean(MiB)     StdDev   Max(OPs)   Min(OPs)  Mean(OPs)     StdDev    Mean(s) Stonewall(s) Stonewall(MiB) Test# #Tasks tPN reps fPP reord reordoff reordrand seed segcnt   blksiz    xsize aggs(MiB)   API RefNum
write        1461.75    1461.75    1461.75       0.00    1461.75    1461.75    1461.75       0.00   22.41693         NA            NA     0    256  16    1   0     0        1         0    0      1 134217728  1048576   32768.0 POSIX      0
Finished            : Fri Feb  4 11:00:48 2022
Tracking /beegfs/lgouveia/ior_4/testFile1...



Writing tracked information to tracker.csv...
IOR-3.4.0+dev: MPI Coordinated Test of Parallel I/O
Began               : Fri Feb  4 11:01:50 2022
Command line        : /home/lgouveia/ior/bin/ior -w -t 1m -b 128m -k -o /beegfs/lgouveia/ior_4/testFile1
Machine             : Linux miriel002.plafrim.cluster
TestID              : 0
StartTime           : Fri Feb  4 11:01:50 2022
Path                : /beegfs/lgouveia/ior_4/testFile1
FS                  : 130.9 TiB   Used FS: 37.1%   Inodes: 0.0 Mi   Used Inodes: -nan%

Options: 
api                 : POSIX
apiVersion          : 
test filename       : /beegfs/lgouveia/ior_4/testFile1
access              : single-shared-file
type                : independent
segments            : 1
ordering in a file  : sequential
ordering inter file : no tasks offsets
nodes               : 16
tasks               : 256
clients per node    : 16
repetitions         : 1
xfersize            : 1 MiB
blocksize           : 128 MiB
aggregate filesize  : 32 GiB

Results: 
WARNING: The file "/beegfs/lgouveia/ior_4/testFile1" exists already and will be overwritten

access    bw(MiB/s)  IOPS       Latency(s)  block(KiB) xfer(KiB)  open(s)    wr/rd(s)   close(s)   total(s)   iter
------    ---------  ----       ----------  ---------- ---------  --------   --------   --------   --------   ----
write     1453.66    1453.74    0.142042    131072     1024.00    0.340561   22.54      20.87      22.54      0   

Summary of all tests:
Operation   Max(MiB)   Min(MiB)  Mean(MiB)     StdDev   Max(OPs)   Min(OPs)  Mean(OPs)     StdDev    Mean(s) Stonewall(s) Stonewall(MiB) Test# #Tasks tPN reps fPP reord reordoff reordrand seed segcnt   blksiz    xsize aggs(MiB)   API RefNum
write        1453.66    1453.66    1453.66       0.00    1453.66    1453.66    1453.66       0.00   22.54174         NA            NA     0    256  16    1   0     0        1         0    0      1 134217728  1048576   32768.0 POSIX      0
Finished            : Fri Feb  4 11:02:12 2022
Tracking /beegfs/lgouveia/ior_4/testFile1...



Writing tracked information to tracker.csv...
IOR-3.4.0+dev: MPI Coordinated Test of Parallel I/O
Began               : Fri Feb  4 11:03:14 2022
Command line        : /home/lgouveia/ior/bin/ior -w -t 1m -b 128m -k -o /beegfs/lgouveia/ior_4/testFile1
Machine             : Linux miriel002.plafrim.cluster
TestID              : 0
StartTime           : Fri Feb  4 11:03:14 2022
Path                : /beegfs/lgouveia/ior_4/testFile1
FS                  : 130.9 TiB   Used FS: 37.1%   Inodes: 0.0 Mi   Used Inodes: -nan%

Options: 
api                 : POSIX
apiVersion          : 
test filename       : /beegfs/lgouveia/ior_4/testFile1
access              : single-shared-file
type                : independent
segments            : 1
ordering in a file  : sequential
ordering inter file : no tasks offsets
nodes               : 16
tasks               : 256
clients per node    : 16
repetitions         : 1
xfersize            : 1 MiB
blocksize           : 128 MiB
aggregate filesize  : 32 GiB

Results: 
WARNING: The file "/beegfs/lgouveia/ior_4/testFile1" exists already and will be overwritten

access    bw(MiB/s)  IOPS       Latency(s)  block(KiB) xfer(KiB)  open(s)    wr/rd(s)   close(s)   total(s)   iter
------    ---------  ----       ----------  ---------- ---------  --------   --------   --------   --------   ----
write     1447.26    1447.34    0.139322    131072     1024.00    0.652924   22.64      20.77      22.64      0   

Summary of all tests:
Operation   Max(MiB)   Min(MiB)  Mean(MiB)     StdDev   Max(OPs)   Min(OPs)  Mean(OPs)     StdDev    Mean(s) Stonewall(s) Stonewall(MiB) Test# #Tasks tPN reps fPP reord reordoff reordrand seed segcnt   blksiz    xsize aggs(MiB)   API RefNum
write        1447.26    1447.26    1447.26       0.00    1447.26    1447.26    1447.26       0.00   22.64135         NA            NA     0    256  16    1   0     0        1         0    0      1 134217728  1048576   32768.0 POSIX      0
Finished            : Fri Feb  4 11:03:37 2022
Tracking /beegfs/lgouveia/ior_4/testFile1...



Writing tracked information to tracker.csv...
IOR-3.4.0+dev: MPI Coordinated Test of Parallel I/O
Began               : Fri Feb  4 11:04:39 2022
Command line        : /home/lgouveia/ior/bin/ior -w -t 1m -b 128m -k -o /beegfs/lgouveia/ior_4/testFile1
Machine             : Linux miriel002.plafrim.cluster
TestID              : 0
StartTime           : Fri Feb  4 11:04:39 2022
Path                : /beegfs/lgouveia/ior_4/testFile1
FS                  : 130.9 TiB   Used FS: 37.1%   Inodes: 0.0 Mi   Used Inodes: -nan%

Options: 
api                 : POSIX
apiVersion          : 
test filename       : /beegfs/lgouveia/ior_4/testFile1
access              : single-shared-file
type                : independent
segments            : 1
ordering in a file  : sequential
ordering inter file : no tasks offsets
nodes               : 16
tasks               : 256
clients per node    : 16
repetitions         : 1
xfersize            : 1 MiB
blocksize           : 128 MiB
aggregate filesize  : 32 GiB

Results: 
WARNING: The file "/beegfs/lgouveia/ior_4/testFile1" exists already and will be overwritten

access    bw(MiB/s)  IOPS       Latency(s)  block(KiB) xfer(KiB)  open(s)    wr/rd(s)   close(s)   total(s)   iter
------    ---------  ----       ----------  ---------- ---------  --------   --------   --------   --------   ----
write     1458.82    1458.90    0.099009    131072     1024.00    0.205509   22.46      20.80      22.46      0   

Summary of all tests:
Operation   Max(MiB)   Min(MiB)  Mean(MiB)     StdDev   Max(OPs)   Min(OPs)  Mean(OPs)     StdDev    Mean(s) Stonewall(s) Stonewall(MiB) Test# #Tasks tPN reps fPP reord reordoff reordrand seed segcnt   blksiz    xsize aggs(MiB)   API RefNum
write        1458.82    1458.82    1458.82       0.00    1458.82    1458.82    1458.82       0.00   22.46194         NA            NA     0    256  16    1   0     0        1         0    0      1 134217728  1048576   32768.0 POSIX      0
Finished            : Fri Feb  4 11:05:01 2022
Tracking /beegfs/lgouveia/ior_4/testFile1...



Writing tracked information to tracker.csv...
IOR-3.4.0+dev: MPI Coordinated Test of Parallel I/O
Began               : Fri Feb  4 11:06:03 2022
Command line        : /home/lgouveia/ior/bin/ior -w -t 1m -b 128m -k -o /beegfs/lgouveia/ior_4/testFile1
Machine             : Linux miriel002.plafrim.cluster
TestID              : 0
StartTime           : Fri Feb  4 11:06:03 2022
Path                : /beegfs/lgouveia/ior_4/testFile1
FS                  : 130.9 TiB   Used FS: 37.1%   Inodes: 0.0 Mi   Used Inodes: -nan%

Options: 
api                 : POSIX
apiVersion          : 
test filename       : /beegfs/lgouveia/ior_4/testFile1
access              : single-shared-file
type                : independent
segments            : 1
ordering in a file  : sequential
ordering inter file : no tasks offsets
nodes               : 16
tasks               : 256
clients per node    : 16
repetitions         : 1
xfersize            : 1 MiB
blocksize           : 128 MiB
aggregate filesize  : 32 GiB

Results: 
WARNING: The file "/beegfs/lgouveia/ior_4/testFile1" exists already and will be overwritten

access    bw(MiB/s)  IOPS       Latency(s)  block(KiB) xfer(KiB)  open(s)    wr/rd(s)   close(s)   total(s)   iter
------    ---------  ----       ----------  ---------- ---------  --------   --------   --------   --------   ----
write     1463.84    1463.92    0.103034    131072     1024.00    0.216255   22.38      20.87      22.38      0   

Summary of all tests:
Operation   Max(MiB)   Min(MiB)  Mean(MiB)     StdDev   Max(OPs)   Min(OPs)  Mean(OPs)     StdDev    Mean(s) Stonewall(s) Stonewall(MiB) Test# #Tasks tPN reps fPP reord reordoff reordrand seed segcnt   blksiz    xsize aggs(MiB)   API RefNum
write        1463.84    1463.84    1463.84       0.00    1463.84    1463.84    1463.84       0.00   22.38492         NA            NA     0    256  16    1   0     0        1         0    0      1 134217728  1048576   32768.0 POSIX      0
Finished            : Fri Feb  4 11:06:25 2022
Tracking /beegfs/lgouveia/ior_4/testFile1...



Writing tracked information to tracker.csv...
IOR-3.4.0+dev: MPI Coordinated Test of Parallel I/O
Began               : Fri Feb  4 11:07:27 2022
Command line        : /home/lgouveia/ior/bin/ior -w -t 1m -b 128m -k -o /beegfs/lgouveia/ior_4/testFile1
Machine             : Linux miriel002.plafrim.cluster
TestID              : 0
StartTime           : Fri Feb  4 11:07:27 2022
Path                : /beegfs/lgouveia/ior_4/testFile1
FS                  : 130.9 TiB   Used FS: 37.1%   Inodes: 0.0 Mi   Used Inodes: -nan%

Options: 
api                 : POSIX
apiVersion          : 
test filename       : /beegfs/lgouveia/ior_4/testFile1
access              : single-shared-file
type                : independent
segments            : 1
ordering in a file  : sequential
ordering inter file : no tasks offsets
nodes               : 16
tasks               : 256
clients per node    : 16
repetitions         : 1
xfersize            : 1 MiB
blocksize           : 128 MiB
aggregate filesize  : 32 GiB

Results: 
WARNING: The file "/beegfs/lgouveia/ior_4/testFile1" exists already and will be overwritten

access    bw(MiB/s)  IOPS       Latency(s)  block(KiB) xfer(KiB)  open(s)    wr/rd(s)   close(s)   total(s)   iter
------    ---------  ----       ----------  ---------- ---------  --------   --------   --------   --------   ----
write     1447.02    1447.11    0.132420    131072     1024.00    0.420872   22.64      21.03      22.65      0   

Summary of all tests:
Operation   Max(MiB)   Min(MiB)  Mean(MiB)     StdDev   Max(OPs)   Min(OPs)  Mean(OPs)     StdDev    Mean(s) Stonewall(s) Stonewall(MiB) Test# #Tasks tPN reps fPP reord reordoff reordrand seed segcnt   blksiz    xsize aggs(MiB)   API RefNum
write        1447.02    1447.02    1447.02       0.00    1447.02    1447.02    1447.02       0.00   22.64523         NA            NA     0    256  16    1   0     0        1         0    0      1 134217728  1048576   32768.0 POSIX      0
Finished            : Fri Feb  4 11:07:50 2022
Tracking /beegfs/lgouveia/ior_4/testFile1...



Writing tracked information to tracker.csv...
IOR-3.4.0+dev: MPI Coordinated Test of Parallel I/O
Began               : Fri Feb  4 11:08:52 2022
Command line        : /home/lgouveia/ior/bin/ior -w -t 1m -b 128m -k -o /beegfs/lgouveia/ior_4/testFile1
Machine             : Linux miriel002.plafrim.cluster
TestID              : 0
StartTime           : Fri Feb  4 11:08:52 2022
Path                : /beegfs/lgouveia/ior_4/testFile1
FS                  : 130.9 TiB   Used FS: 37.1%   Inodes: 0.0 Mi   Used Inodes: -nan%

Options: 
api                 : POSIX
apiVersion          : 
test filename       : /beegfs/lgouveia/ior_4/testFile1
access              : single-shared-file
type                : independent
segments            : 1
ordering in a file  : sequential
ordering inter file : no tasks offsets
nodes               : 16
tasks               : 256
clients per node    : 16
repetitions         : 1
xfersize            : 1 MiB
blocksize           : 128 MiB
aggregate filesize  : 32 GiB

Results: 
WARNING: The file "/beegfs/lgouveia/ior_4/testFile1" exists already and will be overwritten

access    bw(MiB/s)  IOPS       Latency(s)  block(KiB) xfer(KiB)  open(s)    wr/rd(s)   close(s)   total(s)   iter
------    ---------  ----       ----------  ---------- ---------  --------   --------   --------   --------   ----
write     1466.13    1466.22    0.140431    131072     1024.00    0.179433   22.35      20.97      22.35      0   

Summary of all tests:
Operation   Max(MiB)   Min(MiB)  Mean(MiB)     StdDev   Max(OPs)   Min(OPs)  Mean(OPs)     StdDev    Mean(s) Stonewall(s) Stonewall(MiB) Test# #Tasks tPN reps fPP reord reordoff reordrand seed segcnt   blksiz    xsize aggs(MiB)   API RefNum
write        1466.13    1466.13    1466.13       0.00    1466.13    1466.13    1466.13       0.00   22.34997         NA            NA     0    256  16    1   0     0        1         0    0      1 134217728  1048576   32768.0 POSIX      0
Finished            : Fri Feb  4 11:09:14 2022
Tracking /beegfs/lgouveia/ior_4/testFile1...



Writing tracked information to tracker.csv...
