===== My JOB Information ====
Node List:  miriel[028-031]
my jobID:  1466172
Partition: routage
submit directory:  /home/lgouveia/luan-teylo/tests/ethernet/scalability_model/file_size/01
submit host:  devel02.plafrim.cluster
In the directory: /home/lgouveia/luan-teylo/tests/ethernet/scalability_model/file_size/01
As the user: lgouveia
============================
IOR-3.4.0+dev: MPI Coordinated Test of Parallel I/O
Began               : Mon Dec 13 09:40:58 2021
Command line        : /home/lgouveia/ior/bin/ior -w -t 1m -b 8m -k -o /beegfs/lgouveia/ior_4/testFile1
Machine             : Linux miriel028.plafrim.cluster
TestID              : 0
StartTime           : Mon Dec 13 09:40:58 2021
Path                : /beegfs/lgouveia/ior_4/testFile1
FS                  : 130.9 TiB   Used FS: 35.9%   Inodes: 0.0 Mi   Used Inodes: -nan%

Options: 
api                 : POSIX
apiVersion          : 
test filename       : /beegfs/lgouveia/ior_4/testFile1
access              : single-shared-file
type                : independent
segments            : 1
ordering in a file  : sequential
ordering inter file : no tasks offsets
nodes               : 4
tasks               : 32
clients per node    : 8
repetitions         : 1
xfersize            : 1 MiB
blocksize           : 8 MiB
aggregate filesize  : 256 MiB

Results: 
WARNING: The file "/beegfs/lgouveia/ior_4/testFile1" exists already and will be overwritten

access    bw(MiB/s)  IOPS       Latency(s)  block(KiB) xfer(KiB)  open(s)    wr/rd(s)   close(s)   total(s)   iter
------    ---------  ----       ----------  ---------- ---------  --------   --------   --------   --------   ----
write     1228.17    1234.57    0.015239    8192       1024.00    0.005652   0.207359   0.156178   0.208440   0   

Summary of all tests:
Operation   Max(MiB)   Min(MiB)  Mean(MiB)     StdDev   Max(OPs)   Min(OPs)  Mean(OPs)     StdDev    Mean(s) Stonewall(s) Stonewall(MiB) Test# #Tasks tPN reps fPP reord reordoff reordrand seed segcnt   blksiz    xsize aggs(MiB)   API RefNum
write        1228.17    1228.17    1228.17       0.00    1228.17    1228.17    1228.17       0.00    0.20844         NA            NA     0     32   8    1   0     0        1         0    0      1  8388608  1048576     256.0 POSIX      0
Finished            : Mon Dec 13 09:40:58 2021
Tracking /beegfs/lgouveia/ior_4/testFile1...



Writing tracked information to tracker.csv...
IOR-3.4.0+dev: MPI Coordinated Test of Parallel I/O
Began               : Mon Dec 13 09:41:59 2021
Command line        : /home/lgouveia/ior/bin/ior -w -t 1m -b 8m -k -o /beegfs/lgouveia/ior_4/testFile1
Machine             : Linux miriel028.plafrim.cluster
TestID              : 0
StartTime           : Mon Dec 13 09:41:59 2021
Path                : /beegfs/lgouveia/ior_4/testFile1
FS                  : 130.9 TiB   Used FS: 35.9%   Inodes: 0.0 Mi   Used Inodes: -nan%

Options: 
api                 : POSIX
apiVersion          : 
test filename       : /beegfs/lgouveia/ior_4/testFile1
access              : single-shared-file
type                : independent
segments            : 1
ordering in a file  : sequential
ordering inter file : no tasks offsets
nodes               : 4
tasks               : 32
clients per node    : 8
repetitions         : 1
xfersize            : 1 MiB
blocksize           : 8 MiB
aggregate filesize  : 256 MiB

Results: 
WARNING: The file "/beegfs/lgouveia/ior_4/testFile1" exists already and will be overwritten

access    bw(MiB/s)  IOPS       Latency(s)  block(KiB) xfer(KiB)  open(s)    wr/rd(s)   close(s)   total(s)   iter
------    ---------  ----       ----------  ---------- ---------  --------   --------   --------   --------   ----
write     1172.79    1177.91    0.024407    8192       1024.00    0.005833   0.217334   0.157645   0.218283   0   

Summary of all tests:
Operation   Max(MiB)   Min(MiB)  Mean(MiB)     StdDev   Max(OPs)   Min(OPs)  Mean(OPs)     StdDev    Mean(s) Stonewall(s) Stonewall(MiB) Test# #Tasks tPN reps fPP reord reordoff reordrand seed segcnt   blksiz    xsize aggs(MiB)   API RefNum
write        1172.79    1172.79    1172.79       0.00    1172.79    1172.79    1172.79       0.00    0.21828         NA            NA     0     32   8    1   0     0        1         0    0      1  8388608  1048576     256.0 POSIX      0
Finished            : Mon Dec 13 09:41:59 2021
Tracking /beegfs/lgouveia/ior_4/testFile1...



Writing tracked information to tracker.csv...
IOR-3.4.0+dev: MPI Coordinated Test of Parallel I/O
Began               : Mon Dec 13 09:42:59 2021
Command line        : /home/lgouveia/ior/bin/ior -w -t 1m -b 8m -k -o /beegfs/lgouveia/ior_4/testFile1
Machine             : Linux miriel028.plafrim.cluster
TestID              : 0
StartTime           : Mon Dec 13 09:42:59 2021
Path                : /beegfs/lgouveia/ior_4/testFile1
FS                  : 130.9 TiB   Used FS: 35.9%   Inodes: 0.0 Mi   Used Inodes: -nan%

Options: 
api                 : POSIX
apiVersion          : 
test filename       : /beegfs/lgouveia/ior_4/testFile1
access              : single-shared-file
type                : independent
segments            : 1
ordering in a file  : sequential
ordering inter file : no tasks offsets
nodes               : 4
tasks               : 32
clients per node    : 8
repetitions         : 1
xfersize            : 1 MiB
blocksize           : 8 MiB
aggregate filesize  : 256 MiB

Results: 
WARNING: The file "/beegfs/lgouveia/ior_4/testFile1" exists already and will be overwritten

access    bw(MiB/s)  IOPS       Latency(s)  block(KiB) xfer(KiB)  open(s)    wr/rd(s)   close(s)   total(s)   iter
------    ---------  ----       ----------  ---------- ---------  --------   --------   --------   --------   ----
write     1185.50    1190.64    0.007248    8192       1024.00    0.005607   0.215011   0.157437   0.215943   0   

Summary of all tests:
Operation   Max(MiB)   Min(MiB)  Mean(MiB)     StdDev   Max(OPs)   Min(OPs)  Mean(OPs)     StdDev    Mean(s) Stonewall(s) Stonewall(MiB) Test# #Tasks tPN reps fPP reord reordoff reordrand seed segcnt   blksiz    xsize aggs(MiB)   API RefNum
write        1185.50    1185.50    1185.50       0.00    1185.50    1185.50    1185.50       0.00    0.21594         NA            NA     0     32   8    1   0     0        1         0    0      1  8388608  1048576     256.0 POSIX      0
Finished            : Mon Dec 13 09:43:00 2021
Tracking /beegfs/lgouveia/ior_4/testFile1...



Writing tracked information to tracker.csv...
IOR-3.4.0+dev: MPI Coordinated Test of Parallel I/O
Began               : Mon Dec 13 09:44:00 2021
Command line        : /home/lgouveia/ior/bin/ior -w -t 1m -b 8m -k -o /beegfs/lgouveia/ior_4/testFile1
Machine             : Linux miriel028.plafrim.cluster
TestID              : 0
StartTime           : Mon Dec 13 09:44:00 2021
Path                : /beegfs/lgouveia/ior_4/testFile1
FS                  : 130.9 TiB   Used FS: 35.9%   Inodes: 0.0 Mi   Used Inodes: -nan%

Options: 
api                 : POSIX
apiVersion          : 
test filename       : /beegfs/lgouveia/ior_4/testFile1
access              : single-shared-file
type                : independent
segments            : 1
ordering in a file  : sequential
ordering inter file : no tasks offsets
nodes               : 4
tasks               : 32
clients per node    : 8
repetitions         : 1
xfersize            : 1 MiB
blocksize           : 8 MiB
aggregate filesize  : 256 MiB

Results: 
WARNING: The file "/beegfs/lgouveia/ior_4/testFile1" exists already and will be overwritten

access    bw(MiB/s)  IOPS       Latency(s)  block(KiB) xfer(KiB)  open(s)    wr/rd(s)   close(s)   total(s)   iter
------    ---------  ----       ----------  ---------- ---------  --------   --------   --------   --------   ----
write     1205.85    1212.88    0.025485    8192       1024.00    0.005315   0.211068   0.154652   0.212298   0   

Summary of all tests:
Operation   Max(MiB)   Min(MiB)  Mean(MiB)     StdDev   Max(OPs)   Min(OPs)  Mean(OPs)     StdDev    Mean(s) Stonewall(s) Stonewall(MiB) Test# #Tasks tPN reps fPP reord reordoff reordrand seed segcnt   blksiz    xsize aggs(MiB)   API RefNum
write        1205.85    1205.85    1205.85       0.00    1205.85    1205.85    1205.85       0.00    0.21230         NA            NA     0     32   8    1   0     0        1         0    0      1  8388608  1048576     256.0 POSIX      0
Finished            : Mon Dec 13 09:44:01 2021
Tracking /beegfs/lgouveia/ior_4/testFile1...



Writing tracked information to tracker.csv...
IOR-3.4.0+dev: MPI Coordinated Test of Parallel I/O
Began               : Mon Dec 13 09:45:01 2021
Command line        : /home/lgouveia/ior/bin/ior -w -t 1m -b 8m -k -o /beegfs/lgouveia/ior_4/testFile1
Machine             : Linux miriel028.plafrim.cluster
TestID              : 0
StartTime           : Mon Dec 13 09:45:01 2021
Path                : /beegfs/lgouveia/ior_4/testFile1
FS                  : 130.9 TiB   Used FS: 35.9%   Inodes: 0.0 Mi   Used Inodes: -nan%

Options: 
api                 : POSIX
apiVersion          : 
test filename       : /beegfs/lgouveia/ior_4/testFile1
access              : single-shared-file
type                : independent
segments            : 1
ordering in a file  : sequential
ordering inter file : no tasks offsets
nodes               : 4
tasks               : 32
clients per node    : 8
repetitions         : 1
xfersize            : 1 MiB
blocksize           : 8 MiB
aggregate filesize  : 256 MiB

Results: 
WARNING: The file "/beegfs/lgouveia/ior_4/testFile1" exists already and will be overwritten

access    bw(MiB/s)  IOPS       Latency(s)  block(KiB) xfer(KiB)  open(s)    wr/rd(s)   close(s)   total(s)   iter
------    ---------  ----       ----------  ---------- ---------  --------   --------   --------   --------   ----
write     1170.24    1176.29    0.014175    8192       1024.00    0.005401   0.217634   0.151283   0.218759   0   

Summary of all tests:
Operation   Max(MiB)   Min(MiB)  Mean(MiB)     StdDev   Max(OPs)   Min(OPs)  Mean(OPs)     StdDev    Mean(s) Stonewall(s) Stonewall(MiB) Test# #Tasks tPN reps fPP reord reordoff reordrand seed segcnt   blksiz    xsize aggs(MiB)   API RefNum
write        1170.24    1170.24    1170.24       0.00    1170.24    1170.24    1170.24       0.00    0.21876         NA            NA     0     32   8    1   0     0        1         0    0      1  8388608  1048576     256.0 POSIX      0
Finished            : Mon Dec 13 09:45:02 2021
Tracking /beegfs/lgouveia/ior_4/testFile1...



Writing tracked information to tracker.csv...
IOR-3.4.0+dev: MPI Coordinated Test of Parallel I/O
Began               : Mon Dec 13 09:46:02 2021
Command line        : /home/lgouveia/ior/bin/ior -w -t 1m -b 8m -k -o /beegfs/lgouveia/ior_4/testFile1
Machine             : Linux miriel028.plafrim.cluster
TestID              : 0
StartTime           : Mon Dec 13 09:46:02 2021
Path                : /beegfs/lgouveia/ior_4/testFile1
FS                  : 130.9 TiB   Used FS: 35.9%   Inodes: 0.0 Mi   Used Inodes: -nan%

Options: 
api                 : POSIX
apiVersion          : 
test filename       : /beegfs/lgouveia/ior_4/testFile1
access              : single-shared-file
type                : independent
segments            : 1
ordering in a file  : sequential
ordering inter file : no tasks offsets
nodes               : 4
tasks               : 32
clients per node    : 8
repetitions         : 1
xfersize            : 1 MiB
blocksize           : 8 MiB
aggregate filesize  : 256 MiB

Results: 
WARNING: The file "/beegfs/lgouveia/ior_4/testFile1" exists already and will be overwritten

access    bw(MiB/s)  IOPS       Latency(s)  block(KiB) xfer(KiB)  open(s)    wr/rd(s)   close(s)   total(s)   iter
------    ---------  ----       ----------  ---------- ---------  --------   --------   --------   --------   ----
write     1182.02    1189.47    0.012897    8192       1024.00    0.006322   0.215221   0.156222   0.216579   0   

Summary of all tests:
Operation   Max(MiB)   Min(MiB)  Mean(MiB)     StdDev   Max(OPs)   Min(OPs)  Mean(OPs)     StdDev    Mean(s) Stonewall(s) Stonewall(MiB) Test# #Tasks tPN reps fPP reord reordoff reordrand seed segcnt   blksiz    xsize aggs(MiB)   API RefNum
write        1182.02    1182.02    1182.02       0.00    1182.02    1182.02    1182.02       0.00    0.21658         NA            NA     0     32   8    1   0     0        1         0    0      1  8388608  1048576     256.0 POSIX      0
Finished            : Mon Dec 13 09:46:02 2021
Tracking /beegfs/lgouveia/ior_4/testFile1...



Writing tracked information to tracker.csv...
IOR-3.4.0+dev: MPI Coordinated Test of Parallel I/O
Began               : Mon Dec 13 09:47:03 2021
Command line        : /home/lgouveia/ior/bin/ior -w -t 1m -b 8m -k -o /beegfs/lgouveia/ior_4/testFile1
Machine             : Linux miriel028.plafrim.cluster
TestID              : 0
StartTime           : Mon Dec 13 09:47:03 2021
Path                : /beegfs/lgouveia/ior_4/testFile1
FS                  : 130.9 TiB   Used FS: 35.9%   Inodes: 0.0 Mi   Used Inodes: -nan%

Options: 
api                 : POSIX
apiVersion          : 
test filename       : /beegfs/lgouveia/ior_4/testFile1
access              : single-shared-file
type                : independent
segments            : 1
ordering in a file  : sequential
ordering inter file : no tasks offsets
nodes               : 4
tasks               : 32
clients per node    : 8
repetitions         : 1
xfersize            : 1 MiB
blocksize           : 8 MiB
aggregate filesize  : 256 MiB

Results: 
WARNING: The file "/beegfs/lgouveia/ior_4/testFile1" exists already and will be overwritten

access    bw(MiB/s)  IOPS       Latency(s)  block(KiB) xfer(KiB)  open(s)    wr/rd(s)   close(s)   total(s)   iter
------    ---------  ----       ----------  ---------- ---------  --------   --------   --------   --------   ----
write     1193.06    1200.05    0.021020    8192       1024.00    0.005392   0.213325   0.158546   0.214575   0   

Summary of all tests:
Operation   Max(MiB)   Min(MiB)  Mean(MiB)     StdDev   Max(OPs)   Min(OPs)  Mean(OPs)     StdDev    Mean(s) Stonewall(s) Stonewall(MiB) Test# #Tasks tPN reps fPP reord reordoff reordrand seed segcnt   blksiz    xsize aggs(MiB)   API RefNum
write        1193.06    1193.06    1193.06       0.00    1193.06    1193.06    1193.06       0.00    0.21458         NA            NA     0     32   8    1   0     0        1         0    0      1  8388608  1048576     256.0 POSIX      0
Finished            : Mon Dec 13 09:47:03 2021
Tracking /beegfs/lgouveia/ior_4/testFile1...



Writing tracked information to tracker.csv...
IOR-3.4.0+dev: MPI Coordinated Test of Parallel I/O
Began               : Mon Dec 13 09:48:04 2021
Command line        : /home/lgouveia/ior/bin/ior -w -t 1m -b 8m -k -o /beegfs/lgouveia/ior_4/testFile1
Machine             : Linux miriel028.plafrim.cluster
TestID              : 0
StartTime           : Mon Dec 13 09:48:04 2021
Path                : /beegfs/lgouveia/ior_4/testFile1
FS                  : 130.9 TiB   Used FS: 35.9%   Inodes: 0.0 Mi   Used Inodes: -nan%

Options: 
api                 : POSIX
apiVersion          : 
test filename       : /beegfs/lgouveia/ior_4/testFile1
access              : single-shared-file
type                : independent
segments            : 1
ordering in a file  : sequential
ordering inter file : no tasks offsets
nodes               : 4
tasks               : 32
clients per node    : 8
repetitions         : 1
xfersize            : 1 MiB
blocksize           : 8 MiB
aggregate filesize  : 256 MiB

Results: 
WARNING: The file "/beegfs/lgouveia/ior_4/testFile1" exists already and will be overwritten

access    bw(MiB/s)  IOPS       Latency(s)  block(KiB) xfer(KiB)  open(s)    wr/rd(s)   close(s)   total(s)   iter
------    ---------  ----       ----------  ---------- ---------  --------   --------   --------   --------   ----
write     1191.98    1198.26    0.012739    8192       1024.00    0.005504   0.213643   0.153810   0.214769   0   

Summary of all tests:
Operation   Max(MiB)   Min(MiB)  Mean(MiB)     StdDev   Max(OPs)   Min(OPs)  Mean(OPs)     StdDev    Mean(s) Stonewall(s) Stonewall(MiB) Test# #Tasks tPN reps fPP reord reordoff reordrand seed segcnt   blksiz    xsize aggs(MiB)   API RefNum
write        1191.98    1191.98    1191.98       0.00    1191.98    1191.98    1191.98       0.00    0.21477         NA            NA     0     32   8    1   0     0        1         0    0      1  8388608  1048576     256.0 POSIX      0
Finished            : Mon Dec 13 09:48:04 2021
Tracking /beegfs/lgouveia/ior_4/testFile1...



Writing tracked information to tracker.csv...
IOR-3.4.0+dev: MPI Coordinated Test of Parallel I/O
Began               : Mon Dec 13 09:49:05 2021
Command line        : /home/lgouveia/ior/bin/ior -w -t 1m -b 8m -k -o /beegfs/lgouveia/ior_4/testFile1
Machine             : Linux miriel028.plafrim.cluster
TestID              : 0
StartTime           : Mon Dec 13 09:49:05 2021
Path                : /beegfs/lgouveia/ior_4/testFile1
FS                  : 130.9 TiB   Used FS: 35.9%   Inodes: 0.0 Mi   Used Inodes: -nan%

Options: 
api                 : POSIX
apiVersion          : 
test filename       : /beegfs/lgouveia/ior_4/testFile1
access              : single-shared-file
type                : independent
segments            : 1
ordering in a file  : sequential
ordering inter file : no tasks offsets
nodes               : 4
tasks               : 32
clients per node    : 8
repetitions         : 1
xfersize            : 1 MiB
blocksize           : 8 MiB
aggregate filesize  : 256 MiB

Results: 
WARNING: The file "/beegfs/lgouveia/ior_4/testFile1" exists already and will be overwritten

access    bw(MiB/s)  IOPS       Latency(s)  block(KiB) xfer(KiB)  open(s)    wr/rd(s)   close(s)   total(s)   iter
------    ---------  ----       ----------  ---------- ---------  --------   --------   --------   --------   ----
write     1185.22    1190.73    0.006754    8192       1024.00    0.005611   0.214994   0.161427   0.215994   0   

Summary of all tests:
Operation   Max(MiB)   Min(MiB)  Mean(MiB)     StdDev   Max(OPs)   Min(OPs)  Mean(OPs)     StdDev    Mean(s) Stonewall(s) Stonewall(MiB) Test# #Tasks tPN reps fPP reord reordoff reordrand seed segcnt   blksiz    xsize aggs(MiB)   API RefNum
write        1185.22    1185.22    1185.22       0.00    1185.22    1185.22    1185.22       0.00    0.21599         NA            NA     0     32   8    1   0     0        1         0    0      1  8388608  1048576     256.0 POSIX      0
Finished            : Mon Dec 13 09:49:05 2021
Tracking /beegfs/lgouveia/ior_4/testFile1...



Writing tracked information to tracker.csv...
IOR-3.4.0+dev: MPI Coordinated Test of Parallel I/O
Began               : Mon Dec 13 09:50:06 2021
Command line        : /home/lgouveia/ior/bin/ior -w -t 1m -b 8m -k -o /beegfs/lgouveia/ior_4/testFile1
Machine             : Linux miriel028.plafrim.cluster
TestID              : 0
StartTime           : Mon Dec 13 09:50:06 2021
Path                : /beegfs/lgouveia/ior_4/testFile1
FS                  : 130.9 TiB   Used FS: 35.9%   Inodes: 0.0 Mi   Used Inodes: -nan%

Options: 
api                 : POSIX
apiVersion          : 
test filename       : /beegfs/lgouveia/ior_4/testFile1
access              : single-shared-file
type                : independent
segments            : 1
ordering in a file  : sequential
ordering inter file : no tasks offsets
nodes               : 4
tasks               : 32
clients per node    : 8
repetitions         : 1
xfersize            : 1 MiB
blocksize           : 8 MiB
aggregate filesize  : 256 MiB

Results: 
WARNING: The file "/beegfs/lgouveia/ior_4/testFile1" exists already and will be overwritten

access    bw(MiB/s)  IOPS       Latency(s)  block(KiB) xfer(KiB)  open(s)    wr/rd(s)   close(s)   total(s)   iter
------    ---------  ----       ----------  ---------- ---------  --------   --------   --------   --------   ----
write     1167.20    1172.30    0.006877    8192       1024.00    0.005974   0.218374   0.163754   0.219328   0   

Summary of all tests:
Operation   Max(MiB)   Min(MiB)  Mean(MiB)     StdDev   Max(OPs)   Min(OPs)  Mean(OPs)     StdDev    Mean(s) Stonewall(s) Stonewall(MiB) Test# #Tasks tPN reps fPP reord reordoff reordrand seed segcnt   blksiz    xsize aggs(MiB)   API RefNum
write        1167.20    1167.20    1167.20       0.00    1167.20    1167.20    1167.20       0.00    0.21933         NA            NA     0     32   8    1   0     0        1         0    0      1  8388608  1048576     256.0 POSIX      0
Finished            : Mon Dec 13 09:50:06 2021
Tracking /beegfs/lgouveia/ior_4/testFile1...



Writing tracked information to tracker.csv...
