===== My JOB Information ====
Node List:  bora[003-006]
my jobID:  1461479
Partition: routage
submit directory:  /home/lgouveia/luan-teylo/tests/omnipath/file_size/13
submit host:  devel01.plafrim.cluster
In the directory: /home/lgouveia/luan-teylo/tests/omnipath/file_size/13
As the user: lgouveia
============================
IOR-3.4.0+dev: MPI Coordinated Test of Parallel I/O
Began               : Wed Nov 24 07:15:36 2021
Command line        : /home/lgouveia/ior/bin/ior -w -t 1m -b 16m -k -o /beegfs/lgouveia/ior_4/testFile1
Machine             : Linux bora003.plafrim.cluster
TestID              : 0
StartTime           : Wed Nov 24 07:15:36 2021
Path                : /beegfs/lgouveia/ior_4/testFile1
FS                  : 130.9 TiB   Used FS: 33.4%   Inodes: 0.0 Mi   Used Inodes: -nan%

Options: 
api                 : POSIX
apiVersion          : 
test filename       : /beegfs/lgouveia/ior_4/testFile1
access              : single-shared-file
type                : independent
segments            : 1
ordering in a file  : sequential
ordering inter file : no tasks offsets
nodes               : 4
tasks               : 32
clients per node    : 8
repetitions         : 1
xfersize            : 1 MiB
blocksize           : 16 MiB
aggregate filesize  : 512 MiB

Results: 
WARNING: The file "/beegfs/lgouveia/ior_4/testFile1" exists already and will be overwritten

access    bw(MiB/s)  IOPS       Latency(s)  block(KiB) xfer(KiB)  open(s)    wr/rd(s)   close(s)   total(s)   iter
------    ---------  ----       ----------  ---------- ---------  --------   --------   --------   --------   ----
write     2659.05    2674.04    0.010503    16384      1024.00    0.005355   0.191471   0.104334   0.192550   0   

Summary of all tests:
Operation   Max(MiB)   Min(MiB)  Mean(MiB)     StdDev   Max(OPs)   Min(OPs)  Mean(OPs)     StdDev    Mean(s) Stonewall(s) Stonewall(MiB) Test# #Tasks tPN reps fPP reord reordoff reordrand seed segcnt   blksiz    xsize aggs(MiB)   API RefNum
write        2659.05    2659.05    2659.05       0.00    2659.05    2659.05    2659.05       0.00    0.19255         NA            NA     0     32   8    1   0     0        1         0    0      1 16777216  1048576     512.0 POSIX      0
Finished            : Wed Nov 24 07:15:37 2021
Tracking /beegfs/lgouveia/ior_4/testFile1...



Writing tracked information to tracker.csv...
IOR-3.4.0+dev: MPI Coordinated Test of Parallel I/O
Began               : Wed Nov 24 07:16:38 2021
Command line        : /home/lgouveia/ior/bin/ior -w -t 1m -b 16m -k -o /beegfs/lgouveia/ior_4/testFile1
Machine             : Linux bora003.plafrim.cluster
TestID              : 0
StartTime           : Wed Nov 24 07:16:38 2021
Path                : /beegfs/lgouveia/ior_4/testFile1
FS                  : 130.9 TiB   Used FS: 33.4%   Inodes: 0.0 Mi   Used Inodes: -nan%

Options: 
api                 : POSIX
apiVersion          : 
test filename       : /beegfs/lgouveia/ior_4/testFile1
access              : single-shared-file
type                : independent
segments            : 1
ordering in a file  : sequential
ordering inter file : no tasks offsets
nodes               : 4
tasks               : 32
clients per node    : 8
repetitions         : 1
xfersize            : 1 MiB
blocksize           : 16 MiB
aggregate filesize  : 512 MiB

Results: 
WARNING: The file "/beegfs/lgouveia/ior_4/testFile1" exists already and will be overwritten

access    bw(MiB/s)  IOPS       Latency(s)  block(KiB) xfer(KiB)  open(s)    wr/rd(s)   close(s)   total(s)   iter
------    ---------  ----       ----------  ---------- ---------  --------   --------   --------   --------   ----
write     2553.95    2567.85    0.009194    16384      1024.00    0.008267   0.199389   0.112389   0.200474   0   

Summary of all tests:
Operation   Max(MiB)   Min(MiB)  Mean(MiB)     StdDev   Max(OPs)   Min(OPs)  Mean(OPs)     StdDev    Mean(s) Stonewall(s) Stonewall(MiB) Test# #Tasks tPN reps fPP reord reordoff reordrand seed segcnt   blksiz    xsize aggs(MiB)   API RefNum
write        2553.95    2553.95    2553.95       0.00    2553.95    2553.95    2553.95       0.00    0.20047         NA            NA     0     32   8    1   0     0        1         0    0      1 16777216  1048576     512.0 POSIX      0
Finished            : Wed Nov 24 07:16:38 2021
Tracking /beegfs/lgouveia/ior_4/testFile1...



Writing tracked information to tracker.csv...
IOR-3.4.0+dev: MPI Coordinated Test of Parallel I/O
Began               : Wed Nov 24 07:17:39 2021
Command line        : /home/lgouveia/ior/bin/ior -w -t 1m -b 16m -k -o /beegfs/lgouveia/ior_4/testFile1
Machine             : Linux bora003.plafrim.cluster
TestID              : 0
StartTime           : Wed Nov 24 07:17:39 2021
Path                : /beegfs/lgouveia/ior_4/testFile1
FS                  : 130.9 TiB   Used FS: 33.4%   Inodes: 0.0 Mi   Used Inodes: -nan%

Options: 
api                 : POSIX
apiVersion          : 
test filename       : /beegfs/lgouveia/ior_4/testFile1
access              : single-shared-file
type                : independent
segments            : 1
ordering in a file  : sequential
ordering inter file : no tasks offsets
nodes               : 4
tasks               : 32
clients per node    : 8
repetitions         : 1
xfersize            : 1 MiB
blocksize           : 16 MiB
aggregate filesize  : 512 MiB

Results: 
WARNING: The file "/beegfs/lgouveia/ior_4/testFile1" exists already and will be overwritten

access    bw(MiB/s)  IOPS       Latency(s)  block(KiB) xfer(KiB)  open(s)    wr/rd(s)   close(s)   total(s)   iter
------    ---------  ----       ----------  ---------- ---------  --------   --------   --------   --------   ----
write     2563.60    2575.91    0.010542    16384      1024.00    0.004846   0.198765   0.103022   0.199719   0   

Summary of all tests:
Operation   Max(MiB)   Min(MiB)  Mean(MiB)     StdDev   Max(OPs)   Min(OPs)  Mean(OPs)     StdDev    Mean(s) Stonewall(s) Stonewall(MiB) Test# #Tasks tPN reps fPP reord reordoff reordrand seed segcnt   blksiz    xsize aggs(MiB)   API RefNum
write        2563.60    2563.60    2563.60       0.00    2563.60    2563.60    2563.60       0.00    0.19972         NA            NA     0     32   8    1   0     0        1         0    0      1 16777216  1048576     512.0 POSIX      0
Finished            : Wed Nov 24 07:17:39 2021
Tracking /beegfs/lgouveia/ior_4/testFile1...



Writing tracked information to tracker.csv...
IOR-3.4.0+dev: MPI Coordinated Test of Parallel I/O
Began               : Wed Nov 24 07:18:40 2021
Command line        : /home/lgouveia/ior/bin/ior -w -t 1m -b 16m -k -o /beegfs/lgouveia/ior_4/testFile1
Machine             : Linux bora003.plafrim.cluster
TestID              : 0
StartTime           : Wed Nov 24 07:18:40 2021
Path                : /beegfs/lgouveia/ior_4/testFile1
FS                  : 130.9 TiB   Used FS: 33.4%   Inodes: 0.0 Mi   Used Inodes: -nan%

Options: 
api                 : POSIX
apiVersion          : 
test filename       : /beegfs/lgouveia/ior_4/testFile1
access              : single-shared-file
type                : independent
segments            : 1
ordering in a file  : sequential
ordering inter file : no tasks offsets
nodes               : 4
tasks               : 32
clients per node    : 8
repetitions         : 1
xfersize            : 1 MiB
blocksize           : 16 MiB
aggregate filesize  : 512 MiB

Results: 
WARNING: The file "/beegfs/lgouveia/ior_4/testFile1" exists already and will be overwritten

access    bw(MiB/s)  IOPS       Latency(s)  block(KiB) xfer(KiB)  open(s)    wr/rd(s)   close(s)   total(s)   iter
------    ---------  ----       ----------  ---------- ---------  --------   --------   --------   --------   ----
write     2570.36    2581.37    0.009850    16384      1024.00    0.005162   0.198344   0.098305   0.199194   0   

Summary of all tests:
Operation   Max(MiB)   Min(MiB)  Mean(MiB)     StdDev   Max(OPs)   Min(OPs)  Mean(OPs)     StdDev    Mean(s) Stonewall(s) Stonewall(MiB) Test# #Tasks tPN reps fPP reord reordoff reordrand seed segcnt   blksiz    xsize aggs(MiB)   API RefNum
write        2570.36    2570.36    2570.36       0.00    2570.36    2570.36    2570.36       0.00    0.19919         NA            NA     0     32   8    1   0     0        1         0    0      1 16777216  1048576     512.0 POSIX      0
Finished            : Wed Nov 24 07:18:40 2021
Tracking /beegfs/lgouveia/ior_4/testFile1...



Writing tracked information to tracker.csv...
IOR-3.4.0+dev: MPI Coordinated Test of Parallel I/O
Began               : Wed Nov 24 07:19:41 2021
Command line        : /home/lgouveia/ior/bin/ior -w -t 1m -b 16m -k -o /beegfs/lgouveia/ior_4/testFile1
Machine             : Linux bora003.plafrim.cluster
TestID              : 0
StartTime           : Wed Nov 24 07:19:41 2021
Path                : /beegfs/lgouveia/ior_4/testFile1
FS                  : 130.9 TiB   Used FS: 33.4%   Inodes: 0.0 Mi   Used Inodes: -nan%

Options: 
api                 : POSIX
apiVersion          : 
test filename       : /beegfs/lgouveia/ior_4/testFile1
access              : single-shared-file
type                : independent
segments            : 1
ordering in a file  : sequential
ordering inter file : no tasks offsets
nodes               : 4
tasks               : 32
clients per node    : 8
repetitions         : 1
xfersize            : 1 MiB
blocksize           : 16 MiB
aggregate filesize  : 512 MiB

Results: 
WARNING: The file "/beegfs/lgouveia/ior_4/testFile1" exists already and will be overwritten

access    bw(MiB/s)  IOPS       Latency(s)  block(KiB) xfer(KiB)  open(s)    wr/rd(s)   close(s)   total(s)   iter
------    ---------  ----       ----------  ---------- ---------  --------   --------   --------   --------   ----
write     2412.06    2424.76    0.012660    16384      1024.00    0.004749   0.211155   0.101791   0.212267   0   

Summary of all tests:
Operation   Max(MiB)   Min(MiB)  Mean(MiB)     StdDev   Max(OPs)   Min(OPs)  Mean(OPs)     StdDev    Mean(s) Stonewall(s) Stonewall(MiB) Test# #Tasks tPN reps fPP reord reordoff reordrand seed segcnt   blksiz    xsize aggs(MiB)   API RefNum
write        2412.06    2412.06    2412.06       0.00    2412.06    2412.06    2412.06       0.00    0.21227         NA            NA     0     32   8    1   0     0        1         0    0      1 16777216  1048576     512.0 POSIX      0
Finished            : Wed Nov 24 07:19:41 2021
Tracking /beegfs/lgouveia/ior_4/testFile1...



Writing tracked information to tracker.csv...
IOR-3.4.0+dev: MPI Coordinated Test of Parallel I/O
Began               : Wed Nov 24 07:20:42 2021
Command line        : /home/lgouveia/ior/bin/ior -w -t 1m -b 16m -k -o /beegfs/lgouveia/ior_4/testFile1
Machine             : Linux bora003.plafrim.cluster
TestID              : 0
StartTime           : Wed Nov 24 07:20:42 2021
Path                : /beegfs/lgouveia/ior_4/testFile1
FS                  : 130.9 TiB   Used FS: 33.4%   Inodes: 0.0 Mi   Used Inodes: -nan%

Options: 
api                 : POSIX
apiVersion          : 
test filename       : /beegfs/lgouveia/ior_4/testFile1
access              : single-shared-file
type                : independent
segments            : 1
ordering in a file  : sequential
ordering inter file : no tasks offsets
nodes               : 4
tasks               : 32
clients per node    : 8
repetitions         : 1
xfersize            : 1 MiB
blocksize           : 16 MiB
aggregate filesize  : 512 MiB

Results: 
WARNING: The file "/beegfs/lgouveia/ior_4/testFile1" exists already and will be overwritten

access    bw(MiB/s)  IOPS       Latency(s)  block(KiB) xfer(KiB)  open(s)    wr/rd(s)   close(s)   total(s)   iter
------    ---------  ----       ----------  ---------- ---------  --------   --------   --------   --------   ----
write     2521.42    2536.17    0.010021    16384      1024.00    0.004249   0.201879   0.096971   0.203060   0   

Summary of all tests:
Operation   Max(MiB)   Min(MiB)  Mean(MiB)     StdDev   Max(OPs)   Min(OPs)  Mean(OPs)     StdDev    Mean(s) Stonewall(s) Stonewall(MiB) Test# #Tasks tPN reps fPP reord reordoff reordrand seed segcnt   blksiz    xsize aggs(MiB)   API RefNum
write        2521.42    2521.42    2521.42       0.00    2521.42    2521.42    2521.42       0.00    0.20306         NA            NA     0     32   8    1   0     0        1         0    0      1 16777216  1048576     512.0 POSIX      0
Finished            : Wed Nov 24 07:20:42 2021
Tracking /beegfs/lgouveia/ior_4/testFile1...



Writing tracked information to tracker.csv...
IOR-3.4.0+dev: MPI Coordinated Test of Parallel I/O
Began               : Wed Nov 24 07:21:43 2021
Command line        : /home/lgouveia/ior/bin/ior -w -t 1m -b 16m -k -o /beegfs/lgouveia/ior_4/testFile1
Machine             : Linux bora003.plafrim.cluster
TestID              : 0
StartTime           : Wed Nov 24 07:21:43 2021
Path                : /beegfs/lgouveia/ior_4/testFile1
FS                  : 130.9 TiB   Used FS: 33.4%   Inodes: 0.0 Mi   Used Inodes: -nan%

Options: 
api                 : POSIX
apiVersion          : 
test filename       : /beegfs/lgouveia/ior_4/testFile1
access              : single-shared-file
type                : independent
segments            : 1
ordering in a file  : sequential
ordering inter file : no tasks offsets
nodes               : 4
tasks               : 32
clients per node    : 8
repetitions         : 1
xfersize            : 1 MiB
blocksize           : 16 MiB
aggregate filesize  : 512 MiB

Results: 
WARNING: The file "/beegfs/lgouveia/ior_4/testFile1" exists already and will be overwritten

access    bw(MiB/s)  IOPS       Latency(s)  block(KiB) xfer(KiB)  open(s)    wr/rd(s)   close(s)   total(s)   iter
------    ---------  ----       ----------  ---------- ---------  --------   --------   --------   --------   ----
write     2350.01    2360.67    0.008319    16384      1024.00    0.005339   0.216888   0.132863   0.217871   0   

Summary of all tests:
Operation   Max(MiB)   Min(MiB)  Mean(MiB)     StdDev   Max(OPs)   Min(OPs)  Mean(OPs)     StdDev    Mean(s) Stonewall(s) Stonewall(MiB) Test# #Tasks tPN reps fPP reord reordoff reordrand seed segcnt   blksiz    xsize aggs(MiB)   API RefNum
write        2350.01    2350.01    2350.01       0.00    2350.01    2350.01    2350.01       0.00    0.21787         NA            NA     0     32   8    1   0     0        1         0    0      1 16777216  1048576     512.0 POSIX      0
Finished            : Wed Nov 24 07:21:43 2021
Tracking /beegfs/lgouveia/ior_4/testFile1...



Writing tracked information to tracker.csv...
IOR-3.4.0+dev: MPI Coordinated Test of Parallel I/O
Began               : Wed Nov 24 07:22:44 2021
Command line        : /home/lgouveia/ior/bin/ior -w -t 1m -b 16m -k -o /beegfs/lgouveia/ior_4/testFile1
Machine             : Linux bora003.plafrim.cluster
TestID              : 0
StartTime           : Wed Nov 24 07:22:44 2021
Path                : /beegfs/lgouveia/ior_4/testFile1
FS                  : 130.9 TiB   Used FS: 33.4%   Inodes: 0.0 Mi   Used Inodes: -nan%

Options: 
api                 : POSIX
apiVersion          : 
test filename       : /beegfs/lgouveia/ior_4/testFile1
access              : single-shared-file
type                : independent
segments            : 1
ordering in a file  : sequential
ordering inter file : no tasks offsets
nodes               : 4
tasks               : 32
clients per node    : 8
repetitions         : 1
xfersize            : 1 MiB
blocksize           : 16 MiB
aggregate filesize  : 512 MiB

Results: 
WARNING: The file "/beegfs/lgouveia/ior_4/testFile1" exists already and will be overwritten

access    bw(MiB/s)  IOPS       Latency(s)  block(KiB) xfer(KiB)  open(s)    wr/rd(s)   close(s)   total(s)   iter
------    ---------  ----       ----------  ---------- ---------  --------   --------   --------   --------   ----
write     2485.00    2495.55    0.011450    16384      1024.00    0.005224   0.205165   0.103595   0.206036   0   

Summary of all tests:
Operation   Max(MiB)   Min(MiB)  Mean(MiB)     StdDev   Max(OPs)   Min(OPs)  Mean(OPs)     StdDev    Mean(s) Stonewall(s) Stonewall(MiB) Test# #Tasks tPN reps fPP reord reordoff reordrand seed segcnt   blksiz    xsize aggs(MiB)   API RefNum
write        2485.00    2485.00    2485.00       0.00    2485.00    2485.00    2485.00       0.00    0.20604         NA            NA     0     32   8    1   0     0        1         0    0      1 16777216  1048576     512.0 POSIX      0
Finished            : Wed Nov 24 07:22:44 2021
Tracking /beegfs/lgouveia/ior_4/testFile1...



Writing tracked information to tracker.csv...
IOR-3.4.0+dev: MPI Coordinated Test of Parallel I/O
Began               : Wed Nov 24 07:23:45 2021
Command line        : /home/lgouveia/ior/bin/ior -w -t 1m -b 16m -k -o /beegfs/lgouveia/ior_4/testFile1
Machine             : Linux bora003.plafrim.cluster
TestID              : 0
StartTime           : Wed Nov 24 07:23:45 2021
Path                : /beegfs/lgouveia/ior_4/testFile1
FS                  : 130.9 TiB   Used FS: 33.4%   Inodes: 0.0 Mi   Used Inodes: -nan%

Options: 
api                 : POSIX
apiVersion          : 
test filename       : /beegfs/lgouveia/ior_4/testFile1
access              : single-shared-file
type                : independent
segments            : 1
ordering in a file  : sequential
ordering inter file : no tasks offsets
nodes               : 4
tasks               : 32
clients per node    : 8
repetitions         : 1
xfersize            : 1 MiB
blocksize           : 16 MiB
aggregate filesize  : 512 MiB

Results: 
WARNING: The file "/beegfs/lgouveia/ior_4/testFile1" exists already and will be overwritten

access    bw(MiB/s)  IOPS       Latency(s)  block(KiB) xfer(KiB)  open(s)    wr/rd(s)   close(s)   total(s)   iter
------    ---------  ----       ----------  ---------- ---------  --------   --------   --------   --------   ----
write     2524.33    2537.13    0.005930    16384      1024.00    0.005410   0.201803   0.107017   0.202826   0   

Summary of all tests:
Operation   Max(MiB)   Min(MiB)  Mean(MiB)     StdDev   Max(OPs)   Min(OPs)  Mean(OPs)     StdDev    Mean(s) Stonewall(s) Stonewall(MiB) Test# #Tasks tPN reps fPP reord reordoff reordrand seed segcnt   blksiz    xsize aggs(MiB)   API RefNum
write        2524.33    2524.33    2524.33       0.00    2524.33    2524.33    2524.33       0.00    0.20283         NA            NA     0     32   8    1   0     0        1         0    0      1 16777216  1048576     512.0 POSIX      0
Finished            : Wed Nov 24 07:23:45 2021
Tracking /beegfs/lgouveia/ior_4/testFile1...



Writing tracked information to tracker.csv...
IOR-3.4.0+dev: MPI Coordinated Test of Parallel I/O
Began               : Wed Nov 24 07:24:46 2021
Command line        : /home/lgouveia/ior/bin/ior -w -t 1m -b 16m -k -o /beegfs/lgouveia/ior_4/testFile1
Machine             : Linux bora003.plafrim.cluster
TestID              : 0
StartTime           : Wed Nov 24 07:24:46 2021
Path                : /beegfs/lgouveia/ior_4/testFile1
FS                  : 130.9 TiB   Used FS: 33.4%   Inodes: 0.0 Mi   Used Inodes: -nan%

Options: 
api                 : POSIX
apiVersion          : 
test filename       : /beegfs/lgouveia/ior_4/testFile1
access              : single-shared-file
type                : independent
segments            : 1
ordering in a file  : sequential
ordering inter file : no tasks offsets
nodes               : 4
tasks               : 32
clients per node    : 8
repetitions         : 1
xfersize            : 1 MiB
blocksize           : 16 MiB
aggregate filesize  : 512 MiB

Results: 
WARNING: The file "/beegfs/lgouveia/ior_4/testFile1" exists already and will be overwritten

access    bw(MiB/s)  IOPS       Latency(s)  block(KiB) xfer(KiB)  open(s)    wr/rd(s)   close(s)   total(s)   iter
------    ---------  ----       ----------  ---------- ---------  --------   --------   --------   --------   ----
write     2476.37    2488.89    0.009930    16384      1024.00    0.005533   0.205714   0.103714   0.206754   0   

Summary of all tests:
Operation   Max(MiB)   Min(MiB)  Mean(MiB)     StdDev   Max(OPs)   Min(OPs)  Mean(OPs)     StdDev    Mean(s) Stonewall(s) Stonewall(MiB) Test# #Tasks tPN reps fPP reord reordoff reordrand seed segcnt   blksiz    xsize aggs(MiB)   API RefNum
write        2476.37    2476.37    2476.37       0.00    2476.37    2476.37    2476.37       0.00    0.20675         NA            NA     0     32   8    1   0     0        1         0    0      1 16777216  1048576     512.0 POSIX      0
Finished            : Wed Nov 24 07:24:46 2021
Tracking /beegfs/lgouveia/ior_4/testFile1...



Writing tracked information to tracker.csv...
