[bora002.plafrim.cluster:201093] mca_base_component_repository_open: unable to open mca_btl_uct: libucp.so.0: cannot open shared object file: No such file or directory (ignored)
[bora001.plafrim.cluster:164230] mca_base_component_repository_open: unable to open mca_btl_uct: libucp.so.0: cannot open shared object file: No such file or directory (ignored)
[bora001.plafrim.cluster:164233] mca_base_component_repository_open: unable to open mca_btl_uct: libucp.so.0: cannot open shared object file: No such file or directory (ignored)
[bora001.plafrim.cluster:164234] mca_base_component_repository_open: unable to open mca_btl_uct: libucp.so.0: cannot open shared object file: No such file or directory (ignored)
[bora001.plafrim.cluster:164227] mca_base_component_repository_open: unable to open mca_btl_uct: libucp.so.0: cannot open shared object file: No such file or directory (ignored)
[bora001.plafrim.cluster:164228] mca_base_component_repository_open: unable to open mca_btl_uct: libucp.so.0: cannot open shared object file: No such file or directory (ignored)
[bora001.plafrim.cluster:164229] mca_base_component_repository_open: unable to open mca_btl_uct: libucp.so.0: cannot open shared object file: No such file or directory (ignored)
[bora001.plafrim.cluster:164231] mca_base_component_repository_open: unable to open mca_btl_uct: libucp.so.0: cannot open shared object file: No such file or directory (ignored)
[bora001.plafrim.cluster:164232] mca_base_component_repository_open: unable to open mca_btl_uct: libucp.so.0: cannot open shared object file: No such file or directory (ignored)
[bora002.plafrim.cluster:201090] mca_base_component_repository_open: unable to open mca_btl_uct: libucp.so.0: cannot open shared object file: No such file or directory (ignored)
[bora002.plafrim.cluster:201092] mca_base_component_repository_open: unable to open mca_btl_uct: libucp.so.0: cannot open shared object file: No such file or directory (ignored)
[bora002.plafrim.cluster:201095] mca_base_component_repository_open: unable to open mca_btl_uct: libucp.so.0: cannot open shared object file: No such file or directory (ignored)
[bora002.plafrim.cluster:201096] mca_base_component_repository_open: unable to open mca_btl_uct: libucp.so.0: cannot open shared object file: No such file or directory (ignored)
[bora002.plafrim.cluster:201089] mca_base_component_repository_open: unable to open mca_btl_uct: libucp.so.0: cannot open shared object file: No such file or directory (ignored)
[bora002.plafrim.cluster:201091] mca_base_component_repository_open: unable to open mca_btl_uct: libucp.so.0: cannot open shared object file: No such file or directory (ignored)
[bora002.plafrim.cluster:201094] mca_base_component_repository_open: unable to open mca_btl_uct: libucp.so.0: cannot open shared object file: No such file or directory (ignored)
[bora002.plafrim.cluster:201089] mca_base_component_repository_open: unable to open mca_pml_ucx: libucp.so.0: cannot open shared object file: No such file or directory (ignored)
[bora001.plafrim.cluster:164230] mca_base_component_repository_open: unable to open mca_pml_ucx: libucp.so.0: cannot open shared object file: No such file or directory (ignored)
[bora002.plafrim.cluster:201091] mca_base_component_repository_open: unable to open mca_pml_ucx: libucp.so.0: cannot open shared object file: No such file or directory (ignored)
[bora001.plafrim.cluster:164232] mca_base_component_repository_open: unable to open mca_pml_ucx: libucp.so.0: cannot open shared object file: No such file or directory (ignored)
[bora002.plafrim.cluster:201093] mca_base_component_repository_open: unable to open mca_pml_ucx: libucp.so.0: cannot open shared object file: No such file or directory (ignored)
[bora001.plafrim.cluster:164228] mca_base_component_repository_open: unable to open mca_pml_ucx: libucp.so.0: cannot open shared object file: No such file or directory (ignored)
[bora002.plafrim.cluster:201095] mca_base_component_repository_open: unable to open mca_pml_ucx: libucp.so.0: cannot open shared object file: No such file or directory (ignored)
[bora001.plafrim.cluster:164234] mca_base_component_repository_open: unable to open mca_pml_ucx: libucp.so.0: cannot open shared object file: No such file or directory (ignored)
[bora002.plafrim.cluster:201090] mca_base_component_repository_open: unable to open mca_pml_ucx: libucp.so.0: cannot open shared object file: No such file or directory (ignored)
[bora001.plafrim.cluster:164227] mca_base_component_repository_open: unable to open mca_pml_ucx: libucp.so.0: cannot open shared object file: No such file or directory (ignored)
[bora002.plafrim.cluster:201092] mca_base_component_repository_open: unable to open mca_pml_ucx: libucp.so.0: cannot open shared object file: No such file or directory (ignored)
[bora001.plafrim.cluster:164229] mca_base_component_repository_open: unable to open mca_pml_ucx: libucp.so.0: cannot open shared object file: No such file or directory (ignored)
[bora002.plafrim.cluster:201094] mca_base_component_repository_open: unable to open mca_pml_ucx: libucp.so.0: cannot open shared object file: No such file or directory (ignored)
[bora001.plafrim.cluster:164231] mca_base_component_repository_open: unable to open mca_pml_ucx: libucp.so.0: cannot open shared object file: No such file or directory (ignored)
[bora002.plafrim.cluster:201096] mca_base_component_repository_open: unable to open mca_pml_ucx: libucp.so.0: cannot open shared object file: No such file or directory (ignored)
[bora001.plafrim.cluster:164233] mca_base_component_repository_open: unable to open mca_pml_ucx: libucp.so.0: cannot open shared object file: No such file or directory (ignored)
[bora001.plafrim.cluster:164228] mca_base_component_repository_open: unable to open mca_osc_ucx: libucp.so.0: cannot open shared object file: No such file or directory (ignored)
[bora001.plafrim.cluster:164230] mca_base_component_repository_open: unable to open mca_osc_ucx: libucp.so.0: cannot open shared object file: No such file or directory (ignored)
[bora001.plafrim.cluster:164232] mca_base_component_repository_open: unable to open mca_osc_ucx: libucp.so.0: cannot open shared object file: No such file or directory (ignored)
[bora001.plafrim.cluster:164227] mca_base_component_repository_open: unable to open mca_osc_ucx: libucp.so.0: cannot open shared object file: No such file or directory (ignored)
[bora001.plafrim.cluster:164234] mca_base_component_repository_open: unable to open mca_osc_ucx: libucp.so.0: cannot open shared object file: No such file or directory (ignored)
[bora001.plafrim.cluster:164229] mca_base_component_repository_open: unable to open mca_osc_ucx: libucp.so.0: cannot open shared object file: No such file or directory (ignored)
[bora001.plafrim.cluster:164231] mca_base_component_repository_open: unable to open mca_osc_ucx: libucp.so.0: cannot open shared object file: No such file or directory (ignored)
[bora001.plafrim.cluster:164233] mca_base_component_repository_open: unable to open mca_osc_ucx: libucp.so.0: cannot open shared object file: No such file or directory (ignored)
[bora002.plafrim.cluster:201093] mca_base_component_repository_open: unable to open mca_osc_ucx: libucp.so.0: cannot open shared object file: No such file or directory (ignored)
[bora002.plafrim.cluster:201092] mca_base_component_repository_open: unable to open mca_osc_ucx: libucp.so.0: cannot open shared object file: No such file or directory (ignored)
[bora002.plafrim.cluster:201094] mca_base_component_repository_open: unable to open mca_osc_ucx: libucp.so.0: cannot open shared object file: No such file or directory (ignored)
[bora002.plafrim.cluster:201089] mca_base_component_repository_open: unable to open mca_osc_ucx: libucp.so.0: cannot open shared object file: No such file or directory (ignored)
[bora002.plafrim.cluster:201091] mca_base_component_repository_open: unable to open mca_osc_ucx: libucp.so.0: cannot open shared object file: No such file or directory (ignored)
[bora002.plafrim.cluster:201090] mca_base_component_repository_open: unable to open mca_osc_ucx: libucp.so.0: cannot open shared object file: No such file or directory (ignored)
[bora002.plafrim.cluster:201096] mca_base_component_repository_open: unable to open mca_osc_ucx: libucp.so.0: cannot open shared object file: No such file or directory (ignored)
[bora002.plafrim.cluster:201095] mca_base_component_repository_open: unable to open mca_osc_ucx: libucp.so.0: cannot open shared object file: No such file or directory (ignored)
[bora001.plafrim.cluster:164365] mca_base_component_repository_open: unable to open mca_btl_uct: libucp.so.0: cannot open shared object file: No such file or directory (ignored)
[bora002.plafrim.cluster:201202] mca_base_component_repository_open: unable to open mca_btl_uct: libucp.so.0: cannot open shared object file: No such file or directory (ignored)
[bora002.plafrim.cluster:201204] mca_base_component_repository_open: unable to open mca_btl_uct: libucp.so.0: cannot open shared object file: No such file or directory (ignored)
[bora002.plafrim.cluster:201206] mca_base_component_repository_open: unable to open mca_btl_uct: libucp.so.0: cannot open shared object file: No such file or directory (ignored)
[bora002.plafrim.cluster:201208] mca_base_component_repository_open: unable to open mca_btl_uct: libucp.so.0: cannot open shared object file: No such file or directory (ignored)
[bora002.plafrim.cluster:201203] mca_base_component_repository_open: unable to open mca_btl_uct: libucp.so.0: cannot open shared object file: No such file or directory (ignored)
[bora002.plafrim.cluster:201205] mca_base_component_repository_open: unable to open mca_btl_uct: libucp.so.0: cannot open shared object file: No such file or directory (ignored)
[bora002.plafrim.cluster:201207] mca_base_component_repository_open: unable to open mca_btl_uct: libucp.so.0: cannot open shared object file: No such file or directory (ignored)
[bora002.plafrim.cluster:201209] mca_base_component_repository_open: unable to open mca_btl_uct: libucp.so.0: cannot open shared object file: No such file or directory (ignored)
[bora002.plafrim.cluster:201208] mca_base_component_repository_open: unable to open mca_pml_ucx: libucp.so.0: cannot open shared object file: No such file or directory (ignored)
[bora002.plafrim.cluster:201202] mca_base_component_repository_open: unable to open mca_pml_ucx: libucp.so.0: cannot open shared object file: No such file or directory (ignored)
[bora002.plafrim.cluster:201204] mca_base_component_repository_open: unable to open mca_pml_ucx: libucp.so.0: cannot open shared object file: No such file or directory (ignored)
[bora002.plafrim.cluster:201206] mca_base_component_repository_open: unable to open mca_pml_ucx: libucp.so.0: cannot open shared object file: No such file or directory (ignored)
[bora002.plafrim.cluster:201207] mca_base_component_repository_open: unable to open mca_pml_ucx: libucp.so.0: cannot open shared object file: No such file or directory (ignored)
[bora002.plafrim.cluster:201209] mca_base_component_repository_open: unable to open mca_pml_ucx: libucp.so.0: cannot open shared object file: No such file or directory (ignored)
[bora002.plafrim.cluster:201205] mca_base_component_repository_open: unable to open mca_pml_ucx: libucp.so.0: cannot open shared object file: No such file or directory (ignored)
[bora002.plafrim.cluster:201203] mca_base_component_repository_open: unable to open mca_pml_ucx: libucp.so.0: cannot open shared object file: No such file or directory (ignored)
[bora002.plafrim.cluster:201208] mca_base_component_repository_open: unable to open mca_osc_ucx: libucp.so.0: cannot open shared object file: No such file or directory (ignored)
[bora002.plafrim.cluster:201206] mca_base_component_repository_open: unable to open mca_osc_ucx: libucp.so.0: cannot open shared object file: No such file or directory (ignored)
[bora002.plafrim.cluster:201204] mca_base_component_repository_open: unable to open mca_osc_ucx: libucp.so.0: cannot open shared object file: No such file or directory (ignored)
[bora002.plafrim.cluster:201205] mca_base_component_repository_open: unable to open mca_osc_ucx: libucp.so.0: cannot open shared object file: No such file or directory (ignored)
[bora001.plafrim.cluster:164363] mca_base_component_repository_open: unable to open mca_btl_uct: libucp.so.0: cannot open shared object file: No such file or directory (ignored)
[bora001.plafrim.cluster:164359] mca_base_component_repository_open: unable to open mca_btl_uct: libucp.so.0: cannot open shared object file: No such file or directory (ignored)
[bora001.plafrim.cluster:164361] mca_base_component_repository_open: unable to open mca_btl_uct: libucp.so.0: cannot open shared object file: No such file or directory (ignored)
[bora001.plafrim.cluster:164362] mca_base_component_repository_open: unable to open mca_btl_uct: libucp.so.0: cannot open shared object file: No such file or directory (ignored)
[bora001.plafrim.cluster:164366] mca_base_component_repository_open: unable to open mca_btl_uct: libucp.so.0: cannot open shared object file: No such file or directory (ignored)
[bora001.plafrim.cluster:164360] mca_base_component_repository_open: unable to open mca_btl_uct: libucp.so.0: cannot open shared object file: No such file or directory (ignored)
[bora001.plafrim.cluster:164364] mca_base_component_repository_open: unable to open mca_btl_uct: libucp.so.0: cannot open shared object file: No such file or directory (ignored)
[bora001.plafrim.cluster:164359] mca_base_component_repository_open: unable to open mca_pml_ucx: libucp.so.0: cannot open shared object file: No such file or directory (ignored)
[bora001.plafrim.cluster:164365] mca_base_component_repository_open: unable to open mca_pml_ucx: libucp.so.0: cannot open shared object file: No such file or directory (ignored)
[bora001.plafrim.cluster:164361] mca_base_component_repository_open: unable to open mca_pml_ucx: libucp.so.0: cannot open shared object file: No such file or directory (ignored)
[bora001.plafrim.cluster:164363] mca_base_component_repository_open: unable to open mca_pml_ucx: libucp.so.0: cannot open shared object file: No such file or directory (ignored)
[bora001.plafrim.cluster:164366] mca_base_component_repository_open: unable to open mca_pml_ucx: libucp.so.0: cannot open shared object file: No such file or directory (ignored)
[bora001.plafrim.cluster:164362] mca_base_component_repository_open: unable to open mca_pml_ucx: libucp.so.0: cannot open shared object file: No such file or directory (ignored)
[bora001.plafrim.cluster:164364] mca_base_component_repository_open: unable to open mca_pml_ucx: libucp.so.0: cannot open shared object file: No such file or directory (ignored)
[bora001.plafrim.cluster:164360] mca_base_component_repository_open: unable to open mca_pml_ucx: libucp.so.0: cannot open shared object file: No such file or directory (ignored)
[bora001.plafrim.cluster:164361] mca_base_component_repository_open: unable to open mca_osc_ucx: libucp.so.0: cannot open shared object file: No such file or directory (ignored)
[bora001.plafrim.cluster:164363] mca_base_component_repository_open: unable to open mca_osc_ucx: libucp.so.0: cannot open shared object file: No such file or directory (ignored)
[bora001.plafrim.cluster:164365] mca_base_component_repository_open: unable to open mca_osc_ucx: libucp.so.0: cannot open shared object file: No such file or directory (ignored)
[bora001.plafrim.cluster:164359] mca_base_component_repository_open: unable to open mca_osc_ucx: libucp.so.0: cannot open shared object file: No such file or directory (ignored)
[bora001.plafrim.cluster:164362] mca_base_component_repository_open: unable to open mca_osc_ucx: libucp.so.0: cannot open shared object file: No such file or directory (ignored)
[bora001.plafrim.cluster:164366] mca_base_component_repository_open: unable to open mca_osc_ucx: libucp.so.0: cannot open shared object file: No such file or directory (ignored)
[bora001.plafrim.cluster:164360] mca_base_component_repository_open: unable to open mca_osc_ucx: libucp.so.0: cannot open shared object file: No such file or directory (ignored)
[bora001.plafrim.cluster:164364] mca_base_component_repository_open: unable to open mca_osc_ucx: libucp.so.0: cannot open shared object file: No such file or directory (ignored)
[bora002.plafrim.cluster:201207] mca_base_component_repository_open: unable to open mca_osc_ucx: libucp.so.0: cannot open shared object file: No such file or directory (ignored)
[bora002.plafrim.cluster:201203] mca_base_component_repository_open: unable to open mca_osc_ucx: libucp.so.0: cannot open shared object file: No such file or directory (ignored)
[bora002.plafrim.cluster:201202] mca_base_component_repository_open: unable to open mca_osc_ucx: libucp.so.0: cannot open shared object file: No such file or directory (ignored)
[bora002.plafrim.cluster:201209] mca_base_component_repository_open: unable to open mca_osc_ucx: libucp.so.0: cannot open shared object file: No such file or directory (ignored)
[bora001.plafrim.cluster:164555] mca_base_component_repository_open: unable to open mca_btl_uct: libucp.so.0: cannot open shared object file: No such file or directory (ignored)
[bora002.plafrim.cluster:201385] mca_base_component_repository_open: unable to open mca_btl_uct: libucp.so.0: cannot open shared object file: No such file or directory (ignored)
[bora002.plafrim.cluster:201387] mca_base_component_repository_open: unable to open mca_btl_uct: libucp.so.0: cannot open shared object file: No such file or directory (ignored)
[bora002.plafrim.cluster:201388] mca_base_component_repository_open: unable to open mca_btl_uct: libucp.so.0: cannot open shared object file: No such file or directory (ignored)
[bora002.plafrim.cluster:201383] mca_base_component_repository_open: unable to open mca_btl_uct: libucp.so.0: cannot open shared object file: No such file or directory (ignored)
[bora002.plafrim.cluster:201389] mca_base_component_repository_open: unable to open mca_btl_uct: libucp.so.0: cannot open shared object file: No such file or directory (ignored)
[bora002.plafrim.cluster:201385] mca_base_component_repository_open: unable to open mca_pml_ucx: libucp.so.0: cannot open shared object file: No such file or directory (ignored)
[bora002.plafrim.cluster:201387] mca_base_component_repository_open: unable to open mca_pml_ucx: libucp.so.0: cannot open shared object file: No such file or directory (ignored)
[bora002.plafrim.cluster:201386] mca_base_component_repository_open: unable to open mca_btl_uct: libucp.so.0: cannot open shared object file: No such file or directory (ignored)
[bora002.plafrim.cluster:201390] mca_base_component_repository_open: unable to open mca_btl_uct: libucp.so.0: cannot open shared object file: No such file or directory (ignored)
[bora002.plafrim.cluster:201384] mca_base_component_repository_open: unable to open mca_btl_uct: libucp.so.0: cannot open shared object file: No such file or directory (ignored)
[bora002.plafrim.cluster:201388] mca_base_component_repository_open: unable to open mca_pml_ucx: libucp.so.0: cannot open shared object file: No such file or directory (ignored)
[bora002.plafrim.cluster:201383] mca_base_component_repository_open: unable to open mca_pml_ucx: libucp.so.0: cannot open shared object file: No such file or directory (ignored)
[bora002.plafrim.cluster:201389] mca_base_component_repository_open: unable to open mca_pml_ucx: libucp.so.0: cannot open shared object file: No such file or directory (ignored)
[bora002.plafrim.cluster:201386] mca_base_component_repository_open: unable to open mca_pml_ucx: libucp.so.0: cannot open shared object file: No such file or directory (ignored)
[bora002.plafrim.cluster:201390] mca_base_component_repository_open: unable to open mca_pml_ucx: libucp.so.0: cannot open shared object file: No such file or directory (ignored)
[bora002.plafrim.cluster:201384] mca_base_component_repository_open: unable to open mca_pml_ucx: libucp.so.0: cannot open shared object file: No such file or directory (ignored)
[bora002.plafrim.cluster:201383] mca_base_component_repository_open: unable to open mca_osc_ucx: libucp.so.0: cannot open shared object file: No such file or directory (ignored)
[bora002.plafrim.cluster:201387] mca_base_component_repository_open: unable to open mca_osc_ucx: libucp.so.0: cannot open shared object file: No such file or directory (ignored)
[bora002.plafrim.cluster:201389] mca_base_component_repository_open: unable to open mca_osc_ucx: libucp.so.0: cannot open shared object file: No such file or directory (ignored)
[bora002.plafrim.cluster:201385] mca_base_component_repository_open: unable to open mca_osc_ucx: libucp.so.0: cannot open shared object file: No such file or directory (ignored)
[bora002.plafrim.cluster:201388] mca_base_component_repository_open: unable to open mca_osc_ucx: libucp.so.0: cannot open shared object file: No such file or directory (ignored)
[bora001.plafrim.cluster:164557] mca_base_component_repository_open: unable to open mca_btl_uct: libucp.so.0: cannot open shared object file: No such file or directory (ignored)
[bora001.plafrim.cluster:164553] mca_base_component_repository_open: unable to open mca_btl_uct: libucp.so.0: cannot open shared object file: No such file or directory (ignored)
[bora001.plafrim.cluster:164551] mca_base_component_repository_open: unable to open mca_btl_uct: libucp.so.0: cannot open shared object file: No such file or directory (ignored)
[bora001.plafrim.cluster:164553] mca_base_component_repository_open: unable to open mca_pml_ucx: libucp.so.0: cannot open shared object file: No such file or directory (ignored)
[bora001.plafrim.cluster:164555] mca_base_component_repository_open: unable to open mca_pml_ucx: libucp.so.0: cannot open shared object file: No such file or directory (ignored)
[bora001.plafrim.cluster:164557] mca_base_component_repository_open: unable to open mca_pml_ucx: libucp.so.0: cannot open shared object file: No such file or directory (ignored)
[bora001.plafrim.cluster:164556] mca_base_component_repository_open: unable to open mca_btl_uct: libucp.so.0: cannot open shared object file: No such file or directory (ignored)
[bora001.plafrim.cluster:164558] mca_base_component_repository_open: unable to open mca_btl_uct: libucp.so.0: cannot open shared object file: No such file or directory (ignored)
[bora001.plafrim.cluster:164554] mca_base_component_repository_open: unable to open mca_btl_uct: libucp.so.0: cannot open shared object file: No such file or directory (ignored)
[bora001.plafrim.cluster:164552] mca_base_component_repository_open: unable to open mca_btl_uct: libucp.so.0: cannot open shared object file: No such file or directory (ignored)
[bora001.plafrim.cluster:164551] mca_base_component_repository_open: unable to open mca_pml_ucx: libucp.so.0: cannot open shared object file: No such file or directory (ignored)
[bora001.plafrim.cluster:164556] mca_base_component_repository_open: unable to open mca_pml_ucx: libucp.so.0: cannot open shared object file: No such file or directory (ignored)
[bora001.plafrim.cluster:164554] mca_base_component_repository_open: unable to open mca_pml_ucx: libucp.so.0: cannot open shared object file: No such file or directory (ignored)
[bora001.plafrim.cluster:164558] mca_base_component_repository_open: unable to open mca_pml_ucx: libucp.so.0: cannot open shared object file: No such file or directory (ignored)
[bora001.plafrim.cluster:164552] mca_base_component_repository_open: unable to open mca_pml_ucx: libucp.so.0: cannot open shared object file: No such file or directory (ignored)
[bora001.plafrim.cluster:164551] mca_base_component_repository_open: unable to open mca_osc_ucx: libucp.so.0: cannot open shared object file: No such file or directory (ignored)
[bora001.plafrim.cluster:164553] mca_base_component_repository_open: unable to open mca_osc_ucx: libucp.so.0: cannot open shared object file: No such file or directory (ignored)
[bora001.plafrim.cluster:164555] mca_base_component_repository_open: unable to open mca_osc_ucx: libucp.so.0: cannot open shared object file: No such file or directory (ignored)
[bora001.plafrim.cluster:164556] mca_base_component_repository_open: unable to open mca_osc_ucx: libucp.so.0: cannot open shared object file: No such file or directory (ignored)
[bora001.plafrim.cluster:164557] mca_base_component_repository_open: unable to open mca_osc_ucx: libucp.so.0: cannot open shared object file: No such file or directory (ignored)
[bora001.plafrim.cluster:164558] mca_base_component_repository_open: unable to open mca_osc_ucx: libucp.so.0: cannot open shared object file: No such file or directory (ignored)
[bora001.plafrim.cluster:164554] mca_base_component_repository_open: unable to open mca_osc_ucx: libucp.so.0: cannot open shared object file: No such file or directory (ignored)
[bora001.plafrim.cluster:164552] mca_base_component_repository_open: unable to open mca_osc_ucx: libucp.so.0: cannot open shared object file: No such file or directory (ignored)
[bora002.plafrim.cluster:201386] mca_base_component_repository_open: unable to open mca_osc_ucx: libucp.so.0: cannot open shared object file: No such file or directory (ignored)
[bora002.plafrim.cluster:201390] mca_base_component_repository_open: unable to open mca_osc_ucx: libucp.so.0: cannot open shared object file: No such file or directory (ignored)
[bora002.plafrim.cluster:201384] mca_base_component_repository_open: unable to open mca_osc_ucx: libucp.so.0: cannot open shared object file: No such file or directory (ignored)
[bora001.plafrim.cluster:164741] mca_base_component_repository_open: unable to open mca_btl_uct: libucp.so.0: cannot open shared object file: No such file or directory (ignored)
[bora002.plafrim.cluster:201483] mca_base_component_repository_open: unable to open mca_btl_uct: libucp.so.0: cannot open shared object file: No such file or directory (ignored)
[bora002.plafrim.cluster:201485] mca_base_component_repository_open: unable to open mca_btl_uct: libucp.so.0: cannot open shared object file: No such file or directory (ignored)
[bora002.plafrim.cluster:201479] mca_base_component_repository_open: unable to open mca_btl_uct: libucp.so.0: cannot open shared object file: No such file or directory (ignored)
[bora002.plafrim.cluster:201481] mca_base_component_repository_open: unable to open mca_btl_uct: libucp.so.0: cannot open shared object file: No such file or directory (ignored)
[bora002.plafrim.cluster:201482] mca_base_component_repository_open: unable to open mca_btl_uct: libucp.so.0: cannot open shared object file: No such file or directory (ignored)
[bora002.plafrim.cluster:201486] mca_base_component_repository_open: unable to open mca_btl_uct: libucp.so.0: cannot open shared object file: No such file or directory (ignored)
[bora002.plafrim.cluster:201484] mca_base_component_repository_open: unable to open mca_btl_uct: libucp.so.0: cannot open shared object file: No such file or directory (ignored)
[bora002.plafrim.cluster:201480] mca_base_component_repository_open: unable to open mca_btl_uct: libucp.so.0: cannot open shared object file: No such file or directory (ignored)
[bora002.plafrim.cluster:201479] mca_base_component_repository_open: unable to open mca_pml_ucx: libucp.so.0: cannot open shared object file: No such file or directory (ignored)
[bora002.plafrim.cluster:201481] mca_base_component_repository_open: unable to open mca_pml_ucx: libucp.so.0: cannot open shared object file: No such file or directory (ignored)
[bora002.plafrim.cluster:201483] mca_base_component_repository_open: unable to open mca_pml_ucx: libucp.so.0: cannot open shared object file: No such file or directory (ignored)
[bora002.plafrim.cluster:201482] mca_base_component_repository_open: unable to open mca_pml_ucx: libucp.so.0: cannot open shared object file: No such file or directory (ignored)
[bora002.plafrim.cluster:201484] mca_base_component_repository_open: unable to open mca_pml_ucx: libucp.so.0: cannot open shared object file: No such file or directory (ignored)
[bora002.plafrim.cluster:201485] mca_base_component_repository_open: unable to open mca_pml_ucx: libucp.so.0: cannot open shared object file: No such file or directory (ignored)
[bora002.plafrim.cluster:201486] mca_base_component_repository_open: unable to open mca_pml_ucx: libucp.so.0: cannot open shared object file: No such file or directory (ignored)
[bora002.plafrim.cluster:201480] mca_base_component_repository_open: unable to open mca_pml_ucx: libucp.so.0: cannot open shared object file: No such file or directory (ignored)
[bora002.plafrim.cluster:201479] mca_base_component_repository_open: unable to open mca_osc_ucx: libucp.so.0: cannot open shared object file: No such file or directory (ignored)
[bora002.plafrim.cluster:201483] mca_base_component_repository_open: unable to open mca_osc_ucx: libucp.so.0: cannot open shared object file: No such file or directory (ignored)
[bora002.plafrim.cluster:201484] mca_base_component_repository_open: unable to open mca_osc_ucx: libucp.so.0: cannot open shared object file: No such file or directory (ignored)
[bora002.plafrim.cluster:201480] mca_base_component_repository_open: unable to open mca_osc_ucx: libucp.so.0: cannot open shared object file: No such file or directory (ignored)
[bora002.plafrim.cluster:201481] mca_base_component_repository_open: unable to open mca_osc_ucx: libucp.so.0: cannot open shared object file: No such file or directory (ignored)
[bora002.plafrim.cluster:201482] mca_base_component_repository_open: unable to open mca_osc_ucx: libucp.so.0: cannot open shared object file: No such file or directory (ignored)
[bora002.plafrim.cluster:201485] mca_base_component_repository_open: unable to open mca_osc_ucx: libucp.so.0: cannot open shared object file: No such file or directory (ignored)
[bora002.plafrim.cluster:201486] mca_base_component_repository_open: unable to open mca_osc_ucx: libucp.so.0: cannot open shared object file: No such file or directory (ignored)
[bora001.plafrim.cluster:164743] mca_base_component_repository_open: unable to open mca_btl_uct: libucp.so.0: cannot open shared object file: No such file or directory (ignored)
[bora001.plafrim.cluster:164745] mca_base_component_repository_open: unable to open mca_btl_uct: libucp.so.0: cannot open shared object file: No such file or directory (ignored)
[bora001.plafrim.cluster:164747] mca_base_component_repository_open: unable to open mca_btl_uct: libucp.so.0: cannot open shared object file: No such file or directory (ignored)
[bora001.plafrim.cluster:164746] mca_base_component_repository_open: unable to open mca_btl_uct: libucp.so.0: cannot open shared object file: No such file or directory (ignored)
[bora001.plafrim.cluster:164748] mca_base_component_repository_open: unable to open mca_btl_uct: libucp.so.0: cannot open shared object file: No such file or directory (ignored)
[bora001.plafrim.cluster:164742] mca_base_component_repository_open: unable to open mca_btl_uct: libucp.so.0: cannot open shared object file: No such file or directory (ignored)
[bora001.plafrim.cluster:164744] mca_base_component_repository_open: unable to open mca_btl_uct: libucp.so.0: cannot open shared object file: No such file or directory (ignored)
[bora001.plafrim.cluster:164741] mca_base_component_repository_open: unable to open mca_pml_ucx: libucp.so.0: cannot open shared object file: No such file or directory (ignored)
[bora001.plafrim.cluster:164747] mca_base_component_repository_open: unable to open mca_pml_ucx: libucp.so.0: cannot open shared object file: No such file or directory (ignored)
[bora001.plafrim.cluster:164743] mca_base_component_repository_open: unable to open mca_pml_ucx: libucp.so.0: cannot open shared object file: No such file or directory (ignored)
[bora001.plafrim.cluster:164745] mca_base_component_repository_open: unable to open mca_pml_ucx: libucp.so.0: cannot open shared object file: No such file or directory (ignored)
[bora001.plafrim.cluster:164746] mca_base_component_repository_open: unable to open mca_pml_ucx: libucp.so.0: cannot open shared object file: No such file or directory (ignored)
[bora001.plafrim.cluster:164748] mca_base_component_repository_open: unable to open mca_pml_ucx: libucp.so.0: cannot open shared object file: No such file or directory (ignored)
[bora001.plafrim.cluster:164742] mca_base_component_repository_open: unable to open mca_pml_ucx: libucp.so.0: cannot open shared object file: No such file or directory (ignored)
[bora001.plafrim.cluster:164744] mca_base_component_repository_open: unable to open mca_pml_ucx: libucp.so.0: cannot open shared object file: No such file or directory (ignored)
[bora001.plafrim.cluster:164741] mca_base_component_repository_open: unable to open mca_osc_ucx: libucp.so.0: cannot open shared object file: No such file or directory (ignored)
[bora001.plafrim.cluster:164745] mca_base_component_repository_open: unable to open mca_osc_ucx: libucp.so.0: cannot open shared object file: No such file or directory (ignored)
[bora001.plafrim.cluster:164747] mca_base_component_repository_open: unable to open mca_osc_ucx: libucp.so.0: cannot open shared object file: No such file or directory (ignored)
[bora001.plafrim.cluster:164743] mca_base_component_repository_open: unable to open mca_osc_ucx: libucp.so.0: cannot open shared object file: No such file or directory (ignored)
[bora001.plafrim.cluster:164748] mca_base_component_repository_open: unable to open mca_osc_ucx: libucp.so.0: cannot open shared object file: No such file or directory (ignored)
[bora001.plafrim.cluster:164742] mca_base_component_repository_open: unable to open mca_osc_ucx: libucp.so.0: cannot open shared object file: No such file or directory (ignored)
[bora001.plafrim.cluster:164744] mca_base_component_repository_open: unable to open mca_osc_ucx: libucp.so.0: cannot open shared object file: No such file or directory (ignored)
[bora001.plafrim.cluster:164746] mca_base_component_repository_open: unable to open mca_osc_ucx: libucp.so.0: cannot open shared object file: No such file or directory (ignored)
[bora001.plafrim.cluster:164865] mca_base_component_repository_open: unable to open mca_btl_uct: libucp.so.0: cannot open shared object file: No such file or directory (ignored)
[bora002.plafrim.cluster:201588] mca_base_component_repository_open: unable to open mca_btl_uct: libucp.so.0: cannot open shared object file: No such file or directory (ignored)
[bora002.plafrim.cluster:201584] mca_base_component_repository_open: unable to open mca_btl_uct: libucp.so.0: cannot open shared object file: No such file or directory (ignored)
[bora002.plafrim.cluster:201586] mca_base_component_repository_open: unable to open mca_btl_uct: libucp.so.0: cannot open shared object file: No such file or directory (ignored)
[bora002.plafrim.cluster:201587] mca_base_component_repository_open: unable to open mca_btl_uct: libucp.so.0: cannot open shared object file: No such file or directory (ignored)
[bora002.plafrim.cluster:201582] mca_base_component_repository_open: unable to open mca_btl_uct: libucp.so.0: cannot open shared object file: No such file or directory (ignored)
[bora002.plafrim.cluster:201589] mca_base_component_repository_open: unable to open mca_btl_uct: libucp.so.0: cannot open shared object file: No such file or directory (ignored)
[bora002.plafrim.cluster:201583] mca_base_component_repository_open: unable to open mca_btl_uct: libucp.so.0: cannot open shared object file: No such file or directory (ignored)
[bora002.plafrim.cluster:201585] mca_base_component_repository_open: unable to open mca_btl_uct: libucp.so.0: cannot open shared object file: No such file or directory (ignored)
[bora002.plafrim.cluster:201584] mca_base_component_repository_open: unable to open mca_pml_ucx: libucp.so.0: cannot open shared object file: No such file or directory (ignored)
[bora002.plafrim.cluster:201588] mca_base_component_repository_open: unable to open mca_pml_ucx: libucp.so.0: cannot open shared object file: No such file or directory (ignored)
[bora002.plafrim.cluster:201586] mca_base_component_repository_open: unable to open mca_pml_ucx: libucp.so.0: cannot open shared object file: No such file or directory (ignored)
[bora002.plafrim.cluster:201587] mca_base_component_repository_open: unable to open mca_pml_ucx: libucp.so.0: cannot open shared object file: No such file or directory (ignored)
[bora002.plafrim.cluster:201582] mca_base_component_repository_open: unable to open mca_pml_ucx: libucp.so.0: cannot open shared object file: No such file or directory (ignored)
[bora002.plafrim.cluster:201589] mca_base_component_repository_open: unable to open mca_pml_ucx: libucp.so.0: cannot open shared object file: No such file or directory (ignored)
[bora002.plafrim.cluster:201583] mca_base_component_repository_open: unable to open mca_pml_ucx: libucp.so.0: cannot open shared object file: No such file or directory (ignored)
[bora002.plafrim.cluster:201585] mca_base_component_repository_open: unable to open mca_pml_ucx: libucp.so.0: cannot open shared object file: No such file or directory (ignored)
[bora002.plafrim.cluster:201586] mca_base_component_repository_open: unable to open mca_osc_ucx: libucp.so.0: cannot open shared object file: No such file or directory (ignored)
[bora002.plafrim.cluster:201582] mca_base_component_repository_open: unable to open mca_osc_ucx: libucp.so.0: cannot open shared object file: No such file or directory (ignored)
[bora002.plafrim.cluster:201588] mca_base_component_repository_open: unable to open mca_osc_ucx: libucp.so.0: cannot open shared object file: No such file or directory (ignored)
[bora001.plafrim.cluster:164867] mca_base_component_repository_open: unable to open mca_btl_uct: libucp.so.0: cannot open shared object file: No such file or directory (ignored)
[bora001.plafrim.cluster:164869] mca_base_component_repository_open: unable to open mca_btl_uct: libucp.so.0: cannot open shared object file: No such file or directory (ignored)
[bora001.plafrim.cluster:164871] mca_base_component_repository_open: unable to open mca_btl_uct: libucp.so.0: cannot open shared object file: No such file or directory (ignored)
[bora001.plafrim.cluster:164866] mca_base_component_repository_open: unable to open mca_btl_uct: libucp.so.0: cannot open shared object file: No such file or directory (ignored)
[bora001.plafrim.cluster:164868] mca_base_component_repository_open: unable to open mca_btl_uct: libucp.so.0: cannot open shared object file: No such file or directory (ignored)
[bora001.plafrim.cluster:164872] mca_base_component_repository_open: unable to open mca_btl_uct: libucp.so.0: cannot open shared object file: No such file or directory (ignored)
[bora001.plafrim.cluster:164870] mca_base_component_repository_open: unable to open mca_btl_uct: libucp.so.0: cannot open shared object file: No such file or directory (ignored)
[bora001.plafrim.cluster:164867] mca_base_component_repository_open: unable to open mca_pml_ucx: libucp.so.0: cannot open shared object file: No such file or directory (ignored)
[bora001.plafrim.cluster:164871] mca_base_component_repository_open: unable to open mca_pml_ucx: libucp.so.0: cannot open shared object file: No such file or directory (ignored)
[bora001.plafrim.cluster:164868] mca_base_component_repository_open: unable to open mca_pml_ucx: libucp.so.0: cannot open shared object file: No such file or directory (ignored)
[bora001.plafrim.cluster:164869] mca_base_component_repository_open: unable to open mca_pml_ucx: libucp.so.0: cannot open shared object file: No such file or directory (ignored)
[bora001.plafrim.cluster:164865] mca_base_component_repository_open: unable to open mca_pml_ucx: libucp.so.0: cannot open shared object file: No such file or directory (ignored)
[bora001.plafrim.cluster:164870] mca_base_component_repository_open: unable to open mca_pml_ucx: libucp.so.0: cannot open shared object file: No such file or directory (ignored)
[bora001.plafrim.cluster:164866] mca_base_component_repository_open: unable to open mca_pml_ucx: libucp.so.0: cannot open shared object file: No such file or directory (ignored)
[bora001.plafrim.cluster:164872] mca_base_component_repository_open: unable to open mca_pml_ucx: libucp.so.0: cannot open shared object file: No such file or directory (ignored)
[bora001.plafrim.cluster:164867] mca_base_component_repository_open: unable to open mca_osc_ucx: libucp.so.0: cannot open shared object file: No such file or directory (ignored)
[bora001.plafrim.cluster:164872] mca_base_component_repository_open: unable to open mca_osc_ucx: libucp.so.0: cannot open shared object file: No such file or directory (ignored)
[bora001.plafrim.cluster:164866] mca_base_component_repository_open: unable to open mca_osc_ucx: libucp.so.0: cannot open shared object file: No such file or directory (ignored)
[bora001.plafrim.cluster:164868] mca_base_component_repository_open: unable to open mca_osc_ucx: libucp.so.0: cannot open shared object file: No such file or directory (ignored)
[bora001.plafrim.cluster:164871] mca_base_component_repository_open: unable to open mca_osc_ucx: libucp.so.0: cannot open shared object file: No such file or directory (ignored)
[bora001.plafrim.cluster:164865] mca_base_component_repository_open: unable to open mca_osc_ucx: libucp.so.0: cannot open shared object file: No such file or directory (ignored)
[bora001.plafrim.cluster:164869] mca_base_component_repository_open: unable to open mca_osc_ucx: libucp.so.0: cannot open shared object file: No such file or directory (ignored)
[bora001.plafrim.cluster:164870] mca_base_component_repository_open: unable to open mca_osc_ucx: libucp.so.0: cannot open shared object file: No such file or directory (ignored)
[bora002.plafrim.cluster:201584] mca_base_component_repository_open: unable to open mca_osc_ucx: libucp.so.0: cannot open shared object file: No such file or directory (ignored)
[bora002.plafrim.cluster:201589] mca_base_component_repository_open: unable to open mca_osc_ucx: libucp.so.0: cannot open shared object file: No such file or directory (ignored)
[bora002.plafrim.cluster:201583] mca_base_component_repository_open: unable to open mca_osc_ucx: libucp.so.0: cannot open shared object file: No such file or directory (ignored)
[bora002.plafrim.cluster:201585] mca_base_component_repository_open: unable to open mca_osc_ucx: libucp.so.0: cannot open shared object file: No such file or directory (ignored)
[bora002.plafrim.cluster:201587] mca_base_component_repository_open: unable to open mca_osc_ucx: libucp.so.0: cannot open shared object file: No such file or directory (ignored)
[bora001.plafrim.cluster:164992] mca_base_component_repository_open: unable to open mca_btl_uct: libucp.so.0: cannot open shared object file: No such file or directory (ignored)
[bora002.plafrim.cluster:201681] mca_base_component_repository_open: unable to open mca_btl_uct: libucp.so.0: cannot open shared object file: No such file or directory (ignored)
[bora002.plafrim.cluster:201677] mca_base_component_repository_open: unable to open mca_btl_uct: libucp.so.0: cannot open shared object file: No such file or directory (ignored)
[bora002.plafrim.cluster:201683] mca_base_component_repository_open: unable to open mca_btl_uct: libucp.so.0: cannot open shared object file: No such file or directory (ignored)
[bora002.plafrim.cluster:201679] mca_base_component_repository_open: unable to open mca_btl_uct: libucp.so.0: cannot open shared object file: No such file or directory (ignored)
[bora002.plafrim.cluster:201680] mca_base_component_repository_open: unable to open mca_btl_uct: libucp.so.0: cannot open shared object file: No such file or directory (ignored)
[bora002.plafrim.cluster:201682] mca_base_component_repository_open: unable to open mca_btl_uct: libucp.so.0: cannot open shared object file: No such file or directory (ignored)
[bora002.plafrim.cluster:201684] mca_base_component_repository_open: unable to open mca_btl_uct: libucp.so.0: cannot open shared object file: No such file or directory (ignored)
[bora002.plafrim.cluster:201678] mca_base_component_repository_open: unable to open mca_btl_uct: libucp.so.0: cannot open shared object file: No such file or directory (ignored)
[bora002.plafrim.cluster:201681] mca_base_component_repository_open: unable to open mca_pml_ucx: libucp.so.0: cannot open shared object file: No such file or directory (ignored)
[bora002.plafrim.cluster:201679] mca_base_component_repository_open: unable to open mca_pml_ucx: libucp.so.0: cannot open shared object file: No such file or directory (ignored)
[bora002.plafrim.cluster:201680] mca_base_component_repository_open: unable to open mca_pml_ucx: libucp.so.0: cannot open shared object file: No such file or directory (ignored)
[bora001.plafrim.cluster:164992] mca_base_component_repository_open: unable to open mca_pml_ucx: libucp.so.0: cannot open shared object file: No such file or directory (ignored)
[bora001.plafrim.cluster:164992] mca_base_component_repository_open: unable to open mca_osc_ucx: libucp.so.0: cannot open shared object file: No such file or directory (ignored)
[bora001.plafrim.cluster:164988] mca_base_component_repository_open: unable to open mca_btl_uct: libucp.so.0: cannot open shared object file: No such file or directory (ignored)
[bora001.plafrim.cluster:164990] mca_base_component_repository_open: unable to open mca_btl_uct: libucp.so.0: cannot open shared object file: No such file or directory (ignored)
[bora001.plafrim.cluster:164988] mca_base_component_repository_open: unable to open mca_pml_ucx: libucp.so.0: cannot open shared object file: No such file or directory (ignored)
[bora001.plafrim.cluster:164994] mca_base_component_repository_open: unable to open mca_btl_uct: libucp.so.0: cannot open shared object file: No such file or directory (ignored)
[bora001.plafrim.cluster:164990] mca_base_component_repository_open: unable to open mca_pml_ucx: libucp.so.0: cannot open shared object file: No such file or directory (ignored)
[bora001.plafrim.cluster:164995] mca_base_component_repository_open: unable to open mca_btl_uct: libucp.so.0: cannot open shared object file: No such file or directory (ignored)
[bora001.plafrim.cluster:164991] mca_base_component_repository_open: unable to open mca_btl_uct: libucp.so.0: cannot open shared object file: No such file or directory (ignored)
[bora001.plafrim.cluster:164993] mca_base_component_repository_open: unable to open mca_btl_uct: libucp.so.0: cannot open shared object file: No such file or directory (ignored)
[bora001.plafrim.cluster:164989] mca_base_component_repository_open: unable to open mca_btl_uct: libucp.so.0: cannot open shared object file: No such file or directory (ignored)
[bora001.plafrim.cluster:164994] mca_base_component_repository_open: unable to open mca_pml_ucx: libucp.so.0: cannot open shared object file: No such file or directory (ignored)
[bora001.plafrim.cluster:164995] mca_base_component_repository_open: unable to open mca_pml_ucx: libucp.so.0: cannot open shared object file: No such file or directory (ignored)
[bora001.plafrim.cluster:164991] mca_base_component_repository_open: unable to open mca_pml_ucx: libucp.so.0: cannot open shared object file: No such file or directory (ignored)
[bora001.plafrim.cluster:164988] mca_base_component_repository_open: unable to open mca_osc_ucx: libucp.so.0: cannot open shared object file: No such file or directory (ignored)
[bora001.plafrim.cluster:164993] mca_base_component_repository_open: unable to open mca_pml_ucx: libucp.so.0: cannot open shared object file: No such file or directory (ignored)
[bora001.plafrim.cluster:164989] mca_base_component_repository_open: unable to open mca_pml_ucx: libucp.so.0: cannot open shared object file: No such file or directory (ignored)
[bora001.plafrim.cluster:164990] mca_base_component_repository_open: unable to open mca_osc_ucx: libucp.so.0: cannot open shared object file: No such file or directory (ignored)
[bora001.plafrim.cluster:164994] mca_base_component_repository_open: unable to open mca_osc_ucx: libucp.so.0: cannot open shared object file: No such file or directory (ignored)
[bora001.plafrim.cluster:164995] mca_base_component_repository_open: unable to open mca_osc_ucx: libucp.so.0: cannot open shared object file: No such file or directory (ignored)
[bora001.plafrim.cluster:164991] mca_base_component_repository_open: unable to open mca_osc_ucx: libucp.so.0: cannot open shared object file: No such file or directory (ignored)
[bora001.plafrim.cluster:164993] mca_base_component_repository_open: unable to open mca_osc_ucx: libucp.so.0: cannot open shared object file: No such file or directory (ignored)
[bora001.plafrim.cluster:164989] mca_base_component_repository_open: unable to open mca_osc_ucx: libucp.so.0: cannot open shared object file: No such file or directory (ignored)
[bora002.plafrim.cluster:201682] mca_base_component_repository_open: unable to open mca_pml_ucx: libucp.so.0: cannot open shared object file: No such file or directory (ignored)
[bora002.plafrim.cluster:201683] mca_base_component_repository_open: unable to open mca_pml_ucx: libucp.so.0: cannot open shared object file: No such file or directory (ignored)
[bora002.plafrim.cluster:201677] mca_base_component_repository_open: unable to open mca_pml_ucx: libucp.so.0: cannot open shared object file: No such file or directory (ignored)
[bora002.plafrim.cluster:201684] mca_base_component_repository_open: unable to open mca_pml_ucx: libucp.so.0: cannot open shared object file: No such file or directory (ignored)
[bora002.plafrim.cluster:201678] mca_base_component_repository_open: unable to open mca_pml_ucx: libucp.so.0: cannot open shared object file: No such file or directory (ignored)
[bora002.plafrim.cluster:201681] mca_base_component_repository_open: unable to open mca_osc_ucx: libucp.so.0: cannot open shared object file: No such file or directory (ignored)
[bora002.plafrim.cluster:201683] mca_base_component_repository_open: unable to open mca_osc_ucx: libucp.so.0: cannot open shared object file: No such file or directory (ignored)
[bora002.plafrim.cluster:201678] mca_base_component_repository_open: unable to open mca_osc_ucx: libucp.so.0: cannot open shared object file: No such file or directory (ignored)
[bora002.plafrim.cluster:201684] mca_base_component_repository_open: unable to open mca_osc_ucx: libucp.so.0: cannot open shared object file: No such file or directory (ignored)
[bora002.plafrim.cluster:201677] mca_base_component_repository_open: unable to open mca_osc_ucx: libucp.so.0: cannot open shared object file: No such file or directory (ignored)
[bora002.plafrim.cluster:201679] mca_base_component_repository_open: unable to open mca_osc_ucx: libucp.so.0: cannot open shared object file: No such file or directory (ignored)
[bora002.plafrim.cluster:201680] mca_base_component_repository_open: unable to open mca_osc_ucx: libucp.so.0: cannot open shared object file: No such file or directory (ignored)
[bora002.plafrim.cluster:201682] mca_base_component_repository_open: unable to open mca_osc_ucx: libucp.so.0: cannot open shared object file: No such file or directory (ignored)
[bora001.plafrim.cluster:165129] mca_base_component_repository_open: unable to open mca_btl_uct: libucp.so.0: cannot open shared object file: No such file or directory (ignored)
[bora002.plafrim.cluster:201835] mca_base_component_repository_open: unable to open mca_btl_uct: libucp.so.0: cannot open shared object file: No such file or directory (ignored)
[bora002.plafrim.cluster:201839] mca_base_component_repository_open: unable to open mca_btl_uct: libucp.so.0: cannot open shared object file: No such file or directory (ignored)
[bora002.plafrim.cluster:201837] mca_base_component_repository_open: unable to open mca_btl_uct: libucp.so.0: cannot open shared object file: No such file or directory (ignored)
[bora002.plafrim.cluster:201841] mca_base_component_repository_open: unable to open mca_btl_uct: libucp.so.0: cannot open shared object file: No such file or directory (ignored)
[bora002.plafrim.cluster:201836] mca_base_component_repository_open: unable to open mca_btl_uct: libucp.so.0: cannot open shared object file: No such file or directory (ignored)
[bora002.plafrim.cluster:201840] mca_base_component_repository_open: unable to open mca_btl_uct: libucp.so.0: cannot open shared object file: No such file or directory (ignored)
[bora002.plafrim.cluster:201838] mca_base_component_repository_open: unable to open mca_btl_uct: libucp.so.0: cannot open shared object file: No such file or directory (ignored)
[bora002.plafrim.cluster:201842] mca_base_component_repository_open: unable to open mca_btl_uct: libucp.so.0: cannot open shared object file: No such file or directory (ignored)
[bora002.plafrim.cluster:201835] mca_base_component_repository_open: unable to open mca_pml_ucx: libucp.so.0: cannot open shared object file: No such file or directory (ignored)
[bora002.plafrim.cluster:201839] mca_base_component_repository_open: unable to open mca_pml_ucx: libucp.so.0: cannot open shared object file: No such file or directory (ignored)
[bora002.plafrim.cluster:201841] mca_base_component_repository_open: unable to open mca_pml_ucx: libucp.so.0: cannot open shared object file: No such file or directory (ignored)
[bora002.plafrim.cluster:201836] mca_base_component_repository_open: unable to open mca_pml_ucx: libucp.so.0: cannot open shared object file: No such file or directory (ignored)
[bora002.plafrim.cluster:201837] mca_base_component_repository_open: unable to open mca_pml_ucx: libucp.so.0: cannot open shared object file: No such file or directory (ignored)
[bora002.plafrim.cluster:201840] mca_base_component_repository_open: unable to open mca_pml_ucx: libucp.so.0: cannot open shared object file: No such file or directory (ignored)
[bora002.plafrim.cluster:201838] mca_base_component_repository_open: unable to open mca_pml_ucx: libucp.so.0: cannot open shared object file: No such file or directory (ignored)
[bora002.plafrim.cluster:201842] mca_base_component_repository_open: unable to open mca_pml_ucx: libucp.so.0: cannot open shared object file: No such file or directory (ignored)
[bora002.plafrim.cluster:201841] mca_base_component_repository_open: unable to open mca_osc_ucx: libucp.so.0: cannot open shared object file: No such file or directory (ignored)
[bora002.plafrim.cluster:201835] mca_base_component_repository_open: unable to open mca_osc_ucx: libucp.so.0: cannot open shared object file: No such file or directory (ignored)
[bora002.plafrim.cluster:201837] mca_base_component_repository_open: unable to open mca_osc_ucx: libucp.so.0: cannot open shared object file: No such file or directory (ignored)
[bora002.plafrim.cluster:201839] mca_base_component_repository_open: unable to open mca_osc_ucx: libucp.so.0: cannot open shared object file: No such file or directory (ignored)
[bora002.plafrim.cluster:201840] mca_base_component_repository_open: unable to open mca_osc_ucx: libucp.so.0: cannot open shared object file: No such file or directory (ignored)
[bora002.plafrim.cluster:201838] mca_base_component_repository_open: unable to open mca_osc_ucx: libucp.so.0: cannot open shared object file: No such file or directory (ignored)
[bora002.plafrim.cluster:201842] mca_base_component_repository_open: unable to open mca_osc_ucx: libucp.so.0: cannot open shared object file: No such file or directory (ignored)
[bora001.plafrim.cluster:165135] mca_base_component_repository_open: unable to open mca_btl_uct: libucp.so.0: cannot open shared object file: No such file or directory (ignored)
[bora001.plafrim.cluster:165131] mca_base_component_repository_open: unable to open mca_btl_uct: libucp.so.0: cannot open shared object file: No such file or directory (ignored)
[bora001.plafrim.cluster:165133] mca_base_component_repository_open: unable to open mca_btl_uct: libucp.so.0: cannot open shared object file: No such file or directory (ignored)
[bora001.plafrim.cluster:165134] mca_base_component_repository_open: unable to open mca_btl_uct: libucp.so.0: cannot open shared object file: No such file or directory (ignored)
[bora001.plafrim.cluster:165136] mca_base_component_repository_open: unable to open mca_btl_uct: libucp.so.0: cannot open shared object file: No such file or directory (ignored)
[bora001.plafrim.cluster:165132] mca_base_component_repository_open: unable to open mca_btl_uct: libucp.so.0: cannot open shared object file: No such file or directory (ignored)
[bora001.plafrim.cluster:165130] mca_base_component_repository_open: unable to open mca_btl_uct: libucp.so.0: cannot open shared object file: No such file or directory (ignored)
[bora001.plafrim.cluster:165129] mca_base_component_repository_open: unable to open mca_pml_ucx: libucp.so.0: cannot open shared object file: No such file or directory (ignored)
[bora001.plafrim.cluster:165135] mca_base_component_repository_open: unable to open mca_pml_ucx: libucp.so.0: cannot open shared object file: No such file or directory (ignored)
[bora001.plafrim.cluster:165133] mca_base_component_repository_open: unable to open mca_pml_ucx: libucp.so.0: cannot open shared object file: No such file or directory (ignored)
[bora001.plafrim.cluster:165131] mca_base_component_repository_open: unable to open mca_pml_ucx: libucp.so.0: cannot open shared object file: No such file or directory (ignored)
[bora001.plafrim.cluster:165134] mca_base_component_repository_open: unable to open mca_pml_ucx: libucp.so.0: cannot open shared object file: No such file or directory (ignored)
[bora001.plafrim.cluster:165136] mca_base_component_repository_open: unable to open mca_pml_ucx: libucp.so.0: cannot open shared object file: No such file or directory (ignored)
[bora001.plafrim.cluster:165130] mca_base_component_repository_open: unable to open mca_pml_ucx: libucp.so.0: cannot open shared object file: No such file or directory (ignored)
[bora001.plafrim.cluster:165132] mca_base_component_repository_open: unable to open mca_pml_ucx: libucp.so.0: cannot open shared object file: No such file or directory (ignored)
[bora001.plafrim.cluster:165133] mca_base_component_repository_open: unable to open mca_osc_ucx: libucp.so.0: cannot open shared object file: No such file or directory (ignored)
[bora001.plafrim.cluster:165131] mca_base_component_repository_open: unable to open mca_osc_ucx: libucp.so.0: cannot open shared object file: No such file or directory (ignored)
[bora001.plafrim.cluster:165136] mca_base_component_repository_open: unable to open mca_osc_ucx: libucp.so.0: cannot open shared object file: No such file or directory (ignored)
[bora001.plafrim.cluster:165135] mca_base_component_repository_open: unable to open mca_osc_ucx: libucp.so.0: cannot open shared object file: No such file or directory (ignored)
[bora001.plafrim.cluster:165130] mca_base_component_repository_open: unable to open mca_osc_ucx: libucp.so.0: cannot open shared object file: No such file or directory (ignored)
[bora001.plafrim.cluster:165132] mca_base_component_repository_open: unable to open mca_osc_ucx: libucp.so.0: cannot open shared object file: No such file or directory (ignored)
[bora001.plafrim.cluster:165134] mca_base_component_repository_open: unable to open mca_osc_ucx: libucp.so.0: cannot open shared object file: No such file or directory (ignored)
[bora001.plafrim.cluster:165129] mca_base_component_repository_open: unable to open mca_osc_ucx: libucp.so.0: cannot open shared object file: No such file or directory (ignored)
[bora002.plafrim.cluster:201836] mca_base_component_repository_open: unable to open mca_osc_ucx: libucp.so.0: cannot open shared object file: No such file or directory (ignored)
[bora002.plafrim.cluster:201937] mca_base_component_repository_open: unable to open mca_btl_uct: libucp.so.0: cannot open shared object file: No such file or directory (ignored)
[bora002.plafrim.cluster:201935] mca_base_component_repository_open: unable to open mca_btl_uct: libucp.so.0: cannot open shared object file: No such file or directory (ignored)
[bora002.plafrim.cluster:201933] mca_base_component_repository_open: unable to open mca_btl_uct: libucp.so.0: cannot open shared object file: No such file or directory (ignored)
[bora002.plafrim.cluster:201939] mca_base_component_repository_open: unable to open mca_btl_uct: libucp.so.0: cannot open shared object file: No such file or directory (ignored)
[bora002.plafrim.cluster:201934] mca_base_component_repository_open: unable to open mca_btl_uct: libucp.so.0: cannot open shared object file: No such file or directory (ignored)
[bora002.plafrim.cluster:201936] mca_base_component_repository_open: unable to open mca_btl_uct: libucp.so.0: cannot open shared object file: No such file or directory (ignored)
[bora002.plafrim.cluster:201940] mca_base_component_repository_open: unable to open mca_btl_uct: libucp.so.0: cannot open shared object file: No such file or directory (ignored)
[bora002.plafrim.cluster:201938] mca_base_component_repository_open: unable to open mca_btl_uct: libucp.so.0: cannot open shared object file: No such file or directory (ignored)
[bora002.plafrim.cluster:201937] mca_base_component_repository_open: unable to open mca_pml_ucx: libucp.so.0: cannot open shared object file: No such file or directory (ignored)
[bora002.plafrim.cluster:201933] mca_base_component_repository_open: unable to open mca_pml_ucx: libucp.so.0: cannot open shared object file: No such file or directory (ignored)
[bora002.plafrim.cluster:201935] mca_base_component_repository_open: unable to open mca_pml_ucx: libucp.so.0: cannot open shared object file: No such file or directory (ignored)
[bora001.plafrim.cluster:165264] mca_base_component_repository_open: unable to open mca_btl_uct: libucp.so.0: cannot open shared object file: No such file or directory (ignored)
[bora002.plafrim.cluster:201939] mca_base_component_repository_open: unable to open mca_pml_ucx: libucp.so.0: cannot open shared object file: No such file or directory (ignored)
[bora002.plafrim.cluster:201936] mca_base_component_repository_open: unable to open mca_pml_ucx: libucp.so.0: cannot open shared object file: No such file or directory (ignored)
[bora002.plafrim.cluster:201934] mca_base_component_repository_open: unable to open mca_pml_ucx: libucp.so.0: cannot open shared object file: No such file or directory (ignored)
[bora002.plafrim.cluster:201940] mca_base_component_repository_open: unable to open mca_pml_ucx: libucp.so.0: cannot open shared object file: No such file or directory (ignored)
[bora002.plafrim.cluster:201938] mca_base_component_repository_open: unable to open mca_pml_ucx: libucp.so.0: cannot open shared object file: No such file or directory (ignored)
[bora002.plafrim.cluster:201939] mca_base_component_repository_open: unable to open mca_osc_ucx: libucp.so.0: cannot open shared object file: No such file or directory (ignored)
[bora002.plafrim.cluster:201933] mca_base_component_repository_open: unable to open mca_osc_ucx: libucp.so.0: cannot open shared object file: No such file or directory (ignored)
[bora002.plafrim.cluster:201934] mca_base_component_repository_open: unable to open mca_osc_ucx: libucp.so.0: cannot open shared object file: No such file or directory (ignored)
[bora002.plafrim.cluster:201938] mca_base_component_repository_open: unable to open mca_osc_ucx: libucp.so.0: cannot open shared object file: No such file or directory (ignored)
[bora002.plafrim.cluster:201940] mca_base_component_repository_open: unable to open mca_osc_ucx: libucp.so.0: cannot open shared object file: No such file or directory (ignored)
[bora002.plafrim.cluster:201935] mca_base_component_repository_open: unable to open mca_osc_ucx: libucp.so.0: cannot open shared object file: No such file or directory (ignored)
[bora002.plafrim.cluster:201936] mca_base_component_repository_open: unable to open mca_osc_ucx: libucp.so.0: cannot open shared object file: No such file or directory (ignored)
[bora001.plafrim.cluster:165266] mca_base_component_repository_open: unable to open mca_btl_uct: libucp.so.0: cannot open shared object file: No such file or directory (ignored)
[bora001.plafrim.cluster:165270] mca_base_component_repository_open: unable to open mca_btl_uct: libucp.so.0: cannot open shared object file: No such file or directory (ignored)
[bora001.plafrim.cluster:165265] mca_base_component_repository_open: unable to open mca_btl_uct: libucp.so.0: cannot open shared object file: No such file or directory (ignored)
[bora001.plafrim.cluster:165268] mca_base_component_repository_open: unable to open mca_btl_uct: libucp.so.0: cannot open shared object file: No such file or directory (ignored)
[bora001.plafrim.cluster:165271] mca_base_component_repository_open: unable to open mca_btl_uct: libucp.so.0: cannot open shared object file: No such file or directory (ignored)
[bora001.plafrim.cluster:165269] mca_base_component_repository_open: unable to open mca_btl_uct: libucp.so.0: cannot open shared object file: No such file or directory (ignored)
[bora001.plafrim.cluster:165267] mca_base_component_repository_open: unable to open mca_btl_uct: libucp.so.0: cannot open shared object file: No such file or directory (ignored)
[bora001.plafrim.cluster:165266] mca_base_component_repository_open: unable to open mca_pml_ucx: libucp.so.0: cannot open shared object file: No such file or directory (ignored)
[bora001.plafrim.cluster:165265] mca_base_component_repository_open: unable to open mca_pml_ucx: libucp.so.0: cannot open shared object file: No such file or directory (ignored)
[bora001.plafrim.cluster:165270] mca_base_component_repository_open: unable to open mca_pml_ucx: libucp.so.0: cannot open shared object file: No such file or directory (ignored)
[bora001.plafrim.cluster:165264] mca_base_component_repository_open: unable to open mca_pml_ucx: libucp.so.0: cannot open shared object file: No such file or directory (ignored)
[bora001.plafrim.cluster:165269] mca_base_component_repository_open: unable to open mca_pml_ucx: libucp.so.0: cannot open shared object file: No such file or directory (ignored)
[bora001.plafrim.cluster:165271] mca_base_component_repository_open: unable to open mca_pml_ucx: libucp.so.0: cannot open shared object file: No such file or directory (ignored)
[bora001.plafrim.cluster:165268] mca_base_component_repository_open: unable to open mca_pml_ucx: libucp.so.0: cannot open shared object file: No such file or directory (ignored)
[bora001.plafrim.cluster:165267] mca_base_component_repository_open: unable to open mca_pml_ucx: libucp.so.0: cannot open shared object file: No such file or directory (ignored)
[bora001.plafrim.cluster:165267] mca_base_component_repository_open: unable to open mca_osc_ucx: libucp.so.0: cannot open shared object file: No such file or directory (ignored)
[bora001.plafrim.cluster:165270] mca_base_component_repository_open: unable to open mca_osc_ucx: libucp.so.0: cannot open shared object file: No such file or directory (ignored)
[bora001.plafrim.cluster:165265] mca_base_component_repository_open: unable to open mca_osc_ucx: libucp.so.0: cannot open shared object file: No such file or directory (ignored)
[bora001.plafrim.cluster:165268] mca_base_component_repository_open: unable to open mca_osc_ucx: libucp.so.0: cannot open shared object file: No such file or directory (ignored)
[bora001.plafrim.cluster:165264] mca_base_component_repository_open: unable to open mca_osc_ucx: libucp.so.0: cannot open shared object file: No such file or directory (ignored)
[bora001.plafrim.cluster:165269] mca_base_component_repository_open: unable to open mca_osc_ucx: libucp.so.0: cannot open shared object file: No such file or directory (ignored)
[bora001.plafrim.cluster:165271] mca_base_component_repository_open: unable to open mca_osc_ucx: libucp.so.0: cannot open shared object file: No such file or directory (ignored)
[bora001.plafrim.cluster:165266] mca_base_component_repository_open: unable to open mca_osc_ucx: libucp.so.0: cannot open shared object file: No such file or directory (ignored)
[bora002.plafrim.cluster:201937] mca_base_component_repository_open: unable to open mca_osc_ucx: libucp.so.0: cannot open shared object file: No such file or directory (ignored)
[bora001.plafrim.cluster:165396] mca_base_component_repository_open: unable to open mca_btl_uct: libucp.so.0: cannot open shared object file: No such file or directory (ignored)
[bora002.plafrim.cluster:202041] mca_base_component_repository_open: unable to open mca_btl_uct: libucp.so.0: cannot open shared object file: No such file or directory (ignored)
[bora002.plafrim.cluster:202045] mca_base_component_repository_open: unable to open mca_btl_uct: libucp.so.0: cannot open shared object file: No such file or directory (ignored)
[bora002.plafrim.cluster:202047] mca_base_component_repository_open: unable to open mca_btl_uct: libucp.so.0: cannot open shared object file: No such file or directory (ignored)
[bora002.plafrim.cluster:202046] mca_base_component_repository_open: unable to open mca_btl_uct: libucp.so.0: cannot open shared object file: No such file or directory (ignored)
[bora002.plafrim.cluster:202048] mca_base_component_repository_open: unable to open mca_btl_uct: libucp.so.0: cannot open shared object file: No such file or directory (ignored)
[bora002.plafrim.cluster:202044] mca_base_component_repository_open: unable to open mca_btl_uct: libucp.so.0: cannot open shared object file: No such file or directory (ignored)
[bora002.plafrim.cluster:202042] mca_base_component_repository_open: unable to open mca_btl_uct: libucp.so.0: cannot open shared object file: No such file or directory (ignored)
[bora002.plafrim.cluster:202043] mca_base_component_repository_open: unable to open mca_btl_uct: libucp.so.0: cannot open shared object file: No such file or directory (ignored)
[bora002.plafrim.cluster:202047] mca_base_component_repository_open: unable to open mca_pml_ucx: libucp.so.0: cannot open shared object file: No such file or directory (ignored)
[bora002.plafrim.cluster:202045] mca_base_component_repository_open: unable to open mca_pml_ucx: libucp.so.0: cannot open shared object file: No such file or directory (ignored)
[bora002.plafrim.cluster:202041] mca_base_component_repository_open: unable to open mca_pml_ucx: libucp.so.0: cannot open shared object file: No such file or directory (ignored)
[bora002.plafrim.cluster:202046] mca_base_component_repository_open: unable to open mca_pml_ucx: libucp.so.0: cannot open shared object file: No such file or directory (ignored)
[bora002.plafrim.cluster:202048] mca_base_component_repository_open: unable to open mca_pml_ucx: libucp.so.0: cannot open shared object file: No such file or directory (ignored)
[bora002.plafrim.cluster:202044] mca_base_component_repository_open: unable to open mca_pml_ucx: libucp.so.0: cannot open shared object file: No such file or directory (ignored)
[bora002.plafrim.cluster:202042] mca_base_component_repository_open: unable to open mca_pml_ucx: libucp.so.0: cannot open shared object file: No such file or directory (ignored)
[bora002.plafrim.cluster:202043] mca_base_component_repository_open: unable to open mca_pml_ucx: libucp.so.0: cannot open shared object file: No such file or directory (ignored)
[bora002.plafrim.cluster:202043] mca_base_component_repository_open: unable to open mca_osc_ucx: libucp.so.0: cannot open shared object file: No such file or directory (ignored)
[bora002.plafrim.cluster:202045] mca_base_component_repository_open: unable to open mca_osc_ucx: libucp.so.0: cannot open shared object file: No such file or directory (ignored)
[bora002.plafrim.cluster:202042] mca_base_component_repository_open: unable to open mca_osc_ucx: libucp.so.0: cannot open shared object file: No such file or directory (ignored)
[bora002.plafrim.cluster:202046] mca_base_component_repository_open: unable to open mca_osc_ucx: libucp.so.0: cannot open shared object file: No such file or directory (ignored)
[bora002.plafrim.cluster:202047] mca_base_component_repository_open: unable to open mca_osc_ucx: libucp.so.0: cannot open shared object file: No such file or directory (ignored)
[bora002.plafrim.cluster:202044] mca_base_component_repository_open: unable to open mca_osc_ucx: libucp.so.0: cannot open shared object file: No such file or directory (ignored)
[bora001.plafrim.cluster:165398] mca_base_component_repository_open: unable to open mca_btl_uct: libucp.so.0: cannot open shared object file: No such file or directory (ignored)
[bora001.plafrim.cluster:165392] mca_base_component_repository_open: unable to open mca_btl_uct: libucp.so.0: cannot open shared object file: No such file or directory (ignored)
[bora001.plafrim.cluster:165394] mca_base_component_repository_open: unable to open mca_btl_uct: libucp.so.0: cannot open shared object file: No such file or directory (ignored)
[bora001.plafrim.cluster:165397] mca_base_component_repository_open: unable to open mca_btl_uct: libucp.so.0: cannot open shared object file: No such file or directory (ignored)
[bora001.plafrim.cluster:165393] mca_base_component_repository_open: unable to open mca_btl_uct: libucp.so.0: cannot open shared object file: No such file or directory (ignored)
[bora001.plafrim.cluster:165399] mca_base_component_repository_open: unable to open mca_btl_uct: libucp.so.0: cannot open shared object file: No such file or directory (ignored)
[bora001.plafrim.cluster:165395] mca_base_component_repository_open: unable to open mca_btl_uct: libucp.so.0: cannot open shared object file: No such file or directory (ignored)
[bora001.plafrim.cluster:165394] mca_base_component_repository_open: unable to open mca_pml_ucx: libucp.so.0: cannot open shared object file: No such file or directory (ignored)
[bora001.plafrim.cluster:165398] mca_base_component_repository_open: unable to open mca_pml_ucx: libucp.so.0: cannot open shared object file: No such file or directory (ignored)
[bora001.plafrim.cluster:165396] mca_base_component_repository_open: unable to open mca_pml_ucx: libucp.so.0: cannot open shared object file: No such file or directory (ignored)
[bora001.plafrim.cluster:165392] mca_base_component_repository_open: unable to open mca_pml_ucx: libucp.so.0: cannot open shared object file: No such file or directory (ignored)
[bora001.plafrim.cluster:165397] mca_base_component_repository_open: unable to open mca_pml_ucx: libucp.so.0: cannot open shared object file: No such file or directory (ignored)
[bora001.plafrim.cluster:165393] mca_base_component_repository_open: unable to open mca_pml_ucx: libucp.so.0: cannot open shared object file: No such file or directory (ignored)
[bora001.plafrim.cluster:165395] mca_base_component_repository_open: unable to open mca_pml_ucx: libucp.so.0: cannot open shared object file: No such file or directory (ignored)
[bora001.plafrim.cluster:165399] mca_base_component_repository_open: unable to open mca_pml_ucx: libucp.so.0: cannot open shared object file: No such file or directory (ignored)
[bora001.plafrim.cluster:165392] mca_base_component_repository_open: unable to open mca_osc_ucx: libucp.so.0: cannot open shared object file: No such file or directory (ignored)
[bora001.plafrim.cluster:165393] mca_base_component_repository_open: unable to open mca_osc_ucx: libucp.so.0: cannot open shared object file: No such file or directory (ignored)
[bora001.plafrim.cluster:165394] mca_base_component_repository_open: unable to open mca_osc_ucx: libucp.so.0: cannot open shared object file: No such file or directory (ignored)
[bora001.plafrim.cluster:165395] mca_base_component_repository_open: unable to open mca_osc_ucx: libucp.so.0: cannot open shared object file: No such file or directory (ignored)
[bora001.plafrim.cluster:165396] mca_base_component_repository_open: unable to open mca_osc_ucx: libucp.so.0: cannot open shared object file: No such file or directory (ignored)
[bora001.plafrim.cluster:165398] mca_base_component_repository_open: unable to open mca_osc_ucx: libucp.so.0: cannot open shared object file: No such file or directory (ignored)
[bora001.plafrim.cluster:165397] mca_base_component_repository_open: unable to open mca_osc_ucx: libucp.so.0: cannot open shared object file: No such file or directory (ignored)
[bora001.plafrim.cluster:165399] mca_base_component_repository_open: unable to open mca_osc_ucx: libucp.so.0: cannot open shared object file: No such file or directory (ignored)
[bora002.plafrim.cluster:202048] mca_base_component_repository_open: unable to open mca_osc_ucx: libucp.so.0: cannot open shared object file: No such file or directory (ignored)
[bora002.plafrim.cluster:202041] mca_base_component_repository_open: unable to open mca_osc_ucx: libucp.so.0: cannot open shared object file: No such file or directory (ignored)
[bora001.plafrim.cluster:165584] mca_base_component_repository_open: unable to open mca_btl_uct: libucp.so.0: cannot open shared object file: No such file or directory (ignored)
[bora002.plafrim.cluster:202222] mca_base_component_repository_open: unable to open mca_btl_uct: libucp.so.0: cannot open shared object file: No such file or directory (ignored)
[bora002.plafrim.cluster:202226] mca_base_component_repository_open: unable to open mca_btl_uct: libucp.so.0: cannot open shared object file: No such file or directory (ignored)
[bora002.plafrim.cluster:202228] mca_base_component_repository_open: unable to open mca_btl_uct: libucp.so.0: cannot open shared object file: No such file or directory (ignored)
[bora002.plafrim.cluster:202224] mca_base_component_repository_open: unable to open mca_btl_uct: libucp.so.0: cannot open shared object file: No such file or directory (ignored)
[bora002.plafrim.cluster:202225] mca_base_component_repository_open: unable to open mca_btl_uct: libucp.so.0: cannot open shared object file: No such file or directory (ignored)
[bora002.plafrim.cluster:202227] mca_base_component_repository_open: unable to open mca_btl_uct: libucp.so.0: cannot open shared object file: No such file or directory (ignored)
[bora002.plafrim.cluster:202223] mca_base_component_repository_open: unable to open mca_btl_uct: libucp.so.0: cannot open shared object file: No such file or directory (ignored)
[bora002.plafrim.cluster:202229] mca_base_component_repository_open: unable to open mca_btl_uct: libucp.so.0: cannot open shared object file: No such file or directory (ignored)
[bora002.plafrim.cluster:202228] mca_base_component_repository_open: unable to open mca_pml_ucx: libucp.so.0: cannot open shared object file: No such file or directory (ignored)
[bora002.plafrim.cluster:202226] mca_base_component_repository_open: unable to open mca_pml_ucx: libucp.so.0: cannot open shared object file: No such file or directory (ignored)
[bora002.plafrim.cluster:202222] mca_base_component_repository_open: unable to open mca_pml_ucx: libucp.so.0: cannot open shared object file: No such file or directory (ignored)
[bora002.plafrim.cluster:202224] mca_base_component_repository_open: unable to open mca_pml_ucx: libucp.so.0: cannot open shared object file: No such file or directory (ignored)
[bora002.plafrim.cluster:202225] mca_base_component_repository_open: unable to open mca_pml_ucx: libucp.so.0: cannot open shared object file: No such file or directory (ignored)
[bora002.plafrim.cluster:202229] mca_base_component_repository_open: unable to open mca_pml_ucx: libucp.so.0: cannot open shared object file: No such file or directory (ignored)
[bora002.plafrim.cluster:202223] mca_base_component_repository_open: unable to open mca_pml_ucx: libucp.so.0: cannot open shared object file: No such file or directory (ignored)
[bora002.plafrim.cluster:202227] mca_base_component_repository_open: unable to open mca_pml_ucx: libucp.so.0: cannot open shared object file: No such file or directory (ignored)
[bora002.plafrim.cluster:202222] mca_base_component_repository_open: unable to open mca_osc_ucx: libucp.so.0: cannot open shared object file: No such file or directory (ignored)
[bora001.plafrim.cluster:165590] mca_base_component_repository_open: unable to open mca_btl_uct: libucp.so.0: cannot open shared object file: No such file or directory (ignored)
[bora001.plafrim.cluster:165586] mca_base_component_repository_open: unable to open mca_btl_uct: libucp.so.0: cannot open shared object file: No such file or directory (ignored)
[bora001.plafrim.cluster:165588] mca_base_component_repository_open: unable to open mca_btl_uct: libucp.so.0: cannot open shared object file: No such file or directory (ignored)
[bora001.plafrim.cluster:165589] mca_base_component_repository_open: unable to open mca_btl_uct: libucp.so.0: cannot open shared object file: No such file or directory (ignored)
[bora001.plafrim.cluster:165591] mca_base_component_repository_open: unable to open mca_btl_uct: libucp.so.0: cannot open shared object file: No such file or directory (ignored)
[bora001.plafrim.cluster:165587] mca_base_component_repository_open: unable to open mca_btl_uct: libucp.so.0: cannot open shared object file: No such file or directory (ignored)
[bora001.plafrim.cluster:165585] mca_base_component_repository_open: unable to open mca_btl_uct: libucp.so.0: cannot open shared object file: No such file or directory (ignored)
[bora001.plafrim.cluster:165590] mca_base_component_repository_open: unable to open mca_pml_ucx: libucp.so.0: cannot open shared object file: No such file or directory (ignored)
[bora001.plafrim.cluster:165584] mca_base_component_repository_open: unable to open mca_pml_ucx: libucp.so.0: cannot open shared object file: No such file or directory (ignored)
[bora001.plafrim.cluster:165586] mca_base_component_repository_open: unable to open mca_pml_ucx: libucp.so.0: cannot open shared object file: No such file or directory (ignored)
[bora001.plafrim.cluster:165588] mca_base_component_repository_open: unable to open mca_pml_ucx: libucp.so.0: cannot open shared object file: No such file or directory (ignored)
[bora001.plafrim.cluster:165587] mca_base_component_repository_open: unable to open mca_pml_ucx: libucp.so.0: cannot open shared object file: No such file or directory (ignored)
[bora001.plafrim.cluster:165589] mca_base_component_repository_open: unable to open mca_pml_ucx: libucp.so.0: cannot open shared object file: No such file or directory (ignored)
[bora001.plafrim.cluster:165591] mca_base_component_repository_open: unable to open mca_pml_ucx: libucp.so.0: cannot open shared object file: No such file or directory (ignored)
[bora001.plafrim.cluster:165585] mca_base_component_repository_open: unable to open mca_pml_ucx: libucp.so.0: cannot open shared object file: No such file or directory (ignored)
[bora001.plafrim.cluster:165586] mca_base_component_repository_open: unable to open mca_osc_ucx: libucp.so.0: cannot open shared object file: No such file or directory (ignored)
[bora001.plafrim.cluster:165588] mca_base_component_repository_open: unable to open mca_osc_ucx: libucp.so.0: cannot open shared object file: No such file or directory (ignored)
[bora001.plafrim.cluster:165584] mca_base_component_repository_open: unable to open mca_osc_ucx: libucp.so.0: cannot open shared object file: No such file or directory (ignored)
[bora001.plafrim.cluster:165590] mca_base_component_repository_open: unable to open mca_osc_ucx: libucp.so.0: cannot open shared object file: No such file or directory (ignored)
[bora001.plafrim.cluster:165587] mca_base_component_repository_open: unable to open mca_osc_ucx: libucp.so.0: cannot open shared object file: No such file or directory (ignored)
[bora001.plafrim.cluster:165589] mca_base_component_repository_open: unable to open mca_osc_ucx: libucp.so.0: cannot open shared object file: No such file or directory (ignored)
[bora001.plafrim.cluster:165585] mca_base_component_repository_open: unable to open mca_osc_ucx: libucp.so.0: cannot open shared object file: No such file or directory (ignored)
[bora001.plafrim.cluster:165591] mca_base_component_repository_open: unable to open mca_osc_ucx: libucp.so.0: cannot open shared object file: No such file or directory (ignored)
[bora002.plafrim.cluster:202224] mca_base_component_repository_open: unable to open mca_osc_ucx: libucp.so.0: cannot open shared object file: No such file or directory (ignored)
[bora002.plafrim.cluster:202228] mca_base_component_repository_open: unable to open mca_osc_ucx: libucp.so.0: cannot open shared object file: No such file or directory (ignored)
[bora002.plafrim.cluster:202229] mca_base_component_repository_open: unable to open mca_osc_ucx: libucp.so.0: cannot open shared object file: No such file or directory (ignored)
[bora002.plafrim.cluster:202225] mca_base_component_repository_open: unable to open mca_osc_ucx: libucp.so.0: cannot open shared object file: No such file or directory (ignored)
[bora002.plafrim.cluster:202226] mca_base_component_repository_open: unable to open mca_osc_ucx: libucp.so.0: cannot open shared object file: No such file or directory (ignored)
[bora002.plafrim.cluster:202223] mca_base_component_repository_open: unable to open mca_osc_ucx: libucp.so.0: cannot open shared object file: No such file or directory (ignored)
[bora002.plafrim.cluster:202227] mca_base_component_repository_open: unable to open mca_osc_ucx: libucp.so.0: cannot open shared object file: No such file or directory (ignored)
