[bora002.plafrim.cluster:206238] mca_base_component_repository_open: unable to open mca_btl_uct: libucp.so.0: cannot open shared object file: No such file or directory (ignored)
[bora001.plafrim.cluster:170280] mca_base_component_repository_open: unable to open mca_btl_uct: libucp.so.0: cannot open shared object file: No such file or directory (ignored)
[bora001.plafrim.cluster:170282] mca_base_component_repository_open: unable to open mca_btl_uct: libucp.so.0: cannot open shared object file: No such file or directory (ignored)
[bora001.plafrim.cluster:170283] mca_base_component_repository_open: unable to open mca_btl_uct: libucp.so.0: cannot open shared object file: No such file or directory (ignored)
[bora001.plafrim.cluster:170284] mca_base_component_repository_open: unable to open mca_btl_uct: libucp.so.0: cannot open shared object file: No such file or directory (ignored)
[bora001.plafrim.cluster:170277] mca_base_component_repository_open: unable to open mca_btl_uct: libucp.so.0: cannot open shared object file: No such file or directory (ignored)
[bora001.plafrim.cluster:170278] mca_base_component_repository_open: unable to open mca_btl_uct: libucp.so.0: cannot open shared object file: No such file or directory (ignored)
[bora001.plafrim.cluster:170279] mca_base_component_repository_open: unable to open mca_btl_uct: libucp.so.0: cannot open shared object file: No such file or directory (ignored)
[bora001.plafrim.cluster:170281] mca_base_component_repository_open: unable to open mca_btl_uct: libucp.so.0: cannot open shared object file: No such file or directory (ignored)
[bora002.plafrim.cluster:206235] mca_base_component_repository_open: unable to open mca_btl_uct: libucp.so.0: cannot open shared object file: No such file or directory (ignored)
[bora002.plafrim.cluster:206236] mca_base_component_repository_open: unable to open mca_btl_uct: libucp.so.0: cannot open shared object file: No such file or directory (ignored)
[bora002.plafrim.cluster:206237] mca_base_component_repository_open: unable to open mca_btl_uct: libucp.so.0: cannot open shared object file: No such file or directory (ignored)
[bora002.plafrim.cluster:206239] mca_base_component_repository_open: unable to open mca_btl_uct: libucp.so.0: cannot open shared object file: No such file or directory (ignored)
[bora002.plafrim.cluster:206240] mca_base_component_repository_open: unable to open mca_btl_uct: libucp.so.0: cannot open shared object file: No such file or directory (ignored)
[bora002.plafrim.cluster:206241] mca_base_component_repository_open: unable to open mca_btl_uct: libucp.so.0: cannot open shared object file: No such file or directory (ignored)
[bora002.plafrim.cluster:206242] mca_base_component_repository_open: unable to open mca_btl_uct: libucp.so.0: cannot open shared object file: No such file or directory (ignored)
[bora001.plafrim.cluster:170277] mca_base_component_repository_open: unable to open mca_pml_ucx: libucp.so.0: cannot open shared object file: No such file or directory (ignored)
[bora002.plafrim.cluster:206237] mca_base_component_repository_open: unable to open mca_pml_ucx: libucp.so.0: cannot open shared object file: No such file or directory (ignored)
[bora001.plafrim.cluster:170278] mca_base_component_repository_open: unable to open mca_pml_ucx: libucp.so.0: cannot open shared object file: No such file or directory (ignored)
[bora002.plafrim.cluster:206241] mca_base_component_repository_open: unable to open mca_pml_ucx: libucp.so.0: cannot open shared object file: No such file or directory (ignored)
[bora001.plafrim.cluster:170280] mca_base_component_repository_open: unable to open mca_pml_ucx: libucp.so.0: cannot open shared object file: No such file or directory (ignored)
[bora001.plafrim.cluster:170283] mca_base_component_repository_open: unable to open mca_pml_ucx: libucp.so.0: cannot open shared object file: No such file or directory (ignored)
[bora002.plafrim.cluster:206235] mca_base_component_repository_open: unable to open mca_pml_ucx: libucp.so.0: cannot open shared object file: No such file or directory (ignored)
[bora001.plafrim.cluster:170279] mca_base_component_repository_open: unable to open mca_pml_ucx: libucp.so.0: cannot open shared object file: No such file or directory (ignored)
[bora001.plafrim.cluster:170281] mca_base_component_repository_open: unable to open mca_pml_ucx: libucp.so.0: cannot open shared object file: No such file or directory (ignored)
[bora002.plafrim.cluster:206236] mca_base_component_repository_open: unable to open mca_pml_ucx: libucp.so.0: cannot open shared object file: No such file or directory (ignored)
[bora002.plafrim.cluster:206238] mca_base_component_repository_open: unable to open mca_pml_ucx: libucp.so.0: cannot open shared object file: No such file or directory (ignored)
[bora001.plafrim.cluster:170282] mca_base_component_repository_open: unable to open mca_pml_ucx: libucp.so.0: cannot open shared object file: No such file or directory (ignored)
[bora002.plafrim.cluster:206240] mca_base_component_repository_open: unable to open mca_pml_ucx: libucp.so.0: cannot open shared object file: No such file or directory (ignored)
[bora001.plafrim.cluster:170284] mca_base_component_repository_open: unable to open mca_pml_ucx: libucp.so.0: cannot open shared object file: No such file or directory (ignored)
[bora002.plafrim.cluster:206242] mca_base_component_repository_open: unable to open mca_pml_ucx: libucp.so.0: cannot open shared object file: No such file or directory (ignored)
[bora002.plafrim.cluster:206239] mca_base_component_repository_open: unable to open mca_pml_ucx: libucp.so.0: cannot open shared object file: No such file or directory (ignored)
[bora001.plafrim.cluster:170281] mca_base_component_repository_open: unable to open mca_osc_ucx: libucp.so.0: cannot open shared object file: No such file or directory (ignored)
[bora001.plafrim.cluster:170279] mca_base_component_repository_open: unable to open mca_osc_ucx: libucp.so.0: cannot open shared object file: No such file or directory (ignored)
[bora002.plafrim.cluster:206238] mca_base_component_repository_open: unable to open mca_osc_ucx: libucp.so.0: cannot open shared object file: No such file or directory (ignored)
[bora001.plafrim.cluster:170282] mca_base_component_repository_open: unable to open mca_osc_ucx: libucp.so.0: cannot open shared object file: No such file or directory (ignored)
[bora002.plafrim.cluster:206242] mca_base_component_repository_open: unable to open mca_osc_ucx: libucp.so.0: cannot open shared object file: No such file or directory (ignored)
[bora001.plafrim.cluster:170284] mca_base_component_repository_open: unable to open mca_osc_ucx: libucp.so.0: cannot open shared object file: No such file or directory (ignored)
[bora002.plafrim.cluster:206235] mca_base_component_repository_open: unable to open mca_osc_ucx: libucp.so.0: cannot open shared object file: No such file or directory (ignored)
[bora001.plafrim.cluster:170277] mca_base_component_repository_open: unable to open mca_osc_ucx: libucp.so.0: cannot open shared object file: No such file or directory (ignored)
[bora002.plafrim.cluster:206237] mca_base_component_repository_open: unable to open mca_osc_ucx: libucp.so.0: cannot open shared object file: No such file or directory (ignored)
[bora001.plafrim.cluster:170283] mca_base_component_repository_open: unable to open mca_osc_ucx: libucp.so.0: cannot open shared object file: No such file or directory (ignored)
[bora001.plafrim.cluster:170278] mca_base_component_repository_open: unable to open mca_osc_ucx: libucp.so.0: cannot open shared object file: No such file or directory (ignored)
[bora002.plafrim.cluster:206241] mca_base_component_repository_open: unable to open mca_osc_ucx: libucp.so.0: cannot open shared object file: No such file or directory (ignored)
[bora002.plafrim.cluster:206239] mca_base_component_repository_open: unable to open mca_osc_ucx: libucp.so.0: cannot open shared object file: No such file or directory (ignored)
[bora001.plafrim.cluster:170280] mca_base_component_repository_open: unable to open mca_osc_ucx: libucp.so.0: cannot open shared object file: No such file or directory (ignored)
[bora002.plafrim.cluster:206236] mca_base_component_repository_open: unable to open mca_osc_ucx: libucp.so.0: cannot open shared object file: No such file or directory (ignored)
[bora002.plafrim.cluster:206240] mca_base_component_repository_open: unable to open mca_osc_ucx: libucp.so.0: cannot open shared object file: No such file or directory (ignored)
[bora002.plafrim.cluster:206336] mca_base_component_repository_open: unable to open mca_btl_uct: libucp.so.0: cannot open shared object file: No such file or directory (ignored)
[bora002.plafrim.cluster:206338] mca_base_component_repository_open: unable to open mca_btl_uct: libucp.so.0: cannot open shared object file: No such file or directory (ignored)
[bora002.plafrim.cluster:206342] mca_base_component_repository_open: unable to open mca_btl_uct: libucp.so.0: cannot open shared object file: No such file or directory (ignored)
[bora002.plafrim.cluster:206340] mca_base_component_repository_open: unable to open mca_btl_uct: libucp.so.0: cannot open shared object file: No such file or directory (ignored)
[bora002.plafrim.cluster:206341] mca_base_component_repository_open: unable to open mca_btl_uct: libucp.so.0: cannot open shared object file: No such file or directory (ignored)
[bora002.plafrim.cluster:206343] mca_base_component_repository_open: unable to open mca_btl_uct: libucp.so.0: cannot open shared object file: No such file or directory (ignored)
[bora002.plafrim.cluster:206339] mca_base_component_repository_open: unable to open mca_btl_uct: libucp.so.0: cannot open shared object file: No such file or directory (ignored)
[bora002.plafrim.cluster:206337] mca_base_component_repository_open: unable to open mca_btl_uct: libucp.so.0: cannot open shared object file: No such file or directory (ignored)
[bora002.plafrim.cluster:206338] mca_base_component_repository_open: unable to open mca_pml_ucx: libucp.so.0: cannot open shared object file: No such file or directory (ignored)
[bora002.plafrim.cluster:206342] mca_base_component_repository_open: unable to open mca_pml_ucx: libucp.so.0: cannot open shared object file: No such file or directory (ignored)
[bora002.plafrim.cluster:206340] mca_base_component_repository_open: unable to open mca_pml_ucx: libucp.so.0: cannot open shared object file: No such file or directory (ignored)
[bora001.plafrim.cluster:170456] mca_base_component_repository_open: unable to open mca_btl_uct: libucp.so.0: cannot open shared object file: No such file or directory (ignored)
[bora002.plafrim.cluster:206337] mca_base_component_repository_open: unable to open mca_pml_ucx: libucp.so.0: cannot open shared object file: No such file or directory (ignored)
[bora002.plafrim.cluster:206343] mca_base_component_repository_open: unable to open mca_pml_ucx: libucp.so.0: cannot open shared object file: No such file or directory (ignored)
[bora002.plafrim.cluster:206336] mca_base_component_repository_open: unable to open mca_pml_ucx: libucp.so.0: cannot open shared object file: No such file or directory (ignored)
[bora002.plafrim.cluster:206339] mca_base_component_repository_open: unable to open mca_pml_ucx: libucp.so.0: cannot open shared object file: No such file or directory (ignored)
[bora002.plafrim.cluster:206341] mca_base_component_repository_open: unable to open mca_pml_ucx: libucp.so.0: cannot open shared object file: No such file or directory (ignored)
[bora002.plafrim.cluster:206342] mca_base_component_repository_open: unable to open mca_osc_ucx: libucp.so.0: cannot open shared object file: No such file or directory (ignored)
[bora002.plafrim.cluster:206338] mca_base_component_repository_open: unable to open mca_osc_ucx: libucp.so.0: cannot open shared object file: No such file or directory (ignored)
[bora002.plafrim.cluster:206340] mca_base_component_repository_open: unable to open mca_osc_ucx: libucp.so.0: cannot open shared object file: No such file or directory (ignored)
[bora001.plafrim.cluster:170460] mca_base_component_repository_open: unable to open mca_btl_uct: libucp.so.0: cannot open shared object file: No such file or directory (ignored)
[bora001.plafrim.cluster:170457] mca_base_component_repository_open: unable to open mca_btl_uct: libucp.so.0: cannot open shared object file: No such file or directory (ignored)
[bora001.plafrim.cluster:170461] mca_base_component_repository_open: unable to open mca_btl_uct: libucp.so.0: cannot open shared object file: No such file or directory (ignored)
[bora001.plafrim.cluster:170463] mca_base_component_repository_open: unable to open mca_btl_uct: libucp.so.0: cannot open shared object file: No such file or directory (ignored)
[bora001.plafrim.cluster:170458] mca_base_component_repository_open: unable to open mca_btl_uct: libucp.so.0: cannot open shared object file: No such file or directory (ignored)
[bora001.plafrim.cluster:170456] mca_base_component_repository_open: unable to open mca_pml_ucx: libucp.so.0: cannot open shared object file: No such file or directory (ignored)
[bora001.plafrim.cluster:170462] mca_base_component_repository_open: unable to open mca_btl_uct: libucp.so.0: cannot open shared object file: No such file or directory (ignored)
[bora001.plafrim.cluster:170460] mca_base_component_repository_open: unable to open mca_pml_ucx: libucp.so.0: cannot open shared object file: No such file or directory (ignored)
[bora001.plafrim.cluster:170459] mca_base_component_repository_open: unable to open mca_btl_uct: libucp.so.0: cannot open shared object file: No such file or directory (ignored)
[bora001.plafrim.cluster:170457] mca_base_component_repository_open: unable to open mca_pml_ucx: libucp.so.0: cannot open shared object file: No such file or directory (ignored)
[bora001.plafrim.cluster:170461] mca_base_component_repository_open: unable to open mca_pml_ucx: libucp.so.0: cannot open shared object file: No such file or directory (ignored)
[bora001.plafrim.cluster:170463] mca_base_component_repository_open: unable to open mca_pml_ucx: libucp.so.0: cannot open shared object file: No such file or directory (ignored)
[bora001.plafrim.cluster:170458] mca_base_component_repository_open: unable to open mca_pml_ucx: libucp.so.0: cannot open shared object file: No such file or directory (ignored)
[bora001.plafrim.cluster:170462] mca_base_component_repository_open: unable to open mca_pml_ucx: libucp.so.0: cannot open shared object file: No such file or directory (ignored)
[bora001.plafrim.cluster:170459] mca_base_component_repository_open: unable to open mca_pml_ucx: libucp.so.0: cannot open shared object file: No such file or directory (ignored)
[bora001.plafrim.cluster:170457] mca_base_component_repository_open: unable to open mca_osc_ucx: libucp.so.0: cannot open shared object file: No such file or directory (ignored)
[bora001.plafrim.cluster:170460] mca_base_component_repository_open: unable to open mca_osc_ucx: libucp.so.0: cannot open shared object file: No such file or directory (ignored)
[bora001.plafrim.cluster:170463] mca_base_component_repository_open: unable to open mca_osc_ucx: libucp.so.0: cannot open shared object file: No such file or directory (ignored)
[bora001.plafrim.cluster:170456] mca_base_component_repository_open: unable to open mca_osc_ucx: libucp.so.0: cannot open shared object file: No such file or directory (ignored)
[bora001.plafrim.cluster:170458] mca_base_component_repository_open: unable to open mca_osc_ucx: libucp.so.0: cannot open shared object file: No such file or directory (ignored)
[bora001.plafrim.cluster:170461] mca_base_component_repository_open: unable to open mca_osc_ucx: libucp.so.0: cannot open shared object file: No such file or directory (ignored)
[bora001.plafrim.cluster:170462] mca_base_component_repository_open: unable to open mca_osc_ucx: libucp.so.0: cannot open shared object file: No such file or directory (ignored)
[bora001.plafrim.cluster:170459] mca_base_component_repository_open: unable to open mca_osc_ucx: libucp.so.0: cannot open shared object file: No such file or directory (ignored)
[bora002.plafrim.cluster:206336] mca_base_component_repository_open: unable to open mca_osc_ucx: libucp.so.0: cannot open shared object file: No such file or directory (ignored)
[bora002.plafrim.cluster:206339] mca_base_component_repository_open: unable to open mca_osc_ucx: libucp.so.0: cannot open shared object file: No such file or directory (ignored)
[bora002.plafrim.cluster:206343] mca_base_component_repository_open: unable to open mca_osc_ucx: libucp.so.0: cannot open shared object file: No such file or directory (ignored)
[bora002.plafrim.cluster:206341] mca_base_component_repository_open: unable to open mca_osc_ucx: libucp.so.0: cannot open shared object file: No such file or directory (ignored)
[bora002.plafrim.cluster:206337] mca_base_component_repository_open: unable to open mca_osc_ucx: libucp.so.0: cannot open shared object file: No such file or directory (ignored)
[bora001.plafrim.cluster:170640] mca_base_component_repository_open: unable to open mca_btl_uct: libucp.so.0: cannot open shared object file: No such file or directory (ignored)
[bora002.plafrim.cluster:206494] mca_base_component_repository_open: unable to open mca_btl_uct: libucp.so.0: cannot open shared object file: No such file or directory (ignored)
[bora002.plafrim.cluster:206496] mca_base_component_repository_open: unable to open mca_btl_uct: libucp.so.0: cannot open shared object file: No such file or directory (ignored)
[bora002.plafrim.cluster:206498] mca_base_component_repository_open: unable to open mca_btl_uct: libucp.so.0: cannot open shared object file: No such file or directory (ignored)
[bora002.plafrim.cluster:206492] mca_base_component_repository_open: unable to open mca_btl_uct: libucp.so.0: cannot open shared object file: No such file or directory (ignored)
[bora002.plafrim.cluster:206493] mca_base_component_repository_open: unable to open mca_btl_uct: libucp.so.0: cannot open shared object file: No such file or directory (ignored)
[bora002.plafrim.cluster:206499] mca_base_component_repository_open: unable to open mca_btl_uct: libucp.so.0: cannot open shared object file: No such file or directory (ignored)
[bora002.plafrim.cluster:206497] mca_base_component_repository_open: unable to open mca_btl_uct: libucp.so.0: cannot open shared object file: No such file or directory (ignored)
[bora002.plafrim.cluster:206495] mca_base_component_repository_open: unable to open mca_btl_uct: libucp.so.0: cannot open shared object file: No such file or directory (ignored)
[bora002.plafrim.cluster:206492] mca_base_component_repository_open: unable to open mca_pml_ucx: libucp.so.0: cannot open shared object file: No such file or directory (ignored)
[bora002.plafrim.cluster:206498] mca_base_component_repository_open: unable to open mca_pml_ucx: libucp.so.0: cannot open shared object file: No such file or directory (ignored)
[bora002.plafrim.cluster:206494] mca_base_component_repository_open: unable to open mca_pml_ucx: libucp.so.0: cannot open shared object file: No such file or directory (ignored)
[bora002.plafrim.cluster:206496] mca_base_component_repository_open: unable to open mca_pml_ucx: libucp.so.0: cannot open shared object file: No such file or directory (ignored)
[bora002.plafrim.cluster:206493] mca_base_component_repository_open: unable to open mca_pml_ucx: libucp.so.0: cannot open shared object file: No such file or directory (ignored)
[bora002.plafrim.cluster:206495] mca_base_component_repository_open: unable to open mca_pml_ucx: libucp.so.0: cannot open shared object file: No such file or directory (ignored)
[bora002.plafrim.cluster:206499] mca_base_component_repository_open: unable to open mca_pml_ucx: libucp.so.0: cannot open shared object file: No such file or directory (ignored)
[bora002.plafrim.cluster:206497] mca_base_component_repository_open: unable to open mca_pml_ucx: libucp.so.0: cannot open shared object file: No such file or directory (ignored)
[bora002.plafrim.cluster:206495] mca_base_component_repository_open: unable to open mca_osc_ucx: libucp.so.0: cannot open shared object file: No such file or directory (ignored)
[bora001.plafrim.cluster:170644] mca_base_component_repository_open: unable to open mca_btl_uct: libucp.so.0: cannot open shared object file: No such file or directory (ignored)
[bora001.plafrim.cluster:170646] mca_base_component_repository_open: unable to open mca_btl_uct: libucp.so.0: cannot open shared object file: No such file or directory (ignored)
[bora001.plafrim.cluster:170642] mca_base_component_repository_open: unable to open mca_btl_uct: libucp.so.0: cannot open shared object file: No such file or directory (ignored)
[bora001.plafrim.cluster:170643] mca_base_component_repository_open: unable to open mca_btl_uct: libucp.so.0: cannot open shared object file: No such file or directory (ignored)
[bora001.plafrim.cluster:170645] mca_base_component_repository_open: unable to open mca_btl_uct: libucp.so.0: cannot open shared object file: No such file or directory (ignored)
[bora001.plafrim.cluster:170647] mca_base_component_repository_open: unable to open mca_btl_uct: libucp.so.0: cannot open shared object file: No such file or directory (ignored)
[bora001.plafrim.cluster:170641] mca_base_component_repository_open: unable to open mca_btl_uct: libucp.so.0: cannot open shared object file: No such file or directory (ignored)
[bora001.plafrim.cluster:170640] mca_base_component_repository_open: unable to open mca_pml_ucx: libucp.so.0: cannot open shared object file: No such file or directory (ignored)
[bora001.plafrim.cluster:170642] mca_base_component_repository_open: unable to open mca_pml_ucx: libucp.so.0: cannot open shared object file: No such file or directory (ignored)
[bora001.plafrim.cluster:170646] mca_base_component_repository_open: unable to open mca_pml_ucx: libucp.so.0: cannot open shared object file: No such file or directory (ignored)
[bora001.plafrim.cluster:170644] mca_base_component_repository_open: unable to open mca_pml_ucx: libucp.so.0: cannot open shared object file: No such file or directory (ignored)
[bora001.plafrim.cluster:170647] mca_base_component_repository_open: unable to open mca_pml_ucx: libucp.so.0: cannot open shared object file: No such file or directory (ignored)
[bora001.plafrim.cluster:170645] mca_base_component_repository_open: unable to open mca_pml_ucx: libucp.so.0: cannot open shared object file: No such file or directory (ignored)
[bora001.plafrim.cluster:170643] mca_base_component_repository_open: unable to open mca_pml_ucx: libucp.so.0: cannot open shared object file: No such file or directory (ignored)
[bora001.plafrim.cluster:170641] mca_base_component_repository_open: unable to open mca_pml_ucx: libucp.so.0: cannot open shared object file: No such file or directory (ignored)
[bora001.plafrim.cluster:170640] mca_base_component_repository_open: unable to open mca_osc_ucx: libucp.so.0: cannot open shared object file: No such file or directory (ignored)
[bora001.plafrim.cluster:170644] mca_base_component_repository_open: unable to open mca_osc_ucx: libucp.so.0: cannot open shared object file: No such file or directory (ignored)
[bora001.plafrim.cluster:170646] mca_base_component_repository_open: unable to open mca_osc_ucx: libucp.so.0: cannot open shared object file: No such file or directory (ignored)
[bora001.plafrim.cluster:170642] mca_base_component_repository_open: unable to open mca_osc_ucx: libucp.so.0: cannot open shared object file: No such file or directory (ignored)
[bora001.plafrim.cluster:170643] mca_base_component_repository_open: unable to open mca_osc_ucx: libucp.so.0: cannot open shared object file: No such file or directory (ignored)
[bora001.plafrim.cluster:170647] mca_base_component_repository_open: unable to open mca_osc_ucx: libucp.so.0: cannot open shared object file: No such file or directory (ignored)
[bora001.plafrim.cluster:170645] mca_base_component_repository_open: unable to open mca_osc_ucx: libucp.so.0: cannot open shared object file: No such file or directory (ignored)
[bora001.plafrim.cluster:170641] mca_base_component_repository_open: unable to open mca_osc_ucx: libucp.so.0: cannot open shared object file: No such file or directory (ignored)
[bora002.plafrim.cluster:206492] mca_base_component_repository_open: unable to open mca_osc_ucx: libucp.so.0: cannot open shared object file: No such file or directory (ignored)
[bora002.plafrim.cluster:206496] mca_base_component_repository_open: unable to open mca_osc_ucx: libucp.so.0: cannot open shared object file: No such file or directory (ignored)
[bora002.plafrim.cluster:206493] mca_base_component_repository_open: unable to open mca_osc_ucx: libucp.so.0: cannot open shared object file: No such file or directory (ignored)
[bora002.plafrim.cluster:206497] mca_base_component_repository_open: unable to open mca_osc_ucx: libucp.so.0: cannot open shared object file: No such file or directory (ignored)
[bora002.plafrim.cluster:206494] mca_base_component_repository_open: unable to open mca_osc_ucx: libucp.so.0: cannot open shared object file: No such file or directory (ignored)
[bora002.plafrim.cluster:206498] mca_base_component_repository_open: unable to open mca_osc_ucx: libucp.so.0: cannot open shared object file: No such file or directory (ignored)
[bora002.plafrim.cluster:206499] mca_base_component_repository_open: unable to open mca_osc_ucx: libucp.so.0: cannot open shared object file: No such file or directory (ignored)
[bora001.plafrim.cluster:170832] mca_base_component_repository_open: unable to open mca_btl_uct: libucp.so.0: cannot open shared object file: No such file or directory (ignored)
[bora002.plafrim.cluster:206589] mca_base_component_repository_open: unable to open mca_btl_uct: libucp.so.0: cannot open shared object file: No such file or directory (ignored)
[bora002.plafrim.cluster:206587] mca_base_component_repository_open: unable to open mca_btl_uct: libucp.so.0: cannot open shared object file: No such file or directory (ignored)
[bora002.plafrim.cluster:206591] mca_base_component_repository_open: unable to open mca_btl_uct: libucp.so.0: cannot open shared object file: No such file or directory (ignored)
[bora002.plafrim.cluster:206590] mca_base_component_repository_open: unable to open mca_btl_uct: libucp.so.0: cannot open shared object file: No such file or directory (ignored)
[bora002.plafrim.cluster:206588] mca_base_component_repository_open: unable to open mca_btl_uct: libucp.so.0: cannot open shared object file: No such file or directory (ignored)
[bora002.plafrim.cluster:206587] mca_base_component_repository_open: unable to open mca_pml_ucx: libucp.so.0: cannot open shared object file: No such file or directory (ignored)
[bora002.plafrim.cluster:206589] mca_base_component_repository_open: unable to open mca_pml_ucx: libucp.so.0: cannot open shared object file: No such file or directory (ignored)
[bora002.plafrim.cluster:206592] mca_base_component_repository_open: unable to open mca_btl_uct: libucp.so.0: cannot open shared object file: No such file or directory (ignored)
[bora002.plafrim.cluster:206591] mca_base_component_repository_open: unable to open mca_pml_ucx: libucp.so.0: cannot open shared object file: No such file or directory (ignored)
[bora002.plafrim.cluster:206593] mca_base_component_repository_open: unable to open mca_btl_uct: libucp.so.0: cannot open shared object file: No such file or directory (ignored)
[bora002.plafrim.cluster:206594] mca_base_component_repository_open: unable to open mca_btl_uct: libucp.so.0: cannot open shared object file: No such file or directory (ignored)
[bora002.plafrim.cluster:206590] mca_base_component_repository_open: unable to open mca_pml_ucx: libucp.so.0: cannot open shared object file: No such file or directory (ignored)
[bora002.plafrim.cluster:206588] mca_base_component_repository_open: unable to open mca_pml_ucx: libucp.so.0: cannot open shared object file: No such file or directory (ignored)
[bora002.plafrim.cluster:206592] mca_base_component_repository_open: unable to open mca_pml_ucx: libucp.so.0: cannot open shared object file: No such file or directory (ignored)
[bora002.plafrim.cluster:206593] mca_base_component_repository_open: unable to open mca_pml_ucx: libucp.so.0: cannot open shared object file: No such file or directory (ignored)
[bora002.plafrim.cluster:206594] mca_base_component_repository_open: unable to open mca_pml_ucx: libucp.so.0: cannot open shared object file: No such file or directory (ignored)
[bora002.plafrim.cluster:206587] mca_base_component_repository_open: unable to open mca_osc_ucx: libucp.so.0: cannot open shared object file: No such file or directory (ignored)
[bora001.plafrim.cluster:170834] mca_base_component_repository_open: unable to open mca_btl_uct: libucp.so.0: cannot open shared object file: No such file or directory (ignored)
[bora001.plafrim.cluster:170830] mca_base_component_repository_open: unable to open mca_btl_uct: libucp.so.0: cannot open shared object file: No such file or directory (ignored)
[bora001.plafrim.cluster:170836] mca_base_component_repository_open: unable to open mca_btl_uct: libucp.so.0: cannot open shared object file: No such file or directory (ignored)
[bora001.plafrim.cluster:170831] mca_base_component_repository_open: unable to open mca_btl_uct: libucp.so.0: cannot open shared object file: No such file or directory (ignored)
[bora001.plafrim.cluster:170833] mca_base_component_repository_open: unable to open mca_btl_uct: libucp.so.0: cannot open shared object file: No such file or directory (ignored)
[bora001.plafrim.cluster:170837] mca_base_component_repository_open: unable to open mca_btl_uct: libucp.so.0: cannot open shared object file: No such file or directory (ignored)
[bora001.plafrim.cluster:170835] mca_base_component_repository_open: unable to open mca_btl_uct: libucp.so.0: cannot open shared object file: No such file or directory (ignored)
[bora001.plafrim.cluster:170832] mca_base_component_repository_open: unable to open mca_pml_ucx: libucp.so.0: cannot open shared object file: No such file or directory (ignored)
[bora001.plafrim.cluster:170836] mca_base_component_repository_open: unable to open mca_pml_ucx: libucp.so.0: cannot open shared object file: No such file or directory (ignored)
[bora001.plafrim.cluster:170830] mca_base_component_repository_open: unable to open mca_pml_ucx: libucp.so.0: cannot open shared object file: No such file or directory (ignored)
[bora001.plafrim.cluster:170834] mca_base_component_repository_open: unable to open mca_pml_ucx: libucp.so.0: cannot open shared object file: No such file or directory (ignored)
[bora001.plafrim.cluster:170833] mca_base_component_repository_open: unable to open mca_pml_ucx: libucp.so.0: cannot open shared object file: No such file or directory (ignored)
[bora001.plafrim.cluster:170835] mca_base_component_repository_open: unable to open mca_pml_ucx: libucp.so.0: cannot open shared object file: No such file or directory (ignored)
[bora001.plafrim.cluster:170837] mca_base_component_repository_open: unable to open mca_pml_ucx: libucp.so.0: cannot open shared object file: No such file or directory (ignored)
[bora001.plafrim.cluster:170831] mca_base_component_repository_open: unable to open mca_pml_ucx: libucp.so.0: cannot open shared object file: No such file or directory (ignored)
[bora001.plafrim.cluster:170834] mca_base_component_repository_open: unable to open mca_osc_ucx: libucp.so.0: cannot open shared object file: No such file or directory (ignored)
[bora001.plafrim.cluster:170836] mca_base_component_repository_open: unable to open mca_osc_ucx: libucp.so.0: cannot open shared object file: No such file or directory (ignored)
[bora001.plafrim.cluster:170832] mca_base_component_repository_open: unable to open mca_osc_ucx: libucp.so.0: cannot open shared object file: No such file or directory (ignored)
[bora001.plafrim.cluster:170835] mca_base_component_repository_open: unable to open mca_osc_ucx: libucp.so.0: cannot open shared object file: No such file or directory (ignored)
[bora001.plafrim.cluster:170833] mca_base_component_repository_open: unable to open mca_osc_ucx: libucp.so.0: cannot open shared object file: No such file or directory (ignored)
[bora001.plafrim.cluster:170830] mca_base_component_repository_open: unable to open mca_osc_ucx: libucp.so.0: cannot open shared object file: No such file or directory (ignored)
[bora001.plafrim.cluster:170831] mca_base_component_repository_open: unable to open mca_osc_ucx: libucp.so.0: cannot open shared object file: No such file or directory (ignored)
[bora001.plafrim.cluster:170837] mca_base_component_repository_open: unable to open mca_osc_ucx: libucp.so.0: cannot open shared object file: No such file or directory (ignored)
[bora002.plafrim.cluster:206590] mca_base_component_repository_open: unable to open mca_osc_ucx: libucp.so.0: cannot open shared object file: No such file or directory (ignored)
[bora002.plafrim.cluster:206591] mca_base_component_repository_open: unable to open mca_osc_ucx: libucp.so.0: cannot open shared object file: No such file or directory (ignored)
[bora002.plafrim.cluster:206593] mca_base_component_repository_open: unable to open mca_osc_ucx: libucp.so.0: cannot open shared object file: No such file or directory (ignored)
[bora002.plafrim.cluster:206589] mca_base_component_repository_open: unable to open mca_osc_ucx: libucp.so.0: cannot open shared object file: No such file or directory (ignored)
[bora002.plafrim.cluster:206594] mca_base_component_repository_open: unable to open mca_osc_ucx: libucp.so.0: cannot open shared object file: No such file or directory (ignored)
[bora002.plafrim.cluster:206588] mca_base_component_repository_open: unable to open mca_osc_ucx: libucp.so.0: cannot open shared object file: No such file or directory (ignored)
[bora002.plafrim.cluster:206592] mca_base_component_repository_open: unable to open mca_osc_ucx: libucp.so.0: cannot open shared object file: No such file or directory (ignored)
[bora002.plafrim.cluster:206684] mca_base_component_repository_open: unable to open mca_btl_uct: libucp.so.0: cannot open shared object file: No such file or directory (ignored)
[bora002.plafrim.cluster:206686] mca_base_component_repository_open: unable to open mca_btl_uct: libucp.so.0: cannot open shared object file: No such file or directory (ignored)
[bora002.plafrim.cluster:206688] mca_base_component_repository_open: unable to open mca_btl_uct: libucp.so.0: cannot open shared object file: No such file or directory (ignored)
[bora002.plafrim.cluster:206690] mca_base_component_repository_open: unable to open mca_btl_uct: libucp.so.0: cannot open shared object file: No such file or directory (ignored)
[bora002.plafrim.cluster:206685] mca_base_component_repository_open: unable to open mca_btl_uct: libucp.so.0: cannot open shared object file: No such file or directory (ignored)
[bora002.plafrim.cluster:206689] mca_base_component_repository_open: unable to open mca_btl_uct: libucp.so.0: cannot open shared object file: No such file or directory (ignored)
[bora002.plafrim.cluster:206691] mca_base_component_repository_open: unable to open mca_btl_uct: libucp.so.0: cannot open shared object file: No such file or directory (ignored)
[bora002.plafrim.cluster:206687] mca_base_component_repository_open: unable to open mca_btl_uct: libucp.so.0: cannot open shared object file: No such file or directory (ignored)
[bora002.plafrim.cluster:206686] mca_base_component_repository_open: unable to open mca_pml_ucx: libucp.so.0: cannot open shared object file: No such file or directory (ignored)
[bora002.plafrim.cluster:206688] mca_base_component_repository_open: unable to open mca_pml_ucx: libucp.so.0: cannot open shared object file: No such file or directory (ignored)
[bora001.plafrim.cluster:171010] mca_base_component_repository_open: unable to open mca_btl_uct: libucp.so.0: cannot open shared object file: No such file or directory (ignored)
[bora002.plafrim.cluster:206684] mca_base_component_repository_open: unable to open mca_pml_ucx: libucp.so.0: cannot open shared object file: No such file or directory (ignored)
[bora002.plafrim.cluster:206690] mca_base_component_repository_open: unable to open mca_pml_ucx: libucp.so.0: cannot open shared object file: No such file or directory (ignored)
[bora002.plafrim.cluster:206685] mca_base_component_repository_open: unable to open mca_pml_ucx: libucp.so.0: cannot open shared object file: No such file or directory (ignored)
[bora002.plafrim.cluster:206689] mca_base_component_repository_open: unable to open mca_pml_ucx: libucp.so.0: cannot open shared object file: No such file or directory (ignored)
[bora002.plafrim.cluster:206691] mca_base_component_repository_open: unable to open mca_pml_ucx: libucp.so.0: cannot open shared object file: No such file or directory (ignored)
[bora002.plafrim.cluster:206687] mca_base_component_repository_open: unable to open mca_pml_ucx: libucp.so.0: cannot open shared object file: No such file or directory (ignored)
[bora002.plafrim.cluster:206686] mca_base_component_repository_open: unable to open mca_osc_ucx: libucp.so.0: cannot open shared object file: No such file or directory (ignored)
[bora002.plafrim.cluster:206689] mca_base_component_repository_open: unable to open mca_osc_ucx: libucp.so.0: cannot open shared object file: No such file or directory (ignored)
[bora001.plafrim.cluster:171006] mca_base_component_repository_open: unable to open mca_btl_uct: libucp.so.0: cannot open shared object file: No such file or directory (ignored)
[bora001.plafrim.cluster:171012] mca_base_component_repository_open: unable to open mca_btl_uct: libucp.so.0: cannot open shared object file: No such file or directory (ignored)
[bora001.plafrim.cluster:171008] mca_base_component_repository_open: unable to open mca_btl_uct: libucp.so.0: cannot open shared object file: No such file or directory (ignored)
[bora001.plafrim.cluster:171007] mca_base_component_repository_open: unable to open mca_btl_uct: libucp.so.0: cannot open shared object file: No such file or directory (ignored)
[bora001.plafrim.cluster:171009] mca_base_component_repository_open: unable to open mca_btl_uct: libucp.so.0: cannot open shared object file: No such file or directory (ignored)
[bora001.plafrim.cluster:171011] mca_base_component_repository_open: unable to open mca_btl_uct: libucp.so.0: cannot open shared object file: No such file or directory (ignored)
[bora001.plafrim.cluster:171013] mca_base_component_repository_open: unable to open mca_btl_uct: libucp.so.0: cannot open shared object file: No such file or directory (ignored)
[bora001.plafrim.cluster:171006] mca_base_component_repository_open: unable to open mca_pml_ucx: libucp.so.0: cannot open shared object file: No such file or directory (ignored)
[bora001.plafrim.cluster:171008] mca_base_component_repository_open: unable to open mca_pml_ucx: libucp.so.0: cannot open shared object file: No such file or directory (ignored)
[bora001.plafrim.cluster:171010] mca_base_component_repository_open: unable to open mca_pml_ucx: libucp.so.0: cannot open shared object file: No such file or directory (ignored)
[bora001.plafrim.cluster:171012] mca_base_component_repository_open: unable to open mca_pml_ucx: libucp.so.0: cannot open shared object file: No such file or directory (ignored)
[bora001.plafrim.cluster:171013] mca_base_component_repository_open: unable to open mca_pml_ucx: libucp.so.0: cannot open shared object file: No such file or directory (ignored)
[bora001.plafrim.cluster:171007] mca_base_component_repository_open: unable to open mca_pml_ucx: libucp.so.0: cannot open shared object file: No such file or directory (ignored)
[bora001.plafrim.cluster:171009] mca_base_component_repository_open: unable to open mca_pml_ucx: libucp.so.0: cannot open shared object file: No such file or directory (ignored)
[bora001.plafrim.cluster:171011] mca_base_component_repository_open: unable to open mca_pml_ucx: libucp.so.0: cannot open shared object file: No such file or directory (ignored)
[bora001.plafrim.cluster:171008] mca_base_component_repository_open: unable to open mca_osc_ucx: libucp.so.0: cannot open shared object file: No such file or directory (ignored)
[bora001.plafrim.cluster:171012] mca_base_component_repository_open: unable to open mca_osc_ucx: libucp.so.0: cannot open shared object file: No such file or directory (ignored)
[bora001.plafrim.cluster:171006] mca_base_component_repository_open: unable to open mca_osc_ucx: libucp.so.0: cannot open shared object file: No such file or directory (ignored)
[bora001.plafrim.cluster:171010] mca_base_component_repository_open: unable to open mca_osc_ucx: libucp.so.0: cannot open shared object file: No such file or directory (ignored)
[bora001.plafrim.cluster:171009] mca_base_component_repository_open: unable to open mca_osc_ucx: libucp.so.0: cannot open shared object file: No such file or directory (ignored)
[bora001.plafrim.cluster:171011] mca_base_component_repository_open: unable to open mca_osc_ucx: libucp.so.0: cannot open shared object file: No such file or directory (ignored)
[bora001.plafrim.cluster:171013] mca_base_component_repository_open: unable to open mca_osc_ucx: libucp.so.0: cannot open shared object file: No such file or directory (ignored)
[bora001.plafrim.cluster:171007] mca_base_component_repository_open: unable to open mca_osc_ucx: libucp.so.0: cannot open shared object file: No such file or directory (ignored)
[bora002.plafrim.cluster:206684] mca_base_component_repository_open: unable to open mca_osc_ucx: libucp.so.0: cannot open shared object file: No such file or directory (ignored)
[bora002.plafrim.cluster:206685] mca_base_component_repository_open: unable to open mca_osc_ucx: libucp.so.0: cannot open shared object file: No such file or directory (ignored)
[bora002.plafrim.cluster:206691] mca_base_component_repository_open: unable to open mca_osc_ucx: libucp.so.0: cannot open shared object file: No such file or directory (ignored)
[bora002.plafrim.cluster:206687] mca_base_component_repository_open: unable to open mca_osc_ucx: libucp.so.0: cannot open shared object file: No such file or directory (ignored)
[bora002.plafrim.cluster:206688] mca_base_component_repository_open: unable to open mca_osc_ucx: libucp.so.0: cannot open shared object file: No such file or directory (ignored)
[bora002.plafrim.cluster:206690] mca_base_component_repository_open: unable to open mca_osc_ucx: libucp.so.0: cannot open shared object file: No such file or directory (ignored)
[bora002.plafrim.cluster:206796] mca_base_component_repository_open: unable to open mca_btl_uct: libucp.so.0: cannot open shared object file: No such file or directory (ignored)
[bora002.plafrim.cluster:206796] mca_base_component_repository_open: unable to open mca_pml_ucx: libucp.so.0: cannot open shared object file: No such file or directory (ignored)
[bora001.plafrim.cluster:171192] mca_base_component_repository_open: unable to open mca_btl_uct: libucp.so.0: cannot open shared object file: No such file or directory (ignored)
[bora002.plafrim.cluster:206796] mca_base_component_repository_open: unable to open mca_osc_ucx: libucp.so.0: cannot open shared object file: No such file or directory (ignored)
[bora002.plafrim.cluster:206794] mca_base_component_repository_open: unable to open mca_btl_uct: libucp.so.0: cannot open shared object file: No such file or directory (ignored)
[bora002.plafrim.cluster:206792] mca_base_component_repository_open: unable to open mca_btl_uct: libucp.so.0: cannot open shared object file: No such file or directory (ignored)
[bora002.plafrim.cluster:206794] mca_base_component_repository_open: unable to open mca_pml_ucx: libucp.so.0: cannot open shared object file: No such file or directory (ignored)
[bora002.plafrim.cluster:206792] mca_base_component_repository_open: unable to open mca_pml_ucx: libucp.so.0: cannot open shared object file: No such file or directory (ignored)
[bora002.plafrim.cluster:206798] mca_base_component_repository_open: unable to open mca_btl_uct: libucp.so.0: cannot open shared object file: No such file or directory (ignored)
[bora002.plafrim.cluster:206797] mca_base_component_repository_open: unable to open mca_btl_uct: libucp.so.0: cannot open shared object file: No such file or directory (ignored)
[bora002.plafrim.cluster:206799] mca_base_component_repository_open: unable to open mca_btl_uct: libucp.so.0: cannot open shared object file: No such file or directory (ignored)
[bora002.plafrim.cluster:206793] mca_base_component_repository_open: unable to open mca_btl_uct: libucp.so.0: cannot open shared object file: No such file or directory (ignored)
[bora002.plafrim.cluster:206795] mca_base_component_repository_open: unable to open mca_btl_uct: libucp.so.0: cannot open shared object file: No such file or directory (ignored)
[bora002.plafrim.cluster:206798] mca_base_component_repository_open: unable to open mca_pml_ucx: libucp.so.0: cannot open shared object file: No such file or directory (ignored)
[bora002.plafrim.cluster:206797] mca_base_component_repository_open: unable to open mca_pml_ucx: libucp.so.0: cannot open shared object file: No such file or directory (ignored)
[bora002.plafrim.cluster:206799] mca_base_component_repository_open: unable to open mca_pml_ucx: libucp.so.0: cannot open shared object file: No such file or directory (ignored)
[bora002.plafrim.cluster:206794] mca_base_component_repository_open: unable to open mca_osc_ucx: libucp.so.0: cannot open shared object file: No such file or directory (ignored)
[bora002.plafrim.cluster:206793] mca_base_component_repository_open: unable to open mca_pml_ucx: libucp.so.0: cannot open shared object file: No such file or directory (ignored)
[bora001.plafrim.cluster:171194] mca_base_component_repository_open: unable to open mca_btl_uct: libucp.so.0: cannot open shared object file: No such file or directory (ignored)
[bora001.plafrim.cluster:171194] mca_base_component_repository_open: unable to open mca_pml_ucx: libucp.so.0: cannot open shared object file: No such file or directory (ignored)
[bora001.plafrim.cluster:171192] mca_base_component_repository_open: unable to open mca_pml_ucx: libucp.so.0: cannot open shared object file: No such file or directory (ignored)
[bora001.plafrim.cluster:171196] mca_base_component_repository_open: unable to open mca_btl_uct: libucp.so.0: cannot open shared object file: No such file or directory (ignored)
[bora001.plafrim.cluster:171198] mca_base_component_repository_open: unable to open mca_btl_uct: libucp.so.0: cannot open shared object file: No such file or directory (ignored)
[bora001.plafrim.cluster:171197] mca_base_component_repository_open: unable to open mca_btl_uct: libucp.so.0: cannot open shared object file: No such file or directory (ignored)
[bora001.plafrim.cluster:171195] mca_base_component_repository_open: unable to open mca_btl_uct: libucp.so.0: cannot open shared object file: No such file or directory (ignored)
[bora001.plafrim.cluster:171196] mca_base_component_repository_open: unable to open mca_pml_ucx: libucp.so.0: cannot open shared object file: No such file or directory (ignored)
[bora001.plafrim.cluster:171193] mca_base_component_repository_open: unable to open mca_btl_uct: libucp.so.0: cannot open shared object file: No such file or directory (ignored)
[bora001.plafrim.cluster:171199] mca_base_component_repository_open: unable to open mca_btl_uct: libucp.so.0: cannot open shared object file: No such file or directory (ignored)
[bora001.plafrim.cluster:171198] mca_base_component_repository_open: unable to open mca_pml_ucx: libucp.so.0: cannot open shared object file: No such file or directory (ignored)
[bora001.plafrim.cluster:171197] mca_base_component_repository_open: unable to open mca_pml_ucx: libucp.so.0: cannot open shared object file: No such file or directory (ignored)
[bora001.plafrim.cluster:171195] mca_base_component_repository_open: unable to open mca_pml_ucx: libucp.so.0: cannot open shared object file: No such file or directory (ignored)
[bora001.plafrim.cluster:171193] mca_base_component_repository_open: unable to open mca_pml_ucx: libucp.so.0: cannot open shared object file: No such file or directory (ignored)
[bora001.plafrim.cluster:171199] mca_base_component_repository_open: unable to open mca_pml_ucx: libucp.so.0: cannot open shared object file: No such file or directory (ignored)
[bora001.plafrim.cluster:171192] mca_base_component_repository_open: unable to open mca_osc_ucx: libucp.so.0: cannot open shared object file: No such file or directory (ignored)
[bora001.plafrim.cluster:171194] mca_base_component_repository_open: unable to open mca_osc_ucx: libucp.so.0: cannot open shared object file: No such file or directory (ignored)
[bora001.plafrim.cluster:171196] mca_base_component_repository_open: unable to open mca_osc_ucx: libucp.so.0: cannot open shared object file: No such file or directory (ignored)
[bora001.plafrim.cluster:171198] mca_base_component_repository_open: unable to open mca_osc_ucx: libucp.so.0: cannot open shared object file: No such file or directory (ignored)
[bora001.plafrim.cluster:171197] mca_base_component_repository_open: unable to open mca_osc_ucx: libucp.so.0: cannot open shared object file: No such file or directory (ignored)
[bora001.plafrim.cluster:171195] mca_base_component_repository_open: unable to open mca_osc_ucx: libucp.so.0: cannot open shared object file: No such file or directory (ignored)
[bora001.plafrim.cluster:171193] mca_base_component_repository_open: unable to open mca_osc_ucx: libucp.so.0: cannot open shared object file: No such file or directory (ignored)
[bora001.plafrim.cluster:171199] mca_base_component_repository_open: unable to open mca_osc_ucx: libucp.so.0: cannot open shared object file: No such file or directory (ignored)
[bora002.plafrim.cluster:206795] mca_base_component_repository_open: unable to open mca_pml_ucx: libucp.so.0: cannot open shared object file: No such file or directory (ignored)
[bora002.plafrim.cluster:206792] mca_base_component_repository_open: unable to open mca_osc_ucx: libucp.so.0: cannot open shared object file: No such file or directory (ignored)
[bora002.plafrim.cluster:206798] mca_base_component_repository_open: unable to open mca_osc_ucx: libucp.so.0: cannot open shared object file: No such file or directory (ignored)
[bora002.plafrim.cluster:206797] mca_base_component_repository_open: unable to open mca_osc_ucx: libucp.so.0: cannot open shared object file: No such file or directory (ignored)
[bora002.plafrim.cluster:206799] mca_base_component_repository_open: unable to open mca_osc_ucx: libucp.so.0: cannot open shared object file: No such file or directory (ignored)
[bora002.plafrim.cluster:206795] mca_base_component_repository_open: unable to open mca_osc_ucx: libucp.so.0: cannot open shared object file: No such file or directory (ignored)
[bora002.plafrim.cluster:206793] mca_base_component_repository_open: unable to open mca_osc_ucx: libucp.so.0: cannot open shared object file: No such file or directory (ignored)
[bora002.plafrim.cluster:206978] mca_base_component_repository_open: unable to open mca_btl_uct: libucp.so.0: cannot open shared object file: No such file or directory (ignored)
[bora001.plafrim.cluster:171460] mca_base_component_repository_open: unable to open mca_btl_uct: libucp.so.0: cannot open shared object file: No such file or directory (ignored)
[bora002.plafrim.cluster:206978] mca_base_component_repository_open: unable to open mca_pml_ucx: libucp.so.0: cannot open shared object file: No such file or directory (ignored)
[bora002.plafrim.cluster:206978] mca_base_component_repository_open: unable to open mca_osc_ucx: libucp.so.0: cannot open shared object file: No such file or directory (ignored)
[bora002.plafrim.cluster:206980] mca_base_component_repository_open: unable to open mca_btl_uct: libucp.so.0: cannot open shared object file: No such file or directory (ignored)
[bora002.plafrim.cluster:206980] mca_base_component_repository_open: unable to open mca_pml_ucx: libucp.so.0: cannot open shared object file: No such file or directory (ignored)
[bora002.plafrim.cluster:206974] mca_base_component_repository_open: unable to open mca_btl_uct: libucp.so.0: cannot open shared object file: No such file or directory (ignored)
[bora002.plafrim.cluster:206975] mca_base_component_repository_open: unable to open mca_btl_uct: libucp.so.0: cannot open shared object file: No such file or directory (ignored)
[bora002.plafrim.cluster:206976] mca_base_component_repository_open: unable to open mca_btl_uct: libucp.so.0: cannot open shared object file: No such file or directory (ignored)
[bora002.plafrim.cluster:206981] mca_base_component_repository_open: unable to open mca_btl_uct: libucp.so.0: cannot open shared object file: No such file or directory (ignored)
[bora002.plafrim.cluster:206977] mca_base_component_repository_open: unable to open mca_btl_uct: libucp.so.0: cannot open shared object file: No such file or directory (ignored)
[bora002.plafrim.cluster:206979] mca_base_component_repository_open: unable to open mca_btl_uct: libucp.so.0: cannot open shared object file: No such file or directory (ignored)
[bora002.plafrim.cluster:206974] mca_base_component_repository_open: unable to open mca_pml_ucx: libucp.so.0: cannot open shared object file: No such file or directory (ignored)
[bora002.plafrim.cluster:206980] mca_base_component_repository_open: unable to open mca_osc_ucx: libucp.so.0: cannot open shared object file: No such file or directory (ignored)
[bora002.plafrim.cluster:206975] mca_base_component_repository_open: unable to open mca_pml_ucx: libucp.so.0: cannot open shared object file: No such file or directory (ignored)
[bora002.plafrim.cluster:206976] mca_base_component_repository_open: unable to open mca_pml_ucx: libucp.so.0: cannot open shared object file: No such file or directory (ignored)
[bora002.plafrim.cluster:206977] mca_base_component_repository_open: unable to open mca_pml_ucx: libucp.so.0: cannot open shared object file: No such file or directory (ignored)
[bora002.plafrim.cluster:206981] mca_base_component_repository_open: unable to open mca_pml_ucx: libucp.so.0: cannot open shared object file: No such file or directory (ignored)
[bora002.plafrim.cluster:206979] mca_base_component_repository_open: unable to open mca_pml_ucx: libucp.so.0: cannot open shared object file: No such file or directory (ignored)
[bora001.plafrim.cluster:171456] mca_base_component_repository_open: unable to open mca_btl_uct: libucp.so.0: cannot open shared object file: No such file or directory (ignored)
[bora001.plafrim.cluster:171456] mca_base_component_repository_open: unable to open mca_pml_ucx: libucp.so.0: cannot open shared object file: No such file or directory (ignored)
[bora001.plafrim.cluster:171460] mca_base_component_repository_open: unable to open mca_pml_ucx: libucp.so.0: cannot open shared object file: No such file or directory (ignored)
[bora001.plafrim.cluster:171462] mca_base_component_repository_open: unable to open mca_btl_uct: libucp.so.0: cannot open shared object file: No such file or directory (ignored)
[bora001.plafrim.cluster:171456] mca_base_component_repository_open: unable to open mca_osc_ucx: libucp.so.0: cannot open shared object file: No such file or directory (ignored)
[bora001.plafrim.cluster:171460] mca_base_component_repository_open: unable to open mca_osc_ucx: libucp.so.0: cannot open shared object file: No such file or directory (ignored)
[bora001.plafrim.cluster:171462] mca_base_component_repository_open: unable to open mca_pml_ucx: libucp.so.0: cannot open shared object file: No such file or directory (ignored)
[bora001.plafrim.cluster:171463] mca_base_component_repository_open: unable to open mca_btl_uct: libucp.so.0: cannot open shared object file: No such file or directory (ignored)
[bora001.plafrim.cluster:171461] mca_base_component_repository_open: unable to open mca_btl_uct: libucp.so.0: cannot open shared object file: No such file or directory (ignored)
[bora001.plafrim.cluster:171458] mca_base_component_repository_open: unable to open mca_btl_uct: libucp.so.0: cannot open shared object file: No such file or directory (ignored)
[bora001.plafrim.cluster:171457] mca_base_component_repository_open: unable to open mca_btl_uct: libucp.so.0: cannot open shared object file: No such file or directory (ignored)
[bora001.plafrim.cluster:171459] mca_base_component_repository_open: unable to open mca_btl_uct: libucp.so.0: cannot open shared object file: No such file or directory (ignored)
[bora001.plafrim.cluster:171463] mca_base_component_repository_open: unable to open mca_pml_ucx: libucp.so.0: cannot open shared object file: No such file or directory (ignored)
[bora001.plafrim.cluster:171461] mca_base_component_repository_open: unable to open mca_pml_ucx: libucp.so.0: cannot open shared object file: No such file or directory (ignored)
[bora001.plafrim.cluster:171458] mca_base_component_repository_open: unable to open mca_pml_ucx: libucp.so.0: cannot open shared object file: No such file or directory (ignored)
[bora001.plafrim.cluster:171459] mca_base_component_repository_open: unable to open mca_pml_ucx: libucp.so.0: cannot open shared object file: No such file or directory (ignored)
[bora001.plafrim.cluster:171457] mca_base_component_repository_open: unable to open mca_pml_ucx: libucp.so.0: cannot open shared object file: No such file or directory (ignored)
[bora001.plafrim.cluster:171462] mca_base_component_repository_open: unable to open mca_osc_ucx: libucp.so.0: cannot open shared object file: No such file or directory (ignored)
[bora001.plafrim.cluster:171463] mca_base_component_repository_open: unable to open mca_osc_ucx: libucp.so.0: cannot open shared object file: No such file or directory (ignored)
[bora001.plafrim.cluster:171461] mca_base_component_repository_open: unable to open mca_osc_ucx: libucp.so.0: cannot open shared object file: No such file or directory (ignored)
[bora001.plafrim.cluster:171458] mca_base_component_repository_open: unable to open mca_osc_ucx: libucp.so.0: cannot open shared object file: No such file or directory (ignored)
[bora001.plafrim.cluster:171459] mca_base_component_repository_open: unable to open mca_osc_ucx: libucp.so.0: cannot open shared object file: No such file or directory (ignored)
[bora001.plafrim.cluster:171457] mca_base_component_repository_open: unable to open mca_osc_ucx: libucp.so.0: cannot open shared object file: No such file or directory (ignored)
[bora002.plafrim.cluster:206974] mca_base_component_repository_open: unable to open mca_osc_ucx: libucp.so.0: cannot open shared object file: No such file or directory (ignored)
[bora002.plafrim.cluster:206975] mca_base_component_repository_open: unable to open mca_osc_ucx: libucp.so.0: cannot open shared object file: No such file or directory (ignored)
[bora002.plafrim.cluster:206977] mca_base_component_repository_open: unable to open mca_osc_ucx: libucp.so.0: cannot open shared object file: No such file or directory (ignored)
[bora002.plafrim.cluster:206981] mca_base_component_repository_open: unable to open mca_osc_ucx: libucp.so.0: cannot open shared object file: No such file or directory (ignored)
[bora002.plafrim.cluster:206979] mca_base_component_repository_open: unable to open mca_osc_ucx: libucp.so.0: cannot open shared object file: No such file or directory (ignored)
[bora002.plafrim.cluster:206976] mca_base_component_repository_open: unable to open mca_osc_ucx: libucp.so.0: cannot open shared object file: No such file or directory (ignored)
[bora002.plafrim.cluster:207083] mca_base_component_repository_open: unable to open mca_btl_uct: libucp.so.0: cannot open shared object file: No such file or directory (ignored)
[bora002.plafrim.cluster:207085] mca_base_component_repository_open: unable to open mca_btl_uct: libucp.so.0: cannot open shared object file: No such file or directory (ignored)
[bora002.plafrim.cluster:207081] mca_base_component_repository_open: unable to open mca_btl_uct: libucp.so.0: cannot open shared object file: No such file or directory (ignored)
[bora002.plafrim.cluster:207080] mca_base_component_repository_open: unable to open mca_btl_uct: libucp.so.0: cannot open shared object file: No such file or directory (ignored)
[bora002.plafrim.cluster:207082] mca_base_component_repository_open: unable to open mca_btl_uct: libucp.so.0: cannot open shared object file: No such file or directory (ignored)
[bora002.plafrim.cluster:207084] mca_base_component_repository_open: unable to open mca_btl_uct: libucp.so.0: cannot open shared object file: No such file or directory (ignored)
[bora002.plafrim.cluster:207086] mca_base_component_repository_open: unable to open mca_btl_uct: libucp.so.0: cannot open shared object file: No such file or directory (ignored)
[bora002.plafrim.cluster:207079] mca_base_component_repository_open: unable to open mca_btl_uct: libucp.so.0: cannot open shared object file: No such file or directory (ignored)
[bora002.plafrim.cluster:207083] mca_base_component_repository_open: unable to open mca_pml_ucx: libucp.so.0: cannot open shared object file: No such file or directory (ignored)
[bora002.plafrim.cluster:207085] mca_base_component_repository_open: unable to open mca_pml_ucx: libucp.so.0: cannot open shared object file: No such file or directory (ignored)
[bora001.plafrim.cluster:171664] mca_base_component_repository_open: unable to open mca_btl_uct: libucp.so.0: cannot open shared object file: No such file or directory (ignored)
[bora002.plafrim.cluster:207081] mca_base_component_repository_open: unable to open mca_pml_ucx: libucp.so.0: cannot open shared object file: No such file or directory (ignored)
[bora002.plafrim.cluster:207082] mca_base_component_repository_open: unable to open mca_pml_ucx: libucp.so.0: cannot open shared object file: No such file or directory (ignored)
[bora002.plafrim.cluster:207084] mca_base_component_repository_open: unable to open mca_pml_ucx: libucp.so.0: cannot open shared object file: No such file or directory (ignored)
[bora002.plafrim.cluster:207079] mca_base_component_repository_open: unable to open mca_pml_ucx: libucp.so.0: cannot open shared object file: No such file or directory (ignored)
[bora002.plafrim.cluster:207080] mca_base_component_repository_open: unable to open mca_pml_ucx: libucp.so.0: cannot open shared object file: No such file or directory (ignored)
[bora002.plafrim.cluster:207086] mca_base_component_repository_open: unable to open mca_pml_ucx: libucp.so.0: cannot open shared object file: No such file or directory (ignored)
[bora002.plafrim.cluster:207079] mca_base_component_repository_open: unable to open mca_osc_ucx: libucp.so.0: cannot open shared object file: No such file or directory (ignored)
[bora002.plafrim.cluster:207081] mca_base_component_repository_open: unable to open mca_osc_ucx: libucp.so.0: cannot open shared object file: No such file or directory (ignored)
[bora001.plafrim.cluster:171666] mca_base_component_repository_open: unable to open mca_btl_uct: libucp.so.0: cannot open shared object file: No such file or directory (ignored)
[bora001.plafrim.cluster:171662] mca_base_component_repository_open: unable to open mca_btl_uct: libucp.so.0: cannot open shared object file: No such file or directory (ignored)
[bora001.plafrim.cluster:171668] mca_base_component_repository_open: unable to open mca_btl_uct: libucp.so.0: cannot open shared object file: No such file or directory (ignored)
[bora001.plafrim.cluster:171667] mca_base_component_repository_open: unable to open mca_btl_uct: libucp.so.0: cannot open shared object file: No such file or directory (ignored)
[bora001.plafrim.cluster:171669] mca_base_component_repository_open: unable to open mca_btl_uct: libucp.so.0: cannot open shared object file: No such file or directory (ignored)
[bora001.plafrim.cluster:171665] mca_base_component_repository_open: unable to open mca_btl_uct: libucp.so.0: cannot open shared object file: No such file or directory (ignored)
[bora001.plafrim.cluster:171663] mca_base_component_repository_open: unable to open mca_btl_uct: libucp.so.0: cannot open shared object file: No such file or directory (ignored)
[bora001.plafrim.cluster:171664] mca_base_component_repository_open: unable to open mca_pml_ucx: libucp.so.0: cannot open shared object file: No such file or directory (ignored)
[bora001.plafrim.cluster:171668] mca_base_component_repository_open: unable to open mca_pml_ucx: libucp.so.0: cannot open shared object file: No such file or directory (ignored)
[bora001.plafrim.cluster:171662] mca_base_component_repository_open: unable to open mca_pml_ucx: libucp.so.0: cannot open shared object file: No such file or directory (ignored)
[bora001.plafrim.cluster:171666] mca_base_component_repository_open: unable to open mca_pml_ucx: libucp.so.0: cannot open shared object file: No such file or directory (ignored)
[bora001.plafrim.cluster:171663] mca_base_component_repository_open: unable to open mca_pml_ucx: libucp.so.0: cannot open shared object file: No such file or directory (ignored)
[bora001.plafrim.cluster:171667] mca_base_component_repository_open: unable to open mca_pml_ucx: libucp.so.0: cannot open shared object file: No such file or directory (ignored)
[bora001.plafrim.cluster:171665] mca_base_component_repository_open: unable to open mca_pml_ucx: libucp.so.0: cannot open shared object file: No such file or directory (ignored)
[bora001.plafrim.cluster:171669] mca_base_component_repository_open: unable to open mca_pml_ucx: libucp.so.0: cannot open shared object file: No such file or directory (ignored)
[bora001.plafrim.cluster:171666] mca_base_component_repository_open: unable to open mca_osc_ucx: libucp.so.0: cannot open shared object file: No such file or directory (ignored)
[bora001.plafrim.cluster:171668] mca_base_component_repository_open: unable to open mca_osc_ucx: libucp.so.0: cannot open shared object file: No such file or directory (ignored)
[bora001.plafrim.cluster:171662] mca_base_component_repository_open: unable to open mca_osc_ucx: libucp.so.0: cannot open shared object file: No such file or directory (ignored)
[bora001.plafrim.cluster:171664] mca_base_component_repository_open: unable to open mca_osc_ucx: libucp.so.0: cannot open shared object file: No such file or directory (ignored)
[bora001.plafrim.cluster:171667] mca_base_component_repository_open: unable to open mca_osc_ucx: libucp.so.0: cannot open shared object file: No such file or directory (ignored)
[bora001.plafrim.cluster:171665] mca_base_component_repository_open: unable to open mca_osc_ucx: libucp.so.0: cannot open shared object file: No such file or directory (ignored)
[bora001.plafrim.cluster:171669] mca_base_component_repository_open: unable to open mca_osc_ucx: libucp.so.0: cannot open shared object file: No such file or directory (ignored)
[bora001.plafrim.cluster:171663] mca_base_component_repository_open: unable to open mca_osc_ucx: libucp.so.0: cannot open shared object file: No such file or directory (ignored)
[bora002.plafrim.cluster:207084] mca_base_component_repository_open: unable to open mca_osc_ucx: libucp.so.0: cannot open shared object file: No such file or directory (ignored)
[bora002.plafrim.cluster:207080] mca_base_component_repository_open: unable to open mca_osc_ucx: libucp.so.0: cannot open shared object file: No such file or directory (ignored)
[bora002.plafrim.cluster:207082] mca_base_component_repository_open: unable to open mca_osc_ucx: libucp.so.0: cannot open shared object file: No such file or directory (ignored)
[bora002.plafrim.cluster:207083] mca_base_component_repository_open: unable to open mca_osc_ucx: libucp.so.0: cannot open shared object file: No such file or directory (ignored)
[bora002.plafrim.cluster:207086] mca_base_component_repository_open: unable to open mca_osc_ucx: libucp.so.0: cannot open shared object file: No such file or directory (ignored)
[bora002.plafrim.cluster:207085] mca_base_component_repository_open: unable to open mca_osc_ucx: libucp.so.0: cannot open shared object file: No such file or directory (ignored)
[bora001.plafrim.cluster:171784] mca_base_component_repository_open: unable to open mca_btl_uct: libucp.so.0: cannot open shared object file: No such file or directory (ignored)
[bora002.plafrim.cluster:207180] mca_base_component_repository_open: unable to open mca_btl_uct: libucp.so.0: cannot open shared object file: No such file or directory (ignored)
[bora002.plafrim.cluster:207178] mca_base_component_repository_open: unable to open mca_btl_uct: libucp.so.0: cannot open shared object file: No such file or directory (ignored)
[bora002.plafrim.cluster:207174] mca_base_component_repository_open: unable to open mca_btl_uct: libucp.so.0: cannot open shared object file: No such file or directory (ignored)
[bora002.plafrim.cluster:207176] mca_base_component_repository_open: unable to open mca_btl_uct: libucp.so.0: cannot open shared object file: No such file or directory (ignored)
[bora002.plafrim.cluster:207181] mca_base_component_repository_open: unable to open mca_btl_uct: libucp.so.0: cannot open shared object file: No such file or directory (ignored)
[bora002.plafrim.cluster:207177] mca_base_component_repository_open: unable to open mca_btl_uct: libucp.so.0: cannot open shared object file: No such file or directory (ignored)
[bora002.plafrim.cluster:207175] mca_base_component_repository_open: unable to open mca_btl_uct: libucp.so.0: cannot open shared object file: No such file or directory (ignored)
[bora002.plafrim.cluster:207179] mca_base_component_repository_open: unable to open mca_btl_uct: libucp.so.0: cannot open shared object file: No such file or directory (ignored)
[bora002.plafrim.cluster:207178] mca_base_component_repository_open: unable to open mca_pml_ucx: libucp.so.0: cannot open shared object file: No such file or directory (ignored)
[bora002.plafrim.cluster:207174] mca_base_component_repository_open: unable to open mca_pml_ucx: libucp.so.0: cannot open shared object file: No such file or directory (ignored)
[bora002.plafrim.cluster:207180] mca_base_component_repository_open: unable to open mca_pml_ucx: libucp.so.0: cannot open shared object file: No such file or directory (ignored)
[bora002.plafrim.cluster:207176] mca_base_component_repository_open: unable to open mca_pml_ucx: libucp.so.0: cannot open shared object file: No such file or directory (ignored)
[bora002.plafrim.cluster:207181] mca_base_component_repository_open: unable to open mca_pml_ucx: libucp.so.0: cannot open shared object file: No such file or directory (ignored)
[bora002.plafrim.cluster:207177] mca_base_component_repository_open: unable to open mca_pml_ucx: libucp.so.0: cannot open shared object file: No such file or directory (ignored)
[bora002.plafrim.cluster:207179] mca_base_component_repository_open: unable to open mca_pml_ucx: libucp.so.0: cannot open shared object file: No such file or directory (ignored)
[bora002.plafrim.cluster:207175] mca_base_component_repository_open: unable to open mca_pml_ucx: libucp.so.0: cannot open shared object file: No such file or directory (ignored)
[bora002.plafrim.cluster:207176] mca_base_component_repository_open: unable to open mca_osc_ucx: libucp.so.0: cannot open shared object file: No such file or directory (ignored)
[bora002.plafrim.cluster:207178] mca_base_component_repository_open: unable to open mca_osc_ucx: libucp.so.0: cannot open shared object file: No such file or directory (ignored)
[bora001.plafrim.cluster:171788] mca_base_component_repository_open: unable to open mca_btl_uct: libucp.so.0: cannot open shared object file: No such file or directory (ignored)
[bora001.plafrim.cluster:171790] mca_base_component_repository_open: unable to open mca_btl_uct: libucp.so.0: cannot open shared object file: No such file or directory (ignored)
[bora001.plafrim.cluster:171786] mca_base_component_repository_open: unable to open mca_btl_uct: libucp.so.0: cannot open shared object file: No such file or directory (ignored)
[bora001.plafrim.cluster:171789] mca_base_component_repository_open: unable to open mca_btl_uct: libucp.so.0: cannot open shared object file: No such file or directory (ignored)
[bora001.plafrim.cluster:171791] mca_base_component_repository_open: unable to open mca_btl_uct: libucp.so.0: cannot open shared object file: No such file or directory (ignored)
[bora001.plafrim.cluster:171787] mca_base_component_repository_open: unable to open mca_btl_uct: libucp.so.0: cannot open shared object file: No such file or directory (ignored)
[bora001.plafrim.cluster:171785] mca_base_component_repository_open: unable to open mca_btl_uct: libucp.so.0: cannot open shared object file: No such file or directory (ignored)
[bora001.plafrim.cluster:171788] mca_base_component_repository_open: unable to open mca_pml_ucx: libucp.so.0: cannot open shared object file: No such file or directory (ignored)
[bora001.plafrim.cluster:171790] mca_base_component_repository_open: unable to open mca_pml_ucx: libucp.so.0: cannot open shared object file: No such file or directory (ignored)
[bora001.plafrim.cluster:171784] mca_base_component_repository_open: unable to open mca_pml_ucx: libucp.so.0: cannot open shared object file: No such file or directory (ignored)
[bora001.plafrim.cluster:171786] mca_base_component_repository_open: unable to open mca_pml_ucx: libucp.so.0: cannot open shared object file: No such file or directory (ignored)
[bora001.plafrim.cluster:171789] mca_base_component_repository_open: unable to open mca_pml_ucx: libucp.so.0: cannot open shared object file: No such file or directory (ignored)
[bora001.plafrim.cluster:171791] mca_base_component_repository_open: unable to open mca_pml_ucx: libucp.so.0: cannot open shared object file: No such file or directory (ignored)
[bora001.plafrim.cluster:171787] mca_base_component_repository_open: unable to open mca_pml_ucx: libucp.so.0: cannot open shared object file: No such file or directory (ignored)
[bora001.plafrim.cluster:171785] mca_base_component_repository_open: unable to open mca_pml_ucx: libucp.so.0: cannot open shared object file: No such file or directory (ignored)
[bora001.plafrim.cluster:171790] mca_base_component_repository_open: unable to open mca_osc_ucx: libucp.so.0: cannot open shared object file: No such file or directory (ignored)
[bora001.plafrim.cluster:171787] mca_base_component_repository_open: unable to open mca_osc_ucx: libucp.so.0: cannot open shared object file: No such file or directory (ignored)
[bora001.plafrim.cluster:171784] mca_base_component_repository_open: unable to open mca_osc_ucx: libucp.so.0: cannot open shared object file: No such file or directory (ignored)
[bora001.plafrim.cluster:171788] mca_base_component_repository_open: unable to open mca_osc_ucx: libucp.so.0: cannot open shared object file: No such file or directory (ignored)
[bora001.plafrim.cluster:171786] mca_base_component_repository_open: unable to open mca_osc_ucx: libucp.so.0: cannot open shared object file: No such file or directory (ignored)
[bora001.plafrim.cluster:171789] mca_base_component_repository_open: unable to open mca_osc_ucx: libucp.so.0: cannot open shared object file: No such file or directory (ignored)
[bora001.plafrim.cluster:171791] mca_base_component_repository_open: unable to open mca_osc_ucx: libucp.so.0: cannot open shared object file: No such file or directory (ignored)
[bora001.plafrim.cluster:171785] mca_base_component_repository_open: unable to open mca_osc_ucx: libucp.so.0: cannot open shared object file: No such file or directory (ignored)
[bora002.plafrim.cluster:207180] mca_base_component_repository_open: unable to open mca_osc_ucx: libucp.so.0: cannot open shared object file: No such file or directory (ignored)
[bora002.plafrim.cluster:207174] mca_base_component_repository_open: unable to open mca_osc_ucx: libucp.so.0: cannot open shared object file: No such file or directory (ignored)
[bora002.plafrim.cluster:207177] mca_base_component_repository_open: unable to open mca_osc_ucx: libucp.so.0: cannot open shared object file: No such file or directory (ignored)
[bora002.plafrim.cluster:207175] mca_base_component_repository_open: unable to open mca_osc_ucx: libucp.so.0: cannot open shared object file: No such file or directory (ignored)
[bora002.plafrim.cluster:207179] mca_base_component_repository_open: unable to open mca_osc_ucx: libucp.so.0: cannot open shared object file: No such file or directory (ignored)
[bora002.plafrim.cluster:207181] mca_base_component_repository_open: unable to open mca_osc_ucx: libucp.so.0: cannot open shared object file: No such file or directory (ignored)
[bora001.plafrim.cluster:171918] mca_base_component_repository_open: unable to open mca_btl_uct: libucp.so.0: cannot open shared object file: No such file or directory (ignored)
[bora002.plafrim.cluster:207337] mca_base_component_repository_open: unable to open mca_btl_uct: libucp.so.0: cannot open shared object file: No such file or directory (ignored)
[bora002.plafrim.cluster:207335] mca_base_component_repository_open: unable to open mca_btl_uct: libucp.so.0: cannot open shared object file: No such file or directory (ignored)
[bora002.plafrim.cluster:207331] mca_base_component_repository_open: unable to open mca_btl_uct: libucp.so.0: cannot open shared object file: No such file or directory (ignored)
[bora002.plafrim.cluster:207333] mca_base_component_repository_open: unable to open mca_btl_uct: libucp.so.0: cannot open shared object file: No such file or directory (ignored)
[bora002.plafrim.cluster:207336] mca_base_component_repository_open: unable to open mca_btl_uct: libucp.so.0: cannot open shared object file: No such file or directory (ignored)
[bora002.plafrim.cluster:207332] mca_base_component_repository_open: unable to open mca_btl_uct: libucp.so.0: cannot open shared object file: No such file or directory (ignored)
[bora002.plafrim.cluster:207334] mca_base_component_repository_open: unable to open mca_btl_uct: libucp.so.0: cannot open shared object file: No such file or directory (ignored)
[bora002.plafrim.cluster:207338] mca_base_component_repository_open: unable to open mca_btl_uct: libucp.so.0: cannot open shared object file: No such file or directory (ignored)
[bora002.plafrim.cluster:207333] mca_base_component_repository_open: unable to open mca_pml_ucx: libucp.so.0: cannot open shared object file: No such file or directory (ignored)
[bora002.plafrim.cluster:207331] mca_base_component_repository_open: unable to open mca_pml_ucx: libucp.so.0: cannot open shared object file: No such file or directory (ignored)
[bora002.plafrim.cluster:207335] mca_base_component_repository_open: unable to open mca_pml_ucx: libucp.so.0: cannot open shared object file: No such file or directory (ignored)
[bora002.plafrim.cluster:207337] mca_base_component_repository_open: unable to open mca_pml_ucx: libucp.so.0: cannot open shared object file: No such file or directory (ignored)
[bora002.plafrim.cluster:207336] mca_base_component_repository_open: unable to open mca_pml_ucx: libucp.so.0: cannot open shared object file: No such file or directory (ignored)
[bora002.plafrim.cluster:207332] mca_base_component_repository_open: unable to open mca_pml_ucx: libucp.so.0: cannot open shared object file: No such file or directory (ignored)
[bora002.plafrim.cluster:207334] mca_base_component_repository_open: unable to open mca_pml_ucx: libucp.so.0: cannot open shared object file: No such file or directory (ignored)
[bora002.plafrim.cluster:207338] mca_base_component_repository_open: unable to open mca_pml_ucx: libucp.so.0: cannot open shared object file: No such file or directory (ignored)
[bora002.plafrim.cluster:207333] mca_base_component_repository_open: unable to open mca_osc_ucx: libucp.so.0: cannot open shared object file: No such file or directory (ignored)
[bora002.plafrim.cluster:207331] mca_base_component_repository_open: unable to open mca_osc_ucx: libucp.so.0: cannot open shared object file: No such file or directory (ignored)
[bora002.plafrim.cluster:207337] mca_base_component_repository_open: unable to open mca_osc_ucx: libucp.so.0: cannot open shared object file: No such file or directory (ignored)
[bora002.plafrim.cluster:207335] mca_base_component_repository_open: unable to open mca_osc_ucx: libucp.so.0: cannot open shared object file: No such file or directory (ignored)
[bora002.plafrim.cluster:207334] mca_base_component_repository_open: unable to open mca_osc_ucx: libucp.so.0: cannot open shared object file: No such file or directory (ignored)
[bora001.plafrim.cluster:171920] mca_base_component_repository_open: unable to open mca_btl_uct: libucp.so.0: cannot open shared object file: No such file or directory (ignored)
[bora001.plafrim.cluster:171924] mca_base_component_repository_open: unable to open mca_btl_uct: libucp.so.0: cannot open shared object file: No such file or directory (ignored)
[bora001.plafrim.cluster:171922] mca_base_component_repository_open: unable to open mca_btl_uct: libucp.so.0: cannot open shared object file: No such file or directory (ignored)
[bora001.plafrim.cluster:171925] mca_base_component_repository_open: unable to open mca_btl_uct: libucp.so.0: cannot open shared object file: No such file or directory (ignored)
[bora001.plafrim.cluster:171923] mca_base_component_repository_open: unable to open mca_btl_uct: libucp.so.0: cannot open shared object file: No such file or directory (ignored)
[bora001.plafrim.cluster:171919] mca_base_component_repository_open: unable to open mca_btl_uct: libucp.so.0: cannot open shared object file: No such file or directory (ignored)
[bora001.plafrim.cluster:171921] mca_base_component_repository_open: unable to open mca_btl_uct: libucp.so.0: cannot open shared object file: No such file or directory (ignored)
[bora001.plafrim.cluster:171918] mca_base_component_repository_open: unable to open mca_pml_ucx: libucp.so.0: cannot open shared object file: No such file or directory (ignored)
[bora001.plafrim.cluster:171920] mca_base_component_repository_open: unable to open mca_pml_ucx: libucp.so.0: cannot open shared object file: No such file or directory (ignored)
[bora001.plafrim.cluster:171924] mca_base_component_repository_open: unable to open mca_pml_ucx: libucp.so.0: cannot open shared object file: No such file or directory (ignored)
[bora001.plafrim.cluster:171922] mca_base_component_repository_open: unable to open mca_pml_ucx: libucp.so.0: cannot open shared object file: No such file or directory (ignored)
[bora001.plafrim.cluster:171925] mca_base_component_repository_open: unable to open mca_pml_ucx: libucp.so.0: cannot open shared object file: No such file or directory (ignored)
[bora001.plafrim.cluster:171919] mca_base_component_repository_open: unable to open mca_pml_ucx: libucp.so.0: cannot open shared object file: No such file or directory (ignored)
[bora001.plafrim.cluster:171923] mca_base_component_repository_open: unable to open mca_pml_ucx: libucp.so.0: cannot open shared object file: No such file or directory (ignored)
[bora001.plafrim.cluster:171921] mca_base_component_repository_open: unable to open mca_pml_ucx: libucp.so.0: cannot open shared object file: No such file or directory (ignored)
[bora001.plafrim.cluster:171921] mca_base_component_repository_open: unable to open mca_osc_ucx: libucp.so.0: cannot open shared object file: No such file or directory (ignored)
[bora001.plafrim.cluster:171924] mca_base_component_repository_open: unable to open mca_osc_ucx: libucp.so.0: cannot open shared object file: No such file or directory (ignored)
[bora001.plafrim.cluster:171918] mca_base_component_repository_open: unable to open mca_osc_ucx: libucp.so.0: cannot open shared object file: No such file or directory (ignored)
[bora001.plafrim.cluster:171920] mca_base_component_repository_open: unable to open mca_osc_ucx: libucp.so.0: cannot open shared object file: No such file or directory (ignored)
[bora001.plafrim.cluster:171922] mca_base_component_repository_open: unable to open mca_osc_ucx: libucp.so.0: cannot open shared object file: No such file or directory (ignored)
[bora001.plafrim.cluster:171923] mca_base_component_repository_open: unable to open mca_osc_ucx: libucp.so.0: cannot open shared object file: No such file or directory (ignored)
[bora001.plafrim.cluster:171919] mca_base_component_repository_open: unable to open mca_osc_ucx: libucp.so.0: cannot open shared object file: No such file or directory (ignored)
[bora001.plafrim.cluster:171925] mca_base_component_repository_open: unable to open mca_osc_ucx: libucp.so.0: cannot open shared object file: No such file or directory (ignored)
[bora002.plafrim.cluster:207336] mca_base_component_repository_open: unable to open mca_osc_ucx: libucp.so.0: cannot open shared object file: No such file or directory (ignored)
[bora002.plafrim.cluster:207332] mca_base_component_repository_open: unable to open mca_osc_ucx: libucp.so.0: cannot open shared object file: No such file or directory (ignored)
[bora002.plafrim.cluster:207338] mca_base_component_repository_open: unable to open mca_osc_ucx: libucp.so.0: cannot open shared object file: No such file or directory (ignored)
