===== My JOB Information ====
Node List:  bora[026-033]
my jobID:  1363642
Partition: routage
submit directory:  /home/lgouveia/luan-teylo/results/IOR/scalability_model/storage_targets/06
submit host:  devel03.plafrim.cluster
In the directory: /home/lgouveia/luan-teylo/results/IOR/scalability_model/storage_targets/06
As the user: lgouveia
============================
IOR-3.4.0+dev: MPI Coordinated Test of Parallel I/O
Began               : Sat Jul 17 08:02:19 2021
Command line        : /home/lgouveia/ior/bin/ior -w -t 1m -b 1024m -k -o /beegfs/lgouveia/ior_6/testFile1
Machine             : Linux bora026.plafrim.cluster
TestID              : 0
StartTime           : Sat Jul 17 08:02:19 2021
Path                : /beegfs/lgouveia/ior_6/testFile1
FS                  : 130.9 TiB   Used FS: 20.8%   Inodes: 0.0 Mi   Used Inodes: -nan%

Options: 
api                 : POSIX
apiVersion          : 
test filename       : /beegfs/lgouveia/ior_6/testFile1
access              : single-shared-file
type                : independent
segments            : 1
ordering in a file  : sequential
ordering inter file : no tasks offsets
nodes               : 8
tasks               : 64
clients per node    : 8
repetitions         : 1
xfersize            : 1 MiB
blocksize           : 1 GiB
aggregate filesize  : 64 GiB

Results: 
WARNING: The file "/beegfs/lgouveia/ior_6/testFile1" exists already and will be overwritten

access    bw(MiB/s)  IOPS       Latency(s)  block(KiB) xfer(KiB)  open(s)    wr/rd(s)   close(s)   total(s)   iter
------    ---------  ----       ----------  ---------- ---------  --------   --------   --------   --------   ----
write     2209.52    2209.61    0.011337    1048576    1024.00    0.008556   29.66      25.82      29.66      0   

Summary of all tests:
Operation   Max(MiB)   Min(MiB)  Mean(MiB)     StdDev   Max(OPs)   Min(OPs)  Mean(OPs)     StdDev    Mean(s) Stonewall(s) Stonewall(MiB) Test# #Tasks tPN reps fPP reord reordoff reordrand seed segcnt   blksiz    xsize aggs(MiB)   API RefNum
write        2209.52    2209.52    2209.52       0.00    2209.52    2209.52    2209.52       0.00   29.66070         NA            NA     0     64   8    1   0     0        1         0    0      1 1073741824  1048576   65536.0 POSIX      0
Finished            : Sat Jul 17 08:02:49 2021
Tracking /beegfs/lgouveia/ior_6/testFile1...



Writing tracked information to tracker.csv...
IOR-3.4.0+dev: MPI Coordinated Test of Parallel I/O
Began               : Sat Jul 17 08:03:52 2021
Command line        : /home/lgouveia/ior/bin/ior -w -t 1m -b 1024m -k -o /beegfs/lgouveia/ior_6/testFile1
Machine             : Linux bora026.plafrim.cluster
TestID              : 0
StartTime           : Sat Jul 17 08:03:52 2021
Path                : /beegfs/lgouveia/ior_6/testFile1
FS                  : 130.9 TiB   Used FS: 20.8%   Inodes: 0.0 Mi   Used Inodes: -nan%

Options: 
api                 : POSIX
apiVersion          : 
test filename       : /beegfs/lgouveia/ior_6/testFile1
access              : single-shared-file
type                : independent
segments            : 1
ordering in a file  : sequential
ordering inter file : no tasks offsets
nodes               : 8
tasks               : 64
clients per node    : 8
repetitions         : 1
xfersize            : 1 MiB
blocksize           : 1 GiB
aggregate filesize  : 64 GiB

Results: 
WARNING: The file "/beegfs/lgouveia/ior_6/testFile1" exists already and will be overwritten

access    bw(MiB/s)  IOPS       Latency(s)  block(KiB) xfer(KiB)  open(s)    wr/rd(s)   close(s)   total(s)   iter
------    ---------  ----       ----------  ---------- ---------  --------   --------   --------   --------   ----
write     2192.33    2192.43    0.014860    1048576    1024.00    0.008094   29.89      25.99      29.89      0   

Summary of all tests:
Operation   Max(MiB)   Min(MiB)  Mean(MiB)     StdDev   Max(OPs)   Min(OPs)  Mean(OPs)     StdDev    Mean(s) Stonewall(s) Stonewall(MiB) Test# #Tasks tPN reps fPP reord reordoff reordrand seed segcnt   blksiz    xsize aggs(MiB)   API RefNum
write        2192.33    2192.33    2192.33       0.00    2192.33    2192.33    2192.33       0.00   29.89328         NA            NA     0     64   8    1   0     0        1         0    0      1 1073741824  1048576   65536.0 POSIX      0
Finished            : Sat Jul 17 08:04:22 2021
Tracking /beegfs/lgouveia/ior_6/testFile1...



Writing tracked information to tracker.csv...
IOR-3.4.0+dev: MPI Coordinated Test of Parallel I/O
Began               : Sat Jul 17 08:05:23 2021
Command line        : /home/lgouveia/ior/bin/ior -w -t 1m -b 1024m -k -o /beegfs/lgouveia/ior_6/testFile1
Machine             : Linux bora026.plafrim.cluster
TestID              : 0
StartTime           : Sat Jul 17 08:05:23 2021
Path                : /beegfs/lgouveia/ior_6/testFile1
FS                  : 130.9 TiB   Used FS: 20.8%   Inodes: 0.0 Mi   Used Inodes: -nan%

Options: 
api                 : POSIX
apiVersion          : 
test filename       : /beegfs/lgouveia/ior_6/testFile1
access              : single-shared-file
type                : independent
segments            : 1
ordering in a file  : sequential
ordering inter file : no tasks offsets
nodes               : 8
tasks               : 64
clients per node    : 8
repetitions         : 1
xfersize            : 1 MiB
blocksize           : 1 GiB
aggregate filesize  : 64 GiB

Results: 
WARNING: The file "/beegfs/lgouveia/ior_6/testFile1" exists already and will be overwritten

access    bw(MiB/s)  IOPS       Latency(s)  block(KiB) xfer(KiB)  open(s)    wr/rd(s)   close(s)   total(s)   iter
------    ---------  ----       ----------  ---------- ---------  --------   --------   --------   --------   ----
write     1668.52    1668.58    0.038328    1048576    1024.00    0.007178   39.28      34.32      39.28      0   

Summary of all tests:
Operation   Max(MiB)   Min(MiB)  Mean(MiB)     StdDev   Max(OPs)   Min(OPs)  Mean(OPs)     StdDev    Mean(s) Stonewall(s) Stonewall(MiB) Test# #Tasks tPN reps fPP reord reordoff reordrand seed segcnt   blksiz    xsize aggs(MiB)   API RefNum
write        1668.52    1668.52    1668.52       0.00    1668.52    1668.52    1668.52       0.00   39.27790         NA            NA     0     64   8    1   0     0        1         0    0      1 1073741824  1048576   65536.0 POSIX      0
Finished            : Sat Jul 17 08:06:02 2021
Tracking /beegfs/lgouveia/ior_6/testFile1...



Writing tracked information to tracker.csv...
IOR-3.4.0+dev: MPI Coordinated Test of Parallel I/O
Began               : Sat Jul 17 08:07:03 2021
Command line        : /home/lgouveia/ior/bin/ior -w -t 1m -b 1024m -k -o /beegfs/lgouveia/ior_6/testFile1
Machine             : Linux bora026.plafrim.cluster
TestID              : 0
StartTime           : Sat Jul 17 08:07:03 2021
Path                : /beegfs/lgouveia/ior_6/testFile1
FS                  : 130.9 TiB   Used FS: 20.8%   Inodes: 0.0 Mi   Used Inodes: -nan%

Options: 
api                 : POSIX
apiVersion          : 
test filename       : /beegfs/lgouveia/ior_6/testFile1
access              : single-shared-file
type                : independent
segments            : 1
ordering in a file  : sequential
ordering inter file : no tasks offsets
nodes               : 8
tasks               : 64
clients per node    : 8
repetitions         : 1
xfersize            : 1 MiB
blocksize           : 1 GiB
aggregate filesize  : 64 GiB

Results: 
WARNING: The file "/beegfs/lgouveia/ior_6/testFile1" exists already and will be overwritten

access    bw(MiB/s)  IOPS       Latency(s)  block(KiB) xfer(KiB)  open(s)    wr/rd(s)   close(s)   total(s)   iter
------    ---------  ----       ----------  ---------- ---------  --------   --------   --------   --------   ----
write     2209.40    2209.49    0.014672    1048576    1024.00    0.007300   29.66      25.76      29.66      0   

Summary of all tests:
Operation   Max(MiB)   Min(MiB)  Mean(MiB)     StdDev   Max(OPs)   Min(OPs)  Mean(OPs)     StdDev    Mean(s) Stonewall(s) Stonewall(MiB) Test# #Tasks tPN reps fPP reord reordoff reordrand seed segcnt   blksiz    xsize aggs(MiB)   API RefNum
write        2209.40    2209.40    2209.40       0.00    2209.40    2209.40    2209.40       0.00   29.66233         NA            NA     0     64   8    1   0     0        1         0    0      1 1073741824  1048576   65536.0 POSIX      0
Finished            : Sat Jul 17 08:07:32 2021
Tracking /beegfs/lgouveia/ior_6/testFile1...



Writing tracked information to tracker.csv...
IOR-3.4.0+dev: MPI Coordinated Test of Parallel I/O
Began               : Sat Jul 17 08:08:33 2021
Command line        : /home/lgouveia/ior/bin/ior -w -t 1m -b 1024m -k -o /beegfs/lgouveia/ior_6/testFile1
Machine             : Linux bora026.plafrim.cluster
TestID              : 0
StartTime           : Sat Jul 17 08:08:33 2021
Path                : /beegfs/lgouveia/ior_6/testFile1
FS                  : 130.9 TiB   Used FS: 20.8%   Inodes: 0.0 Mi   Used Inodes: -nan%

Options: 
api                 : POSIX
apiVersion          : 
test filename       : /beegfs/lgouveia/ior_6/testFile1
access              : single-shared-file
type                : independent
segments            : 1
ordering in a file  : sequential
ordering inter file : no tasks offsets
nodes               : 8
tasks               : 64
clients per node    : 8
repetitions         : 1
xfersize            : 1 MiB
blocksize           : 1 GiB
aggregate filesize  : 64 GiB

Results: 
WARNING: The file "/beegfs/lgouveia/ior_6/testFile1" exists already and will be overwritten

access    bw(MiB/s)  IOPS       Latency(s)  block(KiB) xfer(KiB)  open(s)    wr/rd(s)   close(s)   total(s)   iter
------    ---------  ----       ----------  ---------- ---------  --------   --------   --------   --------   ----
write     2193.29    2193.38    0.017485    1048576    1024.00    0.008101   29.88      25.83      29.88      0   

Summary of all tests:
Operation   Max(MiB)   Min(MiB)  Mean(MiB)     StdDev   Max(OPs)   Min(OPs)  Mean(OPs)     StdDev    Mean(s) Stonewall(s) Stonewall(MiB) Test# #Tasks tPN reps fPP reord reordoff reordrand seed segcnt   blksiz    xsize aggs(MiB)   API RefNum
write        2193.29    2193.29    2193.29       0.00    2193.29    2193.29    2193.29       0.00   29.88028         NA            NA     0     64   8    1   0     0        1         0    0      1 1073741824  1048576   65536.0 POSIX      0
Finished            : Sat Jul 17 08:09:03 2021
Tracking /beegfs/lgouveia/ior_6/testFile1...



Writing tracked information to tracker.csv...
IOR-3.4.0+dev: MPI Coordinated Test of Parallel I/O
Began               : Sat Jul 17 08:10:04 2021
Command line        : /home/lgouveia/ior/bin/ior -w -t 1m -b 1024m -k -o /beegfs/lgouveia/ior_6/testFile1
Machine             : Linux bora026.plafrim.cluster
TestID              : 0
StartTime           : Sat Jul 17 08:10:04 2021
Path                : /beegfs/lgouveia/ior_6/testFile1
FS                  : 130.9 TiB   Used FS: 20.8%   Inodes: 0.0 Mi   Used Inodes: -nan%

Options: 
api                 : POSIX
apiVersion          : 
test filename       : /beegfs/lgouveia/ior_6/testFile1
access              : single-shared-file
type                : independent
segments            : 1
ordering in a file  : sequential
ordering inter file : no tasks offsets
nodes               : 8
tasks               : 64
clients per node    : 8
repetitions         : 1
xfersize            : 1 MiB
blocksize           : 1 GiB
aggregate filesize  : 64 GiB

Results: 
WARNING: The file "/beegfs/lgouveia/ior_6/testFile1" exists already and will be overwritten

access    bw(MiB/s)  IOPS       Latency(s)  block(KiB) xfer(KiB)  open(s)    wr/rd(s)   close(s)   total(s)   iter
------    ---------  ----       ----------  ---------- ---------  --------   --------   --------   --------   ----
write     1652.95    1653.00    0.028290    1048576    1024.00    0.006897   39.65      34.48      39.65      0   

Summary of all tests:
Operation   Max(MiB)   Min(MiB)  Mean(MiB)     StdDev   Max(OPs)   Min(OPs)  Mean(OPs)     StdDev    Mean(s) Stonewall(s) Stonewall(MiB) Test# #Tasks tPN reps fPP reord reordoff reordrand seed segcnt   blksiz    xsize aggs(MiB)   API RefNum
write        1652.95    1652.95    1652.95       0.00    1652.95    1652.95    1652.95       0.00   39.64796         NA            NA     0     64   8    1   0     0        1         0    0      1 1073741824  1048576   65536.0 POSIX      0
Finished            : Sat Jul 17 08:10:44 2021
Tracking /beegfs/lgouveia/ior_6/testFile1...



Writing tracked information to tracker.csv...
IOR-3.4.0+dev: MPI Coordinated Test of Parallel I/O
Began               : Sat Jul 17 08:11:45 2021
Command line        : /home/lgouveia/ior/bin/ior -w -t 1m -b 1024m -k -o /beegfs/lgouveia/ior_6/testFile1
Machine             : Linux bora026.plafrim.cluster
TestID              : 0
StartTime           : Sat Jul 17 08:11:45 2021
Path                : /beegfs/lgouveia/ior_6/testFile1
FS                  : 130.9 TiB   Used FS: 20.8%   Inodes: 0.0 Mi   Used Inodes: -nan%

Options: 
api                 : POSIX
apiVersion          : 
test filename       : /beegfs/lgouveia/ior_6/testFile1
access              : single-shared-file
type                : independent
segments            : 1
ordering in a file  : sequential
ordering inter file : no tasks offsets
nodes               : 8
tasks               : 64
clients per node    : 8
repetitions         : 1
xfersize            : 1 MiB
blocksize           : 1 GiB
aggregate filesize  : 64 GiB

Results: 
WARNING: The file "/beegfs/lgouveia/ior_6/testFile1" exists already and will be overwritten

access    bw(MiB/s)  IOPS       Latency(s)  block(KiB) xfer(KiB)  open(s)    wr/rd(s)   close(s)   total(s)   iter
------    ---------  ----       ----------  ---------- ---------  --------   --------   --------   --------   ----
write     2200.59    2200.67    0.014723    1048576    1024.00    0.007539   29.78      25.92      29.78      0   

Summary of all tests:
Operation   Max(MiB)   Min(MiB)  Mean(MiB)     StdDev   Max(OPs)   Min(OPs)  Mean(OPs)     StdDev    Mean(s) Stonewall(s) Stonewall(MiB) Test# #Tasks tPN reps fPP reord reordoff reordrand seed segcnt   blksiz    xsize aggs(MiB)   API RefNum
write        2200.59    2200.59    2200.59       0.00    2200.59    2200.59    2200.59       0.00   29.78109         NA            NA     0     64   8    1   0     0        1         0    0      1 1073741824  1048576   65536.0 POSIX      0
Finished            : Sat Jul 17 08:12:15 2021
Tracking /beegfs/lgouveia/ior_6/testFile1...



Writing tracked information to tracker.csv...
IOR-3.4.0+dev: MPI Coordinated Test of Parallel I/O
Began               : Sat Jul 17 08:13:15 2021
Command line        : /home/lgouveia/ior/bin/ior -w -t 1m -b 1024m -k -o /beegfs/lgouveia/ior_6/testFile1
Machine             : Linux bora026.plafrim.cluster
TestID              : 0
StartTime           : Sat Jul 17 08:13:15 2021
Path                : /beegfs/lgouveia/ior_6/testFile1
FS                  : 130.9 TiB   Used FS: 20.8%   Inodes: 0.0 Mi   Used Inodes: -nan%

Options: 
api                 : POSIX
apiVersion          : 
test filename       : /beegfs/lgouveia/ior_6/testFile1
access              : single-shared-file
type                : independent
segments            : 1
ordering in a file  : sequential
ordering inter file : no tasks offsets
nodes               : 8
tasks               : 64
clients per node    : 8
repetitions         : 1
xfersize            : 1 MiB
blocksize           : 1 GiB
aggregate filesize  : 64 GiB

Results: 
WARNING: The file "/beegfs/lgouveia/ior_6/testFile1" exists already and will be overwritten

access    bw(MiB/s)  IOPS       Latency(s)  block(KiB) xfer(KiB)  open(s)    wr/rd(s)   close(s)   total(s)   iter
------    ---------  ----       ----------  ---------- ---------  --------   --------   --------   --------   ----
write     1662.91    1662.96    0.034838    1048576    1024.00    0.006391   39.41      34.28      39.41      0   

Summary of all tests:
Operation   Max(MiB)   Min(MiB)  Mean(MiB)     StdDev   Max(OPs)   Min(OPs)  Mean(OPs)     StdDev    Mean(s) Stonewall(s) Stonewall(MiB) Test# #Tasks tPN reps fPP reord reordoff reordrand seed segcnt   blksiz    xsize aggs(MiB)   API RefNum
write        1662.91    1662.91    1662.91       0.00    1662.91    1662.91    1662.91       0.00   39.41051         NA            NA     0     64   8    1   0     0        1         0    0      1 1073741824  1048576   65536.0 POSIX      0
Finished            : Sat Jul 17 08:13:55 2021
Tracking /beegfs/lgouveia/ior_6/testFile1...



Writing tracked information to tracker.csv...
IOR-3.4.0+dev: MPI Coordinated Test of Parallel I/O
Began               : Sat Jul 17 08:14:56 2021
Command line        : /home/lgouveia/ior/bin/ior -w -t 1m -b 1024m -k -o /beegfs/lgouveia/ior_6/testFile1
Machine             : Linux bora026.plafrim.cluster
TestID              : 0
StartTime           : Sat Jul 17 08:14:56 2021
Path                : /beegfs/lgouveia/ior_6/testFile1
FS                  : 130.9 TiB   Used FS: 20.8%   Inodes: 0.0 Mi   Used Inodes: -nan%

Options: 
api                 : POSIX
apiVersion          : 
test filename       : /beegfs/lgouveia/ior_6/testFile1
access              : single-shared-file
type                : independent
segments            : 1
ordering in a file  : sequential
ordering inter file : no tasks offsets
nodes               : 8
tasks               : 64
clients per node    : 8
repetitions         : 1
xfersize            : 1 MiB
blocksize           : 1 GiB
aggregate filesize  : 64 GiB

Results: 
WARNING: The file "/beegfs/lgouveia/ior_6/testFile1" exists already and will be overwritten

access    bw(MiB/s)  IOPS       Latency(s)  block(KiB) xfer(KiB)  open(s)    wr/rd(s)   close(s)   total(s)   iter
------    ---------  ----       ----------  ---------- ---------  --------   --------   --------   --------   ----
write     2201.71    2201.77    0.023166    1048576    1024.00    0.008007   29.77      25.88      29.77      0   

Summary of all tests:
Operation   Max(MiB)   Min(MiB)  Mean(MiB)     StdDev   Max(OPs)   Min(OPs)  Mean(OPs)     StdDev    Mean(s) Stonewall(s) Stonewall(MiB) Test# #Tasks tPN reps fPP reord reordoff reordrand seed segcnt   blksiz    xsize aggs(MiB)   API RefNum
write        2201.71    2201.71    2201.71       0.00    2201.71    2201.71    2201.71       0.00   29.76599         NA            NA     0     64   8    1   0     0        1         0    0      1 1073741824  1048576   65536.0 POSIX      0
Finished            : Sat Jul 17 08:15:26 2021
Tracking /beegfs/lgouveia/ior_6/testFile1...



Writing tracked information to tracker.csv...
IOR-3.4.0+dev: MPI Coordinated Test of Parallel I/O
Began               : Sat Jul 17 08:16:26 2021
Command line        : /home/lgouveia/ior/bin/ior -w -t 1m -b 1024m -k -o /beegfs/lgouveia/ior_6/testFile1
Machine             : Linux bora026.plafrim.cluster
TestID              : 0
StartTime           : Sat Jul 17 08:16:26 2021
Path                : /beegfs/lgouveia/ior_6/testFile1
FS                  : 130.9 TiB   Used FS: 20.8%   Inodes: 0.0 Mi   Used Inodes: -nan%

Options: 
api                 : POSIX
apiVersion          : 
test filename       : /beegfs/lgouveia/ior_6/testFile1
access              : single-shared-file
type                : independent
segments            : 1
ordering in a file  : sequential
ordering inter file : no tasks offsets
nodes               : 8
tasks               : 64
clients per node    : 8
repetitions         : 1
xfersize            : 1 MiB
blocksize           : 1 GiB
aggregate filesize  : 64 GiB

Results: 
WARNING: The file "/beegfs/lgouveia/ior_6/testFile1" exists already and will be overwritten

access    bw(MiB/s)  IOPS       Latency(s)  block(KiB) xfer(KiB)  open(s)    wr/rd(s)   close(s)   total(s)   iter
------    ---------  ----       ----------  ---------- ---------  --------   --------   --------   --------   ----
write     1657.92    1657.98    0.034909    1048576    1024.00    0.016411   39.53      34.36      39.53      0   

Summary of all tests:
Operation   Max(MiB)   Min(MiB)  Mean(MiB)     StdDev   Max(OPs)   Min(OPs)  Mean(OPs)     StdDev    Mean(s) Stonewall(s) Stonewall(MiB) Test# #Tasks tPN reps fPP reord reordoff reordrand seed segcnt   blksiz    xsize aggs(MiB)   API RefNum
write        1657.92    1657.92    1657.92       0.00    1657.92    1657.92    1657.92       0.00   39.52893         NA            NA     0     64   8    1   0     0        1         0    0      1 1073741824  1048576   65536.0 POSIX      0
Finished            : Sat Jul 17 08:17:06 2021
Tracking /beegfs/lgouveia/ior_6/testFile1...



Writing tracked information to tracker.csv...
