===== My JOB Information ====
Node List:  bora[001-018,020-024,030-038]
my jobID:  1476719
Partition: routage
submit directory:  /home/lgouveia/luan-teylo/tests/omnipath/overlap/4_apps/04
submit host:  devel02.plafrim.cluster
In the directory: /home/lgouveia/luan-teylo/tests/omnipath/overlap/4_apps/04
As the user: lgouveia
============================
Tracking /beegfs/lgouveia/ior_4/testFileApp_1...
Tracking /beegfs/lgouveia/ior_4/testFileApp_2...
Tracking /beegfs/lgouveia/ior_4/testFileApp_4...
Tracking /beegfs/lgouveia/ior_4/testFileApp_3...



Writing tracked information to tracker.csv...
Tracking /beegfs/lgouveia/ior_4/testFileApp_4...
Tracking /beegfs/lgouveia/ior_4/testFileApp_2...
Tracking /beegfs/lgouveia/ior_4/testFileApp_1...
Tracking /beegfs/lgouveia/ior_4/testFileApp_3...



Writing tracked information to tracker.csv...
Tracking /beegfs/lgouveia/ior_4/testFileApp_1...
Tracking /beegfs/lgouveia/ior_4/testFileApp_2...
Tracking /beegfs/lgouveia/ior_4/testFileApp_4...
Tracking /beegfs/lgouveia/ior_4/testFileApp_3...



Writing tracked information to tracker.csv...
Tracking /beegfs/lgouveia/ior_4/testFileApp_1...
Tracking /beegfs/lgouveia/ior_4/testFileApp_2...
Tracking /beegfs/lgouveia/ior_4/testFileApp_4...
Tracking /beegfs/lgouveia/ior_4/testFileApp_3...



Writing tracked information to tracker.csv...
Tracking /beegfs/lgouveia/ior_4/testFileApp_4...
Tracking /beegfs/lgouveia/ior_4/testFileApp_2...
Tracking /beegfs/lgouveia/ior_4/testFileApp_1...
Tracking /beegfs/lgouveia/ior_4/testFileApp_3...



Writing tracked information to tracker.csv...
Tracking /beegfs/lgouveia/ior_4/testFileApp_4...
Tracking /beegfs/lgouveia/ior_4/testFileApp_2...
Tracking /beegfs/lgouveia/ior_4/testFileApp_1...
Tracking /beegfs/lgouveia/ior_4/testFileApp_3...



Writing tracked information to tracker.csv...
Tracking /beegfs/lgouveia/ior_4/testFileApp_4...
Tracking /beegfs/lgouveia/ior_4/testFileApp_1...
Tracking /beegfs/lgouveia/ior_4/testFileApp_2...
Tracking /beegfs/lgouveia/ior_4/testFileApp_3...



Writing tracked information to tracker.csv...
Tracking /beegfs/lgouveia/ior_4/testFileApp_1...
Tracking /beegfs/lgouveia/ior_4/testFileApp_2...
Tracking /beegfs/lgouveia/ior_4/testFileApp_4...
Tracking /beegfs/lgouveia/ior_4/testFileApp_3...



Writing tracked information to tracker.csv...
Tracking /beegfs/lgouveia/ior_4/testFileApp_1...
Tracking /beegfs/lgouveia/ior_4/testFileApp_2...
Tracking /beegfs/lgouveia/ior_4/testFileApp_4...
Tracking /beegfs/lgouveia/ior_4/testFileApp_3...



Writing tracked information to tracker.csv...
Tracking /beegfs/lgouveia/ior_4/testFileApp_4...
Tracking /beegfs/lgouveia/ior_4/testFileApp_2...
Tracking /beegfs/lgouveia/ior_4/testFileApp_1...
Tracking /beegfs/lgouveia/ior_4/testFileApp_3...



Writing tracked information to tracker.csv...
