IOR-3.4.0+dev: MPI Coordinated Test of Parallel I/O
Began               : Fri Feb 11 04:19:37 2022
Command line        : /home/lgouveia/ior/bin/ior -w -t 1m -b 512m -k -o /beegfs/lgouveia/ior_4/testFileApp_1
Machine             : Linux bora001.plafrim.cluster
TestID              : 0
StartTime           : Fri Feb 11 04:19:37 2022
Path                : /beegfs/lgouveia/ior_4/testFileApp_1
FS                  : 130.9 TiB   Used FS: 37.3%   Inodes: 0.0 Mi   Used Inodes: -nan%

Options: 
api                 : POSIX
apiVersion          : 
test filename       : /beegfs/lgouveia/ior_4/testFileApp_1
access              : single-shared-file
type                : independent
segments            : 1
ordering in a file  : sequential
ordering inter file : no tasks offsets
nodes               : 8
tasks               : 64
clients per node    : 8
repetitions         : 1
xfersize            : 1 MiB
blocksize           : 512 MiB
aggregate filesize  : 32 GiB

Results: 
WARNING: The file "/beegfs/lgouveia/ior_4/testFileApp_1" exists already and will be overwritten

access    bw(MiB/s)  IOPS       Latency(s)  block(KiB) xfer(KiB)  open(s)    wr/rd(s)   close(s)   total(s)   iter
------    ---------  ----       ----------  ---------- ---------  --------   --------   --------   --------   ----
write     2940.67    2940.92    0.021037    524288     1024.00    0.011037   11.14      9.57       11.14      0   

Summary of all tests:
Operation   Max(MiB)   Min(MiB)  Mean(MiB)     StdDev   Max(OPs)   Min(OPs)  Mean(OPs)     StdDev    Mean(s) Stonewall(s) Stonewall(MiB) Test# #Tasks tPN reps fPP reord reordoff reordrand seed segcnt   blksiz    xsize aggs(MiB)   API RefNum
write        2940.67    2940.67    2940.67       0.00    2940.67    2940.67    2940.67       0.00   11.14304         NA            NA     0     64   8    1   0     0        1         0    0      1 536870912  1048576   32768.0 POSIX      0
Finished            : Fri Feb 11 04:19:48 2022
IOR-3.4.0+dev: MPI Coordinated Test of Parallel I/O
Began               : Fri Feb 11 04:20:50 2022
Command line        : /home/lgouveia/ior/bin/ior -w -t 1m -b 512m -k -o /beegfs/lgouveia/ior_4/testFileApp_1
Machine             : Linux bora001.plafrim.cluster
TestID              : 0
StartTime           : Fri Feb 11 04:20:50 2022
Path                : /beegfs/lgouveia/ior_4/testFileApp_1
FS                  : 130.9 TiB   Used FS: 37.3%   Inodes: 0.0 Mi   Used Inodes: -nan%

Options: 
api                 : POSIX
apiVersion          : 
test filename       : /beegfs/lgouveia/ior_4/testFileApp_1
access              : single-shared-file
type                : independent
segments            : 1
ordering in a file  : sequential
ordering inter file : no tasks offsets
nodes               : 8
tasks               : 64
clients per node    : 8
repetitions         : 1
xfersize            : 1 MiB
blocksize           : 512 MiB
aggregate filesize  : 32 GiB

Results: 
WARNING: The file "/beegfs/lgouveia/ior_4/testFileApp_1" exists already and will be overwritten

access    bw(MiB/s)  IOPS       Latency(s)  block(KiB) xfer(KiB)  open(s)    wr/rd(s)   close(s)   total(s)   iter
------    ---------  ----       ----------  ---------- ---------  --------   --------   --------   --------   ----
write     3108.22    3108.48    0.011931    524288     1024.00    0.018838   10.54      8.99       10.54      0   

Summary of all tests:
Operation   Max(MiB)   Min(MiB)  Mean(MiB)     StdDev   Max(OPs)   Min(OPs)  Mean(OPs)     StdDev    Mean(s) Stonewall(s) Stonewall(MiB) Test# #Tasks tPN reps fPP reord reordoff reordrand seed segcnt   blksiz    xsize aggs(MiB)   API RefNum
write        3108.22    3108.22    3108.22       0.00    3108.22    3108.22    3108.22       0.00   10.54237         NA            NA     0     64   8    1   0     0        1         0    0      1 536870912  1048576   32768.0 POSIX      0
Finished            : Fri Feb 11 04:21:00 2022
IOR-3.4.0+dev: MPI Coordinated Test of Parallel I/O
Began               : Fri Feb 11 04:22:02 2022
Command line        : /home/lgouveia/ior/bin/ior -w -t 1m -b 512m -k -o /beegfs/lgouveia/ior_4/testFileApp_1
Machine             : Linux bora001.plafrim.cluster
TestID              : 0
StartTime           : Fri Feb 11 04:22:02 2022
Path                : /beegfs/lgouveia/ior_4/testFileApp_1
FS                  : 130.9 TiB   Used FS: 37.3%   Inodes: 0.0 Mi   Used Inodes: -nan%

Options: 
api                 : POSIX
apiVersion          : 
test filename       : /beegfs/lgouveia/ior_4/testFileApp_1
access              : single-shared-file
type                : independent
segments            : 1
ordering in a file  : sequential
ordering inter file : no tasks offsets
nodes               : 8
tasks               : 64
clients per node    : 8
repetitions         : 1
xfersize            : 1 MiB
blocksize           : 512 MiB
aggregate filesize  : 32 GiB

Results: 
WARNING: The file "/beegfs/lgouveia/ior_4/testFileApp_1" exists already and will be overwritten

access    bw(MiB/s)  IOPS       Latency(s)  block(KiB) xfer(KiB)  open(s)    wr/rd(s)   close(s)   total(s)   iter
------    ---------  ----       ----------  ---------- ---------  --------   --------   --------   --------   ----
write     3311.66    3312.20    0.017404    524288     1024.00    0.012964   9.89       8.85       9.89       0   

Summary of all tests:
Operation   Max(MiB)   Min(MiB)  Mean(MiB)     StdDev   Max(OPs)   Min(OPs)  Mean(OPs)     StdDev    Mean(s) Stonewall(s) Stonewall(MiB) Test# #Tasks tPN reps fPP reord reordoff reordrand seed segcnt   blksiz    xsize aggs(MiB)   API RefNum
write        3311.66    3311.66    3311.66       0.00    3311.66    3311.66    3311.66       0.00    9.89475         NA            NA     0     64   8    1   0     0        1         0    0      1 536870912  1048576   32768.0 POSIX      0
Finished            : Fri Feb 11 04:22:12 2022
IOR-3.4.0+dev: MPI Coordinated Test of Parallel I/O
Began               : Fri Feb 11 04:23:16 2022
Command line        : /home/lgouveia/ior/bin/ior -w -t 1m -b 512m -k -o /beegfs/lgouveia/ior_4/testFileApp_1
Machine             : Linux bora001.plafrim.cluster
TestID              : 0
StartTime           : Fri Feb 11 04:23:16 2022
Path                : /beegfs/lgouveia/ior_4/testFileApp_1
FS                  : 130.9 TiB   Used FS: 37.3%   Inodes: 0.0 Mi   Used Inodes: -nan%

Options: 
api                 : POSIX
apiVersion          : 
test filename       : /beegfs/lgouveia/ior_4/testFileApp_1
access              : single-shared-file
type                : independent
segments            : 1
ordering in a file  : sequential
ordering inter file : no tasks offsets
nodes               : 8
tasks               : 64
clients per node    : 8
repetitions         : 1
xfersize            : 1 MiB
blocksize           : 512 MiB
aggregate filesize  : 32 GiB

Results: 
WARNING: The file "/beegfs/lgouveia/ior_4/testFileApp_1" exists already and will be overwritten

access    bw(MiB/s)  IOPS       Latency(s)  block(KiB) xfer(KiB)  open(s)    wr/rd(s)   close(s)   total(s)   iter
------    ---------  ----       ----------  ---------- ---------  --------   --------   --------   --------   ----
write     3100.98    3101.21    0.016698    524288     1024.00    0.125695   10.57      8.97       10.57      0   

Summary of all tests:
Operation   Max(MiB)   Min(MiB)  Mean(MiB)     StdDev   Max(OPs)   Min(OPs)  Mean(OPs)     StdDev    Mean(s) Stonewall(s) Stonewall(MiB) Test# #Tasks tPN reps fPP reord reordoff reordrand seed segcnt   blksiz    xsize aggs(MiB)   API RefNum
write        3100.98    3100.98    3100.98       0.00    3100.98    3100.98    3100.98       0.00   10.56697         NA            NA     0     64   8    1   0     0        1         0    0      1 536870912  1048576   32768.0 POSIX      0
Finished            : Fri Feb 11 04:23:26 2022
IOR-3.4.0+dev: MPI Coordinated Test of Parallel I/O
Began               : Fri Feb 11 04:24:28 2022
Command line        : /home/lgouveia/ior/bin/ior -w -t 1m -b 512m -k -o /beegfs/lgouveia/ior_4/testFileApp_1
Machine             : Linux bora001.plafrim.cluster
TestID              : 0
StartTime           : Fri Feb 11 04:24:28 2022
Path                : /beegfs/lgouveia/ior_4/testFileApp_1
FS                  : 130.9 TiB   Used FS: 37.3%   Inodes: 0.0 Mi   Used Inodes: -nan%

Options: 
api                 : POSIX
apiVersion          : 
test filename       : /beegfs/lgouveia/ior_4/testFileApp_1
access              : single-shared-file
type                : independent
segments            : 1
ordering in a file  : sequential
ordering inter file : no tasks offsets
nodes               : 8
tasks               : 64
clients per node    : 8
repetitions         : 1
xfersize            : 1 MiB
blocksize           : 512 MiB
aggregate filesize  : 32 GiB

Results: 
WARNING: The file "/beegfs/lgouveia/ior_4/testFileApp_1" exists already and will be overwritten

access    bw(MiB/s)  IOPS       Latency(s)  block(KiB) xfer(KiB)  open(s)    wr/rd(s)   close(s)   total(s)   iter
------    ---------  ----       ----------  ---------- ---------  --------   --------   --------   --------   ----
write     3108.57    3109.07    0.015409    524288     1024.00    0.009682   10.54      8.87       10.54      0   

Summary of all tests:
Operation   Max(MiB)   Min(MiB)  Mean(MiB)     StdDev   Max(OPs)   Min(OPs)  Mean(OPs)     StdDev    Mean(s) Stonewall(s) Stonewall(MiB) Test# #Tasks tPN reps fPP reord reordoff reordrand seed segcnt   blksiz    xsize aggs(MiB)   API RefNum
write        3108.57    3108.57    3108.57       0.00    3108.57    3108.57    3108.57       0.00   10.54118         NA            NA     0     64   8    1   0     0        1         0    0      1 536870912  1048576   32768.0 POSIX      0
Finished            : Fri Feb 11 04:24:38 2022
IOR-3.4.0+dev: MPI Coordinated Test of Parallel I/O
Began               : Fri Feb 11 04:25:39 2022
Command line        : /home/lgouveia/ior/bin/ior -w -t 1m -b 512m -k -o /beegfs/lgouveia/ior_4/testFileApp_1
Machine             : Linux bora001.plafrim.cluster
TestID              : 0
StartTime           : Fri Feb 11 04:25:39 2022
Path                : /beegfs/lgouveia/ior_4/testFileApp_1
FS                  : 130.9 TiB   Used FS: 37.3%   Inodes: 0.0 Mi   Used Inodes: -nan%

Options: 
api                 : POSIX
apiVersion          : 
test filename       : /beegfs/lgouveia/ior_4/testFileApp_1
access              : single-shared-file
type                : independent
segments            : 1
ordering in a file  : sequential
ordering inter file : no tasks offsets
nodes               : 8
tasks               : 64
clients per node    : 8
repetitions         : 1
xfersize            : 1 MiB
blocksize           : 512 MiB
aggregate filesize  : 32 GiB

Results: 
WARNING: The file "/beegfs/lgouveia/ior_4/testFileApp_1" exists already and will be overwritten

access    bw(MiB/s)  IOPS       Latency(s)  block(KiB) xfer(KiB)  open(s)    wr/rd(s)   close(s)   total(s)   iter
------    ---------  ----       ----------  ---------- ---------  --------   --------   --------   --------   ----
write     3806       3806       0.016679    524288     1024.00    0.017822   8.61       7.13       8.61       0   

Summary of all tests:
Operation   Max(MiB)   Min(MiB)  Mean(MiB)     StdDev   Max(OPs)   Min(OPs)  Mean(OPs)     StdDev    Mean(s) Stonewall(s) Stonewall(MiB) Test# #Tasks tPN reps fPP reord reordoff reordrand seed segcnt   blksiz    xsize aggs(MiB)   API RefNum
write        3805.69    3805.69    3805.69       0.00    3805.69    3805.69    3805.69       0.00    8.61026         NA            NA     0     64   8    1   0     0        1         0    0      1 536870912  1048576   32768.0 POSIX      0
Finished            : Fri Feb 11 04:25:48 2022
IOR-3.4.0+dev: MPI Coordinated Test of Parallel I/O
Began               : Fri Feb 11 04:26:52 2022
Command line        : /home/lgouveia/ior/bin/ior -w -t 1m -b 512m -k -o /beegfs/lgouveia/ior_4/testFileApp_1
Machine             : Linux bora001.plafrim.cluster
TestID              : 0
StartTime           : Fri Feb 11 04:26:52 2022
Path                : /beegfs/lgouveia/ior_4/testFileApp_1
FS                  : 130.9 TiB   Used FS: 37.3%   Inodes: 0.0 Mi   Used Inodes: -nan%

Options: 
api                 : POSIX
apiVersion          : 
test filename       : /beegfs/lgouveia/ior_4/testFileApp_1
access              : single-shared-file
type                : independent
segments            : 1
ordering in a file  : sequential
ordering inter file : no tasks offsets
nodes               : 8
tasks               : 64
clients per node    : 8
repetitions         : 1
xfersize            : 1 MiB
blocksize           : 512 MiB
aggregate filesize  : 32 GiB

Results: 
WARNING: The file "/beegfs/lgouveia/ior_4/testFileApp_1" exists already and will be overwritten

access    bw(MiB/s)  IOPS       Latency(s)  block(KiB) xfer(KiB)  open(s)    wr/rd(s)   close(s)   total(s)   iter
------    ---------  ----       ----------  ---------- ---------  --------   --------   --------   --------   ----
write     3357.16    3357.86    0.012195    524288     1024.00    0.014816   9.76       8.42       9.76       0   

Summary of all tests:
Operation   Max(MiB)   Min(MiB)  Mean(MiB)     StdDev   Max(OPs)   Min(OPs)  Mean(OPs)     StdDev    Mean(s) Stonewall(s) Stonewall(MiB) Test# #Tasks tPN reps fPP reord reordoff reordrand seed segcnt   blksiz    xsize aggs(MiB)   API RefNum
write        3357.16    3357.16    3357.16       0.00    3357.16    3357.16    3357.16       0.00    9.76062         NA            NA     0     64   8    1   0     0        1         0    0      1 536870912  1048576   32768.0 POSIX      0
Finished            : Fri Feb 11 04:27:01 2022
IOR-3.4.0+dev: MPI Coordinated Test of Parallel I/O
Began               : Fri Feb 11 04:28:05 2022
Command line        : /home/lgouveia/ior/bin/ior -w -t 1m -b 512m -k -o /beegfs/lgouveia/ior_4/testFileApp_1
Machine             : Linux bora001.plafrim.cluster
TestID              : 0
StartTime           : Fri Feb 11 04:28:05 2022
Path                : /beegfs/lgouveia/ior_4/testFileApp_1
FS                  : 130.9 TiB   Used FS: 37.3%   Inodes: 0.0 Mi   Used Inodes: -nan%

Options: 
api                 : POSIX
apiVersion          : 
test filename       : /beegfs/lgouveia/ior_4/testFileApp_1
access              : single-shared-file
type                : independent
segments            : 1
ordering in a file  : sequential
ordering inter file : no tasks offsets
nodes               : 8
tasks               : 64
clients per node    : 8
repetitions         : 1
xfersize            : 1 MiB
blocksize           : 512 MiB
aggregate filesize  : 32 GiB

Results: 
WARNING: The file "/beegfs/lgouveia/ior_4/testFileApp_1" exists already and will be overwritten

access    bw(MiB/s)  IOPS       Latency(s)  block(KiB) xfer(KiB)  open(s)    wr/rd(s)   close(s)   total(s)   iter
------    ---------  ----       ----------  ---------- ---------  --------   --------   --------   --------   ----
write     3255.83    3256.21    0.003525    524288     1024.00    0.022547   10.06      8.70       10.06      0   

Summary of all tests:
Operation   Max(MiB)   Min(MiB)  Mean(MiB)     StdDev   Max(OPs)   Min(OPs)  Mean(OPs)     StdDev    Mean(s) Stonewall(s) Stonewall(MiB) Test# #Tasks tPN reps fPP reord reordoff reordrand seed segcnt   blksiz    xsize aggs(MiB)   API RefNum
write        3255.83    3255.83    3255.83       0.00    3255.83    3255.83    3255.83       0.00   10.06441         NA            NA     0     64   8    1   0     0        1         0    0      1 536870912  1048576   32768.0 POSIX      0
Finished            : Fri Feb 11 04:28:16 2022
IOR-3.4.0+dev: MPI Coordinated Test of Parallel I/O
Began               : Fri Feb 11 04:29:17 2022
Command line        : /home/lgouveia/ior/bin/ior -w -t 1m -b 512m -k -o /beegfs/lgouveia/ior_4/testFileApp_1
Machine             : Linux bora001.plafrim.cluster
TestID              : 0
StartTime           : Fri Feb 11 04:29:17 2022
Path                : /beegfs/lgouveia/ior_4/testFileApp_1
FS                  : 130.9 TiB   Used FS: 37.3%   Inodes: 0.0 Mi   Used Inodes: -nan%

Options: 
api                 : POSIX
apiVersion          : 
test filename       : /beegfs/lgouveia/ior_4/testFileApp_1
access              : single-shared-file
type                : independent
segments            : 1
ordering in a file  : sequential
ordering inter file : no tasks offsets
nodes               : 8
tasks               : 64
clients per node    : 8
repetitions         : 1
xfersize            : 1 MiB
blocksize           : 512 MiB
aggregate filesize  : 32 GiB

Results: 
WARNING: The file "/beegfs/lgouveia/ior_4/testFileApp_1" exists already and will be overwritten

access    bw(MiB/s)  IOPS       Latency(s)  block(KiB) xfer(KiB)  open(s)    wr/rd(s)   close(s)   total(s)   iter
------    ---------  ----       ----------  ---------- ---------  --------   --------   --------   --------   ----
write     2825.50    2825.72    0.020605    524288     1024.00    0.081190   11.60      10.30      11.60      0   

Summary of all tests:
Operation   Max(MiB)   Min(MiB)  Mean(MiB)     StdDev   Max(OPs)   Min(OPs)  Mean(OPs)     StdDev    Mean(s) Stonewall(s) Stonewall(MiB) Test# #Tasks tPN reps fPP reord reordoff reordrand seed segcnt   blksiz    xsize aggs(MiB)   API RefNum
write        2825.50    2825.50    2825.50       0.00    2825.50    2825.50    2825.50       0.00   11.59723         NA            NA     0     64   8    1   0     0        1         0    0      1 536870912  1048576   32768.0 POSIX      0
Finished            : Fri Feb 11 04:29:29 2022
IOR-3.4.0+dev: MPI Coordinated Test of Parallel I/O
Began               : Fri Feb 11 04:30:31 2022
Command line        : /home/lgouveia/ior/bin/ior -w -t 1m -b 512m -k -o /beegfs/lgouveia/ior_4/testFileApp_1
Machine             : Linux bora001.plafrim.cluster
TestID              : 0
StartTime           : Fri Feb 11 04:30:31 2022
Path                : /beegfs/lgouveia/ior_4/testFileApp_1
FS                  : 130.9 TiB   Used FS: 37.3%   Inodes: 0.0 Mi   Used Inodes: -nan%

Options: 
api                 : POSIX
apiVersion          : 
test filename       : /beegfs/lgouveia/ior_4/testFileApp_1
access              : single-shared-file
type                : independent
segments            : 1
ordering in a file  : sequential
ordering inter file : no tasks offsets
nodes               : 8
tasks               : 64
clients per node    : 8
repetitions         : 1
xfersize            : 1 MiB
blocksize           : 512 MiB
aggregate filesize  : 32 GiB

Results: 
WARNING: The file "/beegfs/lgouveia/ior_4/testFileApp_1" exists already and will be overwritten

access    bw(MiB/s)  IOPS       Latency(s)  block(KiB) xfer(KiB)  open(s)    wr/rd(s)   close(s)   total(s)   iter
------    ---------  ----       ----------  ---------- ---------  --------   --------   --------   --------   ----
write     3181.07    3181.37    0.019469    524288     1024.00    0.177493   10.30      8.73       10.30      0   

Summary of all tests:
Operation   Max(MiB)   Min(MiB)  Mean(MiB)     StdDev   Max(OPs)   Min(OPs)  Mean(OPs)     StdDev    Mean(s) Stonewall(s) Stonewall(MiB) Test# #Tasks tPN reps fPP reord reordoff reordrand seed segcnt   blksiz    xsize aggs(MiB)   API RefNum
write        3181.07    3181.07    3181.07       0.00    3181.07    3181.07    3181.07       0.00   10.30095         NA            NA     0     64   8    1   0     0        1         0    0      1 536870912  1048576   32768.0 POSIX      0
Finished            : Fri Feb 11 04:30:41 2022
