===== My JOB Information ====
Node List:  bora[001-016]
my jobID:  1471571
Partition: routage
submit directory:  /home/lgouveia/luan-teylo/tests/omnipath/compute_nodes/8_targets/16
submit host:  devel02.plafrim.cluster
In the directory: /home/lgouveia/luan-teylo/tests/omnipath/compute_nodes/8_targets/16
As the user: lgouveia
============================
IOR-3.4.0+dev: MPI Coordinated Test of Parallel I/O
Began               : Tue Jan 18 08:08:58 2022
Command line        : /home/lgouveia/ior/bin/ior -w -t 1m -b 256m -k -o /beegfs/lgouveia/ior_8/testFile1
Machine             : Linux bora001.plafrim.cluster
TestID              : 0
StartTime           : Tue Jan 18 08:08:58 2022
Path                : /beegfs/lgouveia/ior_8/testFile1
FS                  : 130.9 TiB   Used FS: 36.5%   Inodes: 0.0 Mi   Used Inodes: -nan%

Options: 
api                 : POSIX
apiVersion          : 
test filename       : /beegfs/lgouveia/ior_8/testFile1
access              : single-shared-file
type                : independent
segments            : 1
ordering in a file  : sequential
ordering inter file : no tasks offsets
nodes               : 16
tasks               : 128
clients per node    : 8
repetitions         : 1
xfersize            : 1 MiB
blocksize           : 256 MiB
aggregate filesize  : 32 GiB

Results: 
WARNING: The file "/beegfs/lgouveia/ior_8/testFile1" exists already and will be overwritten

access    bw(MiB/s)  IOPS       Latency(s)  block(KiB) xfer(KiB)  open(s)    wr/rd(s)   close(s)   total(s)   iter
------    ---------  ----       ----------  ---------- ---------  --------   --------   --------   --------   ----
write     8111       8113       0.008737    262144     1024.00    0.098344   4.04       3.22       4.04       0   

Summary of all tests:
Operation   Max(MiB)   Min(MiB)  Mean(MiB)     StdDev   Max(OPs)   Min(OPs)  Mean(OPs)     StdDev    Mean(s) Stonewall(s) Stonewall(MiB) Test# #Tasks tPN reps fPP reord reordoff reordrand seed segcnt   blksiz    xsize aggs(MiB)   API RefNum
write        8110.53    8110.53    8110.53       0.00    8110.53    8110.53    8110.53       0.00    4.04018         NA            NA     0    128   8    1   0     0        1         0    0      1 268435456  1048576   32768.0 POSIX      0
Finished            : Tue Jan 18 08:09:02 2022
Tracking /beegfs/lgouveia/ior_8/testFile1...
Tracking /beegfs/lgouveia/ior_8/testFileApp_2...
Tracking /beegfs/lgouveia/ior_8/testFileApp_1...



Writing tracked information to tracker.csv...
IOR-3.4.0+dev: MPI Coordinated Test of Parallel I/O
Began               : Tue Jan 18 08:10:03 2022
Command line        : /home/lgouveia/ior/bin/ior -w -t 1m -b 256m -k -o /beegfs/lgouveia/ior_8/testFile1
Machine             : Linux bora001.plafrim.cluster
TestID              : 0
StartTime           : Tue Jan 18 08:10:03 2022
Path                : /beegfs/lgouveia/ior_8/testFile1
FS                  : 130.9 TiB   Used FS: 36.5%   Inodes: 0.0 Mi   Used Inodes: -nan%

Options: 
api                 : POSIX
apiVersion          : 
test filename       : /beegfs/lgouveia/ior_8/testFile1
access              : single-shared-file
type                : independent
segments            : 1
ordering in a file  : sequential
ordering inter file : no tasks offsets
nodes               : 16
tasks               : 128
clients per node    : 8
repetitions         : 1
xfersize            : 1 MiB
blocksize           : 256 MiB
aggregate filesize  : 32 GiB

Results: 
WARNING: The file "/beegfs/lgouveia/ior_8/testFile1" exists already and will be overwritten

access    bw(MiB/s)  IOPS       Latency(s)  block(KiB) xfer(KiB)  open(s)    wr/rd(s)   close(s)   total(s)   iter
------    ---------  ----       ----------  ---------- ---------  --------   --------   --------   --------   ----
write     7260       7262       0.006318    262144     1024.00    0.458275   4.51       3.61       4.51       0   

Summary of all tests:
Operation   Max(MiB)   Min(MiB)  Mean(MiB)     StdDev   Max(OPs)   Min(OPs)  Mean(OPs)     StdDev    Mean(s) Stonewall(s) Stonewall(MiB) Test# #Tasks tPN reps fPP reord reordoff reordrand seed segcnt   blksiz    xsize aggs(MiB)   API RefNum
write        7260.16    7260.16    7260.16       0.00    7260.16    7260.16    7260.16       0.00    4.51340         NA            NA     0    128   8    1   0     0        1         0    0      1 268435456  1048576   32768.0 POSIX      0
Finished            : Tue Jan 18 08:10:08 2022
Tracking /beegfs/lgouveia/ior_8/testFile1...
Tracking /beegfs/lgouveia/ior_8/testFileApp_2...
Tracking /beegfs/lgouveia/ior_8/testFileApp_1...



Writing tracked information to tracker.csv...
IOR-3.4.0+dev: MPI Coordinated Test of Parallel I/O
Began               : Tue Jan 18 08:11:09 2022
Command line        : /home/lgouveia/ior/bin/ior -w -t 1m -b 256m -k -o /beegfs/lgouveia/ior_8/testFile1
Machine             : Linux bora001.plafrim.cluster
TestID              : 0
StartTime           : Tue Jan 18 08:11:09 2022
Path                : /beegfs/lgouveia/ior_8/testFile1
FS                  : 130.9 TiB   Used FS: 36.5%   Inodes: 0.0 Mi   Used Inodes: -nan%

Options: 
api                 : POSIX
apiVersion          : 
test filename       : /beegfs/lgouveia/ior_8/testFile1
access              : single-shared-file
type                : independent
segments            : 1
ordering in a file  : sequential
ordering inter file : no tasks offsets
nodes               : 16
tasks               : 128
clients per node    : 8
repetitions         : 1
xfersize            : 1 MiB
blocksize           : 256 MiB
aggregate filesize  : 32 GiB

Results: 
WARNING: The file "/beegfs/lgouveia/ior_8/testFile1" exists already and will be overwritten

access    bw(MiB/s)  IOPS       Latency(s)  block(KiB) xfer(KiB)  open(s)    wr/rd(s)   close(s)   total(s)   iter
------    ---------  ----       ----------  ---------- ---------  --------   --------   --------   --------   ----
write     9563       9566       0.013036    262144     1024.00    0.340930   3.43       2.72       3.43       0   

Summary of all tests:
Operation   Max(MiB)   Min(MiB)  Mean(MiB)     StdDev   Max(OPs)   Min(OPs)  Mean(OPs)     StdDev    Mean(s) Stonewall(s) Stonewall(MiB) Test# #Tasks tPN reps fPP reord reordoff reordrand seed segcnt   blksiz    xsize aggs(MiB)   API RefNum
write        9562.64    9562.64    9562.64       0.00    9562.64    9562.64    9562.64       0.00    3.42667         NA            NA     0    128   8    1   0     0        1         0    0      1 268435456  1048576   32768.0 POSIX      0
Finished            : Tue Jan 18 08:11:13 2022
Tracking /beegfs/lgouveia/ior_8/testFile1...
Tracking /beegfs/lgouveia/ior_8/testFileApp_2...
Tracking /beegfs/lgouveia/ior_8/testFileApp_1...



Writing tracked information to tracker.csv...
IOR-3.4.0+dev: MPI Coordinated Test of Parallel I/O
Began               : Tue Jan 18 08:12:14 2022
Command line        : /home/lgouveia/ior/bin/ior -w -t 1m -b 256m -k -o /beegfs/lgouveia/ior_8/testFile1
Machine             : Linux bora001.plafrim.cluster
TestID              : 0
StartTime           : Tue Jan 18 08:12:14 2022
Path                : /beegfs/lgouveia/ior_8/testFile1
FS                  : 130.9 TiB   Used FS: 36.5%   Inodes: 0.0 Mi   Used Inodes: -nan%

Options: 
api                 : POSIX
apiVersion          : 
test filename       : /beegfs/lgouveia/ior_8/testFile1
access              : single-shared-file
type                : independent
segments            : 1
ordering in a file  : sequential
ordering inter file : no tasks offsets
nodes               : 16
tasks               : 128
clients per node    : 8
repetitions         : 1
xfersize            : 1 MiB
blocksize           : 256 MiB
aggregate filesize  : 32 GiB

Results: 
WARNING: The file "/beegfs/lgouveia/ior_8/testFile1" exists already and will be overwritten

access    bw(MiB/s)  IOPS       Latency(s)  block(KiB) xfer(KiB)  open(s)    wr/rd(s)   close(s)   total(s)   iter
------    ---------  ----       ----------  ---------- ---------  --------   --------   --------   --------   ----
write     8488       8490       0.007466    262144     1024.00    0.159055   3.86       3.07       3.86       0   

Summary of all tests:
Operation   Max(MiB)   Min(MiB)  Mean(MiB)     StdDev   Max(OPs)   Min(OPs)  Mean(OPs)     StdDev    Mean(s) Stonewall(s) Stonewall(MiB) Test# #Tasks tPN reps fPP reord reordoff reordrand seed segcnt   blksiz    xsize aggs(MiB)   API RefNum
write        8487.99    8487.99    8487.99       0.00    8487.99    8487.99    8487.99       0.00    3.86051         NA            NA     0    128   8    1   0     0        1         0    0      1 268435456  1048576   32768.0 POSIX      0
Finished            : Tue Jan 18 08:12:18 2022
Tracking /beegfs/lgouveia/ior_8/testFile1...
Tracking /beegfs/lgouveia/ior_8/testFileApp_2...
Tracking /beegfs/lgouveia/ior_8/testFileApp_1...



Writing tracked information to tracker.csv...
IOR-3.4.0+dev: MPI Coordinated Test of Parallel I/O
Began               : Tue Jan 18 08:13:19 2022
Command line        : /home/lgouveia/ior/bin/ior -w -t 1m -b 256m -k -o /beegfs/lgouveia/ior_8/testFile1
Machine             : Linux bora001.plafrim.cluster
TestID              : 0
StartTime           : Tue Jan 18 08:13:19 2022
Path                : /beegfs/lgouveia/ior_8/testFile1
FS                  : 130.9 TiB   Used FS: 36.5%   Inodes: 0.0 Mi   Used Inodes: -nan%

Options: 
api                 : POSIX
apiVersion          : 
test filename       : /beegfs/lgouveia/ior_8/testFile1
access              : single-shared-file
type                : independent
segments            : 1
ordering in a file  : sequential
ordering inter file : no tasks offsets
nodes               : 16
tasks               : 128
clients per node    : 8
repetitions         : 1
xfersize            : 1 MiB
blocksize           : 256 MiB
aggregate filesize  : 32 GiB

Results: 
WARNING: The file "/beegfs/lgouveia/ior_8/testFile1" exists already and will be overwritten

access    bw(MiB/s)  IOPS       Latency(s)  block(KiB) xfer(KiB)  open(s)    wr/rd(s)   close(s)   total(s)   iter
------    ---------  ----       ----------  ---------- ---------  --------   --------   --------   --------   ----
write     8567       8569       0.012982    262144     1024.00    0.148145   3.82       2.97       3.83       0   

Summary of all tests:
Operation   Max(MiB)   Min(MiB)  Mean(MiB)     StdDev   Max(OPs)   Min(OPs)  Mean(OPs)     StdDev    Mean(s) Stonewall(s) Stonewall(MiB) Test# #Tasks tPN reps fPP reord reordoff reordrand seed segcnt   blksiz    xsize aggs(MiB)   API RefNum
write        8566.68    8566.68    8566.68       0.00    8566.68    8566.68    8566.68       0.00    3.82505         NA            NA     0    128   8    1   0     0        1         0    0      1 268435456  1048576   32768.0 POSIX      0
Finished            : Tue Jan 18 08:13:23 2022
Tracking /beegfs/lgouveia/ior_8/testFile1...
Tracking /beegfs/lgouveia/ior_8/testFileApp_2...
Tracking /beegfs/lgouveia/ior_8/testFileApp_1...



Writing tracked information to tracker.csv...
IOR-3.4.0+dev: MPI Coordinated Test of Parallel I/O
Began               : Tue Jan 18 08:14:24 2022
Command line        : /home/lgouveia/ior/bin/ior -w -t 1m -b 256m -k -o /beegfs/lgouveia/ior_8/testFile1
Machine             : Linux bora001.plafrim.cluster
TestID              : 0
StartTime           : Tue Jan 18 08:14:24 2022
Path                : /beegfs/lgouveia/ior_8/testFile1
FS                  : 130.9 TiB   Used FS: 36.5%   Inodes: 0.0 Mi   Used Inodes: -nan%

Options: 
api                 : POSIX
apiVersion          : 
test filename       : /beegfs/lgouveia/ior_8/testFile1
access              : single-shared-file
type                : independent
segments            : 1
ordering in a file  : sequential
ordering inter file : no tasks offsets
nodes               : 16
tasks               : 128
clients per node    : 8
repetitions         : 1
xfersize            : 1 MiB
blocksize           : 256 MiB
aggregate filesize  : 32 GiB

Results: 
WARNING: The file "/beegfs/lgouveia/ior_8/testFile1" exists already and will be overwritten

access    bw(MiB/s)  IOPS       Latency(s)  block(KiB) xfer(KiB)  open(s)    wr/rd(s)   close(s)   total(s)   iter
------    ---------  ----       ----------  ---------- ---------  --------   --------   --------   --------   ----
write     8274       8276       0.012618    262144     1024.00    0.394504   3.96       3.00       3.96       0   

Summary of all tests:
Operation   Max(MiB)   Min(MiB)  Mean(MiB)     StdDev   Max(OPs)   Min(OPs)  Mean(OPs)     StdDev    Mean(s) Stonewall(s) Stonewall(MiB) Test# #Tasks tPN reps fPP reord reordoff reordrand seed segcnt   blksiz    xsize aggs(MiB)   API RefNum
write        8274.47    8274.47    8274.47       0.00    8274.47    8274.47    8274.47       0.00    3.96013         NA            NA     0    128   8    1   0     0        1         0    0      1 268435456  1048576   32768.0 POSIX      0
Finished            : Tue Jan 18 08:14:28 2022
Tracking /beegfs/lgouveia/ior_8/testFile1...
Tracking /beegfs/lgouveia/ior_8/testFileApp_2...
Tracking /beegfs/lgouveia/ior_8/testFileApp_1...



Writing tracked information to tracker.csv...
IOR-3.4.0+dev: MPI Coordinated Test of Parallel I/O
Began               : Tue Jan 18 08:15:30 2022
Command line        : /home/lgouveia/ior/bin/ior -w -t 1m -b 256m -k -o /beegfs/lgouveia/ior_8/testFile1
Machine             : Linux bora001.plafrim.cluster
TestID              : 0
StartTime           : Tue Jan 18 08:15:30 2022
Path                : /beegfs/lgouveia/ior_8/testFile1
FS                  : 130.9 TiB   Used FS: 36.5%   Inodes: 0.0 Mi   Used Inodes: -nan%

Options: 
api                 : POSIX
apiVersion          : 
test filename       : /beegfs/lgouveia/ior_8/testFile1
access              : single-shared-file
type                : independent
segments            : 1
ordering in a file  : sequential
ordering inter file : no tasks offsets
nodes               : 16
tasks               : 128
clients per node    : 8
repetitions         : 1
xfersize            : 1 MiB
blocksize           : 256 MiB
aggregate filesize  : 32 GiB

Results: 
WARNING: The file "/beegfs/lgouveia/ior_8/testFile1" exists already and will be overwritten

access    bw(MiB/s)  IOPS       Latency(s)  block(KiB) xfer(KiB)  open(s)    wr/rd(s)   close(s)   total(s)   iter
------    ---------  ----       ----------  ---------- ---------  --------   --------   --------   --------   ----
write     7602       7604       0.009747    262144     1024.00    0.125210   4.31       3.62       4.31       0   

Summary of all tests:
Operation   Max(MiB)   Min(MiB)  Mean(MiB)     StdDev   Max(OPs)   Min(OPs)  Mean(OPs)     StdDev    Mean(s) Stonewall(s) Stonewall(MiB) Test# #Tasks tPN reps fPP reord reordoff reordrand seed segcnt   blksiz    xsize aggs(MiB)   API RefNum
write        7602.20    7602.20    7602.20       0.00    7602.20    7602.20    7602.20       0.00    4.31033         NA            NA     0    128   8    1   0     0        1         0    0      1 268435456  1048576   32768.0 POSIX      0
Finished            : Tue Jan 18 08:15:34 2022
Tracking /beegfs/lgouveia/ior_8/testFile1...
Tracking /beegfs/lgouveia/ior_8/testFileApp_2...
Tracking /beegfs/lgouveia/ior_8/testFileApp_1...



Writing tracked information to tracker.csv...
IOR-3.4.0+dev: MPI Coordinated Test of Parallel I/O
Began               : Tue Jan 18 08:16:36 2022
Command line        : /home/lgouveia/ior/bin/ior -w -t 1m -b 256m -k -o /beegfs/lgouveia/ior_8/testFile1
Machine             : Linux bora001.plafrim.cluster
TestID              : 0
StartTime           : Tue Jan 18 08:16:36 2022
Path                : /beegfs/lgouveia/ior_8/testFile1
FS                  : 130.9 TiB   Used FS: 36.5%   Inodes: 0.0 Mi   Used Inodes: -nan%

Options: 
api                 : POSIX
apiVersion          : 
test filename       : /beegfs/lgouveia/ior_8/testFile1
access              : single-shared-file
type                : independent
segments            : 1
ordering in a file  : sequential
ordering inter file : no tasks offsets
nodes               : 16
tasks               : 128
clients per node    : 8
repetitions         : 1
xfersize            : 1 MiB
blocksize           : 256 MiB
aggregate filesize  : 32 GiB

Results: 
WARNING: The file "/beegfs/lgouveia/ior_8/testFile1" exists already and will be overwritten

access    bw(MiB/s)  IOPS       Latency(s)  block(KiB) xfer(KiB)  open(s)    wr/rd(s)   close(s)   total(s)   iter
------    ---------  ----       ----------  ---------- ---------  --------   --------   --------   --------   ----
write     7593       7595       0.008776    262144     1024.00    0.550085   4.31       3.19       4.32       0   

Summary of all tests:
Operation   Max(MiB)   Min(MiB)  Mean(MiB)     StdDev   Max(OPs)   Min(OPs)  Mean(OPs)     StdDev    Mean(s) Stonewall(s) Stonewall(MiB) Test# #Tasks tPN reps fPP reord reordoff reordrand seed segcnt   blksiz    xsize aggs(MiB)   API RefNum
write        7593.04    7593.04    7593.04       0.00    7593.04    7593.04    7593.04       0.00    4.31553         NA            NA     0    128   8    1   0     0        1         0    0      1 268435456  1048576   32768.0 POSIX      0
Finished            : Tue Jan 18 08:16:40 2022
Tracking /beegfs/lgouveia/ior_8/testFile1...
Tracking /beegfs/lgouveia/ior_8/testFileApp_2...
Tracking /beegfs/lgouveia/ior_8/testFileApp_1...



Writing tracked information to tracker.csv...
IOR-3.4.0+dev: MPI Coordinated Test of Parallel I/O
Began               : Tue Jan 18 08:17:41 2022
Command line        : /home/lgouveia/ior/bin/ior -w -t 1m -b 256m -k -o /beegfs/lgouveia/ior_8/testFile1
Machine             : Linux bora001.plafrim.cluster
TestID              : 0
StartTime           : Tue Jan 18 08:17:41 2022
Path                : /beegfs/lgouveia/ior_8/testFile1
FS                  : 130.9 TiB   Used FS: 36.5%   Inodes: 0.0 Mi   Used Inodes: -nan%

Options: 
api                 : POSIX
apiVersion          : 
test filename       : /beegfs/lgouveia/ior_8/testFile1
access              : single-shared-file
type                : independent
segments            : 1
ordering in a file  : sequential
ordering inter file : no tasks offsets
nodes               : 16
tasks               : 128
clients per node    : 8
repetitions         : 1
xfersize            : 1 MiB
blocksize           : 256 MiB
aggregate filesize  : 32 GiB

Results: 
WARNING: The file "/beegfs/lgouveia/ior_8/testFile1" exists already and will be overwritten

access    bw(MiB/s)  IOPS       Latency(s)  block(KiB) xfer(KiB)  open(s)    wr/rd(s)   close(s)   total(s)   iter
------    ---------  ----       ----------  ---------- ---------  --------   --------   --------   --------   ----
write     8654       8657       0.008756    262144     1024.00    0.113619   3.79       3.06       3.79       0   

Summary of all tests:
Operation   Max(MiB)   Min(MiB)  Mean(MiB)     StdDev   Max(OPs)   Min(OPs)  Mean(OPs)     StdDev    Mean(s) Stonewall(s) Stonewall(MiB) Test# #Tasks tPN reps fPP reord reordoff reordrand seed segcnt   blksiz    xsize aggs(MiB)   API RefNum
write        8654.37    8654.37    8654.37       0.00    8654.37    8654.37    8654.37       0.00    3.78630         NA            NA     0    128   8    1   0     0        1         0    0      1 268435456  1048576   32768.0 POSIX      0
Finished            : Tue Jan 18 08:17:45 2022
Tracking /beegfs/lgouveia/ior_8/testFile1...
Tracking /beegfs/lgouveia/ior_8/testFileApp_2...
Tracking /beegfs/lgouveia/ior_8/testFileApp_1...



Writing tracked information to tracker.csv...
IOR-3.4.0+dev: MPI Coordinated Test of Parallel I/O
Began               : Tue Jan 18 08:18:46 2022
Command line        : /home/lgouveia/ior/bin/ior -w -t 1m -b 256m -k -o /beegfs/lgouveia/ior_8/testFile1
Machine             : Linux bora001.plafrim.cluster
TestID              : 0
StartTime           : Tue Jan 18 08:18:46 2022
Path                : /beegfs/lgouveia/ior_8/testFile1
FS                  : 130.9 TiB   Used FS: 36.5%   Inodes: 0.0 Mi   Used Inodes: -nan%

Options: 
api                 : POSIX
apiVersion          : 
test filename       : /beegfs/lgouveia/ior_8/testFile1
access              : single-shared-file
type                : independent
segments            : 1
ordering in a file  : sequential
ordering inter file : no tasks offsets
nodes               : 16
tasks               : 128
clients per node    : 8
repetitions         : 1
xfersize            : 1 MiB
blocksize           : 256 MiB
aggregate filesize  : 32 GiB

Results: 
WARNING: The file "/beegfs/lgouveia/ior_8/testFile1" exists already and will be overwritten

access    bw(MiB/s)  IOPS       Latency(s)  block(KiB) xfer(KiB)  open(s)    wr/rd(s)   close(s)   total(s)   iter
------    ---------  ----       ----------  ---------- ---------  --------   --------   --------   --------   ----
write     8541       8544       0.014009    262144     1024.00    0.358608   3.84       3.04       3.84       0   

Summary of all tests:
Operation   Max(MiB)   Min(MiB)  Mean(MiB)     StdDev   Max(OPs)   Min(OPs)  Mean(OPs)     StdDev    Mean(s) Stonewall(s) Stonewall(MiB) Test# #Tasks tPN reps fPP reord reordoff reordrand seed segcnt   blksiz    xsize aggs(MiB)   API RefNum
write        8540.99    8540.99    8540.99       0.00    8540.99    8540.99    8540.99       0.00    3.83656         NA            NA     0    128   8    1   0     0        1         0    0      1 268435456  1048576   32768.0 POSIX      0
Finished            : Tue Jan 18 08:18:50 2022
Tracking /beegfs/lgouveia/ior_8/testFile1...
Tracking /beegfs/lgouveia/ior_8/testFileApp_2...
Tracking /beegfs/lgouveia/ior_8/testFileApp_1...



Writing tracked information to tracker.csv...
