===== My JOB Information ====
Node List:  miriel[028-031]
my jobID:  1466328
Partition: routage
submit directory:  /home/lgouveia/luan-teylo/tests/ethernet/scalability_model/file_size/02
submit host:  devel02.plafrim.cluster
In the directory: /home/lgouveia/luan-teylo/tests/ethernet/scalability_model/file_size/02
As the user: lgouveia
============================
IOR-3.4.0+dev: MPI Coordinated Test of Parallel I/O
Began               : Mon Dec 13 12:39:21 2021
Command line        : /home/lgouveia/ior/bin/ior -w -t 1m -b 16m -k -o /beegfs/lgouveia/ior_4/testFile1
Machine             : Linux miriel028.plafrim.cluster
TestID              : 0
StartTime           : Mon Dec 13 12:39:21 2021
Path                : /beegfs/lgouveia/ior_4/testFile1
FS                  : 130.9 TiB   Used FS: 35.7%   Inodes: 0.0 Mi   Used Inodes: -nan%

Options: 
api                 : POSIX
apiVersion          : 
test filename       : /beegfs/lgouveia/ior_4/testFile1
access              : single-shared-file
type                : independent
segments            : 1
ordering in a file  : sequential
ordering inter file : no tasks offsets
nodes               : 4
tasks               : 32
clients per node    : 8
repetitions         : 1
xfersize            : 1 MiB
blocksize           : 16 MiB
aggregate filesize  : 512 MiB

Results: 
WARNING: The file "/beegfs/lgouveia/ior_4/testFile1" exists already and will be overwritten

access    bw(MiB/s)  IOPS       Latency(s)  block(KiB) xfer(KiB)  open(s)    wr/rd(s)   close(s)   total(s)   iter
------    ---------  ----       ----------  ---------- ---------  --------   --------   --------   --------   ----
write     1164.92    1167.78    0.008522    16384      1024.00    0.006223   0.438440   0.303681   0.439515   0   

Summary of all tests:
Operation   Max(MiB)   Min(MiB)  Mean(MiB)     StdDev   Max(OPs)   Min(OPs)  Mean(OPs)     StdDev    Mean(s) Stonewall(s) Stonewall(MiB) Test# #Tasks tPN reps fPP reord reordoff reordrand seed segcnt   blksiz    xsize aggs(MiB)   API RefNum
write        1164.92    1164.92    1164.92       0.00    1164.92    1164.92    1164.92       0.00    0.43951         NA            NA     0     32   8    1   0     0        1         0    0      1 16777216  1048576     512.0 POSIX      0
Finished            : Mon Dec 13 12:39:21 2021
Tracking /beegfs/lgouveia/ior_4/testFile1...



Writing tracked information to tracker.csv...
IOR-3.4.0+dev: MPI Coordinated Test of Parallel I/O
Began               : Mon Dec 13 12:40:22 2021
Command line        : /home/lgouveia/ior/bin/ior -w -t 1m -b 16m -k -o /beegfs/lgouveia/ior_4/testFile1
Machine             : Linux miriel028.plafrim.cluster
TestID              : 0
StartTime           : Mon Dec 13 12:40:22 2021
Path                : /beegfs/lgouveia/ior_4/testFile1
FS                  : 130.9 TiB   Used FS: 35.7%   Inodes: 0.0 Mi   Used Inodes: -nan%

Options: 
api                 : POSIX
apiVersion          : 
test filename       : /beegfs/lgouveia/ior_4/testFile1
access              : single-shared-file
type                : independent
segments            : 1
ordering in a file  : sequential
ordering inter file : no tasks offsets
nodes               : 4
tasks               : 32
clients per node    : 8
repetitions         : 1
xfersize            : 1 MiB
blocksize           : 16 MiB
aggregate filesize  : 512 MiB

Results: 
WARNING: The file "/beegfs/lgouveia/ior_4/testFile1" exists already and will be overwritten

access    bw(MiB/s)  IOPS       Latency(s)  block(KiB) xfer(KiB)  open(s)    wr/rd(s)   close(s)   total(s)   iter
------    ---------  ----       ----------  ---------- ---------  --------   --------   --------   --------   ----
write     1195.12    1198.08    0.007140    16384      1024.00    0.005063   0.427350   0.313580   0.428409   0   

Summary of all tests:
Operation   Max(MiB)   Min(MiB)  Mean(MiB)     StdDev   Max(OPs)   Min(OPs)  Mean(OPs)     StdDev    Mean(s) Stonewall(s) Stonewall(MiB) Test# #Tasks tPN reps fPP reord reordoff reordrand seed segcnt   blksiz    xsize aggs(MiB)   API RefNum
write        1195.12    1195.12    1195.12       0.00    1195.12    1195.12    1195.12       0.00    0.42841         NA            NA     0     32   8    1   0     0        1         0    0      1 16777216  1048576     512.0 POSIX      0
Finished            : Mon Dec 13 12:40:22 2021
Tracking /beegfs/lgouveia/ior_4/testFile1...



Writing tracked information to tracker.csv...
IOR-3.4.0+dev: MPI Coordinated Test of Parallel I/O
Began               : Mon Dec 13 12:41:23 2021
Command line        : /home/lgouveia/ior/bin/ior -w -t 1m -b 16m -k -o /beegfs/lgouveia/ior_4/testFile1
Machine             : Linux miriel028.plafrim.cluster
TestID              : 0
StartTime           : Mon Dec 13 12:41:23 2021
Path                : /beegfs/lgouveia/ior_4/testFile1
FS                  : 130.9 TiB   Used FS: 35.7%   Inodes: 0.0 Mi   Used Inodes: -nan%

Options: 
api                 : POSIX
apiVersion          : 
test filename       : /beegfs/lgouveia/ior_4/testFile1
access              : single-shared-file
type                : independent
segments            : 1
ordering in a file  : sequential
ordering inter file : no tasks offsets
nodes               : 4
tasks               : 32
clients per node    : 8
repetitions         : 1
xfersize            : 1 MiB
blocksize           : 16 MiB
aggregate filesize  : 512 MiB

Results: 
WARNING: The file "/beegfs/lgouveia/ior_4/testFile1" exists already and will be overwritten

access    bw(MiB/s)  IOPS       Latency(s)  block(KiB) xfer(KiB)  open(s)    wr/rd(s)   close(s)   total(s)   iter
------    ---------  ----       ----------  ---------- ---------  --------   --------   --------   --------   ----
write     1183.14    1185.24    0.007008    16384      1024.00    0.005562   0.431980   0.320192   0.432745   0   

Summary of all tests:
Operation   Max(MiB)   Min(MiB)  Mean(MiB)     StdDev   Max(OPs)   Min(OPs)  Mean(OPs)     StdDev    Mean(s) Stonewall(s) Stonewall(MiB) Test# #Tasks tPN reps fPP reord reordoff reordrand seed segcnt   blksiz    xsize aggs(MiB)   API RefNum
write        1183.14    1183.14    1183.14       0.00    1183.14    1183.14    1183.14       0.00    0.43274         NA            NA     0     32   8    1   0     0        1         0    0      1 16777216  1048576     512.0 POSIX      0
Finished            : Mon Dec 13 12:41:24 2021
Tracking /beegfs/lgouveia/ior_4/testFile1...



Writing tracked information to tracker.csv...
IOR-3.4.0+dev: MPI Coordinated Test of Parallel I/O
Began               : Mon Dec 13 12:42:24 2021
Command line        : /home/lgouveia/ior/bin/ior -w -t 1m -b 16m -k -o /beegfs/lgouveia/ior_4/testFile1
Machine             : Linux miriel028.plafrim.cluster
TestID              : 0
StartTime           : Mon Dec 13 12:42:24 2021
Path                : /beegfs/lgouveia/ior_4/testFile1
FS                  : 130.9 TiB   Used FS: 35.7%   Inodes: 0.0 Mi   Used Inodes: -nan%

Options: 
api                 : POSIX
apiVersion          : 
test filename       : /beegfs/lgouveia/ior_4/testFile1
access              : single-shared-file
type                : independent
segments            : 1
ordering in a file  : sequential
ordering inter file : no tasks offsets
nodes               : 4
tasks               : 32
clients per node    : 8
repetitions         : 1
xfersize            : 1 MiB
blocksize           : 16 MiB
aggregate filesize  : 512 MiB

Results: 
WARNING: The file "/beegfs/lgouveia/ior_4/testFile1" exists already and will be overwritten

access    bw(MiB/s)  IOPS       Latency(s)  block(KiB) xfer(KiB)  open(s)    wr/rd(s)   close(s)   total(s)   iter
------    ---------  ----       ----------  ---------- ---------  --------   --------   --------   --------   ----
write     1183.34    1185.88    0.007897    16384      1024.00    0.005608   0.431748   0.306277   0.432675   0   

Summary of all tests:
Operation   Max(MiB)   Min(MiB)  Mean(MiB)     StdDev   Max(OPs)   Min(OPs)  Mean(OPs)     StdDev    Mean(s) Stonewall(s) Stonewall(MiB) Test# #Tasks tPN reps fPP reord reordoff reordrand seed segcnt   blksiz    xsize aggs(MiB)   API RefNum
write        1183.34    1183.34    1183.34       0.00    1183.34    1183.34    1183.34       0.00    0.43268         NA            NA     0     32   8    1   0     0        1         0    0      1 16777216  1048576     512.0 POSIX      0
Finished            : Mon Dec 13 12:42:25 2021
Tracking /beegfs/lgouveia/ior_4/testFile1...



Writing tracked information to tracker.csv...
IOR-3.4.0+dev: MPI Coordinated Test of Parallel I/O
Began               : Mon Dec 13 12:43:25 2021
Command line        : /home/lgouveia/ior/bin/ior -w -t 1m -b 16m -k -o /beegfs/lgouveia/ior_4/testFile1
Machine             : Linux miriel028.plafrim.cluster
TestID              : 0
StartTime           : Mon Dec 13 12:43:25 2021
Path                : /beegfs/lgouveia/ior_4/testFile1
FS                  : 130.9 TiB   Used FS: 35.7%   Inodes: 0.0 Mi   Used Inodes: -nan%

Options: 
api                 : POSIX
apiVersion          : 
test filename       : /beegfs/lgouveia/ior_4/testFile1
access              : single-shared-file
type                : independent
segments            : 1
ordering in a file  : sequential
ordering inter file : no tasks offsets
nodes               : 4
tasks               : 32
clients per node    : 8
repetitions         : 1
xfersize            : 1 MiB
blocksize           : 16 MiB
aggregate filesize  : 512 MiB

Results: 
WARNING: The file "/beegfs/lgouveia/ior_4/testFile1" exists already and will be overwritten

access    bw(MiB/s)  IOPS       Latency(s)  block(KiB) xfer(KiB)  open(s)    wr/rd(s)   close(s)   total(s)   iter
------    ---------  ----       ----------  ---------- ---------  --------   --------   --------   --------   ----
write     1240.24    1243.05    0.020992    16384      1024.00    0.005111   0.411890   0.310431   0.412825   0   

Summary of all tests:
Operation   Max(MiB)   Min(MiB)  Mean(MiB)     StdDev   Max(OPs)   Min(OPs)  Mean(OPs)     StdDev    Mean(s) Stonewall(s) Stonewall(MiB) Test# #Tasks tPN reps fPP reord reordoff reordrand seed segcnt   blksiz    xsize aggs(MiB)   API RefNum
write        1240.24    1240.24    1240.24       0.00    1240.24    1240.24    1240.24       0.00    0.41282         NA            NA     0     32   8    1   0     0        1         0    0      1 16777216  1048576     512.0 POSIX      0
Finished            : Mon Dec 13 12:43:26 2021
Tracking /beegfs/lgouveia/ior_4/testFile1...



Writing tracked information to tracker.csv...
IOR-3.4.0+dev: MPI Coordinated Test of Parallel I/O
Began               : Mon Dec 13 12:44:26 2021
Command line        : /home/lgouveia/ior/bin/ior -w -t 1m -b 16m -k -o /beegfs/lgouveia/ior_4/testFile1
Machine             : Linux miriel028.plafrim.cluster
TestID              : 0
StartTime           : Mon Dec 13 12:44:26 2021
Path                : /beegfs/lgouveia/ior_4/testFile1
FS                  : 130.9 TiB   Used FS: 35.7%   Inodes: 0.0 Mi   Used Inodes: -nan%

Options: 
api                 : POSIX
apiVersion          : 
test filename       : /beegfs/lgouveia/ior_4/testFile1
access              : single-shared-file
type                : independent
segments            : 1
ordering in a file  : sequential
ordering inter file : no tasks offsets
nodes               : 4
tasks               : 32
clients per node    : 8
repetitions         : 1
xfersize            : 1 MiB
blocksize           : 16 MiB
aggregate filesize  : 512 MiB

Results: 
WARNING: The file "/beegfs/lgouveia/ior_4/testFile1" exists already and will be overwritten

access    bw(MiB/s)  IOPS       Latency(s)  block(KiB) xfer(KiB)  open(s)    wr/rd(s)   close(s)   total(s)   iter
------    ---------  ----       ----------  ---------- ---------  --------   --------   --------   --------   ----
write     1167.90    1170.68    0.007664    16384      1024.00    0.005690   0.437352   0.315209   0.438392   0   

Summary of all tests:
Operation   Max(MiB)   Min(MiB)  Mean(MiB)     StdDev   Max(OPs)   Min(OPs)  Mean(OPs)     StdDev    Mean(s) Stonewall(s) Stonewall(MiB) Test# #Tasks tPN reps fPP reord reordoff reordrand seed segcnt   blksiz    xsize aggs(MiB)   API RefNum
write        1167.90    1167.90    1167.90       0.00    1167.90    1167.90    1167.90       0.00    0.43839         NA            NA     0     32   8    1   0     0        1         0    0      1 16777216  1048576     512.0 POSIX      0
Finished            : Mon Dec 13 12:44:27 2021
Tracking /beegfs/lgouveia/ior_4/testFile1...



Writing tracked information to tracker.csv...
IOR-3.4.0+dev: MPI Coordinated Test of Parallel I/O
Began               : Mon Dec 13 12:45:28 2021
Command line        : /home/lgouveia/ior/bin/ior -w -t 1m -b 16m -k -o /beegfs/lgouveia/ior_4/testFile1
Machine             : Linux miriel028.plafrim.cluster
TestID              : 0
StartTime           : Mon Dec 13 12:45:28 2021
Path                : /beegfs/lgouveia/ior_4/testFile1
FS                  : 130.9 TiB   Used FS: 35.7%   Inodes: 0.0 Mi   Used Inodes: -nan%

Options: 
api                 : POSIX
apiVersion          : 
test filename       : /beegfs/lgouveia/ior_4/testFile1
access              : single-shared-file
type                : independent
segments            : 1
ordering in a file  : sequential
ordering inter file : no tasks offsets
nodes               : 4
tasks               : 32
clients per node    : 8
repetitions         : 1
xfersize            : 1 MiB
blocksize           : 16 MiB
aggregate filesize  : 512 MiB

Results: 
WARNING: The file "/beegfs/lgouveia/ior_4/testFile1" exists already and will be overwritten

access    bw(MiB/s)  IOPS       Latency(s)  block(KiB) xfer(KiB)  open(s)    wr/rd(s)   close(s)   total(s)   iter
------    ---------  ----       ----------  ---------- ---------  --------   --------   --------   --------   ----
write     1233.99    1236.90    0.017920    16384      1024.00    0.005385   0.413939   0.307229   0.414914   0   

Summary of all tests:
Operation   Max(MiB)   Min(MiB)  Mean(MiB)     StdDev   Max(OPs)   Min(OPs)  Mean(OPs)     StdDev    Mean(s) Stonewall(s) Stonewall(MiB) Test# #Tasks tPN reps fPP reord reordoff reordrand seed segcnt   blksiz    xsize aggs(MiB)   API RefNum
write        1233.99    1233.99    1233.99       0.00    1233.99    1233.99    1233.99       0.00    0.41491         NA            NA     0     32   8    1   0     0        1         0    0      1 16777216  1048576     512.0 POSIX      0
Finished            : Mon Dec 13 12:45:28 2021
Tracking /beegfs/lgouveia/ior_4/testFile1...



Writing tracked information to tracker.csv...
IOR-3.4.0+dev: MPI Coordinated Test of Parallel I/O
Began               : Mon Dec 13 12:46:29 2021
Command line        : /home/lgouveia/ior/bin/ior -w -t 1m -b 16m -k -o /beegfs/lgouveia/ior_4/testFile1
Machine             : Linux miriel028.plafrim.cluster
TestID              : 0
StartTime           : Mon Dec 13 12:46:29 2021
Path                : /beegfs/lgouveia/ior_4/testFile1
FS                  : 130.9 TiB   Used FS: 35.7%   Inodes: 0.0 Mi   Used Inodes: -nan%

Options: 
api                 : POSIX
apiVersion          : 
test filename       : /beegfs/lgouveia/ior_4/testFile1
access              : single-shared-file
type                : independent
segments            : 1
ordering in a file  : sequential
ordering inter file : no tasks offsets
nodes               : 4
tasks               : 32
clients per node    : 8
repetitions         : 1
xfersize            : 1 MiB
blocksize           : 16 MiB
aggregate filesize  : 512 MiB

Results: 
WARNING: The file "/beegfs/lgouveia/ior_4/testFile1" exists already and will be overwritten

access    bw(MiB/s)  IOPS       Latency(s)  block(KiB) xfer(KiB)  open(s)    wr/rd(s)   close(s)   total(s)   iter
------    ---------  ----       ----------  ---------- ---------  --------   --------   --------   --------   ----
write     1165.16    1172.22    0.010946    16384      1024.00    0.005821   0.436779   0.312951   0.439423   0   

Summary of all tests:
Operation   Max(MiB)   Min(MiB)  Mean(MiB)     StdDev   Max(OPs)   Min(OPs)  Mean(OPs)     StdDev    Mean(s) Stonewall(s) Stonewall(MiB) Test# #Tasks tPN reps fPP reord reordoff reordrand seed segcnt   blksiz    xsize aggs(MiB)   API RefNum
write        1165.16    1165.16    1165.16       0.00    1165.16    1165.16    1165.16       0.00    0.43942         NA            NA     0     32   8    1   0     0        1         0    0      1 16777216  1048576     512.0 POSIX      0
Finished            : Mon Dec 13 12:46:29 2021
Tracking /beegfs/lgouveia/ior_4/testFile1...



Writing tracked information to tracker.csv...
IOR-3.4.0+dev: MPI Coordinated Test of Parallel I/O
Began               : Mon Dec 13 12:47:30 2021
Command line        : /home/lgouveia/ior/bin/ior -w -t 1m -b 16m -k -o /beegfs/lgouveia/ior_4/testFile1
Machine             : Linux miriel028.plafrim.cluster
TestID              : 0
StartTime           : Mon Dec 13 12:47:30 2021
Path                : /beegfs/lgouveia/ior_4/testFile1
FS                  : 130.9 TiB   Used FS: 35.7%   Inodes: 0.0 Mi   Used Inodes: -nan%

Options: 
api                 : POSIX
apiVersion          : 
test filename       : /beegfs/lgouveia/ior_4/testFile1
access              : single-shared-file
type                : independent
segments            : 1
ordering in a file  : sequential
ordering inter file : no tasks offsets
nodes               : 4
tasks               : 32
clients per node    : 8
repetitions         : 1
xfersize            : 1 MiB
blocksize           : 16 MiB
aggregate filesize  : 512 MiB

Results: 
WARNING: The file "/beegfs/lgouveia/ior_4/testFile1" exists already and will be overwritten

access    bw(MiB/s)  IOPS       Latency(s)  block(KiB) xfer(KiB)  open(s)    wr/rd(s)   close(s)   total(s)   iter
------    ---------  ----       ----------  ---------- ---------  --------   --------   --------   --------   ----
write     1169.26    1171.30    0.008120    16384      1024.00    0.005223   0.437123   0.307536   0.437883   0   

Summary of all tests:
Operation   Max(MiB)   Min(MiB)  Mean(MiB)     StdDev   Max(OPs)   Min(OPs)  Mean(OPs)     StdDev    Mean(s) Stonewall(s) Stonewall(MiB) Test# #Tasks tPN reps fPP reord reordoff reordrand seed segcnt   blksiz    xsize aggs(MiB)   API RefNum
write        1169.26    1169.26    1169.26       0.00    1169.26    1169.26    1169.26       0.00    0.43788         NA            NA     0     32   8    1   0     0        1         0    0      1 16777216  1048576     512.0 POSIX      0
Finished            : Mon Dec 13 12:47:30 2021
Tracking /beegfs/lgouveia/ior_4/testFile1...



Writing tracked information to tracker.csv...
IOR-3.4.0+dev: MPI Coordinated Test of Parallel I/O
Began               : Mon Dec 13 12:48:31 2021
Command line        : /home/lgouveia/ior/bin/ior -w -t 1m -b 16m -k -o /beegfs/lgouveia/ior_4/testFile1
Machine             : Linux miriel028.plafrim.cluster
TestID              : 0
StartTime           : Mon Dec 13 12:48:31 2021
Path                : /beegfs/lgouveia/ior_4/testFile1
FS                  : 130.9 TiB   Used FS: 35.7%   Inodes: 0.0 Mi   Used Inodes: -nan%

Options: 
api                 : POSIX
apiVersion          : 
test filename       : /beegfs/lgouveia/ior_4/testFile1
access              : single-shared-file
type                : independent
segments            : 1
ordering in a file  : sequential
ordering inter file : no tasks offsets
nodes               : 4
tasks               : 32
clients per node    : 8
repetitions         : 1
xfersize            : 1 MiB
blocksize           : 16 MiB
aggregate filesize  : 512 MiB

Results: 
WARNING: The file "/beegfs/lgouveia/ior_4/testFile1" exists already and will be overwritten

access    bw(MiB/s)  IOPS       Latency(s)  block(KiB) xfer(KiB)  open(s)    wr/rd(s)   close(s)   total(s)   iter
------    ---------  ----       ----------  ---------- ---------  --------   --------   --------   --------   ----
write     1193.42    1196.64    0.007314    16384      1024.00    0.005572   0.427864   0.311326   0.429020   0   

Summary of all tests:
Operation   Max(MiB)   Min(MiB)  Mean(MiB)     StdDev   Max(OPs)   Min(OPs)  Mean(OPs)     StdDev    Mean(s) Stonewall(s) Stonewall(MiB) Test# #Tasks tPN reps fPP reord reordoff reordrand seed segcnt   blksiz    xsize aggs(MiB)   API RefNum
write        1193.42    1193.42    1193.42       0.00    1193.42    1193.42    1193.42       0.00    0.42902         NA            NA     0     32   8    1   0     0        1         0    0      1 16777216  1048576     512.0 POSIX      0
Finished            : Mon Dec 13 12:48:31 2021
Tracking /beegfs/lgouveia/ior_4/testFile1...



Writing tracked information to tracker.csv...
