[bora001.plafrim.cluster:35319] mca_base_component_repository_open: unable to open mca_btl_uct: libucp.so.0: cannot open shared object file: No such file or directory (ignored)
[bora001.plafrim.cluster:35325] mca_base_component_repository_open: unable to open mca_btl_uct: libucp.so.0: cannot open shared object file: No such file or directory (ignored)
[bora001.plafrim.cluster:35320] mca_base_component_repository_open: unable to open mca_btl_uct: libucp.so.0: cannot open shared object file: No such file or directory (ignored)
[bora001.plafrim.cluster:35321] mca_base_component_repository_open: unable to open mca_btl_uct: libucp.so.0: cannot open shared object file: No such file or directory (ignored)
[bora001.plafrim.cluster:35322] mca_base_component_repository_open: unable to open mca_btl_uct: libucp.so.0: cannot open shared object file: No such file or directory (ignored)
[bora001.plafrim.cluster:35323] mca_base_component_repository_open: unable to open mca_btl_uct: libucp.so.0: cannot open shared object file: No such file or directory (ignored)
[bora001.plafrim.cluster:35324] mca_base_component_repository_open: unable to open mca_btl_uct: libucp.so.0: cannot open shared object file: No such file or directory (ignored)
[bora001.plafrim.cluster:35326] mca_base_component_repository_open: unable to open mca_btl_uct: libucp.so.0: cannot open shared object file: No such file or directory (ignored)
[bora001.plafrim.cluster:35319] mca_base_component_repository_open: unable to open mca_pml_ucx: libucp.so.0: cannot open shared object file: No such file or directory (ignored)
[bora001.plafrim.cluster:35322] mca_base_component_repository_open: unable to open mca_pml_ucx: libucp.so.0: cannot open shared object file: No such file or directory (ignored)
[bora001.plafrim.cluster:35324] mca_base_component_repository_open: unable to open mca_pml_ucx: libucp.so.0: cannot open shared object file: No such file or directory (ignored)
[bora001.plafrim.cluster:35320] mca_base_component_repository_open: unable to open mca_pml_ucx: libucp.so.0: cannot open shared object file: No such file or directory (ignored)
[bora001.plafrim.cluster:35321] mca_base_component_repository_open: unable to open mca_pml_ucx: libucp.so.0: cannot open shared object file: No such file or directory (ignored)
[bora001.plafrim.cluster:35323] mca_base_component_repository_open: unable to open mca_pml_ucx: libucp.so.0: cannot open shared object file: No such file or directory (ignored)
[bora001.plafrim.cluster:35325] mca_base_component_repository_open: unable to open mca_pml_ucx: libucp.so.0: cannot open shared object file: No such file or directory (ignored)
[bora001.plafrim.cluster:35326] mca_base_component_repository_open: unable to open mca_pml_ucx: libucp.so.0: cannot open shared object file: No such file or directory (ignored)
[bora001.plafrim.cluster:35324] mca_base_component_repository_open: unable to open mca_osc_ucx: libucp.so.0: cannot open shared object file: No such file or directory (ignored)
[bora001.plafrim.cluster:35325] mca_base_component_repository_open: unable to open mca_osc_ucx: libucp.so.0: cannot open shared object file: No such file or directory (ignored)
[bora001.plafrim.cluster:35320] mca_base_component_repository_open: unable to open mca_osc_ucx: libucp.so.0: cannot open shared object file: No such file or directory (ignored)
[bora001.plafrim.cluster:35323] mca_base_component_repository_open: unable to open mca_osc_ucx: libucp.so.0: cannot open shared object file: No such file or directory (ignored)
[bora001.plafrim.cluster:35322] mca_base_component_repository_open: unable to open mca_osc_ucx: libucp.so.0: cannot open shared object file: No such file or directory (ignored)
[bora001.plafrim.cluster:35321] mca_base_component_repository_open: unable to open mca_osc_ucx: libucp.so.0: cannot open shared object file: No such file or directory (ignored)
[bora001.plafrim.cluster:35319] mca_base_component_repository_open: unable to open mca_osc_ucx: libucp.so.0: cannot open shared object file: No such file or directory (ignored)
[bora001.plafrim.cluster:35326] mca_base_component_repository_open: unable to open mca_osc_ucx: libucp.so.0: cannot open shared object file: No such file or directory (ignored)
[bora001.plafrim.cluster:35499] mca_base_component_repository_open: unable to open mca_btl_uct: libucp.so.0: cannot open shared object file: No such file or directory (ignored)
[bora001.plafrim.cluster:35499] mca_base_component_repository_open: unable to open mca_pml_ucx: libucp.so.0: cannot open shared object file: No such file or directory (ignored)
[bora001.plafrim.cluster:35501] mca_base_component_repository_open: unable to open mca_btl_uct: libucp.so.0: cannot open shared object file: No such file or directory (ignored)
[bora001.plafrim.cluster:35499] mca_base_component_repository_open: unable to open mca_osc_ucx: libucp.so.0: cannot open shared object file: No such file or directory (ignored)
[bora001.plafrim.cluster:35501] mca_base_component_repository_open: unable to open mca_pml_ucx: libucp.so.0: cannot open shared object file: No such file or directory (ignored)
[bora001.plafrim.cluster:35505] mca_base_component_repository_open: unable to open mca_btl_uct: libucp.so.0: cannot open shared object file: No such file or directory (ignored)
[bora001.plafrim.cluster:35504] mca_base_component_repository_open: unable to open mca_btl_uct: libucp.so.0: cannot open shared object file: No such file or directory (ignored)
[bora001.plafrim.cluster:35500] mca_base_component_repository_open: unable to open mca_btl_uct: libucp.so.0: cannot open shared object file: No such file or directory (ignored)
[bora001.plafrim.cluster:35503] mca_base_component_repository_open: unable to open mca_btl_uct: libucp.so.0: cannot open shared object file: No such file or directory (ignored)
[bora001.plafrim.cluster:35506] mca_base_component_repository_open: unable to open mca_btl_uct: libucp.so.0: cannot open shared object file: No such file or directory (ignored)
[bora001.plafrim.cluster:35502] mca_base_component_repository_open: unable to open mca_btl_uct: libucp.so.0: cannot open shared object file: No such file or directory (ignored)
[bora001.plafrim.cluster:35505] mca_base_component_repository_open: unable to open mca_pml_ucx: libucp.so.0: cannot open shared object file: No such file or directory (ignored)
[bora001.plafrim.cluster:35504] mca_base_component_repository_open: unable to open mca_pml_ucx: libucp.so.0: cannot open shared object file: No such file or directory (ignored)
[bora001.plafrim.cluster:35500] mca_base_component_repository_open: unable to open mca_pml_ucx: libucp.so.0: cannot open shared object file: No such file or directory (ignored)
[bora001.plafrim.cluster:35501] mca_base_component_repository_open: unable to open mca_osc_ucx: libucp.so.0: cannot open shared object file: No such file or directory (ignored)
[bora001.plafrim.cluster:35503] mca_base_component_repository_open: unable to open mca_pml_ucx: libucp.so.0: cannot open shared object file: No such file or directory (ignored)
[bora001.plafrim.cluster:35506] mca_base_component_repository_open: unable to open mca_pml_ucx: libucp.so.0: cannot open shared object file: No such file or directory (ignored)
[bora001.plafrim.cluster:35502] mca_base_component_repository_open: unable to open mca_pml_ucx: libucp.so.0: cannot open shared object file: No such file or directory (ignored)
[bora001.plafrim.cluster:35505] mca_base_component_repository_open: unable to open mca_osc_ucx: libucp.so.0: cannot open shared object file: No such file or directory (ignored)
[bora001.plafrim.cluster:35504] mca_base_component_repository_open: unable to open mca_osc_ucx: libucp.so.0: cannot open shared object file: No such file or directory (ignored)
[bora001.plafrim.cluster:35503] mca_base_component_repository_open: unable to open mca_osc_ucx: libucp.so.0: cannot open shared object file: No such file or directory (ignored)
[bora001.plafrim.cluster:35500] mca_base_component_repository_open: unable to open mca_osc_ucx: libucp.so.0: cannot open shared object file: No such file or directory (ignored)
[bora001.plafrim.cluster:35506] mca_base_component_repository_open: unable to open mca_osc_ucx: libucp.so.0: cannot open shared object file: No such file or directory (ignored)
[bora001.plafrim.cluster:35502] mca_base_component_repository_open: unable to open mca_osc_ucx: libucp.so.0: cannot open shared object file: No such file or directory (ignored)
[bora001.plafrim.cluster:35708] mca_base_component_repository_open: unable to open mca_btl_uct: libucp.so.0: cannot open shared object file: No such file or directory (ignored)
[bora001.plafrim.cluster:35702] mca_base_component_repository_open: unable to open mca_btl_uct: libucp.so.0: cannot open shared object file: No such file or directory (ignored)
[bora001.plafrim.cluster:35706] mca_base_component_repository_open: unable to open mca_btl_uct: libucp.so.0: cannot open shared object file: No such file or directory (ignored)
[bora001.plafrim.cluster:35708] mca_base_component_repository_open: unable to open mca_pml_ucx: libucp.so.0: cannot open shared object file: No such file or directory (ignored)
[bora001.plafrim.cluster:35702] mca_base_component_repository_open: unable to open mca_pml_ucx: libucp.so.0: cannot open shared object file: No such file or directory (ignored)
[bora001.plafrim.cluster:35704] mca_base_component_repository_open: unable to open mca_btl_uct: libucp.so.0: cannot open shared object file: No such file or directory (ignored)
[bora001.plafrim.cluster:35707] mca_base_component_repository_open: unable to open mca_btl_uct: libucp.so.0: cannot open shared object file: No such file or directory (ignored)
[bora001.plafrim.cluster:35709] mca_base_component_repository_open: unable to open mca_btl_uct: libucp.so.0: cannot open shared object file: No such file or directory (ignored)
[bora001.plafrim.cluster:35706] mca_base_component_repository_open: unable to open mca_pml_ucx: libucp.so.0: cannot open shared object file: No such file or directory (ignored)
[bora001.plafrim.cluster:35705] mca_base_component_repository_open: unable to open mca_btl_uct: libucp.so.0: cannot open shared object file: No such file or directory (ignored)
[bora001.plafrim.cluster:35703] mca_base_component_repository_open: unable to open mca_btl_uct: libucp.so.0: cannot open shared object file: No such file or directory (ignored)
[bora001.plafrim.cluster:35704] mca_base_component_repository_open: unable to open mca_pml_ucx: libucp.so.0: cannot open shared object file: No such file or directory (ignored)
[bora001.plafrim.cluster:35707] mca_base_component_repository_open: unable to open mca_pml_ucx: libucp.so.0: cannot open shared object file: No such file or directory (ignored)
[bora001.plafrim.cluster:35709] mca_base_component_repository_open: unable to open mca_pml_ucx: libucp.so.0: cannot open shared object file: No such file or directory (ignored)
[bora001.plafrim.cluster:35705] mca_base_component_repository_open: unable to open mca_pml_ucx: libucp.so.0: cannot open shared object file: No such file or directory (ignored)
[bora001.plafrim.cluster:35703] mca_base_component_repository_open: unable to open mca_pml_ucx: libucp.so.0: cannot open shared object file: No such file or directory (ignored)
[bora001.plafrim.cluster:35702] mca_base_component_repository_open: unable to open mca_osc_ucx: libucp.so.0: cannot open shared object file: No such file or directory (ignored)
[bora001.plafrim.cluster:35706] mca_base_component_repository_open: unable to open mca_osc_ucx: libucp.so.0: cannot open shared object file: No such file or directory (ignored)
[bora001.plafrim.cluster:35708] mca_base_component_repository_open: unable to open mca_osc_ucx: libucp.so.0: cannot open shared object file: No such file or directory (ignored)
[bora001.plafrim.cluster:35704] mca_base_component_repository_open: unable to open mca_osc_ucx: libucp.so.0: cannot open shared object file: No such file or directory (ignored)
[bora001.plafrim.cluster:35707] mca_base_component_repository_open: unable to open mca_osc_ucx: libucp.so.0: cannot open shared object file: No such file or directory (ignored)
[bora001.plafrim.cluster:35705] mca_base_component_repository_open: unable to open mca_osc_ucx: libucp.so.0: cannot open shared object file: No such file or directory (ignored)
[bora001.plafrim.cluster:35709] mca_base_component_repository_open: unable to open mca_osc_ucx: libucp.so.0: cannot open shared object file: No such file or directory (ignored)
[bora001.plafrim.cluster:35703] mca_base_component_repository_open: unable to open mca_osc_ucx: libucp.so.0: cannot open shared object file: No such file or directory (ignored)
[bora001.plafrim.cluster:35880] mca_base_component_repository_open: unable to open mca_btl_uct: libucp.so.0: cannot open shared object file: No such file or directory (ignored)
[bora001.plafrim.cluster:35882] mca_base_component_repository_open: unable to open mca_btl_uct: libucp.so.0: cannot open shared object file: No such file or directory (ignored)
[bora001.plafrim.cluster:35884] mca_base_component_repository_open: unable to open mca_btl_uct: libucp.so.0: cannot open shared object file: No such file or directory (ignored)
[bora001.plafrim.cluster:35886] mca_base_component_repository_open: unable to open mca_btl_uct: libucp.so.0: cannot open shared object file: No such file or directory (ignored)
[bora001.plafrim.cluster:35881] mca_base_component_repository_open: unable to open mca_btl_uct: libucp.so.0: cannot open shared object file: No such file or directory (ignored)
[bora001.plafrim.cluster:35883] mca_base_component_repository_open: unable to open mca_btl_uct: libucp.so.0: cannot open shared object file: No such file or directory (ignored)
[bora001.plafrim.cluster:35887] mca_base_component_repository_open: unable to open mca_btl_uct: libucp.so.0: cannot open shared object file: No such file or directory (ignored)
[bora001.plafrim.cluster:35885] mca_base_component_repository_open: unable to open mca_btl_uct: libucp.so.0: cannot open shared object file: No such file or directory (ignored)
[bora001.plafrim.cluster:35880] mca_base_component_repository_open: unable to open mca_pml_ucx: libucp.so.0: cannot open shared object file: No such file or directory (ignored)
[bora001.plafrim.cluster:35886] mca_base_component_repository_open: unable to open mca_pml_ucx: libucp.so.0: cannot open shared object file: No such file or directory (ignored)
[bora001.plafrim.cluster:35881] mca_base_component_repository_open: unable to open mca_pml_ucx: libucp.so.0: cannot open shared object file: No such file or directory (ignored)
[bora001.plafrim.cluster:35884] mca_base_component_repository_open: unable to open mca_pml_ucx: libucp.so.0: cannot open shared object file: No such file or directory (ignored)
[bora001.plafrim.cluster:35887] mca_base_component_repository_open: unable to open mca_pml_ucx: libucp.so.0: cannot open shared object file: No such file or directory (ignored)
[bora001.plafrim.cluster:35882] mca_base_component_repository_open: unable to open mca_pml_ucx: libucp.so.0: cannot open shared object file: No such file or directory (ignored)
[bora001.plafrim.cluster:35883] mca_base_component_repository_open: unable to open mca_pml_ucx: libucp.so.0: cannot open shared object file: No such file or directory (ignored)
[bora001.plafrim.cluster:35885] mca_base_component_repository_open: unable to open mca_pml_ucx: libucp.so.0: cannot open shared object file: No such file or directory (ignored)
[bora001.plafrim.cluster:35886] mca_base_component_repository_open: unable to open mca_osc_ucx: libucp.so.0: cannot open shared object file: No such file or directory (ignored)
[bora001.plafrim.cluster:35880] mca_base_component_repository_open: unable to open mca_osc_ucx: libucp.so.0: cannot open shared object file: No such file or directory (ignored)
[bora001.plafrim.cluster:35884] mca_base_component_repository_open: unable to open mca_osc_ucx: libucp.so.0: cannot open shared object file: No such file or directory (ignored)
[bora001.plafrim.cluster:35887] mca_base_component_repository_open: unable to open mca_osc_ucx: libucp.so.0: cannot open shared object file: No such file or directory (ignored)
[bora001.plafrim.cluster:35881] mca_base_component_repository_open: unable to open mca_osc_ucx: libucp.so.0: cannot open shared object file: No such file or directory (ignored)
[bora001.plafrim.cluster:35882] mca_base_component_repository_open: unable to open mca_osc_ucx: libucp.so.0: cannot open shared object file: No such file or directory (ignored)
[bora001.plafrim.cluster:35885] mca_base_component_repository_open: unable to open mca_osc_ucx: libucp.so.0: cannot open shared object file: No such file or directory (ignored)
[bora001.plafrim.cluster:35883] mca_base_component_repository_open: unable to open mca_osc_ucx: libucp.so.0: cannot open shared object file: No such file or directory (ignored)
[bora001.plafrim.cluster:36177] mca_base_component_repository_open: unable to open mca_btl_uct: libucp.so.0: cannot open shared object file: No such file or directory (ignored)
[bora001.plafrim.cluster:36181] mca_base_component_repository_open: unable to open mca_btl_uct: libucp.so.0: cannot open shared object file: No such file or directory (ignored)
[bora001.plafrim.cluster:36183] mca_base_component_repository_open: unable to open mca_btl_uct: libucp.so.0: cannot open shared object file: No such file or directory (ignored)
[bora001.plafrim.cluster:36178] mca_base_component_repository_open: unable to open mca_btl_uct: libucp.so.0: cannot open shared object file: No such file or directory (ignored)
[bora001.plafrim.cluster:36182] mca_base_component_repository_open: unable to open mca_btl_uct: libucp.so.0: cannot open shared object file: No such file or directory (ignored)
[bora001.plafrim.cluster:36184] mca_base_component_repository_open: unable to open mca_btl_uct: libucp.so.0: cannot open shared object file: No such file or directory (ignored)
[bora001.plafrim.cluster:36179] mca_base_component_repository_open: unable to open mca_btl_uct: libucp.so.0: cannot open shared object file: No such file or directory (ignored)
[bora001.plafrim.cluster:36180] mca_base_component_repository_open: unable to open mca_btl_uct: libucp.so.0: cannot open shared object file: No such file or directory (ignored)
[bora001.plafrim.cluster:36181] mca_base_component_repository_open: unable to open mca_pml_ucx: libucp.so.0: cannot open shared object file: No such file or directory (ignored)
[bora001.plafrim.cluster:36183] mca_base_component_repository_open: unable to open mca_pml_ucx: libucp.so.0: cannot open shared object file: No such file or directory (ignored)
[bora001.plafrim.cluster:36177] mca_base_component_repository_open: unable to open mca_pml_ucx: libucp.so.0: cannot open shared object file: No such file or directory (ignored)
[bora001.plafrim.cluster:36178] mca_base_component_repository_open: unable to open mca_pml_ucx: libucp.so.0: cannot open shared object file: No such file or directory (ignored)
[bora001.plafrim.cluster:36184] mca_base_component_repository_open: unable to open mca_pml_ucx: libucp.so.0: cannot open shared object file: No such file or directory (ignored)
[bora001.plafrim.cluster:36182] mca_base_component_repository_open: unable to open mca_pml_ucx: libucp.so.0: cannot open shared object file: No such file or directory (ignored)
[bora001.plafrim.cluster:36179] mca_base_component_repository_open: unable to open mca_pml_ucx: libucp.so.0: cannot open shared object file: No such file or directory (ignored)
[bora001.plafrim.cluster:36180] mca_base_component_repository_open: unable to open mca_pml_ucx: libucp.so.0: cannot open shared object file: No such file or directory (ignored)
[bora001.plafrim.cluster:36179] mca_base_component_repository_open: unable to open mca_osc_ucx: libucp.so.0: cannot open shared object file: No such file or directory (ignored)
[bora001.plafrim.cluster:36180] mca_base_component_repository_open: unable to open mca_osc_ucx: libucp.so.0: cannot open shared object file: No such file or directory (ignored)
[bora001.plafrim.cluster:36184] mca_base_component_repository_open: unable to open mca_osc_ucx: libucp.so.0: cannot open shared object file: No such file or directory (ignored)
[bora001.plafrim.cluster:36177] mca_base_component_repository_open: unable to open mca_osc_ucx: libucp.so.0: cannot open shared object file: No such file or directory (ignored)
[bora001.plafrim.cluster:36183] mca_base_component_repository_open: unable to open mca_osc_ucx: libucp.so.0: cannot open shared object file: No such file or directory (ignored)
[bora001.plafrim.cluster:36178] mca_base_component_repository_open: unable to open mca_osc_ucx: libucp.so.0: cannot open shared object file: No such file or directory (ignored)
[bora001.plafrim.cluster:36181] mca_base_component_repository_open: unable to open mca_osc_ucx: libucp.so.0: cannot open shared object file: No such file or directory (ignored)
[bora001.plafrim.cluster:36182] mca_base_component_repository_open: unable to open mca_osc_ucx: libucp.so.0: cannot open shared object file: No such file or directory (ignored)
[bora001.plafrim.cluster:36420] mca_base_component_repository_open: unable to open mca_btl_uct: libucp.so.0: cannot open shared object file: No such file or directory (ignored)
[bora001.plafrim.cluster:36416] mca_base_component_repository_open: unable to open mca_btl_uct: libucp.so.0: cannot open shared object file: No such file or directory (ignored)
[bora001.plafrim.cluster:36422] mca_base_component_repository_open: unable to open mca_btl_uct: libucp.so.0: cannot open shared object file: No such file or directory (ignored)
[bora001.plafrim.cluster:36418] mca_base_component_repository_open: unable to open mca_btl_uct: libucp.so.0: cannot open shared object file: No such file or directory (ignored)
[bora001.plafrim.cluster:36423] mca_base_component_repository_open: unable to open mca_btl_uct: libucp.so.0: cannot open shared object file: No such file or directory (ignored)
[bora001.plafrim.cluster:36421] mca_base_component_repository_open: unable to open mca_btl_uct: libucp.so.0: cannot open shared object file: No such file or directory (ignored)
[bora001.plafrim.cluster:36419] mca_base_component_repository_open: unable to open mca_btl_uct: libucp.so.0: cannot open shared object file: No such file or directory (ignored)
[bora001.plafrim.cluster:36417] mca_base_component_repository_open: unable to open mca_btl_uct: libucp.so.0: cannot open shared object file: No such file or directory (ignored)
[bora001.plafrim.cluster:36416] mca_base_component_repository_open: unable to open mca_pml_ucx: libucp.so.0: cannot open shared object file: No such file or directory (ignored)
[bora001.plafrim.cluster:36420] mca_base_component_repository_open: unable to open mca_pml_ucx: libucp.so.0: cannot open shared object file: No such file or directory (ignored)
[bora001.plafrim.cluster:36418] mca_base_component_repository_open: unable to open mca_pml_ucx: libucp.so.0: cannot open shared object file: No such file or directory (ignored)
[bora001.plafrim.cluster:36422] mca_base_component_repository_open: unable to open mca_pml_ucx: libucp.so.0: cannot open shared object file: No such file or directory (ignored)
[bora001.plafrim.cluster:36419] mca_base_component_repository_open: unable to open mca_pml_ucx: libucp.so.0: cannot open shared object file: No such file or directory (ignored)
[bora001.plafrim.cluster:36423] mca_base_component_repository_open: unable to open mca_pml_ucx: libucp.so.0: cannot open shared object file: No such file or directory (ignored)
[bora001.plafrim.cluster:36421] mca_base_component_repository_open: unable to open mca_pml_ucx: libucp.so.0: cannot open shared object file: No such file or directory (ignored)
[bora001.plafrim.cluster:36417] mca_base_component_repository_open: unable to open mca_pml_ucx: libucp.so.0: cannot open shared object file: No such file or directory (ignored)
[bora001.plafrim.cluster:36420] mca_base_component_repository_open: unable to open mca_osc_ucx: libucp.so.0: cannot open shared object file: No such file or directory (ignored)
[bora001.plafrim.cluster:36421] mca_base_component_repository_open: unable to open mca_osc_ucx: libucp.so.0: cannot open shared object file: No such file or directory (ignored)
[bora001.plafrim.cluster:36422] mca_base_component_repository_open: unable to open mca_osc_ucx: libucp.so.0: cannot open shared object file: No such file or directory (ignored)
[bora001.plafrim.cluster:36418] mca_base_component_repository_open: unable to open mca_osc_ucx: libucp.so.0: cannot open shared object file: No such file or directory (ignored)
[bora001.plafrim.cluster:36416] mca_base_component_repository_open: unable to open mca_osc_ucx: libucp.so.0: cannot open shared object file: No such file or directory (ignored)
[bora001.plafrim.cluster:36419] mca_base_component_repository_open: unable to open mca_osc_ucx: libucp.so.0: cannot open shared object file: No such file or directory (ignored)
[bora001.plafrim.cluster:36417] mca_base_component_repository_open: unable to open mca_osc_ucx: libucp.so.0: cannot open shared object file: No such file or directory (ignored)
[bora001.plafrim.cluster:36423] mca_base_component_repository_open: unable to open mca_osc_ucx: libucp.so.0: cannot open shared object file: No such file or directory (ignored)
[bora001.plafrim.cluster:36553] mca_base_component_repository_open: unable to open mca_btl_uct: libucp.so.0: cannot open shared object file: No such file or directory (ignored)
[bora001.plafrim.cluster:36547] mca_base_component_repository_open: unable to open mca_btl_uct: libucp.so.0: cannot open shared object file: No such file or directory (ignored)
[bora001.plafrim.cluster:36551] mca_base_component_repository_open: unable to open mca_btl_uct: libucp.so.0: cannot open shared object file: No such file or directory (ignored)
[bora001.plafrim.cluster:36554] mca_base_component_repository_open: unable to open mca_btl_uct: libucp.so.0: cannot open shared object file: No such file or directory (ignored)
[bora001.plafrim.cluster:36548] mca_base_component_repository_open: unable to open mca_btl_uct: libucp.so.0: cannot open shared object file: No such file or directory (ignored)
[bora001.plafrim.cluster:36549] mca_base_component_repository_open: unable to open mca_btl_uct: libucp.so.0: cannot open shared object file: No such file or directory (ignored)
[bora001.plafrim.cluster:36550] mca_base_component_repository_open: unable to open mca_btl_uct: libucp.so.0: cannot open shared object file: No such file or directory (ignored)
[bora001.plafrim.cluster:36552] mca_base_component_repository_open: unable to open mca_btl_uct: libucp.so.0: cannot open shared object file: No such file or directory (ignored)
[bora001.plafrim.cluster:36553] mca_base_component_repository_open: unable to open mca_pml_ucx: libucp.so.0: cannot open shared object file: No such file or directory (ignored)
[bora001.plafrim.cluster:36547] mca_base_component_repository_open: unable to open mca_pml_ucx: libucp.so.0: cannot open shared object file: No such file or directory (ignored)
[bora001.plafrim.cluster:36551] mca_base_component_repository_open: unable to open mca_pml_ucx: libucp.so.0: cannot open shared object file: No such file or directory (ignored)
[bora001.plafrim.cluster:36554] mca_base_component_repository_open: unable to open mca_pml_ucx: libucp.so.0: cannot open shared object file: No such file or directory (ignored)
[bora001.plafrim.cluster:36548] mca_base_component_repository_open: unable to open mca_pml_ucx: libucp.so.0: cannot open shared object file: No such file or directory (ignored)
[bora001.plafrim.cluster:36552] mca_base_component_repository_open: unable to open mca_pml_ucx: libucp.so.0: cannot open shared object file: No such file or directory (ignored)
[bora001.plafrim.cluster:36549] mca_base_component_repository_open: unable to open mca_pml_ucx: libucp.so.0: cannot open shared object file: No such file or directory (ignored)
[bora001.plafrim.cluster:36550] mca_base_component_repository_open: unable to open mca_pml_ucx: libucp.so.0: cannot open shared object file: No such file or directory (ignored)
[bora001.plafrim.cluster:36547] mca_base_component_repository_open: unable to open mca_osc_ucx: libucp.so.0: cannot open shared object file: No such file or directory (ignored)
[bora001.plafrim.cluster:36549] mca_base_component_repository_open: unable to open mca_osc_ucx: libucp.so.0: cannot open shared object file: No such file or directory (ignored)
[bora001.plafrim.cluster:36551] mca_base_component_repository_open: unable to open mca_osc_ucx: libucp.so.0: cannot open shared object file: No such file or directory (ignored)
[bora001.plafrim.cluster:36552] mca_base_component_repository_open: unable to open mca_osc_ucx: libucp.so.0: cannot open shared object file: No such file or directory (ignored)
[bora001.plafrim.cluster:36553] mca_base_component_repository_open: unable to open mca_osc_ucx: libucp.so.0: cannot open shared object file: No such file or directory (ignored)
[bora001.plafrim.cluster:36550] mca_base_component_repository_open: unable to open mca_osc_ucx: libucp.so.0: cannot open shared object file: No such file or directory (ignored)
[bora001.plafrim.cluster:36548] mca_base_component_repository_open: unable to open mca_osc_ucx: libucp.so.0: cannot open shared object file: No such file or directory (ignored)
[bora001.plafrim.cluster:36554] mca_base_component_repository_open: unable to open mca_osc_ucx: libucp.so.0: cannot open shared object file: No such file or directory (ignored)
[bora001.plafrim.cluster:36675] mca_base_component_repository_open: unable to open mca_btl_uct: libucp.so.0: cannot open shared object file: No such file or directory (ignored)
[bora001.plafrim.cluster:36673] mca_base_component_repository_open: unable to open mca_btl_uct: libucp.so.0: cannot open shared object file: No such file or directory (ignored)
[bora001.plafrim.cluster:36677] mca_base_component_repository_open: unable to open mca_btl_uct: libucp.so.0: cannot open shared object file: No such file or directory (ignored)
[bora001.plafrim.cluster:36679] mca_base_component_repository_open: unable to open mca_btl_uct: libucp.so.0: cannot open shared object file: No such file or directory (ignored)
[bora001.plafrim.cluster:36676] mca_base_component_repository_open: unable to open mca_btl_uct: libucp.so.0: cannot open shared object file: No such file or directory (ignored)
[bora001.plafrim.cluster:36674] mca_base_component_repository_open: unable to open mca_btl_uct: libucp.so.0: cannot open shared object file: No such file or directory (ignored)
[bora001.plafrim.cluster:36680] mca_base_component_repository_open: unable to open mca_btl_uct: libucp.so.0: cannot open shared object file: No such file or directory (ignored)
[bora001.plafrim.cluster:36678] mca_base_component_repository_open: unable to open mca_btl_uct: libucp.so.0: cannot open shared object file: No such file or directory (ignored)
[bora001.plafrim.cluster:36675] mca_base_component_repository_open: unable to open mca_pml_ucx: libucp.so.0: cannot open shared object file: No such file or directory (ignored)
[bora001.plafrim.cluster:36673] mca_base_component_repository_open: unable to open mca_pml_ucx: libucp.so.0: cannot open shared object file: No such file or directory (ignored)
[bora001.plafrim.cluster:36677] mca_base_component_repository_open: unable to open mca_pml_ucx: libucp.so.0: cannot open shared object file: No such file or directory (ignored)
[bora001.plafrim.cluster:36679] mca_base_component_repository_open: unable to open mca_pml_ucx: libucp.so.0: cannot open shared object file: No such file or directory (ignored)
[bora001.plafrim.cluster:36676] mca_base_component_repository_open: unable to open mca_pml_ucx: libucp.so.0: cannot open shared object file: No such file or directory (ignored)
[bora001.plafrim.cluster:36680] mca_base_component_repository_open: unable to open mca_pml_ucx: libucp.so.0: cannot open shared object file: No such file or directory (ignored)
[bora001.plafrim.cluster:36674] mca_base_component_repository_open: unable to open mca_pml_ucx: libucp.so.0: cannot open shared object file: No such file or directory (ignored)
[bora001.plafrim.cluster:36678] mca_base_component_repository_open: unable to open mca_pml_ucx: libucp.so.0: cannot open shared object file: No such file or directory (ignored)
[bora001.plafrim.cluster:36675] mca_base_component_repository_open: unable to open mca_osc_ucx: libucp.so.0: cannot open shared object file: No such file or directory (ignored)
[bora001.plafrim.cluster:36677] mca_base_component_repository_open: unable to open mca_osc_ucx: libucp.so.0: cannot open shared object file: No such file or directory (ignored)
[bora001.plafrim.cluster:36673] mca_base_component_repository_open: unable to open mca_osc_ucx: libucp.so.0: cannot open shared object file: No such file or directory (ignored)
[bora001.plafrim.cluster:36674] mca_base_component_repository_open: unable to open mca_osc_ucx: libucp.so.0: cannot open shared object file: No such file or directory (ignored)
[bora001.plafrim.cluster:36678] mca_base_component_repository_open: unable to open mca_osc_ucx: libucp.so.0: cannot open shared object file: No such file or directory (ignored)
[bora001.plafrim.cluster:36680] mca_base_component_repository_open: unable to open mca_osc_ucx: libucp.so.0: cannot open shared object file: No such file or directory (ignored)
[bora001.plafrim.cluster:36676] mca_base_component_repository_open: unable to open mca_osc_ucx: libucp.so.0: cannot open shared object file: No such file or directory (ignored)
[bora001.plafrim.cluster:36679] mca_base_component_repository_open: unable to open mca_osc_ucx: libucp.so.0: cannot open shared object file: No such file or directory (ignored)
[bora001.plafrim.cluster:36824] mca_base_component_repository_open: unable to open mca_btl_uct: libucp.so.0: cannot open shared object file: No such file or directory (ignored)
[bora001.plafrim.cluster:36828] mca_base_component_repository_open: unable to open mca_btl_uct: libucp.so.0: cannot open shared object file: No such file or directory (ignored)
[bora001.plafrim.cluster:36826] mca_base_component_repository_open: unable to open mca_btl_uct: libucp.so.0: cannot open shared object file: No such file or directory (ignored)
[bora001.plafrim.cluster:36830] mca_base_component_repository_open: unable to open mca_btl_uct: libucp.so.0: cannot open shared object file: No such file or directory (ignored)
[bora001.plafrim.cluster:36829] mca_base_component_repository_open: unable to open mca_btl_uct: libucp.so.0: cannot open shared object file: No such file or directory (ignored)
[bora001.plafrim.cluster:36827] mca_base_component_repository_open: unable to open mca_btl_uct: libucp.so.0: cannot open shared object file: No such file or directory (ignored)
[bora001.plafrim.cluster:36831] mca_base_component_repository_open: unable to open mca_btl_uct: libucp.so.0: cannot open shared object file: No such file or directory (ignored)
[bora001.plafrim.cluster:36825] mca_base_component_repository_open: unable to open mca_btl_uct: libucp.so.0: cannot open shared object file: No such file or directory (ignored)
[bora001.plafrim.cluster:36824] mca_base_component_repository_open: unable to open mca_pml_ucx: libucp.so.0: cannot open shared object file: No such file or directory (ignored)
[bora001.plafrim.cluster:36830] mca_base_component_repository_open: unable to open mca_pml_ucx: libucp.so.0: cannot open shared object file: No such file or directory (ignored)
[bora001.plafrim.cluster:36828] mca_base_component_repository_open: unable to open mca_pml_ucx: libucp.so.0: cannot open shared object file: No such file or directory (ignored)
[bora001.plafrim.cluster:36826] mca_base_component_repository_open: unable to open mca_pml_ucx: libucp.so.0: cannot open shared object file: No such file or directory (ignored)
[bora001.plafrim.cluster:36829] mca_base_component_repository_open: unable to open mca_pml_ucx: libucp.so.0: cannot open shared object file: No such file or directory (ignored)
[bora001.plafrim.cluster:36827] mca_base_component_repository_open: unable to open mca_pml_ucx: libucp.so.0: cannot open shared object file: No such file or directory (ignored)
[bora001.plafrim.cluster:36831] mca_base_component_repository_open: unable to open mca_pml_ucx: libucp.so.0: cannot open shared object file: No such file or directory (ignored)
[bora001.plafrim.cluster:36825] mca_base_component_repository_open: unable to open mca_pml_ucx: libucp.so.0: cannot open shared object file: No such file or directory (ignored)
[bora001.plafrim.cluster:36824] mca_base_component_repository_open: unable to open mca_osc_ucx: libucp.so.0: cannot open shared object file: No such file or directory (ignored)
[bora001.plafrim.cluster:36828] mca_base_component_repository_open: unable to open mca_osc_ucx: libucp.so.0: cannot open shared object file: No such file or directory (ignored)
[bora001.plafrim.cluster:36830] mca_base_component_repository_open: unable to open mca_osc_ucx: libucp.so.0: cannot open shared object file: No such file or directory (ignored)
[bora001.plafrim.cluster:36825] mca_base_component_repository_open: unable to open mca_osc_ucx: libucp.so.0: cannot open shared object file: No such file or directory (ignored)
[bora001.plafrim.cluster:36831] mca_base_component_repository_open: unable to open mca_osc_ucx: libucp.so.0: cannot open shared object file: No such file or directory (ignored)
[bora001.plafrim.cluster:36827] mca_base_component_repository_open: unable to open mca_osc_ucx: libucp.so.0: cannot open shared object file: No such file or directory (ignored)
[bora001.plafrim.cluster:36826] mca_base_component_repository_open: unable to open mca_osc_ucx: libucp.so.0: cannot open shared object file: No such file or directory (ignored)
[bora001.plafrim.cluster:36829] mca_base_component_repository_open: unable to open mca_osc_ucx: libucp.so.0: cannot open shared object file: No such file or directory (ignored)
[bora001.plafrim.cluster:36954] mca_base_component_repository_open: unable to open mca_btl_uct: libucp.so.0: cannot open shared object file: No such file or directory (ignored)
[bora001.plafrim.cluster:36952] mca_base_component_repository_open: unable to open mca_btl_uct: libucp.so.0: cannot open shared object file: No such file or directory (ignored)
[bora001.plafrim.cluster:36956] mca_base_component_repository_open: unable to open mca_btl_uct: libucp.so.0: cannot open shared object file: No such file or directory (ignored)
[bora001.plafrim.cluster:36953] mca_base_component_repository_open: unable to open mca_btl_uct: libucp.so.0: cannot open shared object file: No such file or directory (ignored)
[bora001.plafrim.cluster:36955] mca_base_component_repository_open: unable to open mca_btl_uct: libucp.so.0: cannot open shared object file: No such file or directory (ignored)
[bora001.plafrim.cluster:36957] mca_base_component_repository_open: unable to open mca_btl_uct: libucp.so.0: cannot open shared object file: No such file or directory (ignored)
[bora001.plafrim.cluster:36958] mca_base_component_repository_open: unable to open mca_btl_uct: libucp.so.0: cannot open shared object file: No such file or directory (ignored)
[bora001.plafrim.cluster:36959] mca_base_component_repository_open: unable to open mca_btl_uct: libucp.so.0: cannot open shared object file: No such file or directory (ignored)
[bora001.plafrim.cluster:36952] mca_base_component_repository_open: unable to open mca_pml_ucx: libucp.so.0: cannot open shared object file: No such file or directory (ignored)
[bora001.plafrim.cluster:36955] mca_base_component_repository_open: unable to open mca_pml_ucx: libucp.so.0: cannot open shared object file: No such file or directory (ignored)
[bora001.plafrim.cluster:36956] mca_base_component_repository_open: unable to open mca_pml_ucx: libucp.so.0: cannot open shared object file: No such file or directory (ignored)
[bora001.plafrim.cluster:36957] mca_base_component_repository_open: unable to open mca_pml_ucx: libucp.so.0: cannot open shared object file: No such file or directory (ignored)
[bora001.plafrim.cluster:36953] mca_base_component_repository_open: unable to open mca_pml_ucx: libucp.so.0: cannot open shared object file: No such file or directory (ignored)
[bora001.plafrim.cluster:36954] mca_base_component_repository_open: unable to open mca_pml_ucx: libucp.so.0: cannot open shared object file: No such file or directory (ignored)
[bora001.plafrim.cluster:36958] mca_base_component_repository_open: unable to open mca_pml_ucx: libucp.so.0: cannot open shared object file: No such file or directory (ignored)
[bora001.plafrim.cluster:36959] mca_base_component_repository_open: unable to open mca_pml_ucx: libucp.so.0: cannot open shared object file: No such file or directory (ignored)
[bora001.plafrim.cluster:36956] mca_base_component_repository_open: unable to open mca_osc_ucx: libucp.so.0: cannot open shared object file: No such file or directory (ignored)
[bora001.plafrim.cluster:36958] mca_base_component_repository_open: unable to open mca_osc_ucx: libucp.so.0: cannot open shared object file: No such file or directory (ignored)
[bora001.plafrim.cluster:36953] mca_base_component_repository_open: unable to open mca_osc_ucx: libucp.so.0: cannot open shared object file: No such file or directory (ignored)
[bora001.plafrim.cluster:36959] mca_base_component_repository_open: unable to open mca_osc_ucx: libucp.so.0: cannot open shared object file: No such file or directory (ignored)
[bora001.plafrim.cluster:36955] mca_base_component_repository_open: unable to open mca_osc_ucx: libucp.so.0: cannot open shared object file: No such file or directory (ignored)
[bora001.plafrim.cluster:36952] mca_base_component_repository_open: unable to open mca_osc_ucx: libucp.so.0: cannot open shared object file: No such file or directory (ignored)
[bora001.plafrim.cluster:36954] mca_base_component_repository_open: unable to open mca_osc_ucx: libucp.so.0: cannot open shared object file: No such file or directory (ignored)
[bora001.plafrim.cluster:36957] mca_base_component_repository_open: unable to open mca_osc_ucx: libucp.so.0: cannot open shared object file: No such file or directory (ignored)
