===== My JOB Information ====
Node List:  bora[012-019]
my jobID:  1356148
Partition: routage
submit directory:  /home/lgouveia/luan-teylo/results/IOR/scalability_model/storage_targets/08
submit host:  devel01.plafrim.cluster
In the directory: /home/lgouveia/luan-teylo/results/IOR/scalability_model/storage_targets/08
As the user: lgouveia
============================
IOR-3.4.0+dev: MPI Coordinated Test of Parallel I/O
Began               : Wed Jun 30 19:09:14 2021
Command line        : /home/lgouveia/ior/bin/ior -w -t 1m -b 1024m -k -o /beegfs/lgouveia/ior_8/testFile1
Machine             : Linux bora012.plafrim.cluster
TestID              : 0
StartTime           : Wed Jun 30 19:09:14 2021
Path                : /beegfs/lgouveia/ior_8/testFile1
FS                  : 130.9 TiB   Used FS: 21.1%   Inodes: 0.0 Mi   Used Inodes: -nan%

Options: 
api                 : POSIX
apiVersion          : 
test filename       : /beegfs/lgouveia/ior_8/testFile1
access              : single-shared-file
type                : independent
segments            : 1
ordering in a file  : sequential
ordering inter file : no tasks offsets
nodes               : 8
tasks               : 64
clients per node    : 8
repetitions         : 1
xfersize            : 1 MiB
blocksize           : 1 GiB
aggregate filesize  : 64 GiB

Results: 
WARNING: The file "/beegfs/lgouveia/ior_8/testFile1" exists already and will be overwritten

access    bw(MiB/s)  IOPS       Latency(s)  block(KiB) xfer(KiB)  open(s)    wr/rd(s)   close(s)   total(s)   iter
------    ---------  ----       ----------  ---------- ---------  --------   --------   --------   --------   ----
write     1426.66    1426.72    0.044714    1048576    1024.00    0.011411   45.93      40.56      45.94      0   

Summary of all tests:
Operation   Max(MiB)   Min(MiB)  Mean(MiB)     StdDev   Max(OPs)   Min(OPs)  Mean(OPs)     StdDev    Mean(s) Stonewall(s) Stonewall(MiB) Test# #Tasks tPN reps fPP reord reordoff reordrand seed segcnt   blksiz    xsize aggs(MiB)   API RefNum
write        1426.66    1426.66    1426.66       0.00    1426.66    1426.66    1426.66       0.00   45.93657         NA            NA     0     64   8    1   0     0        1         0    0      1 1073741824  1048576   65536.0 POSIX      0
Finished            : Wed Jun 30 19:10:00 2021
Tracking /beegfs/lgouveia/ior_8/testFile1...



Writing tracked information to tracker.csv...
IOR-3.4.0+dev: MPI Coordinated Test of Parallel I/O
Began               : Wed Jun 30 19:11:02 2021
Command line        : /home/lgouveia/ior/bin/ior -w -t 1m -b 1024m -k -o /beegfs/lgouveia/ior_8/testFile1
Machine             : Linux bora012.plafrim.cluster
TestID              : 0
StartTime           : Wed Jun 30 19:11:02 2021
Path                : /beegfs/lgouveia/ior_8/testFile1
FS                  : 130.9 TiB   Used FS: 21.1%   Inodes: 0.0 Mi   Used Inodes: -nan%

Options: 
api                 : POSIX
apiVersion          : 
test filename       : /beegfs/lgouveia/ior_8/testFile1
access              : single-shared-file
type                : independent
segments            : 1
ordering in a file  : sequential
ordering inter file : no tasks offsets
nodes               : 8
tasks               : 64
clients per node    : 8
repetitions         : 1
xfersize            : 1 MiB
blocksize           : 1 GiB
aggregate filesize  : 64 GiB

Results: 
WARNING: The file "/beegfs/lgouveia/ior_8/testFile1" exists already and will be overwritten

access    bw(MiB/s)  IOPS       Latency(s)  block(KiB) xfer(KiB)  open(s)    wr/rd(s)   close(s)   total(s)   iter
------    ---------  ----       ----------  ---------- ---------  --------   --------   --------   --------   ----
write     1352.00    1352.05    0.021984    1048576    1024.00    0.017465   48.47      43.27      48.47      0   

Summary of all tests:
Operation   Max(MiB)   Min(MiB)  Mean(MiB)     StdDev   Max(OPs)   Min(OPs)  Mean(OPs)     StdDev    Mean(s) Stonewall(s) Stonewall(MiB) Test# #Tasks tPN reps fPP reord reordoff reordrand seed segcnt   blksiz    xsize aggs(MiB)   API RefNum
write        1352.00    1352.00    1352.00       0.00    1352.00    1352.00    1352.00       0.00   48.47333         NA            NA     0     64   8    1   0     0        1         0    0      1 1073741824  1048576   65536.0 POSIX      0
Finished            : Wed Jun 30 19:11:51 2021
Tracking /beegfs/lgouveia/ior_8/testFile1...



Writing tracked information to tracker.csv...
IOR-3.4.0+dev: MPI Coordinated Test of Parallel I/O
Began               : Wed Jun 30 19:12:52 2021
Command line        : /home/lgouveia/ior/bin/ior -w -t 1m -b 1024m -k -o /beegfs/lgouveia/ior_8/testFile1
Machine             : Linux bora012.plafrim.cluster
TestID              : 0
StartTime           : Wed Jun 30 19:12:52 2021
Path                : /beegfs/lgouveia/ior_8/testFile1
FS                  : 130.9 TiB   Used FS: 21.1%   Inodes: 0.0 Mi   Used Inodes: -nan%

Options: 
api                 : POSIX
apiVersion          : 
test filename       : /beegfs/lgouveia/ior_8/testFile1
access              : single-shared-file
type                : independent
segments            : 1
ordering in a file  : sequential
ordering inter file : no tasks offsets
nodes               : 8
tasks               : 64
clients per node    : 8
repetitions         : 1
xfersize            : 1 MiB
blocksize           : 1 GiB
aggregate filesize  : 64 GiB

Results: 
WARNING: The file "/beegfs/lgouveia/ior_8/testFile1" exists already and will be overwritten

access    bw(MiB/s)  IOPS       Latency(s)  block(KiB) xfer(KiB)  open(s)    wr/rd(s)   close(s)   total(s)   iter
------    ---------  ----       ----------  ---------- ---------  --------   --------   --------   --------   ----
write     1315.66    1315.72    0.016760    1048576    1024.00    0.052712   49.81      44.90      49.81      0   

Summary of all tests:
Operation   Max(MiB)   Min(MiB)  Mean(MiB)     StdDev   Max(OPs)   Min(OPs)  Mean(OPs)     StdDev    Mean(s) Stonewall(s) Stonewall(MiB) Test# #Tasks tPN reps fPP reord reordoff reordrand seed segcnt   blksiz    xsize aggs(MiB)   API RefNum
write        1315.66    1315.66    1315.66       0.00    1315.66    1315.66    1315.66       0.00   49.81216         NA            NA     0     64   8    1   0     0        1         0    0      1 1073741824  1048576   65536.0 POSIX      0
Finished            : Wed Jun 30 19:13:42 2021
Tracking /beegfs/lgouveia/ior_8/testFile1...



Writing tracked information to tracker.csv...
IOR-3.4.0+dev: MPI Coordinated Test of Parallel I/O
Began               : Wed Jun 30 19:14:42 2021
Command line        : /home/lgouveia/ior/bin/ior -w -t 1m -b 1024m -k -o /beegfs/lgouveia/ior_8/testFile1
Machine             : Linux bora012.plafrim.cluster
TestID              : 0
StartTime           : Wed Jun 30 19:14:42 2021
Path                : /beegfs/lgouveia/ior_8/testFile1
FS                  : 130.9 TiB   Used FS: 21.1%   Inodes: 0.0 Mi   Used Inodes: -nan%

Options: 
api                 : POSIX
apiVersion          : 
test filename       : /beegfs/lgouveia/ior_8/testFile1
access              : single-shared-file
type                : independent
segments            : 1
ordering in a file  : sequential
ordering inter file : no tasks offsets
nodes               : 8
tasks               : 64
clients per node    : 8
repetitions         : 1
xfersize            : 1 MiB
blocksize           : 1 GiB
aggregate filesize  : 64 GiB

Results: 
WARNING: The file "/beegfs/lgouveia/ior_8/testFile1" exists already and will be overwritten

access    bw(MiB/s)  IOPS       Latency(s)  block(KiB) xfer(KiB)  open(s)    wr/rd(s)   close(s)   total(s)   iter
------    ---------  ----       ----------  ---------- ---------  --------   --------   --------   --------   ----
write     1275.32    1275.36    0.026339    1048576    1024.00    0.012926   51.39      45.20      51.39      0   

Summary of all tests:
Operation   Max(MiB)   Min(MiB)  Mean(MiB)     StdDev   Max(OPs)   Min(OPs)  Mean(OPs)     StdDev    Mean(s) Stonewall(s) Stonewall(MiB) Test# #Tasks tPN reps fPP reord reordoff reordrand seed segcnt   blksiz    xsize aggs(MiB)   API RefNum
write        1275.32    1275.32    1275.32       0.00    1275.32    1275.32    1275.32       0.00   51.38789         NA            NA     0     64   8    1   0     0        1         0    0      1 1073741824  1048576   65536.0 POSIX      0
Finished            : Wed Jun 30 19:15:34 2021
Tracking /beegfs/lgouveia/ior_8/testFile1...



Writing tracked information to tracker.csv...
IOR-3.4.0+dev: MPI Coordinated Test of Parallel I/O
Began               : Wed Jun 30 19:16:35 2021
Command line        : /home/lgouveia/ior/bin/ior -w -t 1m -b 1024m -k -o /beegfs/lgouveia/ior_8/testFile1
Machine             : Linux bora012.plafrim.cluster
TestID              : 0
StartTime           : Wed Jun 30 19:16:35 2021
Path                : /beegfs/lgouveia/ior_8/testFile1
FS                  : 130.9 TiB   Used FS: 21.1%   Inodes: 0.0 Mi   Used Inodes: -nan%

Options: 
api                 : POSIX
apiVersion          : 
test filename       : /beegfs/lgouveia/ior_8/testFile1
access              : single-shared-file
type                : independent
segments            : 1
ordering in a file  : sequential
ordering inter file : no tasks offsets
nodes               : 8
tasks               : 64
clients per node    : 8
repetitions         : 1
xfersize            : 1 MiB
blocksize           : 1 GiB
aggregate filesize  : 64 GiB

Results: 
WARNING: The file "/beegfs/lgouveia/ior_8/testFile1" exists already and will be overwritten

access    bw(MiB/s)  IOPS       Latency(s)  block(KiB) xfer(KiB)  open(s)    wr/rd(s)   close(s)   total(s)   iter
------    ---------  ----       ----------  ---------- ---------  --------   --------   --------   --------   ----
write     1393.74    1393.78    0.024207    1048576    1024.00    0.015189   47.02      41.17      47.02      0   

Summary of all tests:
Operation   Max(MiB)   Min(MiB)  Mean(MiB)     StdDev   Max(OPs)   Min(OPs)  Mean(OPs)     StdDev    Mean(s) Stonewall(s) Stonewall(MiB) Test# #Tasks tPN reps fPP reord reordoff reordrand seed segcnt   blksiz    xsize aggs(MiB)   API RefNum
write        1393.74    1393.74    1393.74       0.00    1393.74    1393.74    1393.74       0.00   47.02166         NA            NA     0     64   8    1   0     0        1         0    0      1 1073741824  1048576   65536.0 POSIX      0
Finished            : Wed Jun 30 19:17:22 2021
Tracking /beegfs/lgouveia/ior_8/testFile1...



Writing tracked information to tracker.csv...
IOR-3.4.0+dev: MPI Coordinated Test of Parallel I/O
Began               : Wed Jun 30 19:18:23 2021
Command line        : /home/lgouveia/ior/bin/ior -w -t 1m -b 1024m -k -o /beegfs/lgouveia/ior_8/testFile1
Machine             : Linux bora012.plafrim.cluster
TestID              : 0
StartTime           : Wed Jun 30 19:18:23 2021
Path                : /beegfs/lgouveia/ior_8/testFile1
FS                  : 130.9 TiB   Used FS: 21.2%   Inodes: 0.0 Mi   Used Inodes: -nan%

Options: 
api                 : POSIX
apiVersion          : 
test filename       : /beegfs/lgouveia/ior_8/testFile1
access              : single-shared-file
type                : independent
segments            : 1
ordering in a file  : sequential
ordering inter file : no tasks offsets
nodes               : 8
tasks               : 64
clients per node    : 8
repetitions         : 1
xfersize            : 1 MiB
blocksize           : 1 GiB
aggregate filesize  : 64 GiB

Results: 
WARNING: The file "/beegfs/lgouveia/ior_8/testFile1" exists already and will be overwritten

access    bw(MiB/s)  IOPS       Latency(s)  block(KiB) xfer(KiB)  open(s)    wr/rd(s)   close(s)   total(s)   iter
------    ---------  ----       ----------  ---------- ---------  --------   --------   --------   --------   ----
write     1232.78    1232.81    0.024219    1048576    1024.00    0.020797   53.16      46.05      53.16      0   

Summary of all tests:
Operation   Max(MiB)   Min(MiB)  Mean(MiB)     StdDev   Max(OPs)   Min(OPs)  Mean(OPs)     StdDev    Mean(s) Stonewall(s) Stonewall(MiB) Test# #Tasks tPN reps fPP reord reordoff reordrand seed segcnt   blksiz    xsize aggs(MiB)   API RefNum
write        1232.78    1232.78    1232.78       0.00    1232.78    1232.78    1232.78       0.00   53.16122         NA            NA     0     64   8    1   0     0        1         0    0      1 1073741824  1048576   65536.0 POSIX      0
Finished            : Wed Jun 30 19:19:16 2021
Tracking /beegfs/lgouveia/ior_8/testFile1...



Writing tracked information to tracker.csv...
IOR-3.4.0+dev: MPI Coordinated Test of Parallel I/O
Began               : Wed Jun 30 19:20:17 2021
Command line        : /home/lgouveia/ior/bin/ior -w -t 1m -b 1024m -k -o /beegfs/lgouveia/ior_8/testFile1
Machine             : Linux bora012.plafrim.cluster
TestID              : 0
StartTime           : Wed Jun 30 19:20:17 2021
Path                : /beegfs/lgouveia/ior_8/testFile1
FS                  : 130.9 TiB   Used FS: 21.2%   Inodes: 0.0 Mi   Used Inodes: -nan%

Options: 
api                 : POSIX
apiVersion          : 
test filename       : /beegfs/lgouveia/ior_8/testFile1
access              : single-shared-file
type                : independent
segments            : 1
ordering in a file  : sequential
ordering inter file : no tasks offsets
nodes               : 8
tasks               : 64
clients per node    : 8
repetitions         : 1
xfersize            : 1 MiB
blocksize           : 1 GiB
aggregate filesize  : 64 GiB

Results: 
WARNING: The file "/beegfs/lgouveia/ior_8/testFile1" exists already and will be overwritten

access    bw(MiB/s)  IOPS       Latency(s)  block(KiB) xfer(KiB)  open(s)    wr/rd(s)   close(s)   total(s)   iter
------    ---------  ----       ----------  ---------- ---------  --------   --------   --------   --------   ----
write     1397.45    1397.49    0.028181    1048576    1024.00    0.011970   46.90      40.84      46.90      0   

Summary of all tests:
Operation   Max(MiB)   Min(MiB)  Mean(MiB)     StdDev   Max(OPs)   Min(OPs)  Mean(OPs)     StdDev    Mean(s) Stonewall(s) Stonewall(MiB) Test# #Tasks tPN reps fPP reord reordoff reordrand seed segcnt   blksiz    xsize aggs(MiB)   API RefNum
write        1397.45    1397.45    1397.45       0.00    1397.45    1397.45    1397.45       0.00   46.89685         NA            NA     0     64   8    1   0     0        1         0    0      1 1073741824  1048576   65536.0 POSIX      0
Finished            : Wed Jun 30 19:21:04 2021
Tracking /beegfs/lgouveia/ior_8/testFile1...



Writing tracked information to tracker.csv...
IOR-3.4.0+dev: MPI Coordinated Test of Parallel I/O
Began               : Wed Jun 30 19:22:05 2021
Command line        : /home/lgouveia/ior/bin/ior -w -t 1m -b 1024m -k -o /beegfs/lgouveia/ior_8/testFile1
Machine             : Linux bora012.plafrim.cluster
TestID              : 0
StartTime           : Wed Jun 30 19:22:05 2021
Path                : /beegfs/lgouveia/ior_8/testFile1
FS                  : 130.9 TiB   Used FS: 21.2%   Inodes: 0.0 Mi   Used Inodes: -nan%

Options: 
api                 : POSIX
apiVersion          : 
test filename       : /beegfs/lgouveia/ior_8/testFile1
access              : single-shared-file
type                : independent
segments            : 1
ordering in a file  : sequential
ordering inter file : no tasks offsets
nodes               : 8
tasks               : 64
clients per node    : 8
repetitions         : 1
xfersize            : 1 MiB
blocksize           : 1 GiB
aggregate filesize  : 64 GiB

Results: 
WARNING: The file "/beegfs/lgouveia/ior_8/testFile1" exists already and will be overwritten

access    bw(MiB/s)  IOPS       Latency(s)  block(KiB) xfer(KiB)  open(s)    wr/rd(s)   close(s)   total(s)   iter
------    ---------  ----       ----------  ---------- ---------  --------   --------   --------   --------   ----
write     1402.91    1402.98    0.032930    1048576    1024.00    0.016498   46.71      41.26      46.71      0   

Summary of all tests:
Operation   Max(MiB)   Min(MiB)  Mean(MiB)     StdDev   Max(OPs)   Min(OPs)  Mean(OPs)     StdDev    Mean(s) Stonewall(s) Stonewall(MiB) Test# #Tasks tPN reps fPP reord reordoff reordrand seed segcnt   blksiz    xsize aggs(MiB)   API RefNum
write        1402.91    1402.91    1402.91       0.00    1402.91    1402.91    1402.91       0.00   46.71442         NA            NA     0     64   8    1   0     0        1         0    0      1 1073741824  1048576   65536.0 POSIX      0
Finished            : Wed Jun 30 19:22:51 2021
Tracking /beegfs/lgouveia/ior_8/testFile1...



Writing tracked information to tracker.csv...
IOR-3.4.0+dev: MPI Coordinated Test of Parallel I/O
Began               : Wed Jun 30 19:23:52 2021
Command line        : /home/lgouveia/ior/bin/ior -w -t 1m -b 1024m -k -o /beegfs/lgouveia/ior_8/testFile1
Machine             : Linux bora012.plafrim.cluster
TestID              : 0
StartTime           : Wed Jun 30 19:23:52 2021
Path                : /beegfs/lgouveia/ior_8/testFile1
FS                  : 130.9 TiB   Used FS: 21.2%   Inodes: 0.0 Mi   Used Inodes: -nan%

Options: 
api                 : POSIX
apiVersion          : 
test filename       : /beegfs/lgouveia/ior_8/testFile1
access              : single-shared-file
type                : independent
segments            : 1
ordering in a file  : sequential
ordering inter file : no tasks offsets
nodes               : 8
tasks               : 64
clients per node    : 8
repetitions         : 1
xfersize            : 1 MiB
blocksize           : 1 GiB
aggregate filesize  : 64 GiB

Results: 
WARNING: The file "/beegfs/lgouveia/ior_8/testFile1" exists already and will be overwritten

access    bw(MiB/s)  IOPS       Latency(s)  block(KiB) xfer(KiB)  open(s)    wr/rd(s)   close(s)   total(s)   iter
------    ---------  ----       ----------  ---------- ---------  --------   --------   --------   --------   ----
write     1368.07    1368.14    0.023025    1048576    1024.00    0.014394   47.90      42.49      47.90      0   

Summary of all tests:
Operation   Max(MiB)   Min(MiB)  Mean(MiB)     StdDev   Max(OPs)   Min(OPs)  Mean(OPs)     StdDev    Mean(s) Stonewall(s) Stonewall(MiB) Test# #Tasks tPN reps fPP reord reordoff reordrand seed segcnt   blksiz    xsize aggs(MiB)   API RefNum
write        1368.07    1368.07    1368.07       0.00    1368.07    1368.07    1368.07       0.00   47.90388         NA            NA     0     64   8    1   0     0        1         0    0      1 1073741824  1048576   65536.0 POSIX      0
Finished            : Wed Jun 30 19:24:40 2021
Tracking /beegfs/lgouveia/ior_8/testFile1...



Writing tracked information to tracker.csv...
IOR-3.4.0+dev: MPI Coordinated Test of Parallel I/O
Began               : Wed Jun 30 19:25:41 2021
Command line        : /home/lgouveia/ior/bin/ior -w -t 1m -b 1024m -k -o /beegfs/lgouveia/ior_8/testFile1
Machine             : Linux bora012.plafrim.cluster
TestID              : 0
StartTime           : Wed Jun 30 19:25:41 2021
Path                : /beegfs/lgouveia/ior_8/testFile1
FS                  : 130.9 TiB   Used FS: 21.2%   Inodes: 0.0 Mi   Used Inodes: -nan%

Options: 
api                 : POSIX
apiVersion          : 
test filename       : /beegfs/lgouveia/ior_8/testFile1
access              : single-shared-file
type                : independent
segments            : 1
ordering in a file  : sequential
ordering inter file : no tasks offsets
nodes               : 8
tasks               : 64
clients per node    : 8
repetitions         : 1
xfersize            : 1 MiB
blocksize           : 1 GiB
aggregate filesize  : 64 GiB

Results: 
WARNING: The file "/beegfs/lgouveia/ior_8/testFile1" exists already and will be overwritten

access    bw(MiB/s)  IOPS       Latency(s)  block(KiB) xfer(KiB)  open(s)    wr/rd(s)   close(s)   total(s)   iter
------    ---------  ----       ----------  ---------- ---------  --------   --------   --------   --------   ----
write     1412.50    1412.54    0.041467    1048576    1024.00    0.016722   46.40      41.25      46.40      0   

Summary of all tests:
Operation   Max(MiB)   Min(MiB)  Mean(MiB)     StdDev   Max(OPs)   Min(OPs)  Mean(OPs)     StdDev    Mean(s) Stonewall(s) Stonewall(MiB) Test# #Tasks tPN reps fPP reord reordoff reordrand seed segcnt   blksiz    xsize aggs(MiB)   API RefNum
write        1412.50    1412.50    1412.50       0.00    1412.50    1412.50    1412.50       0.00   46.39710         NA            NA     0     64   8    1   0     0        1         0    0      1 1073741824  1048576   65536.0 POSIX      0
Finished            : Wed Jun 30 19:26:28 2021
Tracking /beegfs/lgouveia/ior_8/testFile1...



Writing tracked information to tracker.csv...
