tracker_id,tracker_timestamp,file,size,ctime,mtime,storage_targets
60130027,1637579870.75343,/beegfs/lgouveia/ior_4/testFile1,2147483648,1637579869.0,1637579869.0,201 104 103 102
879ab4b9,1637579932.297062,/beegfs/lgouveia/ior_4/testFile1,2147483648,1637579932.0,1637579932.0,202 203 204 101
38a81fb2,1637579993.831274,/beegfs/lgouveia/ior_4/testFile1,2147483648,1637579993.0,1637579993.0,204 101 203 202
e743c55b,1637580055.300516,/beegfs/lgouveia/ior_4/testFile1,2147483648,1637580055.0,1637580055.0,104 103 201 102
656a5b8a,1637580116.795308,/beegfs/lgouveia/ior_4/testFile1,2147483648,1637580116.0,1637580116.0,202 204 101 203
e257009c,1637580178.126893,/beegfs/lgouveia/ior_4/testFile1,2147483648,1637580177.0,1637580177.0,104 201 102 103
8ddec64b,1637580239.718091,/beegfs/lgouveia/ior_4/testFile1,2147483648,1637580239.0,1637580239.0,101 202 203 204
503765c8,1637580301.136905,/beegfs/lgouveia/ior_4/testFile1,2147483648,1637580300.0,1637580300.0,202 204 203 101
c0bd2a29,1637580362.515636,/beegfs/lgouveia/ior_4/testFile1,2147483648,1637580362.0,1637580362.0,101 203 202 204
762e1bae,1637580423.940857,/beegfs/lgouveia/ior_4/testFile1,2147483648,1637580423.0,1637580423.0,201 102 104 103
e76b7d68,1637580699.35383,/beegfs/lgouveia/ior_4/testFile1,2147483648,1637580698.0,1637580698.0,102 103 104 201
5cb3ac81,1637580760.891221,/beegfs/lgouveia/ior_4/testFile1,2147483648,1637580760.0,1637580760.0,101 204 203 202
9a4cef06,1637580822.398906,/beegfs/lgouveia/ior_4/testFile1,2147483648,1637580822.0,1637580822.0,202 101 204 203
6a9282e6,1637580883.902674,/beegfs/lgouveia/ior_4/testFile1,2147483648,1637580883.0,1637580883.0,203 101 204 202
85467bad,1637580945.318618,/beegfs/lgouveia/ior_4/testFile1,2147483648,1637580945.0,1637580945.0,104 201 103 102
8647aeca,1637581006.739108,/beegfs/lgouveia/ior_4/testFile1,2147483648,1637581006.0,1637581006.0,202 204 101 203
72c4c46f,1637581068.203111,/beegfs/lgouveia/ior_4/testFile1,2147483648,1637581067.0,1637581067.0,103 102 201 104
d728e366,1637581129.573977,/beegfs/lgouveia/ior_4/testFile1,2147483648,1637581129.0,1637581129.0,101 203 204 202
a68f8f53,1637581190.964819,/beegfs/lgouveia/ior_4/testFile1,2147483648,1637581190.0,1637581190.0,201 103 102 104
d2cc5ab0,1637581252.400549,/beegfs/lgouveia/ior_4/testFile1,2147483648,1637581252.0,1637581252.0,204 202 101 203
ff1f8ba8,1637581728.528498,/beegfs/lgouveia/ior_4/testFile1,2147483648,1637581728.0,1637581728.0,103 104 201 102
b28302e5,1637581790.000594,/beegfs/lgouveia/ior_4/testFile1,2147483648,1637581789.0,1637581789.0,203 101 202 204
5cc840e2,1637581851.290811,/beegfs/lgouveia/ior_4/testFile1,2147483648,1637581851.0,1637581851.0,104 102 103 201
98aa6b27,1637581912.766797,/beegfs/lgouveia/ior_4/testFile1,2147483648,1637581912.0,1637581912.0,101 204 203 202
1a946150,1637581974.26559,/beegfs/lgouveia/ior_4/testFile1,2147483648,1637581974.0,1637581974.0,103 201 102 104
6c058a50,1637582035.701845,/beegfs/lgouveia/ior_4/testFile1,2147483648,1637582035.0,1637582035.0,201 103 102 104
fe4f5407,1637582097.239177,/beegfs/lgouveia/ior_4/testFile1,2147483648,1637582096.0,1637582096.0,102 103 201 104
bd613356,1637582158.579282,/beegfs/lgouveia/ior_4/testFile1,2147483648,1637582158.0,1637582158.0,202 204 203 101
2a3c1b9f,1637582220.009063,/beegfs/lgouveia/ior_4/testFile1,2147483648,1637582219.0,1637582219.0,104 103 102 201
26f01078,1637582281.377915,/beegfs/lgouveia/ior_4/testFile1,2147483648,1637582281.0,1637582281.0,102 201 104 103
2378b0d3,1637582518.634395,/beegfs/lgouveia/ior_4/testFile1,2147483648,1637582518.0,1637582518.0,102 201 103 104
b2b791ac,1637582580.299275,/beegfs/lgouveia/ior_4/testFile1,2147483648,1637582580.0,1637582580.0,103 102 201 104
1fb3cb12,1637582641.776335,/beegfs/lgouveia/ior_4/testFile1,2147483648,1637582641.0,1637582641.0,103 201 102 104
c2e9b99c,1637582703.192752,/beegfs/lgouveia/ior_4/testFile1,2147483648,1637582702.0,1637582702.0,202 203 204 101
5436e554,1637582764.836837,/beegfs/lgouveia/ior_4/testFile1,2147483648,1637582764.0,1637582764.0,104 102 201 103
744f82aa,1637582826.325219,/beegfs/lgouveia/ior_4/testFile1,2147483648,1637582826.0,1637582826.0,104 102 201 103
0f307da4,1637582887.720601,/beegfs/lgouveia/ior_4/testFile1,2147483648,1637582887.0,1637582887.0,203 204 101 202
62f636df,1637582949.125248,/beegfs/lgouveia/ior_4/testFile1,2147483648,1637582948.0,1637582948.0,103 201 104 102
5f0a071c,1637583010.65392,/beegfs/lgouveia/ior_4/testFile1,2147483648,1637583010.0,1637583010.0,204 101 203 202
bc831c48,1637583072.096353,/beegfs/lgouveia/ior_4/testFile1,2147483648,1637583071.0,1637583071.0,202 203 101 204
e3babf02,1637583531.911887,/beegfs/lgouveia/ior_4/testFile1,2147483648,1637583529.0,1637583529.0,101 202 204 203
a3b62f9f,1637583593.614127,/beegfs/lgouveia/ior_4/testFile1,2147483648,1637583593.0,1637583593.0,102 103 104 201
68b85c7f,1637583655.031048,/beegfs/lgouveia/ior_4/testFile1,2147483648,1637583654.0,1637583654.0,202 101 204 203
6a0c201a,1637583716.455112,/beegfs/lgouveia/ior_4/testFile1,2147483648,1637583716.0,1637583716.0,102 103 201 104
ea6a1cbf,1637583777.938982,/beegfs/lgouveia/ior_4/testFile1,2147483648,1637583777.0,1637583777.0,204 202 203 101
b957bca5,1637583839.337374,/beegfs/lgouveia/ior_4/testFile1,2147483648,1637583839.0,1637583839.0,204 202 203 101
708bf1f0,1637583900.869362,/beegfs/lgouveia/ior_4/testFile1,2147483648,1637583900.0,1637583900.0,101 204 202 203
8876d3f6,1637583962.333554,/beegfs/lgouveia/ior_4/testFile1,2147483648,1637583962.0,1637583962.0,201 102 103 104
5cbb8a08,1637584023.771846,/beegfs/lgouveia/ior_4/testFile1,2147483648,1637584023.0,1637584023.0,101 202 204 203
a3dbdfac,1637584085.300271,/beegfs/lgouveia/ior_4/testFile1,2147483648,1637584085.0,1637584085.0,104 102 103 201
64290c63,1637584461.421915,/beegfs/lgouveia/ior_4/testFile1,2147483648,1637584461.0,1637584461.0,104 103 201 102
98c590f1,1637584522.882685,/beegfs/lgouveia/ior_4/testFile1,2147483648,1637584522.0,1637584522.0,201 103 102 104
548f1125,1637584584.30569,/beegfs/lgouveia/ior_4/testFile1,2147483648,1637584584.0,1637584584.0,201 103 104 102
6190bede,1637584645.820054,/beegfs/lgouveia/ior_4/testFile1,2147483648,1637584645.0,1637584645.0,202 203 204 101
3daab886,1637584707.435714,/beegfs/lgouveia/ior_4/testFile1,2147483648,1637584707.0,1637584707.0,201 103 104 102
3aa7768b,1637584768.932856,/beegfs/lgouveia/ior_4/testFile1,2147483648,1637584768.0,1637584768.0,103 104 102 201
a5bf5063,1637584830.379216,/beegfs/lgouveia/ior_4/testFile1,2147483648,1637584830.0,1637584830.0,204 202 101 203
daea6cab,1637584891.812491,/beegfs/lgouveia/ior_4/testFile1,2147483648,1637584891.0,1637584891.0,104 201 103 102
43915d35,1637584953.230863,/beegfs/lgouveia/ior_4/testFile1,2147483648,1637584952.0,1637584952.0,202 101 203 204
a0a72b97,1637585014.539822,/beegfs/lgouveia/ior_4/testFile1,2147483648,1637585014.0,1637585014.0,103 102 104 201
00f78b0b,1637585485.073108,/beegfs/lgouveia/ior_4/testFile1,2147483648,1637585484.0,1637585484.0,101 203 204 202
a323d059,1637585546.63877,/beegfs/lgouveia/ior_4/testFile1,2147483648,1637585546.0,1637585546.0,102 103 104 201
a6e3cbba,1637585608.162845,/beegfs/lgouveia/ior_4/testFile1,2147483648,1637585607.0,1637585607.0,204 101 203 202
f63df67d,1637585669.562764,/beegfs/lgouveia/ior_4/testFile1,2147483648,1637585669.0,1637585669.0,202 203 204 101
c9d7a4ec,1637585731.056252,/beegfs/lgouveia/ior_4/testFile1,2147483648,1637585730.0,1637585730.0,201 102 104 103
6b9542d2,1637585792.540035,/beegfs/lgouveia/ior_4/testFile1,2147483648,1637585792.0,1637585792.0,102 201 104 103
294128be,1637585853.9744,/beegfs/lgouveia/ior_4/testFile1,2147483648,1637585853.0,1637585853.0,203 204 202 101
4b4c0b57,1637585915.330769,/beegfs/lgouveia/ior_4/testFile1,2147483648,1637585915.0,1637585915.0,101 204 202 203
1d8f673c,1637585976.763811,/beegfs/lgouveia/ior_4/testFile1,2147483648,1637585976.0,1637585976.0,102 103 201 104
f8ec179b,1637586038.317408,/beegfs/lgouveia/ior_4/testFile1,2147483648,1637586038.0,1637586038.0,202 204 101 203
c5b7014d,1637586479.219913,/beegfs/lgouveia/ior_4/testFile1,2147483648,1637586476.0,1637586476.0,102 201 103 104
27841e26,1637586540.829379,/beegfs/lgouveia/ior_4/testFile1,2147483648,1637586540.0,1637586540.0,104 103 201 102
a6a5604a,1637586602.203975,/beegfs/lgouveia/ior_4/testFile1,2147483648,1637586601.0,1637586601.0,101 204 203 202
d494e64c,1637586663.634679,/beegfs/lgouveia/ior_4/testFile1,2147483648,1637586663.0,1637586663.0,201 103 102 104
7dcb4ec5,1637586724.972249,/beegfs/lgouveia/ior_4/testFile1,2147483648,1637586724.0,1637586724.0,203 101 202 204
a0517b38,1637586786.452365,/beegfs/lgouveia/ior_4/testFile1,2147483648,1637586786.0,1637586786.0,104 102 201 103
0a85acd2,1637586847.888668,/beegfs/lgouveia/ior_4/testFile1,2147483648,1637586847.0,1637586847.0,201 104 102 103
b2ed067e,1637586909.407466,/beegfs/lgouveia/ior_4/testFile1,2147483648,1637586909.0,1637586909.0,101 202 203 204
b9389b6c,1637586970.929402,/beegfs/lgouveia/ior_4/testFile1,2147483648,1637586970.0,1637586970.0,201 103 102 104
c87d3678,1637587032.32136,/beegfs/lgouveia/ior_4/testFile1,2147483648,1637587032.0,1637587032.0,203 204 101 202
a51a15d3,1637587678.20579,/beegfs/lgouveia/ior_4/testFile1,2147483648,1637587675.0,1637587675.0,104 102 201 103
e55fe378,1637587739.858602,/beegfs/lgouveia/ior_4/testFile1,2147483648,1637587739.0,1637587739.0,104 102 103 201
523b128b,1637587801.38737,/beegfs/lgouveia/ior_4/testFile1,2147483648,1637587801.0,1637587801.0,202 101 203 204
a56fe6b0,1637587862.794785,/beegfs/lgouveia/ior_4/testFile1,2147483648,1637587862.0,1637587862.0,102 104 103 201
c17f725b,1637587924.203638,/beegfs/lgouveia/ior_4/testFile1,2147483648,1637587923.0,1637587923.0,203 202 101 204
d904d22c,1637587985.773847,/beegfs/lgouveia/ior_4/testFile1,2147483648,1637587985.0,1637587985.0,102 103 201 104
7413b5d4,1637588047.132256,/beegfs/lgouveia/ior_4/testFile1,2147483648,1637588046.0,1637588046.0,104 201 103 102
00dec35f,1637588108.603241,/beegfs/lgouveia/ior_4/testFile1,2147483648,1637588108.0,1637588108.0,101 204 202 203
408e7018,1637588170.150694,/beegfs/lgouveia/ior_4/testFile1,2147483648,1637588169.0,1637588169.0,203 204 101 202
64b7ebca,1637588231.651857,/beegfs/lgouveia/ior_4/testFile1,2147483648,1637588231.0,1637588231.0,102 201 104 103
7ca3702d,1637588936.387263,/beegfs/lgouveia/ior_4/testFile1,2147483648,1637588934.0,1637588934.0,102 103 201 104
8f8f4f69,1637588997.845999,/beegfs/lgouveia/ior_4/testFile1,2147483648,1637588997.0,1637588997.0,201 102 103 104
f645ad1b,1637589059.237014,/beegfs/lgouveia/ior_4/testFile1,2147483648,1637589058.0,1637589058.0,102 104 103 201
50760558,1637589120.728115,/beegfs/lgouveia/ior_4/testFile1,2147483648,1637589120.0,1637589120.0,104 102 103 201
acedcecd,1637589182.156692,/beegfs/lgouveia/ior_4/testFile1,2147483648,1637589181.0,1637589181.0,101 203 202 204
45306143,1637589243.542153,/beegfs/lgouveia/ior_4/testFile1,2147483648,1637589243.0,1637589243.0,201 103 104 102
698aaeea,1637589305.055706,/beegfs/lgouveia/ior_4/testFile1,2147483648,1637589304.0,1637589304.0,101 204 203 202
88fed5a2,1637589366.478522,/beegfs/lgouveia/ior_4/testFile1,2147483648,1637589366.0,1637589366.0,101 202 204 203
65e57a86,1637589428.012865,/beegfs/lgouveia/ior_4/testFile1,2147483648,1637589427.0,1637589427.0,202 204 101 203
62f84c23,1637589489.450585,/beegfs/lgouveia/ior_4/testFile1,2147483648,1637589489.0,1637589489.0,203 101 204 202
