access,bw,iops,latency,block,xfer,open,wr/rd,close,total,iter,start,end
write,2645.74,2645.91,0.021994,524288,1024.00,0.136228,12.38,10.82,12.39,0,Tue Feb 8 15:56:21 2022,Tue Feb 8 15:56:33 2022
write,2626.61,2626.83,0.021653,524288,1024.00,0.469932,12.47,10.38,12.48,0,Tue Feb 8 15:57:35 2022,Tue Feb 8 15:57:47 2022
write,2620.18,2620.40,0.021326,524288,1024.00,0.386093,12.50,10.58,12.51,0,Tue Feb 8 15:58:49 2022,Tue Feb 8 15:59:02 2022
write,2993.36,2993.76,0.015310,524288,1024.00,0.212444,10.95,9.39,10.95,0,Tue Feb 8 16:00:03 2022,Tue Feb 8 16:00:14 2022
write,2706.62,2707.05,0.015765,524288,1024.00,0.319565,12.10,9.96,12.11,0,Tue Feb 8 16:01:17 2022,Tue Feb 8 16:01:29 2022
write,2544.86,2545.02,0.015079,524288,1024.00,0.432750,12.88,11.22,12.88,0,Tue Feb 8 16:02:31 2022,Tue Feb 8 16:02:44 2022
write,2827.35,2827.70,0.005748,524288,1024.00,0.342583,11.59,9.39,11.59,0,Tue Feb 8 16:03:45 2022,Tue Feb 8 16:03:58 2022
write,2576.14,2576.43,0.023151,524288,1024.00,0.312554,12.72,10.94,12.72,0,Tue Feb 8 16:05:00 2022,Tue Feb 8 16:05:13 2022
write,2600.45,2600.63,0.022649,524288,1024.00,0.676188,12.60,11.09,12.60,0,Tue Feb 8 16:06:15 2022,Tue Feb 8 16:06:27 2022
write,2516.58,2516.78,0.018907,524288,1024.00,0.556094,13.02,10.34,13.02,0,Tue Feb 8 16:07:29 2022,Tue Feb 8 16:07:42 2022
write,2439.50,2439.67,0.014671,524288,1024.00,0.105636,13.43,11.49,13.43,0,Tue Feb 8 18:25:40 2022,Tue Feb 8 18:25:54 2022
write,2745.26,2745.71,0.014668,524288,1024.00,0.416600,11.93,9.31,11.94,0,Tue Feb 8 18:26:56 2022,Tue Feb 8 18:27:08 2022
write,2499.14,2499.56,0.017229,524288,1024.00,0.320928,13.11,11.15,13.11,0,Tue Feb 8 18:28:11 2022,Tue Feb 8 18:28:24 2022
write,2532.23,2532.40,0.009403,524288,1024.00,0.286922,12.94,11.34,12.94,0,Tue Feb 8 18:29:25 2022,Tue Feb 8 18:29:38 2022
write,2484.42,2484.64,0.025471,524288,1024.00,0.398922,13.19,11.65,13.19,0,Tue Feb 8 18:30:40 2022,Tue Feb 8 18:30:53 2022
write,2611.91,2612.08,0.021111,524288,1024.00,0.479448,12.54,10.58,12.55,0,Tue Feb 8 18:31:54 2022,Tue Feb 8 18:32:07 2022
write,2482.98,2483.38,0.025088,524288,1024.00,0.324195,13.19,11.99,13.20,0,Tue Feb 8 18:33:08 2022,Tue Feb 8 18:33:21 2022
write,2947.18,2947.76,0.016513,524288,1024.00,0.126223,11.12,9.26,11.12,0,Tue Feb 8 18:34:22 2022,Tue Feb 8 18:34:33 2022
write,2649.66,2649.93,0.021586,524288,1024.00,0.404880,12.37,10.10,12.37,0,Tue Feb 8 18:35:37 2022,Tue Feb 8 18:35:50 2022
write,2600.03,2600.26,0.018736,524288,1024.00,0.352366,12.60,10.50,12.60,0,Tue Feb 8 18:36:51 2022,Tue Feb 8 18:37:04 2022
write,2685.44,2685.92,0.021824,524288,1024.00,0.670979,12.20,10.35,12.20,0,Tue Feb 8 18:55:11 2022,Tue Feb 8 18:55:23 2022
write,2919.64,2919.91,0.012530,524288,1024.00,0.513288,11.22,9.26,11.22,0,Tue Feb 8 18:56:26 2022,Tue Feb 8 18:56:37 2022
write,2732.31,2732.55,0.009636,524288,1024.00,0.077036,11.99,10.47,11.99,0,Tue Feb 8 18:57:39 2022,Tue Feb 8 18:57:52 2022
write,2613.95,2614.19,0.006390,524288,1024.00,0.208922,12.53,10.76,12.54,0,Tue Feb 8 18:58:53 2022,Tue Feb 8 18:59:06 2022
write,2457.34,2457.53,0.021334,524288,1024.00,0.312334,13.33,11.62,13.33,0,Tue Feb 8 19:00:09 2022,Tue Feb 8 19:00:22 2022
write,2717.65,2717.99,0.017167,524288,1024.00,0.193624,12.06,10.44,12.06,0,Tue Feb 8 19:01:24 2022,Tue Feb 8 19:01:36 2022
write,2615.37,2616.66,0.016406,524288,1024.00,0.574786,12.52,10.68,12.53,0,Tue Feb 8 19:02:39 2022,Tue Feb 8 19:02:51 2022
write,2704.89,2705.21,0.019788,524288,1024.00,0.443783,12.11,10.08,12.11,0,Tue Feb 8 19:03:53 2022,Tue Feb 8 19:04:05 2022
write,2833.88,2834.24,0.013577,524288,1024.00,0.115047,11.56,9.25,11.56,0,Tue Feb 8 19:05:09 2022,Tue Feb 8 19:05:21 2022
write,2991.09,2991.55,0.015604,524288,1024.00,0.163945,10.95,9.10,10.96,0,Tue Feb 8 19:06:24 2022,Tue Feb 8 19:06:35 2022
write,2822.88,2823.11,0.007886,524288,1024.00,0.373991,11.61,9.15,11.61,0,Tue Feb 8 19:55:41 2022,Tue Feb 8 19:55:52 2022
write,2696.06,2696.36,0.021886,524288,1024.00,0.300092,12.15,10.08,12.15,0,Tue Feb 8 19:56:55 2022,Tue Feb 8 19:57:07 2022
write,2030.60,2030.74,0.006979,524288,1024.00,0.328192,16.14,13.18,16.14,0,Tue Feb 8 19:58:09 2022,Tue Feb 8 19:58:25 2022
write,2522.27,2523.29,0.012860,524288,1024.00,0.333828,12.99,10.56,12.99,0,Tue Feb 8 19:59:26 2022,Tue Feb 8 19:59:39 2022
write,2638.28,2638.44,0.022892,524288,1024.00,0.412329,12.42,10.48,12.42,0,Tue Feb 8 20:00:41 2022,Tue Feb 8 20:00:53 2022
write,2886.95,2887.26,0.019032,524288,1024.00,0.352063,11.35,9.64,11.35,0,Tue Feb 8 20:01:55 2022,Tue Feb 8 20:02:06 2022
write,2614.28,2614.49,0.017253,524288,1024.00,0.287862,12.53,10.96,12.53,0,Tue Feb 8 20:03:08 2022,Tue Feb 8 20:03:21 2022
write,3049.15,3049.63,0.015711,524288,1024.00,0.368639,10.74,8.68,10.75,0,Tue Feb 8 20:04:22 2022,Tue Feb 8 20:04:33 2022
write,1290.93,1290.97,0.007268,524288,1024.00,0.438303,25.38,22.97,25.38,0,Tue Feb 8 20:05:36 2022,Tue Feb 8 20:06:01 2022
write,2599.18,2599.53,0.023500,524288,1024.00,0.569384,12.61,10.19,12.61,0,Tue Feb 8 20:07:03 2022,Tue Feb 8 20:07:15 2022
write,2709.46,2709.68,0.018780,524288,1024.00,0.428327,12.09,9.71,12.09,0,Tue Feb 8 20:29:40 2022,Tue Feb 8 20:29:52 2022
write,2647.26,2647.61,0.017635,524288,1024.00,0.319283,12.38,10.55,12.38,0,Tue Feb 8 20:30:55 2022,Tue Feb 8 20:31:07 2022
write,2868.12,2868.44,0.019115,524288,1024.00,0.381974,11.42,9.27,11.42,0,Tue Feb 8 20:32:08 2022,Tue Feb 8 20:32:20 2022
write,2755.42,2755.78,0.021030,524288,1024.00,0.029209,11.89,10.30,11.89,0,Tue Feb 8 20:33:22 2022,Tue Feb 8 20:33:34 2022
write,2598.35,2598.72,0.021665,524288,1024.00,0.528236,12.61,10.30,12.61,0,Tue Feb 8 20:34:36 2022,Tue Feb 8 20:34:49 2022
write,2719.34,2719.80,0.011016,524288,1024.00,0.130739,12.05,10.61,12.05,0,Tue Feb 8 20:35:51 2022,Tue Feb 8 20:36:03 2022
write,2714.78,2714.97,0.018964,524288,1024.00,0.364427,12.07,10.17,12.07,0,Tue Feb 8 20:37:05 2022,Tue Feb 8 20:37:17 2022
write,2785.83,2786.23,0.014753,524288,1024.00,0.078177,11.76,9.92,11.76,0,Tue Feb 8 20:38:18 2022,Tue Feb 8 20:38:30 2022
write,2625.74,2625.98,0.013075,524288,1024.00,0.030609,12.48,11.01,12.48,0,Tue Feb 8 20:39:32 2022,Tue Feb 8 20:39:45 2022
write,2402.13,2402.36,0.015426,524288,1024.00,0.566891,13.64,11.38,13.64,0,Tue Feb 8 20:40:46 2022,Tue Feb 8 20:41:00 2022
write,2879.71,2880.03,0.014300,524288,1024.00,0.070507,11.38,9.65,11.38,0,Tue Feb 8 23:20:03 2022,Tue Feb 8 23:20:15 2022
write,2597.42,2597.62,0.014099,524288,1024.00,0.141727,12.61,11.23,12.62,0,Tue Feb 8 23:21:16 2022,Tue Feb 8 23:21:29 2022
write,2679.11,2679.46,0.015831,524288,1024.00,0.157982,12.23,9.82,12.23,0,Tue Feb 8 23:22:30 2022,Tue Feb 8 23:22:42 2022
write,2777.71,2777.96,0.018935,524288,1024.00,0.335148,11.80,10.05,11.80,0,Tue Feb 8 23:23:44 2022,Tue Feb 8 23:23:55 2022
write,2653.35,2653.63,0.021933,524288,1024.00,0.036546,12.35,10.14,12.35,0,Tue Feb 8 23:24:57 2022,Tue Feb 8 23:25:10 2022
write,2882.13,2882.40,0.015196,524288,1024.00,0.435452,11.37,9.56,11.37,0,Tue Feb 8 23:26:11 2022,Tue Feb 8 23:26:23 2022
write,2802.02,2802.31,0.013391,524288,1024.00,0.366058,11.69,9.69,11.69,0,Tue Feb 8 23:27:24 2022,Tue Feb 8 23:27:36 2022
write,2681.57,2681.90,0.014731,524288,1024.00,0.024932,12.22,10.50,12.22,0,Tue Feb 8 23:28:37 2022,Tue Feb 8 23:28:49 2022
write,2850.58,2850.85,0.018862,524288,1024.00,0.023320,11.49,9.93,11.50,0,Tue Feb 8 23:29:51 2022,Tue Feb 8 23:30:03 2022
write,2791.85,2792.10,0.009724,524288,1024.00,0.551927,11.74,10.25,11.74,0,Tue Feb 8 23:31:04 2022,Tue Feb 8 23:31:16 2022
write,2652.39,2652.67,0.017881,524288,1024.00,0.266882,12.35,9.69,12.35,0,Tue Feb 8 23:59:33 2022,Tue Feb 8 23:59:46 2022
write,2692.67,2692.93,0.014518,524288,1024.00,0.289684,12.17,10.05,12.17,0,Wed Feb 9 00:00:47 2022,Wed Feb 9 00:00:59 2022
write,2731.40,2731.84,0.017010,524288,1024.00,0.016678,11.99,9.90,12.00,0,Wed Feb 9 00:02:01 2022,Wed Feb 9 00:02:13 2022
write,2720.58,2720.89,0.012802,524288,1024.00,0.245981,12.04,10.37,12.04,0,Wed Feb 9 00:03:15 2022,Wed Feb 9 00:03:27 2022
write,2934.73,2935.15,0.006867,524288,1024.00,0.023908,11.16,8.84,11.17,0,Wed Feb 9 00:04:29 2022,Wed Feb 9 00:04:40 2022
write,2555.85,2556.11,0.023015,524288,1024.00,0.022978,12.82,11.21,12.82,0,Wed Feb 9 00:05:42 2022,Wed Feb 9 00:05:55 2022
write,2788.20,2788.44,0.017406,524288,1024.00,0.265159,11.75,9.81,11.75,0,Wed Feb 9 00:06:57 2022,Wed Feb 9 00:07:08 2022
write,2721.58,2721.82,0.023320,524288,1024.00,0.133548,12.04,10.37,12.04,0,Wed Feb 9 00:08:10 2022,Wed Feb 9 00:08:22 2022
write,2605.29,2605.46,0.019474,524288,1024.00,0.164809,12.58,10.95,12.58,0,Wed Feb 9 00:09:23 2022,Wed Feb 9 00:09:36 2022
write,2620.54,2620.77,0.015840,524288,1024.00,0.680780,12.50,9.83,12.50,0,Wed Feb 9 00:10:37 2022,Wed Feb 9 00:10:50 2022
write,2706.05,2706.35,0.015048,524288,1024.00,0.783963,12.11,10.06,12.11,0,Wed Feb 9 02:43:13 2022,Wed Feb 9 02:43:25 2022
write,3003.50,3004.22,0.005074,524288,1024.00,0.191442,10.91,8.86,10.91,0,Wed Feb 9 02:44:26 2022,Wed Feb 9 02:44:37 2022
write,2685.59,2685.95,0.012630,524288,1024.00,0.225104,12.20,10.59,12.20,0,Wed Feb 9 02:45:40 2022,Wed Feb 9 02:45:52 2022
write,2731.53,2731.77,0.017631,524288,1024.00,0.255650,12.00,10.14,12.00,0,Wed Feb 9 02:46:54 2022,Wed Feb 9 02:47:06 2022
write,2645.24,2645.47,0.019163,524288,1024.00,0.378552,12.39,9.83,12.39,0,Wed Feb 9 02:48:08 2022,Wed Feb 9 02:48:21 2022
write,2794.94,2795.27,0.020645,524288,1024.00,0.477499,11.72,10.35,11.72,0,Wed Feb 9 02:49:22 2022,Wed Feb 9 02:49:34 2022
write,2731.84,2732.21,0.021679,524288,1024.00,0.022629,11.99,10.30,11.99,0,Wed Feb 9 02:50:35 2022,Wed Feb 9 02:50:47 2022
write,2828.01,2828.34,0.011586,524288,1024.00,0.283840,11.59,10.16,11.59,0,Wed Feb 9 02:51:49 2022,Wed Feb 9 02:52:01 2022
write,2757.38,2757.61,0.007669,524288,1024.00,0.271761,11.88,10.14,11.88,0,Wed Feb 9 02:53:03 2022,Wed Feb 9 02:53:14 2022
write,2656.25,2656.46,0.022841,524288,1024.00,0.368480,12.34,10.47,12.34,0,Wed Feb 9 02:54:16 2022,Wed Feb 9 02:54:28 2022
write,2552.35,2552.58,0.018034,524288,1024.00,0.029324,12.84,10.97,12.84,0,Wed Feb 9 03:54:43 2022,Wed Feb 9 03:54:56 2022
write,2637.36,2638.24,0.017940,524288,1024.00,0.280697,12.42,10.68,12.42,0,Wed Feb 9 03:55:58 2022,Wed Feb 9 03:56:11 2022
write,2663.65,2663.90,0.019707,524288,1024.00,0.281104,12.30,10.45,12.30,0,Wed Feb 9 03:57:12 2022,Wed Feb 9 03:57:24 2022
write,2738.73,2738.99,0.022363,524288,1024.00,0.033188,11.96,9.76,11.96,0,Wed Feb 9 03:58:26 2022,Wed Feb 9 03:58:38 2022
write,2712.29,2712.49,0.015309,524288,1024.00,0.438497,12.08,10.57,12.08,0,Wed Feb 9 03:59:39 2022,Wed Feb 9 03:59:51 2022
write,2861.34,2861.85,0.012967,524288,1024.00,0.023167,11.45,9.23,11.45,0,Wed Feb 9 04:00:52 2022,Wed Feb 9 04:01:04 2022
write,2747.42,2747.78,0.013088,524288,1024.00,0.030850,11.93,10.20,11.93,0,Wed Feb 9 04:02:06 2022,Wed Feb 9 04:02:18 2022
write,2765.01,2765.29,0.018107,524288,1024.00,0.425932,11.85,10.36,11.85,0,Wed Feb 9 04:03:20 2022,Wed Feb 9 04:03:32 2022
write,2626.07,2626.31,0.022243,524288,1024.00,0.483876,12.48,10.05,12.48,0,Wed Feb 9 04:04:33 2022,Wed Feb 9 04:04:45 2022
write,2631.66,2632.23,0.019228,524288,1024.00,0.389181,12.45,10.54,12.45,0,Wed Feb 9 04:05:47 2022,Wed Feb 9 04:05:59 2022
write,3328.21,3328.57,0.013370,524288,1024.00,0.345955,9.84,8.28,9.85,0,Wed Feb 9 10:25:25 2022,Wed Feb 9 10:25:35 2022
write,3356.34,3356.85,0.009182,524288,1024.00,0.228426,9.76,8.20,9.76,0,Wed Feb 9 10:26:36 2022,Wed Feb 9 10:26:46 2022
write,3422.24,3422.67,0.013909,524288,1024.00,0.380759,9.57,7.92,9.58,0,Wed Feb 9 10:27:48 2022,Wed Feb 9 10:27:57 2022
write,3178.97,3179.29,0.009666,524288,1024.00,0.197383,10.31,8.25,10.31,0,Wed Feb 9 10:28:59 2022,Wed Feb 9 10:29:09 2022
write,3237.60,3237.95,0.014367,524288,1024.00,0.277400,10.12,8.10,10.12,0,Wed Feb 9 10:30:10 2022,Wed Feb 9 10:30:20 2022
write,3227.42,3228.14,0.018520,524288,1024.00,0.336661,10.15,8.71,10.15,0,Wed Feb 9 10:31:22 2022,Wed Feb 9 10:31:32 2022
write,3310.42,3313.63,0.008267,524288,1024.00,0.416319,9.89,7.54,9.90,0,Wed Feb 9 10:32:33 2022,Wed Feb 9 10:32:43 2022
write,3162.08,3162.41,0.018490,524288,1024.00,0.023321,10.36,8.56,10.36,0,Wed Feb 9 10:33:44 2022,Wed Feb 9 10:33:54 2022
write,3405.98,3406.36,0.005664,524288,1024.00,0.410348,9.62,7.55,9.62,0,Wed Feb 9 10:34:56 2022,Wed Feb 9 10:35:05 2022
write,3236.72,3237.26,0.018490,524288,1024.00,0.326908,10.12,8.01,10.12,0,Wed Feb 9 10:36:07 2022,Wed Feb 9 10:36:17 2022
