IOR-3.4.0+dev: MPI Coordinated Test of Parallel I/O
Began               : Thu Feb 24 03:20:35 2022
Command line        : /home/lgouveia/ior/bin/ior -w -t 1m -b 512m -k -o /beegfs/lgouveia/ior_4/file_2
Machine             : Linux bora012.plafrim.cluster
TestID              : 0
StartTime           : Thu Feb 24 03:20:35 2022
Path                : /beegfs/lgouveia/ior_4/file_2
FS                  : 130.9 TiB   Used FS: 37.4%   Inodes: 0.0 Mi   Used Inodes: -nan%

Options: 
api                 : POSIX
apiVersion          : 
test filename       : /beegfs/lgouveia/ior_4/file_2
access              : single-shared-file
type                : independent
segments            : 1
ordering in a file  : sequential
ordering inter file : no tasks offsets
nodes               : 8
tasks               : 64
clients per node    : 8
repetitions         : 1
xfersize            : 1 MiB
blocksize           : 512 MiB
aggregate filesize  : 32 GiB

Results: 

access    bw(MiB/s)  IOPS       Latency(s)  block(KiB) xfer(KiB)  open(s)    wr/rd(s)   close(s)   total(s)   iter
------    ---------  ----       ----------  ---------- ---------  --------   --------   --------   --------   ----
write     2498.03    2498.22    0.002918    524288     1024.00    0.009528   13.12      11.62      13.12      0   

Summary of all tests:
Operation   Max(MiB)   Min(MiB)  Mean(MiB)     StdDev   Max(OPs)   Min(OPs)  Mean(OPs)     StdDev    Mean(s) Stonewall(s) Stonewall(MiB) Test# #Tasks tPN reps fPP reord reordoff reordrand seed segcnt   blksiz    xsize aggs(MiB)   API RefNum
write        2498.03    2498.03    2498.03       0.00    2498.03    2498.03    2498.03       0.00   13.11753         NA            NA     0     64   8    1   0     0        1         0    0      1 536870912  1048576   32768.0 POSIX      0
Finished            : Thu Feb 24 03:20:48 2022
IOR-3.4.0+dev: MPI Coordinated Test of Parallel I/O
Began               : Thu Feb 24 03:21:50 2022
Command line        : /home/lgouveia/ior/bin/ior -w -t 1m -b 512m -k -o /beegfs/lgouveia/ior_4/file_2
Machine             : Linux bora012.plafrim.cluster
TestID              : 0
StartTime           : Thu Feb 24 03:21:50 2022
Path                : /beegfs/lgouveia/ior_4/file_2
FS                  : 130.9 TiB   Used FS: 37.4%   Inodes: 0.0 Mi   Used Inodes: -nan%

Options: 
api                 : POSIX
apiVersion          : 
test filename       : /beegfs/lgouveia/ior_4/file_2
access              : single-shared-file
type                : independent
segments            : 1
ordering in a file  : sequential
ordering inter file : no tasks offsets
nodes               : 8
tasks               : 64
clients per node    : 8
repetitions         : 1
xfersize            : 1 MiB
blocksize           : 512 MiB
aggregate filesize  : 32 GiB

Results: 

access    bw(MiB/s)  IOPS       Latency(s)  block(KiB) xfer(KiB)  open(s)    wr/rd(s)   close(s)   total(s)   iter
------    ---------  ----       ----------  ---------- ---------  --------   --------   --------   --------   ----
write     2677.53    2678.03    0.003284    524288     1024.00    0.015577   12.24      10.57      12.24      0   

Summary of all tests:
Operation   Max(MiB)   Min(MiB)  Mean(MiB)     StdDev   Max(OPs)   Min(OPs)  Mean(OPs)     StdDev    Mean(s) Stonewall(s) Stonewall(MiB) Test# #Tasks tPN reps fPP reord reordoff reordrand seed segcnt   blksiz    xsize aggs(MiB)   API RefNum
write        2677.53    2677.53    2677.53       0.00    2677.53    2677.53    2677.53       0.00   12.23814         NA            NA     0     64   8    1   0     0        1         0    0      1 536870912  1048576   32768.0 POSIX      0
Finished            : Thu Feb 24 03:22:02 2022
IOR-3.4.0+dev: MPI Coordinated Test of Parallel I/O
Began               : Thu Feb 24 03:23:05 2022
Command line        : /home/lgouveia/ior/bin/ior -w -t 1m -b 512m -k -o /beegfs/lgouveia/ior_4/file_2
Machine             : Linux bora012.plafrim.cluster
TestID              : 0
StartTime           : Thu Feb 24 03:23:05 2022
Path                : /beegfs/lgouveia/ior_4/file_2
FS                  : 130.9 TiB   Used FS: 37.4%   Inodes: 0.0 Mi   Used Inodes: -nan%

Options: 
api                 : POSIX
apiVersion          : 
test filename       : /beegfs/lgouveia/ior_4/file_2
access              : single-shared-file
type                : independent
segments            : 1
ordering in a file  : sequential
ordering inter file : no tasks offsets
nodes               : 8
tasks               : 64
clients per node    : 8
repetitions         : 1
xfersize            : 1 MiB
blocksize           : 512 MiB
aggregate filesize  : 32 GiB

Results: 

access    bw(MiB/s)  IOPS       Latency(s)  block(KiB) xfer(KiB)  open(s)    wr/rd(s)   close(s)   total(s)   iter
------    ---------  ----       ----------  ---------- ---------  --------   --------   --------   --------   ----
write     2464.14    2464.30    0.007107    524288     1024.00    0.016380   13.30      11.38      13.30      0   

Summary of all tests:
Operation   Max(MiB)   Min(MiB)  Mean(MiB)     StdDev   Max(OPs)   Min(OPs)  Mean(OPs)     StdDev    Mean(s) Stonewall(s) Stonewall(MiB) Test# #Tasks tPN reps fPP reord reordoff reordrand seed segcnt   blksiz    xsize aggs(MiB)   API RefNum
write        2464.14    2464.14    2464.14       0.00    2464.14    2464.14    2464.14       0.00   13.29792         NA            NA     0     64   8    1   0     0        1         0    0      1 536870912  1048576   32768.0 POSIX      0
Finished            : Thu Feb 24 03:23:18 2022
IOR-3.4.0+dev: MPI Coordinated Test of Parallel I/O
Began               : Thu Feb 24 03:24:19 2022
Command line        : /home/lgouveia/ior/bin/ior -w -t 1m -b 512m -k -o /beegfs/lgouveia/ior_4/file_2
Machine             : Linux bora012.plafrim.cluster
TestID              : 0
StartTime           : Thu Feb 24 03:24:19 2022
Path                : /beegfs/lgouveia/ior_4/file_2
FS                  : 130.9 TiB   Used FS: 37.4%   Inodes: 0.0 Mi   Used Inodes: -nan%

Options: 
api                 : POSIX
apiVersion          : 
test filename       : /beegfs/lgouveia/ior_4/file_2
access              : single-shared-file
type                : independent
segments            : 1
ordering in a file  : sequential
ordering inter file : no tasks offsets
nodes               : 8
tasks               : 64
clients per node    : 8
repetitions         : 1
xfersize            : 1 MiB
blocksize           : 512 MiB
aggregate filesize  : 32 GiB

Results: 

access    bw(MiB/s)  IOPS       Latency(s)  block(KiB) xfer(KiB)  open(s)    wr/rd(s)   close(s)   total(s)   iter
------    ---------  ----       ----------  ---------- ---------  --------   --------   --------   --------   ----
write     2290.88    2291.02    0.020378    524288     1024.00    0.157430   14.30      12.03      14.30      0   

Summary of all tests:
Operation   Max(MiB)   Min(MiB)  Mean(MiB)     StdDev   Max(OPs)   Min(OPs)  Mean(OPs)     StdDev    Mean(s) Stonewall(s) Stonewall(MiB) Test# #Tasks tPN reps fPP reord reordoff reordrand seed segcnt   blksiz    xsize aggs(MiB)   API RefNum
write        2290.88    2290.88    2290.88       0.00    2290.88    2290.88    2290.88       0.00   14.30366         NA            NA     0     64   8    1   0     0        1         0    0      1 536870912  1048576   32768.0 POSIX      0
Finished            : Thu Feb 24 03:24:34 2022
IOR-3.4.0+dev: MPI Coordinated Test of Parallel I/O
Began               : Thu Feb 24 03:25:35 2022
Command line        : /home/lgouveia/ior/bin/ior -w -t 1m -b 512m -k -o /beegfs/lgouveia/ior_4/file_2
Machine             : Linux bora012.plafrim.cluster
TestID              : 0
StartTime           : Thu Feb 24 03:25:35 2022
Path                : /beegfs/lgouveia/ior_4/file_2
FS                  : 130.9 TiB   Used FS: 37.4%   Inodes: 0.0 Mi   Used Inodes: -nan%

Options: 
api                 : POSIX
apiVersion          : 
test filename       : /beegfs/lgouveia/ior_4/file_2
access              : single-shared-file
type                : independent
segments            : 1
ordering in a file  : sequential
ordering inter file : no tasks offsets
nodes               : 8
tasks               : 64
clients per node    : 8
repetitions         : 1
xfersize            : 1 MiB
blocksize           : 512 MiB
aggregate filesize  : 32 GiB

Results: 

access    bw(MiB/s)  IOPS       Latency(s)  block(KiB) xfer(KiB)  open(s)    wr/rd(s)   close(s)   total(s)   iter
------    ---------  ----       ----------  ---------- ---------  --------   --------   --------   --------   ----
write     2401.68    2401.85    0.006122    524288     1024.00    0.177585   13.64      11.63      13.64      0   

Summary of all tests:
Operation   Max(MiB)   Min(MiB)  Mean(MiB)     StdDev   Max(OPs)   Min(OPs)  Mean(OPs)     StdDev    Mean(s) Stonewall(s) Stonewall(MiB) Test# #Tasks tPN reps fPP reord reordoff reordrand seed segcnt   blksiz    xsize aggs(MiB)   API RefNum
write        2401.68    2401.68    2401.68       0.00    2401.68    2401.68    2401.68       0.00   13.64377         NA            NA     0     64   8    1   0     0        1         0    0      1 536870912  1048576   32768.0 POSIX      0
Finished            : Thu Feb 24 03:25:49 2022
IOR-3.4.0+dev: MPI Coordinated Test of Parallel I/O
Began               : Thu Feb 24 03:26:50 2022
Command line        : /home/lgouveia/ior/bin/ior -w -t 1m -b 512m -k -o /beegfs/lgouveia/ior_4/file_2
Machine             : Linux bora012.plafrim.cluster
TestID              : 0
StartTime           : Thu Feb 24 03:26:50 2022
Path                : /beegfs/lgouveia/ior_4/file_2
FS                  : 130.9 TiB   Used FS: 37.4%   Inodes: 0.0 Mi   Used Inodes: -nan%

Options: 
api                 : POSIX
apiVersion          : 
test filename       : /beegfs/lgouveia/ior_4/file_2
access              : single-shared-file
type                : independent
segments            : 1
ordering in a file  : sequential
ordering inter file : no tasks offsets
nodes               : 8
tasks               : 64
clients per node    : 8
repetitions         : 1
xfersize            : 1 MiB
blocksize           : 512 MiB
aggregate filesize  : 32 GiB

Results: 

access    bw(MiB/s)  IOPS       Latency(s)  block(KiB) xfer(KiB)  open(s)    wr/rd(s)   close(s)   total(s)   iter
------    ---------  ----       ----------  ---------- ---------  --------   --------   --------   --------   ----
write     2632.58    2632.78    0.007360    524288     1024.00    0.174625   12.45      11.00      12.45      0   

Summary of all tests:
Operation   Max(MiB)   Min(MiB)  Mean(MiB)     StdDev   Max(OPs)   Min(OPs)  Mean(OPs)     StdDev    Mean(s) Stonewall(s) Stonewall(MiB) Test# #Tasks tPN reps fPP reord reordoff reordrand seed segcnt   blksiz    xsize aggs(MiB)   API RefNum
write        2632.58    2632.58    2632.58       0.00    2632.58    2632.58    2632.58       0.00   12.44713         NA            NA     0     64   8    1   0     0        1         0    0      1 536870912  1048576   32768.0 POSIX      0
Finished            : Thu Feb 24 03:27:03 2022
IOR-3.4.0+dev: MPI Coordinated Test of Parallel I/O
Began               : Thu Feb 24 03:28:04 2022
Command line        : /home/lgouveia/ior/bin/ior -w -t 1m -b 512m -k -o /beegfs/lgouveia/ior_4/file_2
Machine             : Linux bora012.plafrim.cluster
TestID              : 0
StartTime           : Thu Feb 24 03:28:04 2022
Path                : /beegfs/lgouveia/ior_4/file_2
FS                  : 130.9 TiB   Used FS: 37.4%   Inodes: 0.0 Mi   Used Inodes: -nan%

Options: 
api                 : POSIX
apiVersion          : 
test filename       : /beegfs/lgouveia/ior_4/file_2
access              : single-shared-file
type                : independent
segments            : 1
ordering in a file  : sequential
ordering inter file : no tasks offsets
nodes               : 8
tasks               : 64
clients per node    : 8
repetitions         : 1
xfersize            : 1 MiB
blocksize           : 512 MiB
aggregate filesize  : 32 GiB

Results: 

access    bw(MiB/s)  IOPS       Latency(s)  block(KiB) xfer(KiB)  open(s)    wr/rd(s)   close(s)   total(s)   iter
------    ---------  ----       ----------  ---------- ---------  --------   --------   --------   --------   ----
write     2364.01    2364.16    0.013337    524288     1024.00    0.165924   13.86      11.75      13.86      0   

Summary of all tests:
Operation   Max(MiB)   Min(MiB)  Mean(MiB)     StdDev   Max(OPs)   Min(OPs)  Mean(OPs)     StdDev    Mean(s) Stonewall(s) Stonewall(MiB) Test# #Tasks tPN reps fPP reord reordoff reordrand seed segcnt   blksiz    xsize aggs(MiB)   API RefNum
write        2364.01    2364.01    2364.01       0.00    2364.01    2364.01    2364.01       0.00   13.86118         NA            NA     0     64   8    1   0     0        1         0    0      1 536870912  1048576   32768.0 POSIX      0
Finished            : Thu Feb 24 03:28:18 2022
IOR-3.4.0+dev: MPI Coordinated Test of Parallel I/O
Began               : Thu Feb 24 03:29:20 2022
Command line        : /home/lgouveia/ior/bin/ior -w -t 1m -b 512m -k -o /beegfs/lgouveia/ior_4/file_2
Machine             : Linux bora012.plafrim.cluster
TestID              : 0
StartTime           : Thu Feb 24 03:29:20 2022
Path                : /beegfs/lgouveia/ior_4/file_2
FS                  : 130.9 TiB   Used FS: 37.4%   Inodes: 0.0 Mi   Used Inodes: -nan%

Options: 
api                 : POSIX
apiVersion          : 
test filename       : /beegfs/lgouveia/ior_4/file_2
access              : single-shared-file
type                : independent
segments            : 1
ordering in a file  : sequential
ordering inter file : no tasks offsets
nodes               : 8
tasks               : 64
clients per node    : 8
repetitions         : 1
xfersize            : 1 MiB
blocksize           : 512 MiB
aggregate filesize  : 32 GiB

Results: 

access    bw(MiB/s)  IOPS       Latency(s)  block(KiB) xfer(KiB)  open(s)    wr/rd(s)   close(s)   total(s)   iter
------    ---------  ----       ----------  ---------- ---------  --------   --------   --------   --------   ----
write     2643.54    2643.79    0.010104    524288     1024.00    0.017109   12.39      10.77      12.40      0   

Summary of all tests:
Operation   Max(MiB)   Min(MiB)  Mean(MiB)     StdDev   Max(OPs)   Min(OPs)  Mean(OPs)     StdDev    Mean(s) Stonewall(s) Stonewall(MiB) Test# #Tasks tPN reps fPP reord reordoff reordrand seed segcnt   blksiz    xsize aggs(MiB)   API RefNum
write        2643.54    2643.54    2643.54       0.00    2643.54    2643.54    2643.54       0.00   12.39550         NA            NA     0     64   8    1   0     0        1         0    0      1 536870912  1048576   32768.0 POSIX      0
Finished            : Thu Feb 24 03:29:32 2022
IOR-3.4.0+dev: MPI Coordinated Test of Parallel I/O
Began               : Thu Feb 24 03:30:34 2022
Command line        : /home/lgouveia/ior/bin/ior -w -t 1m -b 512m -k -o /beegfs/lgouveia/ior_4/file_2
Machine             : Linux bora012.plafrim.cluster
TestID              : 0
StartTime           : Thu Feb 24 03:30:34 2022
Path                : /beegfs/lgouveia/ior_4/file_2
FS                  : 130.9 TiB   Used FS: 37.4%   Inodes: 0.0 Mi   Used Inodes: -nan%

Options: 
api                 : POSIX
apiVersion          : 
test filename       : /beegfs/lgouveia/ior_4/file_2
access              : single-shared-file
type                : independent
segments            : 1
ordering in a file  : sequential
ordering inter file : no tasks offsets
nodes               : 8
tasks               : 64
clients per node    : 8
repetitions         : 1
xfersize            : 1 MiB
blocksize           : 512 MiB
aggregate filesize  : 32 GiB

Results: 

access    bw(MiB/s)  IOPS       Latency(s)  block(KiB) xfer(KiB)  open(s)    wr/rd(s)   close(s)   total(s)   iter
------    ---------  ----       ----------  ---------- ---------  --------   --------   --------   --------   ----
write     2591.10    2591.27    0.012048    524288     1024.00    0.164550   12.65      11.06      12.65      0   

Summary of all tests:
Operation   Max(MiB)   Min(MiB)  Mean(MiB)     StdDev   Max(OPs)   Min(OPs)  Mean(OPs)     StdDev    Mean(s) Stonewall(s) Stonewall(MiB) Test# #Tasks tPN reps fPP reord reordoff reordrand seed segcnt   blksiz    xsize aggs(MiB)   API RefNum
write        2591.10    2591.10    2591.10       0.00    2591.10    2591.10    2591.10       0.00   12.64639         NA            NA     0     64   8    1   0     0        1         0    0      1 536870912  1048576   32768.0 POSIX      0
Finished            : Thu Feb 24 03:30:46 2022
IOR-3.4.0+dev: MPI Coordinated Test of Parallel I/O
Began               : Thu Feb 24 03:31:48 2022
Command line        : /home/lgouveia/ior/bin/ior -w -t 1m -b 512m -k -o /beegfs/lgouveia/ior_4/file_2
Machine             : Linux bora012.plafrim.cluster
TestID              : 0
StartTime           : Thu Feb 24 03:31:48 2022
Path                : /beegfs/lgouveia/ior_4/file_2
FS                  : 130.9 TiB   Used FS: 37.4%   Inodes: 0.0 Mi   Used Inodes: -nan%

Options: 
api                 : POSIX
apiVersion          : 
test filename       : /beegfs/lgouveia/ior_4/file_2
access              : single-shared-file
type                : independent
segments            : 1
ordering in a file  : sequential
ordering inter file : no tasks offsets
nodes               : 8
tasks               : 64
clients per node    : 8
repetitions         : 1
xfersize            : 1 MiB
blocksize           : 512 MiB
aggregate filesize  : 32 GiB

Results: 

access    bw(MiB/s)  IOPS       Latency(s)  block(KiB) xfer(KiB)  open(s)    wr/rd(s)   close(s)   total(s)   iter
------    ---------  ----       ----------  ---------- ---------  --------   --------   --------   --------   ----
write     2473.68    2473.84    0.023041    524288     1024.00    0.022411   13.25      11.54      13.25      0   

Summary of all tests:
Operation   Max(MiB)   Min(MiB)  Mean(MiB)     StdDev   Max(OPs)   Min(OPs)  Mean(OPs)     StdDev    Mean(s) Stonewall(s) Stonewall(MiB) Test# #Tasks tPN reps fPP reord reordoff reordrand seed segcnt   blksiz    xsize aggs(MiB)   API RefNum
write        2473.68    2473.68    2473.68       0.00    2473.68    2473.68    2473.68       0.00   13.24665         NA            NA     0     64   8    1   0     0        1         0    0      1 536870912  1048576   32768.0 POSIX      0
Finished            : Thu Feb 24 03:32:01 2022
