===== My JOB Information ====
Node List:  bora[003-005,007-014,016-020,022-035,037-038]
my jobID:  1484064
Partition: routage
submit directory:  /home/lgouveia/luan-teylo/tests/omnipath/overlap/4_apps/04
submit host:  devel02.plafrim.cluster
In the directory: /home/lgouveia/luan-teylo/tests/omnipath/overlap/4_apps/04
As the user: lgouveia
============================
Tracking /beegfs/lgouveia/ior_4/file_2...
Tracking /beegfs/lgouveia/ior_4/file_4...
Tracking /beegfs/lgouveia/ior_4/file_3...
Tracking /beegfs/lgouveia/ior_4/file_1...



Writing tracked information to tracker.csv...
Tracking /beegfs/lgouveia/ior_4/file_3...
Tracking /beegfs/lgouveia/ior_4/file_1...
Tracking /beegfs/lgouveia/ior_4/file_2...
Tracking /beegfs/lgouveia/ior_4/file_4...



Writing tracked information to tracker.csv...
Tracking /beegfs/lgouveia/ior_4/file_4...
Tracking /beegfs/lgouveia/ior_4/file_3...
Tracking /beegfs/lgouveia/ior_4/file_1...
Tracking /beegfs/lgouveia/ior_4/file_2...



Writing tracked information to tracker.csv...
Tracking /beegfs/lgouveia/ior_4/file_3...
Tracking /beegfs/lgouveia/ior_4/file_2...
Tracking /beegfs/lgouveia/ior_4/file_1...
Tracking /beegfs/lgouveia/ior_4/file_4...



Writing tracked information to tracker.csv...
Tracking /beegfs/lgouveia/ior_4/file_2...
Tracking /beegfs/lgouveia/ior_4/file_4...
Tracking /beegfs/lgouveia/ior_4/file_3...
Tracking /beegfs/lgouveia/ior_4/file_1...



Writing tracked information to tracker.csv...
Tracking /beegfs/lgouveia/ior_4/file_4...
Tracking /beegfs/lgouveia/ior_4/file_3...
Tracking /beegfs/lgouveia/ior_4/file_1...
Tracking /beegfs/lgouveia/ior_4/file_2...



Writing tracked information to tracker.csv...
Tracking /beegfs/lgouveia/ior_4/file_4...
Tracking /beegfs/lgouveia/ior_4/file_1...
Tracking /beegfs/lgouveia/ior_4/file_2...
Tracking /beegfs/lgouveia/ior_4/file_3...



Writing tracked information to tracker.csv...
Tracking /beegfs/lgouveia/ior_4/file_4...
Tracking /beegfs/lgouveia/ior_4/file_2...
Tracking /beegfs/lgouveia/ior_4/file_3...
Tracking /beegfs/lgouveia/ior_4/file_1...



Writing tracked information to tracker.csv...
Tracking /beegfs/lgouveia/ior_4/file_4...
Tracking /beegfs/lgouveia/ior_4/file_3...
Tracking /beegfs/lgouveia/ior_4/file_1...
Tracking /beegfs/lgouveia/ior_4/file_2...



Writing tracked information to tracker.csv...
Tracking /beegfs/lgouveia/ior_4/file_4...
Tracking /beegfs/lgouveia/ior_4/file_3...
Tracking /beegfs/lgouveia/ior_4/file_1...
Tracking /beegfs/lgouveia/ior_4/file_2...



Writing tracked information to tracker.csv...
