===== My JOB Information ====
Node List:  bora[020-030]
my jobID:  1464783
Partition: routage
submit directory:  /home/lgouveia/luan-teylo/tests/omnipath/compute_nodes/4_targets/11
submit host:  devel02.plafrim.cluster
In the directory: /home/lgouveia/luan-teylo/tests/omnipath/compute_nodes/4_targets/11
As the user: lgouveia
============================
IOR-3.4.0+dev: MPI Coordinated Test of Parallel I/O
Began               : Mon Dec  6 09:27:36 2021
Command line        : /home/lgouveia/ior/bin/ior -w -t 1m -b 372m -k -o /beegfs/lgouveia/ior_4/testFile1
Machine             : Linux bora020.plafrim.cluster
TestID              : 0
StartTime           : Mon Dec  6 09:27:36 2021
Path                : /beegfs/lgouveia/ior_4/testFile1
FS                  : 130.9 TiB   Used FS: 35.1%   Inodes: 0.0 Mi   Used Inodes: -nan%

Options: 
api                 : POSIX
apiVersion          : 
test filename       : /beegfs/lgouveia/ior_4/testFile1
access              : single-shared-file
type                : independent
segments            : 1
ordering in a file  : sequential
ordering inter file : no tasks offsets
nodes               : 11
tasks               : 88
clients per node    : 8
repetitions         : 1
xfersize            : 1 MiB
blocksize           : 372 MiB
aggregate filesize  : 31.97 GiB

Results: 
WARNING: The file "/beegfs/lgouveia/ior_4/testFile1" exists already and will be overwritten

access    bw(MiB/s)  IOPS       Latency(s)  block(KiB) xfer(KiB)  open(s)    wr/rd(s)   close(s)   total(s)   iter
------    ---------  ----       ----------  ---------- ---------  --------   --------   --------   --------   ----
write     5889       5891       0.001899    380928     1024.00    0.012198   5.56       4.92       5.56       0   

Summary of all tests:
Operation   Max(MiB)   Min(MiB)  Mean(MiB)     StdDev   Max(OPs)   Min(OPs)  Mean(OPs)     StdDev    Mean(s) Stonewall(s) Stonewall(MiB) Test# #Tasks tPN reps fPP reord reordoff reordrand seed segcnt   blksiz    xsize aggs(MiB)   API RefNum
write        5888.91    5888.91    5888.91       0.00    5888.91    5888.91    5888.91       0.00    5.55892         NA            NA     0     88   8    1   0     0        1         0    0      1 390070272  1048576   32736.0 POSIX      0
Finished            : Mon Dec  6 09:27:41 2021
Tracking /beegfs/lgouveia/ior_4/testFile1...



Writing tracked information to tracker.csv...
IOR-3.4.0+dev: MPI Coordinated Test of Parallel I/O
Began               : Mon Dec  6 09:28:44 2021
Command line        : /home/lgouveia/ior/bin/ior -w -t 1m -b 372m -k -o /beegfs/lgouveia/ior_4/testFile1
Machine             : Linux bora020.plafrim.cluster
TestID              : 0
StartTime           : Mon Dec  6 09:28:44 2021
Path                : /beegfs/lgouveia/ior_4/testFile1
FS                  : 130.9 TiB   Used FS: 35.1%   Inodes: 0.0 Mi   Used Inodes: -nan%

Options: 
api                 : POSIX
apiVersion          : 
test filename       : /beegfs/lgouveia/ior_4/testFile1
access              : single-shared-file
type                : independent
segments            : 1
ordering in a file  : sequential
ordering inter file : no tasks offsets
nodes               : 11
tasks               : 88
clients per node    : 8
repetitions         : 1
xfersize            : 1 MiB
blocksize           : 372 MiB
aggregate filesize  : 31.97 GiB

Results: 
WARNING: The file "/beegfs/lgouveia/ior_4/testFile1" exists already and will be overwritten

access    bw(MiB/s)  IOPS       Latency(s)  block(KiB) xfer(KiB)  open(s)    wr/rd(s)   close(s)   total(s)   iter
------    ---------  ----       ----------  ---------- ---------  --------   --------   --------   --------   ----
write     5911       5912       0.002067    380928     1024.00    0.014852   5.54       4.77       5.54       0   

Summary of all tests:
Operation   Max(MiB)   Min(MiB)  Mean(MiB)     StdDev   Max(OPs)   Min(OPs)  Mean(OPs)     StdDev    Mean(s) Stonewall(s) Stonewall(MiB) Test# #Tasks tPN reps fPP reord reordoff reordrand seed segcnt   blksiz    xsize aggs(MiB)   API RefNum
write        5910.88    5910.88    5910.88       0.00    5910.88    5910.88    5910.88       0.00    5.53826         NA            NA     0     88   8    1   0     0        1         0    0      1 390070272  1048576   32736.0 POSIX      0
Finished            : Mon Dec  6 09:28:49 2021
Tracking /beegfs/lgouveia/ior_4/testFile1...



Writing tracked information to tracker.csv...
IOR-3.4.0+dev: MPI Coordinated Test of Parallel I/O
Began               : Mon Dec  6 09:29:50 2021
Command line        : /home/lgouveia/ior/bin/ior -w -t 1m -b 372m -k -o /beegfs/lgouveia/ior_4/testFile1
Machine             : Linux bora020.plafrim.cluster
TestID              : 0
StartTime           : Mon Dec  6 09:29:50 2021
Path                : /beegfs/lgouveia/ior_4/testFile1
FS                  : 130.9 TiB   Used FS: 35.1%   Inodes: 0.0 Mi   Used Inodes: -nan%

Options: 
api                 : POSIX
apiVersion          : 
test filename       : /beegfs/lgouveia/ior_4/testFile1
access              : single-shared-file
type                : independent
segments            : 1
ordering in a file  : sequential
ordering inter file : no tasks offsets
nodes               : 11
tasks               : 88
clients per node    : 8
repetitions         : 1
xfersize            : 1 MiB
blocksize           : 372 MiB
aggregate filesize  : 31.97 GiB

Results: 
WARNING: The file "/beegfs/lgouveia/ior_4/testFile1" exists already and will be overwritten

access    bw(MiB/s)  IOPS       Latency(s)  block(KiB) xfer(KiB)  open(s)    wr/rd(s)   close(s)   total(s)   iter
------    ---------  ----       ----------  ---------- ---------  --------   --------   --------   --------   ----
write     5752       5753       0.005241    380928     1024.00    0.010542   5.69       4.96       5.69       0   

Summary of all tests:
Operation   Max(MiB)   Min(MiB)  Mean(MiB)     StdDev   Max(OPs)   Min(OPs)  Mean(OPs)     StdDev    Mean(s) Stonewall(s) Stonewall(MiB) Test# #Tasks tPN reps fPP reord reordoff reordrand seed segcnt   blksiz    xsize aggs(MiB)   API RefNum
write        5751.55    5751.55    5751.55       0.00    5751.55    5751.55    5751.55       0.00    5.69168         NA            NA     0     88   8    1   0     0        1         0    0      1 390070272  1048576   32736.0 POSIX      0
Finished            : Mon Dec  6 09:29:56 2021
Tracking /beegfs/lgouveia/ior_4/testFile1...



Writing tracked information to tracker.csv...
IOR-3.4.0+dev: MPI Coordinated Test of Parallel I/O
Began               : Mon Dec  6 09:30:57 2021
Command line        : /home/lgouveia/ior/bin/ior -w -t 1m -b 372m -k -o /beegfs/lgouveia/ior_4/testFile1
Machine             : Linux bora020.plafrim.cluster
TestID              : 0
StartTime           : Mon Dec  6 09:30:57 2021
Path                : /beegfs/lgouveia/ior_4/testFile1
FS                  : 130.9 TiB   Used FS: 35.1%   Inodes: 0.0 Mi   Used Inodes: -nan%

Options: 
api                 : POSIX
apiVersion          : 
test filename       : /beegfs/lgouveia/ior_4/testFile1
access              : single-shared-file
type                : independent
segments            : 1
ordering in a file  : sequential
ordering inter file : no tasks offsets
nodes               : 11
tasks               : 88
clients per node    : 8
repetitions         : 1
xfersize            : 1 MiB
blocksize           : 372 MiB
aggregate filesize  : 31.97 GiB

Results: 
WARNING: The file "/beegfs/lgouveia/ior_4/testFile1" exists already and will be overwritten

access    bw(MiB/s)  IOPS       Latency(s)  block(KiB) xfer(KiB)  open(s)    wr/rd(s)   close(s)   total(s)   iter
------    ---------  ----       ----------  ---------- ---------  --------   --------   --------   --------   ----
write     5843       5845       0.012138    380928     1024.00    0.013909   5.60       4.72       5.60       0   

Summary of all tests:
Operation   Max(MiB)   Min(MiB)  Mean(MiB)     StdDev   Max(OPs)   Min(OPs)  Mean(OPs)     StdDev    Mean(s) Stonewall(s) Stonewall(MiB) Test# #Tasks tPN reps fPP reord reordoff reordrand seed segcnt   blksiz    xsize aggs(MiB)   API RefNum
write        5843.33    5843.33    5843.33       0.00    5843.33    5843.33    5843.33       0.00    5.60229         NA            NA     0     88   8    1   0     0        1         0    0      1 390070272  1048576   32736.0 POSIX      0
Finished            : Mon Dec  6 09:31:03 2021
Tracking /beegfs/lgouveia/ior_4/testFile1...



Writing tracked information to tracker.csv...
IOR-3.4.0+dev: MPI Coordinated Test of Parallel I/O
Began               : Mon Dec  6 09:32:04 2021
Command line        : /home/lgouveia/ior/bin/ior -w -t 1m -b 372m -k -o /beegfs/lgouveia/ior_4/testFile1
Machine             : Linux bora020.plafrim.cluster
TestID              : 0
StartTime           : Mon Dec  6 09:32:04 2021
Path                : /beegfs/lgouveia/ior_4/testFile1
FS                  : 130.9 TiB   Used FS: 35.1%   Inodes: 0.0 Mi   Used Inodes: -nan%

Options: 
api                 : POSIX
apiVersion          : 
test filename       : /beegfs/lgouveia/ior_4/testFile1
access              : single-shared-file
type                : independent
segments            : 1
ordering in a file  : sequential
ordering inter file : no tasks offsets
nodes               : 11
tasks               : 88
clients per node    : 8
repetitions         : 1
xfersize            : 1 MiB
blocksize           : 372 MiB
aggregate filesize  : 31.97 GiB

Results: 
WARNING: The file "/beegfs/lgouveia/ior_4/testFile1" exists already and will be overwritten

access    bw(MiB/s)  IOPS       Latency(s)  block(KiB) xfer(KiB)  open(s)    wr/rd(s)   close(s)   total(s)   iter
------    ---------  ----       ----------  ---------- ---------  --------   --------   --------   --------   ----
write     6016       6017       0.007803    380928     1024.00    0.024101   5.44       4.67       5.44       0   

Summary of all tests:
Operation   Max(MiB)   Min(MiB)  Mean(MiB)     StdDev   Max(OPs)   Min(OPs)  Mean(OPs)     StdDev    Mean(s) Stonewall(s) Stonewall(MiB) Test# #Tasks tPN reps fPP reord reordoff reordrand seed segcnt   blksiz    xsize aggs(MiB)   API RefNum
write        6016.00    6016.00    6016.00       0.00    6016.00    6016.00    6016.00       0.00    5.44149         NA            NA     0     88   8    1   0     0        1         0    0      1 390070272  1048576   32736.0 POSIX      0
Finished            : Mon Dec  6 09:32:09 2021
Tracking /beegfs/lgouveia/ior_4/testFile1...



Writing tracked information to tracker.csv...
IOR-3.4.0+dev: MPI Coordinated Test of Parallel I/O
Began               : Mon Dec  6 09:33:10 2021
Command line        : /home/lgouveia/ior/bin/ior -w -t 1m -b 372m -k -o /beegfs/lgouveia/ior_4/testFile1
Machine             : Linux bora020.plafrim.cluster
TestID              : 0
StartTime           : Mon Dec  6 09:33:10 2021
Path                : /beegfs/lgouveia/ior_4/testFile1
FS                  : 130.9 TiB   Used FS: 35.1%   Inodes: 0.0 Mi   Used Inodes: -nan%

Options: 
api                 : POSIX
apiVersion          : 
test filename       : /beegfs/lgouveia/ior_4/testFile1
access              : single-shared-file
type                : independent
segments            : 1
ordering in a file  : sequential
ordering inter file : no tasks offsets
nodes               : 11
tasks               : 88
clients per node    : 8
repetitions         : 1
xfersize            : 1 MiB
blocksize           : 372 MiB
aggregate filesize  : 31.97 GiB

Results: 
WARNING: The file "/beegfs/lgouveia/ior_4/testFile1" exists already and will be overwritten

access    bw(MiB/s)  IOPS       Latency(s)  block(KiB) xfer(KiB)  open(s)    wr/rd(s)   close(s)   total(s)   iter
------    ---------  ----       ----------  ---------- ---------  --------   --------   --------   --------   ----
write     5531       5532       0.005918    380928     1024.00    0.007323   5.92       5.02       5.92       0   

Summary of all tests:
Operation   Max(MiB)   Min(MiB)  Mean(MiB)     StdDev   Max(OPs)   Min(OPs)  Mean(OPs)     StdDev    Mean(s) Stonewall(s) Stonewall(MiB) Test# #Tasks tPN reps fPP reord reordoff reordrand seed segcnt   blksiz    xsize aggs(MiB)   API RefNum
write        5531.22    5531.22    5531.22       0.00    5531.22    5531.22    5531.22       0.00    5.91841         NA            NA     0     88   8    1   0     0        1         0    0      1 390070272  1048576   32736.0 POSIX      0
Finished            : Mon Dec  6 09:33:16 2021
Tracking /beegfs/lgouveia/ior_4/testFile1...



Writing tracked information to tracker.csv...
IOR-3.4.0+dev: MPI Coordinated Test of Parallel I/O
Began               : Mon Dec  6 09:34:17 2021
Command line        : /home/lgouveia/ior/bin/ior -w -t 1m -b 372m -k -o /beegfs/lgouveia/ior_4/testFile1
Machine             : Linux bora020.plafrim.cluster
TestID              : 0
StartTime           : Mon Dec  6 09:34:17 2021
Path                : /beegfs/lgouveia/ior_4/testFile1
FS                  : 130.9 TiB   Used FS: 35.1%   Inodes: 0.0 Mi   Used Inodes: -nan%

Options: 
api                 : POSIX
apiVersion          : 
test filename       : /beegfs/lgouveia/ior_4/testFile1
access              : single-shared-file
type                : independent
segments            : 1
ordering in a file  : sequential
ordering inter file : no tasks offsets
nodes               : 11
tasks               : 88
clients per node    : 8
repetitions         : 1
xfersize            : 1 MiB
blocksize           : 372 MiB
aggregate filesize  : 31.97 GiB

Results: 
WARNING: The file "/beegfs/lgouveia/ior_4/testFile1" exists already and will be overwritten

access    bw(MiB/s)  IOPS       Latency(s)  block(KiB) xfer(KiB)  open(s)    wr/rd(s)   close(s)   total(s)   iter
------    ---------  ----       ----------  ---------- ---------  --------   --------   --------   --------   ----
write     6355       6357       0.008266    380928     1024.00    0.016032   5.15       4.43       5.15       0   

Summary of all tests:
Operation   Max(MiB)   Min(MiB)  Mean(MiB)     StdDev   Max(OPs)   Min(OPs)  Mean(OPs)     StdDev    Mean(s) Stonewall(s) Stonewall(MiB) Test# #Tasks tPN reps fPP reord reordoff reordrand seed segcnt   blksiz    xsize aggs(MiB)   API RefNum
write        6354.69    6354.69    6354.69       0.00    6354.69    6354.69    6354.69       0.00    5.15147         NA            NA     0     88   8    1   0     0        1         0    0      1 390070272  1048576   32736.0 POSIX      0
Finished            : Mon Dec  6 09:34:22 2021
Tracking /beegfs/lgouveia/ior_4/testFile1...



Writing tracked information to tracker.csv...
IOR-3.4.0+dev: MPI Coordinated Test of Parallel I/O
Began               : Mon Dec  6 09:35:23 2021
Command line        : /home/lgouveia/ior/bin/ior -w -t 1m -b 372m -k -o /beegfs/lgouveia/ior_4/testFile1
Machine             : Linux bora020.plafrim.cluster
TestID              : 0
StartTime           : Mon Dec  6 09:35:23 2021
Path                : /beegfs/lgouveia/ior_4/testFile1
FS                  : 130.9 TiB   Used FS: 35.1%   Inodes: 0.0 Mi   Used Inodes: -nan%

Options: 
api                 : POSIX
apiVersion          : 
test filename       : /beegfs/lgouveia/ior_4/testFile1
access              : single-shared-file
type                : independent
segments            : 1
ordering in a file  : sequential
ordering inter file : no tasks offsets
nodes               : 11
tasks               : 88
clients per node    : 8
repetitions         : 1
xfersize            : 1 MiB
blocksize           : 372 MiB
aggregate filesize  : 31.97 GiB

Results: 
WARNING: The file "/beegfs/lgouveia/ior_4/testFile1" exists already and will be overwritten

access    bw(MiB/s)  IOPS       Latency(s)  block(KiB) xfer(KiB)  open(s)    wr/rd(s)   close(s)   total(s)   iter
------    ---------  ----       ----------  ---------- ---------  --------   --------   --------   --------   ----
write     6080       6081       0.013370    380928     1024.00    0.080201   5.38       4.62       5.38       0   

Summary of all tests:
Operation   Max(MiB)   Min(MiB)  Mean(MiB)     StdDev   Max(OPs)   Min(OPs)  Mean(OPs)     StdDev    Mean(s) Stonewall(s) Stonewall(MiB) Test# #Tasks tPN reps fPP reord reordoff reordrand seed segcnt   blksiz    xsize aggs(MiB)   API RefNum
write        6080.13    6080.13    6080.13       0.00    6080.13    6080.13    6080.13       0.00    5.38409         NA            NA     0     88   8    1   0     0        1         0    0      1 390070272  1048576   32736.0 POSIX      0
Finished            : Mon Dec  6 09:35:29 2021
Tracking /beegfs/lgouveia/ior_4/testFile1...



Writing tracked information to tracker.csv...
IOR-3.4.0+dev: MPI Coordinated Test of Parallel I/O
Began               : Mon Dec  6 09:36:30 2021
Command line        : /home/lgouveia/ior/bin/ior -w -t 1m -b 372m -k -o /beegfs/lgouveia/ior_4/testFile1
Machine             : Linux bora020.plafrim.cluster
TestID              : 0
StartTime           : Mon Dec  6 09:36:30 2021
Path                : /beegfs/lgouveia/ior_4/testFile1
FS                  : 130.9 TiB   Used FS: 35.1%   Inodes: 0.0 Mi   Used Inodes: -nan%

Options: 
api                 : POSIX
apiVersion          : 
test filename       : /beegfs/lgouveia/ior_4/testFile1
access              : single-shared-file
type                : independent
segments            : 1
ordering in a file  : sequential
ordering inter file : no tasks offsets
nodes               : 11
tasks               : 88
clients per node    : 8
repetitions         : 1
xfersize            : 1 MiB
blocksize           : 372 MiB
aggregate filesize  : 31.97 GiB

Results: 
WARNING: The file "/beegfs/lgouveia/ior_4/testFile1" exists already and will be overwritten

access    bw(MiB/s)  IOPS       Latency(s)  block(KiB) xfer(KiB)  open(s)    wr/rd(s)   close(s)   total(s)   iter
------    ---------  ----       ----------  ---------- ---------  --------   --------   --------   --------   ----
write     6039       6040       0.002204    380928     1024.00    0.010937   5.42       4.61       5.42       0   

Summary of all tests:
Operation   Max(MiB)   Min(MiB)  Mean(MiB)     StdDev   Max(OPs)   Min(OPs)  Mean(OPs)     StdDev    Mean(s) Stonewall(s) Stonewall(MiB) Test# #Tasks tPN reps fPP reord reordoff reordrand seed segcnt   blksiz    xsize aggs(MiB)   API RefNum
write        6038.64    6038.64    6038.64       0.00    6038.64    6038.64    6038.64       0.00    5.42108         NA            NA     0     88   8    1   0     0        1         0    0      1 390070272  1048576   32736.0 POSIX      0
Finished            : Mon Dec  6 09:36:35 2021
Tracking /beegfs/lgouveia/ior_4/testFile1...



Writing tracked information to tracker.csv...
IOR-3.4.0+dev: MPI Coordinated Test of Parallel I/O
Began               : Mon Dec  6 09:37:36 2021
Command line        : /home/lgouveia/ior/bin/ior -w -t 1m -b 372m -k -o /beegfs/lgouveia/ior_4/testFile1
Machine             : Linux bora020.plafrim.cluster
TestID              : 0
StartTime           : Mon Dec  6 09:37:36 2021
Path                : /beegfs/lgouveia/ior_4/testFile1
FS                  : 130.9 TiB   Used FS: 35.2%   Inodes: 0.0 Mi   Used Inodes: -nan%

Options: 
api                 : POSIX
apiVersion          : 
test filename       : /beegfs/lgouveia/ior_4/testFile1
access              : single-shared-file
type                : independent
segments            : 1
ordering in a file  : sequential
ordering inter file : no tasks offsets
nodes               : 11
tasks               : 88
clients per node    : 8
repetitions         : 1
xfersize            : 1 MiB
blocksize           : 372 MiB
aggregate filesize  : 31.97 GiB

Results: 
WARNING: The file "/beegfs/lgouveia/ior_4/testFile1" exists already and will be overwritten

access    bw(MiB/s)  IOPS       Latency(s)  block(KiB) xfer(KiB)  open(s)    wr/rd(s)   close(s)   total(s)   iter
------    ---------  ----       ----------  ---------- ---------  --------   --------   --------   --------   ----
write     5974       5976       0.009883    380928     1024.00    0.016439   5.48       4.65       5.48       0   

Summary of all tests:
Operation   Max(MiB)   Min(MiB)  Mean(MiB)     StdDev   Max(OPs)   Min(OPs)  Mean(OPs)     StdDev    Mean(s) Stonewall(s) Stonewall(MiB) Test# #Tasks tPN reps fPP reord reordoff reordrand seed segcnt   blksiz    xsize aggs(MiB)   API RefNum
write        5974.26    5974.26    5974.26       0.00    5974.26    5974.26    5974.26       0.00    5.47951         NA            NA     0     88   8    1   0     0        1         0    0      1 390070272  1048576   32736.0 POSIX      0
Finished            : Mon Dec  6 09:37:42 2021
Tracking /beegfs/lgouveia/ior_4/testFile1...



Writing tracked information to tracker.csv...
