tracker_id,tracker_timestamp,file,size,ctime,mtime,storage_targets
33932644,1638255339.024768,/beegfs/lgouveia/ior_4/testFile1,34326183936,1638255333.0,1638255333.0,102 104 201 103
fa093da1,1638255405.900322,/beegfs/lgouveia/ior_4/testFile1,34326183936,1638255405.0,1638255405.0,103 104 102 201
179cb9bf,1638255472.641591,/beegfs/lgouveia/ior_4/testFile1,34326183936,1638255472.0,1638255472.0,204 101 203 202
058b42d3,1638255539.753161,/beegfs/lgouveia/ior_4/testFile1,34326183936,1638255539.0,1638255539.0,201 104 103 102
f552f576,1638255606.195647,/beegfs/lgouveia/ior_4/testFile1,34326183936,1638255605.0,1638255605.0,101 202 203 204
bc19389e,1638255673.154957,/beegfs/lgouveia/ior_4/testFile1,34326183936,1638255672.0,1638255672.0,104 201 103 102
b2da468c,1638255740.021154,/beegfs/lgouveia/ior_4/testFile1,34326183936,1638255739.0,1638255739.0,104 201 103 102
8c2b7f47,1638255806.166128,/beegfs/lgouveia/ior_4/testFile1,34326183936,1638255805.0,1638255805.0,202 204 203 101
7bfd1f97,1638255873.317592,/beegfs/lgouveia/ior_4/testFile1,34326183936,1638255873.0,1638255873.0,201 102 104 103
fc0a782f,1638255939.777432,/beegfs/lgouveia/ior_4/testFile1,34326183936,1638255939.0,1638255939.0,203 101 204 202
608880dd,1638256307.404745,/beegfs/lgouveia/ior_4/testFile1,34326183936,1638256305.0,1638256305.0,102 201 104 103
6a09c6c8,1638256374.251429,/beegfs/lgouveia/ior_4/testFile1,34326183936,1638256373.0,1638256373.0,101 203 204 202
cbf65f8d,1638256441.112616,/beegfs/lgouveia/ior_4/testFile1,34326183936,1638256440.0,1638256440.0,104 103 201 102
3a30d2d9,1638256507.475901,/beegfs/lgouveia/ior_4/testFile1,34326183936,1638256507.0,1638256507.0,203 101 204 202
8edabe61,1638256574.418411,/beegfs/lgouveia/ior_4/testFile1,34326183936,1638256574.0,1638256574.0,201 103 102 104
38037d5f,1638256640.458907,/beegfs/lgouveia/ior_4/testFile1,34326183936,1638256640.0,1638256640.0,202 204 101 203
befc6833,1638256707.600769,/beegfs/lgouveia/ior_4/testFile1,34326183936,1638256707.0,1638256707.0,104 103 102 201
4953a3d6,1638256774.524289,/beegfs/lgouveia/ior_4/testFile1,34326183936,1638256774.0,1638256774.0,201 104 102 103
58939795,1638256840.978197,/beegfs/lgouveia/ior_4/testFile1,34326183936,1638256840.0,1638256840.0,101 202 204 203
1a37b78a,1638256907.974074,/beegfs/lgouveia/ior_4/testFile1,34326183936,1638256907.0,1638256907.0,102 104 201 103
113dabf0,1638257264.985747,/beegfs/lgouveia/ior_4/testFile1,34326183936,1638257263.0,1638257263.0,201 102 104 103
9bf45499,1638257331.568404,/beegfs/lgouveia/ior_4/testFile1,34326183936,1638257331.0,1638257331.0,202 101 203 204
af6704ed,1638257398.759202,/beegfs/lgouveia/ior_4/testFile1,34326183936,1638257398.0,1638257398.0,102 103 104 201
94e6176b,1638257465.348541,/beegfs/lgouveia/ior_4/testFile1,34326183936,1638257465.0,1638257465.0,101 202 204 203
c3fdbaa7,1638257532.448245,/beegfs/lgouveia/ior_4/testFile1,34326183936,1638257532.0,1638257532.0,104 201 103 102
0e7eb5ff,1638257599.0478,/beegfs/lgouveia/ior_4/testFile1,34326183936,1638257598.0,1638257598.0,203 101 204 202
42fab6dc,1638257666.176237,/beegfs/lgouveia/ior_4/testFile1,34326183936,1638257665.0,1638257665.0,102 201 104 103
17003287,1638257732.506867,/beegfs/lgouveia/ior_4/testFile1,34326183936,1638257732.0,1638257732.0,101 203 204 202
d26d307e,1638257799.689198,/beegfs/lgouveia/ior_4/testFile1,34326183936,1638257799.0,1638257799.0,102 104 201 103
bb4482c2,1638257869.809988,/beegfs/lgouveia/ior_4/testFile1,34326183936,1638257867.0,1638257867.0,202 203 204 101
84887b0c,1638258269.761246,/beegfs/lgouveia/ior_4/testFile1,34326183936,1638258268.0,1638258268.0,102 201 103 104
19070c58,1638258336.592722,/beegfs/lgouveia/ior_4/testFile1,34326183936,1638258336.0,1638258336.0,202 101 204 203
a2724997,1638258403.65682,/beegfs/lgouveia/ior_4/testFile1,34326183936,1638258403.0,1638258403.0,201 102 104 103
70b98e40,1638258470.429151,/beegfs/lgouveia/ior_4/testFile1,34326183936,1638258470.0,1638258470.0,202 101 203 204
56c39e85,1638258537.380981,/beegfs/lgouveia/ior_4/testFile1,34326183936,1638258537.0,1638258537.0,201 103 104 102
4c3de4a8,1638258603.377672,/beegfs/lgouveia/ior_4/testFile1,34326183936,1638258603.0,1638258603.0,202 203 101 204
7ba17543,1638258670.406394,/beegfs/lgouveia/ior_4/testFile1,34326183936,1638258670.0,1638258670.0,104 102 103 201
a559c5b8,1638258737.47686,/beegfs/lgouveia/ior_4/testFile1,34326183936,1638258737.0,1638258737.0,102 104 201 103
5cbd4e0e,1638258804.204432,/beegfs/lgouveia/ior_4/testFile1,34326183936,1638258803.0,1638258803.0,204 203 202 101
493732b2,1638258871.579515,/beegfs/lgouveia/ior_4/testFile1,34326183936,1638258871.0,1638258871.0,201 102 103 104
ce5e6bfb,1638259406.725745,/beegfs/lgouveia/ior_4/testFile1,34326183936,1638259404.0,1638259404.0,201 103 102 104
41ef786a,1638259473.502787,/beegfs/lgouveia/ior_4/testFile1,34326183936,1638259473.0,1638259473.0,204 101 202 203
f73d85e4,1638259539.992403,/beegfs/lgouveia/ior_4/testFile1,34326183936,1638259539.0,1638259539.0,101 204 203 202
8f6026bc,1638259606.932798,/beegfs/lgouveia/ior_4/testFile1,34326183936,1638259606.0,1638259606.0,101 203 204 202
14ade8de,1638259673.345349,/beegfs/lgouveia/ior_4/testFile1,34326183936,1638259673.0,1638259673.0,202 204 203 101
9e35dd53,1638259740.255625,/beegfs/lgouveia/ior_4/testFile1,34326183936,1638259739.0,1638259739.0,102 201 103 104
5423e56a,1638259807.611435,/beegfs/lgouveia/ior_4/testFile1,34326183936,1638259807.0,1638259807.0,201 103 102 104
8c263865,1638259874.020963,/beegfs/lgouveia/ior_4/testFile1,34326183936,1638259873.0,1638259873.0,204 101 202 203
b67d0542,1638259941.104137,/beegfs/lgouveia/ior_4/testFile1,34326183936,1638259940.0,1638259940.0,102 104 103 201
ee3f1f09,1638260007.476818,/beegfs/lgouveia/ior_4/testFile1,34326183936,1638260007.0,1638260007.0,203 204 101 202
aa85cefd,1638260614.967656,/beegfs/lgouveia/ior_4/testFile1,34326183936,1638260611.0,1638260611.0,203 202 101 204
7d65802e,1638260681.570458,/beegfs/lgouveia/ior_4/testFile1,34326183936,1638260681.0,1638260681.0,204 101 203 202
b2420861,1638260755.27967,/beegfs/lgouveia/ior_4/testFile1,34326183936,1638260753.0,1638260753.0,104 103 102 201
f2433a3c,1638260836.896542,/beegfs/lgouveia/ior_4/testFile1,34326183936,1638260831.0,1638260831.0,102 201 103 104
d1e609e5,1638260903.427366,/beegfs/lgouveia/ior_4/testFile1,34326183936,1638260903.0,1638260903.0,203 204 202 101
11232fbf,1638260970.535596,/beegfs/lgouveia/ior_4/testFile1,34326183936,1638260970.0,1638260970.0,201 102 104 103
50abe054,1638261037.059802,/beegfs/lgouveia/ior_4/testFile1,34326183936,1638261036.0,1638261036.0,204 101 202 203
a275fb00,1638261104.078246,/beegfs/lgouveia/ior_4/testFile1,34326183936,1638261103.0,1638261103.0,104 102 103 201
3e84d5f8,1638261170.616062,/beegfs/lgouveia/ior_4/testFile1,34326183936,1638261170.0,1638261170.0,204 101 202 203
944ba7fe,1638306308.021011,/beegfs/lgouveia/ior_4/testFile1,34326183936,1638306303.0,1638306303.0,101 204 202 203
f1802f66,1638306374.987433,/beegfs/lgouveia/ior_4/testFile1,34326183936,1638306374.0,1638306374.0,102 201 104 103
1a008be0,1638306441.43151,/beegfs/lgouveia/ior_4/testFile1,34326183936,1638306441.0,1638306441.0,102 104 103 201
b8e92a49,1638306507.850344,/beegfs/lgouveia/ior_4/testFile1,34326183936,1638306507.0,1638306507.0,101 202 203 204
1ed2427c,1638306574.113842,/beegfs/lgouveia/ior_4/testFile1,34326183936,1638306573.0,1638306573.0,203 204 101 202
8cb66039,1638306640.739246,/beegfs/lgouveia/ior_4/testFile1,34326183936,1638306640.0,1638306640.0,101 202 203 204
1bec792a,1638306707.207697,/beegfs/lgouveia/ior_4/testFile1,34326183936,1638306706.0,1638306706.0,101 204 202 203
70e4fc10,1638306773.798398,/beegfs/lgouveia/ior_4/testFile1,34326183936,1638306773.0,1638306773.0,104 102 201 103
15a5b60a,1638306840.556115,/beegfs/lgouveia/ior_4/testFile1,34326183936,1638306840.0,1638306840.0,103 104 201 102
03c030e2,1638306907.053012,/beegfs/lgouveia/ior_4/testFile1,34326183936,1638306906.0,1638306906.0,201 103 104 102
8c3c1823,1638307171.094028,/beegfs/lgouveia/ior_4/testFile1,34326183936,1638307169.0,1638307169.0,102 103 201 104
b2c42b81,1638777339.677148,/beegfs/lgouveia/ior_4/testFile1,34326183936,1638777339.0,1638777339.0,101 202 204 203
8b9ecdeb,1638777406.576789,/beegfs/lgouveia/ior_4/testFile1,34326183936,1638777406.0,1638777406.0,201 104 103 102
16535d0f,1638777473.173084,/beegfs/lgouveia/ior_4/testFile1,34326183936,1638777472.0,1638777472.0,204 202 203 101
1b3ba2ad,1638777540.078457,/beegfs/lgouveia/ior_4/testFile1,34326183936,1638777539.0,1638777539.0,104 102 201 103
0f9cc5da,1638777606.300703,/beegfs/lgouveia/ior_4/testFile1,34326183936,1638777606.0,1638777606.0,202 203 101 204
60e27291,1638777672.500634,/beegfs/lgouveia/ior_4/testFile1,34326183936,1638777672.0,1638777672.0,101 203 202 204
098ccd7c,1638777739.117608,/beegfs/lgouveia/ior_4/testFile1,34326183936,1638777738.0,1638777738.0,102 103 104 201
a01ff424,1638777805.888772,/beegfs/lgouveia/ior_4/testFile1,34326183936,1638777805.0,1638777805.0,102 104 103 201
df034867,1638777872.533682,/beegfs/lgouveia/ior_4/testFile1,34326183936,1638777872.0,1638777872.0,203 101 204 202
1245fcb2,1638777939.408479,/beegfs/lgouveia/ior_4/testFile1,34326183936,1638777939.0,1638777939.0,104 102 201 103
51f005e5,1638778307.317353,/beegfs/lgouveia/ior_4/testFile1,34326183936,1638778304.0,1638778304.0,201 104 103 102
fa043f5b,1638778374.02296,/beegfs/lgouveia/ior_4/testFile1,34326183936,1638778373.0,1638778373.0,201 104 103 102
d0e364f6,1638778440.849345,/beegfs/lgouveia/ior_4/testFile1,34326183936,1638778440.0,1638778440.0,201 104 103 102
6c2d26d6,1638778507.64025,/beegfs/lgouveia/ior_4/testFile1,34326183936,1638778507.0,1638778507.0,204 101 203 202
e96a9c69,1638778574.415912,/beegfs/lgouveia/ior_4/testFile1,34326183936,1638778574.0,1638778574.0,201 104 103 102
2f2463ea,1638778641.0779,/beegfs/lgouveia/ior_4/testFile1,34326183936,1638778640.0,1638778640.0,202 101 203 204
aa0d5f97,1638778707.741217,/beegfs/lgouveia/ior_4/testFile1,34326183936,1638778707.0,1638778707.0,102 104 103 201
22507853,1638778774.673661,/beegfs/lgouveia/ior_4/testFile1,34326183936,1638778774.0,1638778774.0,203 101 204 202
63734ded,1638778841.519797,/beegfs/lgouveia/ior_4/testFile1,34326183936,1638778841.0,1638778841.0,201 102 103 104
20ac90b8,1638778907.983063,/beegfs/lgouveia/ior_4/testFile1,34326183936,1638778907.0,1638778907.0,101 202 204 203
27af8e66,1638779263.448398,/beegfs/lgouveia/ior_4/testFile1,34326183936,1638779261.0,1638779261.0,102 104 103 201
ec16cea3,1638779330.097231,/beegfs/lgouveia/ior_4/testFile1,34326183936,1638779329.0,1638779329.0,202 101 204 203
dd6912a7,1638779396.808948,/beegfs/lgouveia/ior_4/testFile1,34326183936,1638779396.0,1638779396.0,201 104 103 102
b9c5f393,1638779463.501231,/beegfs/lgouveia/ior_4/testFile1,34326183936,1638779463.0,1638779463.0,204 101 202 203
133308e9,1638779529.996627,/beegfs/lgouveia/ior_4/testFile1,34326183936,1638779529.0,1638779529.0,101 202 203 204
6af2454b,1638779596.897998,/beegfs/lgouveia/ior_4/testFile1,34326183936,1638779596.0,1638779596.0,103 201 104 102
bd6de8c3,1638779663.09087,/beegfs/lgouveia/ior_4/testFile1,34326183936,1638779662.0,1638779662.0,204 101 202 203
7f0ddd39,1638779729.603861,/beegfs/lgouveia/ior_4/testFile1,34326183936,1638779729.0,1638779729.0,203 202 101 204
64b060d7,1638779796.071597,/beegfs/lgouveia/ior_4/testFile1,34326183936,1638779795.0,1638779795.0,103 104 201 102
cb16bf90,1638779862.559224,/beegfs/lgouveia/ior_4/testFile1,34326183936,1638779862.0,1638779862.0,203 202 204 101
4bfa0729,1638780255.776668,/beegfs/lgouveia/ior_4/testFile1,34326183936,1638780255.0,1638780255.0,201 104 103 102
476dcd39,1638780322.058547,/beegfs/lgouveia/ior_4/testFile1,34326183936,1638780321.0,1638780321.0,102 104 103 201
da0a7f5d,1638780388.312651,/beegfs/lgouveia/ior_4/testFile1,34326183936,1638780388.0,1638780388.0,202 101 204 203
ce51ac7a,1638780454.654715,/beegfs/lgouveia/ior_4/testFile1,34326183936,1638780454.0,1638780454.0,103 102 104 201
4b3fb69e,1638780520.792353,/beegfs/lgouveia/ior_4/testFile1,34326183936,1638780520.0,1638780520.0,203 204 101 202
bf0cda63,1638780587.184063,/beegfs/lgouveia/ior_4/testFile1,34326183936,1638780586.0,1638780586.0,102 103 104 201
60bc3db3,1638780653.442126,/beegfs/lgouveia/ior_4/testFile1,34326183936,1638780653.0,1638780653.0,202 101 203 204
51fd5d44,1638780719.57325,/beegfs/lgouveia/ior_4/testFile1,34326183936,1638780719.0,1638780719.0,102 103 201 104
44096c90,1638780785.556904,/beegfs/lgouveia/ior_4/testFile1,34326183936,1638780785.0,1638780785.0,203 202 101 204
ee00c842,1638780852.072479,/beegfs/lgouveia/ior_4/testFile1,34326183936,1638780851.0,1638780851.0,104 103 102 201
