access,bw,iops,latency,block,xfer,open,wr/rd,close,total,iter,start,end
write,2048.80,2048.95,0.011593,838656,1024.00,0.005926,15.99,13.02,15.99,0,Wed Jul 7 03:11:24 2021,Wed Jul 7 03:11:40 2021
write,2108.55,2108.72,0.008669,838656,1024.00,0.006050,15.54,13.38,15.54,0,Wed Jul 7 03:10:08 2021,Wed Jul 7 03:10:24 2021
write,2106.68,2106.85,0.002676,838656,1024.00,0.006302,15.55,13.40,15.55,0,Wed Jul 7 03:08:52 2021,Wed Jul 7 03:09:07 2021
write,2016.95,2017.12,0.019702,838656,1024.00,0.005615,16.24,14.05,16.24,0,Wed Jul 7 03:07:35 2021,Wed Jul 7 03:07:51 2021
write,2060.00,2060.15,0.002502,838656,1024.00,0.005329,15.90,13.85,15.90,0,Wed Jul 7 03:06:18 2021,Wed Jul 7 03:06:34 2021
write,2047.76,2047.90,0.007456,838656,1024.00,0.005026,16.00,13.57,16.00,0,Wed Jul 7 03:05:01 2021,Wed Jul 7 03:05:17 2021
write,2141.43,2141.60,0.002446,838656,1024.00,0.005441,15.30,13.31,15.30,0,Wed Jul 7 03:03:45 2021,Wed Jul 7 03:04:00 2021
write,2091.23,2091.37,0.002653,838656,1024.00,0.005747,15.66,13.49,15.67,0,Wed Jul 7 03:02:28 2021,Wed Jul 7 03:02:44 2021
write,2025.36,2025.48,0.013972,838656,1024.00,0.005552,16.17,14.10,16.17,0,Wed Jul 7 03:01:11 2021,Wed Jul 7 03:01:27 2021
write,2133.90,2134.08,0.002539,838656,1024.00,0.005708,15.35,13.40,15.35,0,Wed Jul 7 02:59:53 2021,Wed Jul 7 03:00:08 2021
write,2046.86,2047.01,0.017069,838656,1024.00,0.005748,16.00,13.57,16.00,0,Wed Jul 7 02:49:54 2021,Wed Jul 7 02:50:10 2021
write,2147.18,2147.38,0.012917,838656,1024.00,0.005463,15.26,13.01,15.26,0,Wed Jul 7 02:48:38 2021,Wed Jul 7 02:48:54 2021
write,2110.77,2110.96,0.004979,838656,1024.00,0.005654,15.52,13.42,15.52,0,Wed Jul 7 02:47:22 2021,Wed Jul 7 02:47:37 2021
write,2171.33,2171.50,0.002571,838656,1024.00,0.005843,15.09,12.99,15.09,0,Wed Jul 7 02:46:06 2021,Wed Jul 7 02:46:21 2021
write,2133.59,2133.73,0.007382,838656,1024.00,0.005694,15.35,13.32,15.35,0,Wed Jul 7 02:44:50 2021,Wed Jul 7 02:45:05 2021
write,2035.23,2035.41,0.002965,838656,1024.00,0.005722,16.10,13.68,16.10,0,Wed Jul 7 02:43:33 2021,Wed Jul 7 02:43:49 2021
write,2161.25,2161.42,0.002759,838656,1024.00,0.005662,15.16,13.14,15.16,0,Wed Jul 7 02:42:17 2021,Wed Jul 7 02:42:32 2021
write,2057.89,2058.03,0.002623,838656,1024.00,0.008103,15.92,13.77,15.92,0,Wed Jul 7 02:41:00 2021,Wed Jul 7 02:41:16 2021
write,2072.11,2072.29,0.016268,838656,1024.00,0.008932,15.81,13.13,15.81,0,Wed Jul 7 02:39:43 2021,Wed Jul 7 02:39:59 2021
write,2062.86,2063.00,0.010386,838656,1024.00,0.005535,15.88,13.74,15.88,0,Wed Jul 7 02:38:23 2021,Wed Jul 7 02:38:39 2021
write,2056.81,2056.94,0.007405,838656,1024.00,0.005220,15.93,13.85,15.93,0,Wed Jul 7 02:28:23 2021,Wed Jul 7 02:28:39 2021
write,2035.04,2035.23,0.002614,838656,1024.00,0.008166,16.10,13.96,16.10,0,Wed Jul 7 02:27:07 2021,Wed Jul 7 02:27:23 2021
write,2068.34,2068.55,0.010546,838656,1024.00,0.007313,15.84,13.65,15.84,0,Wed Jul 7 02:25:50 2021,Wed Jul 7 02:26:06 2021
write,2069.20,2069.41,0.014624,838656,1024.00,0.005304,15.83,13.60,15.83,0,Wed Jul 7 02:24:33 2021,Wed Jul 7 02:24:49 2021
write,2071.85,2072.03,0.002577,838656,1024.00,0.006161,15.81,13.70,15.81,0,Wed Jul 7 02:23:16 2021,Wed Jul 7 02:23:32 2021
write,2073.15,2073.30,0.002765,838656,1024.00,0.007290,15.80,13.54,15.80,0,Wed Jul 7 02:22:00 2021,Wed Jul 7 02:22:16 2021
write,2017.08,2017.23,0.002935,838656,1024.00,0.005761,16.24,13.84,16.24,0,Wed Jul 7 02:20:43 2021,Wed Jul 7 02:20:59 2021
write,2067.90,2068.06,0.013511,838656,1024.00,0.005961,15.84,13.55,15.84,0,Wed Jul 7 02:19:26 2021,Wed Jul 7 02:19:42 2021
write,2061.05,2061.23,0.002668,838656,1024.00,0.005421,15.89,13.72,15.89,0,Wed Jul 7 02:18:09 2021,Wed Jul 7 02:18:25 2021
write,2107.82,2108.05,0.004979,838656,1024.00,0.006115,15.54,13.11,15.54,0,Wed Jul 7 02:16:48 2021,Wed Jul 7 02:17:03 2021
write,2076.68,2076.85,0.005043,838656,1024.00,0.005256,15.77,13.70,15.78,0,Wed Jul 7 02:11:48 2021,Wed Jul 7 02:12:04 2021
write,2005.45,2005.62,0.003002,838656,1024.00,0.006485,16.33,14.10,16.34,0,Wed Jul 7 02:10:31 2021,Wed Jul 7 02:10:47 2021
write,2116.67,2116.81,0.009976,838656,1024.00,0.006131,15.48,13.36,15.48,0,Wed Jul 7 02:09:15 2021,Wed Jul 7 02:09:30 2021
write,2143.61,2143.78,0.002803,838656,1024.00,0.005501,15.28,13.16,15.28,0,Wed Jul 7 02:07:59 2021,Wed Jul 7 02:08:14 2021
write,2087.09,2087.25,0.014614,838656,1024.00,0.005266,15.70,13.74,15.70,0,Wed Jul 7 02:06:42 2021,Wed Jul 7 02:06:58 2021
write,2049.25,2049.41,0.011976,838656,1024.00,0.005488,15.99,13.72,15.99,0,Wed Jul 7 02:05:25 2021,Wed Jul 7 02:05:41 2021
write,2091.65,2091.80,0.002642,838656,1024.00,0.008197,15.66,13.60,15.66,0,Wed Jul 7 02:04:09 2021,Wed Jul 7 02:04:24 2021
write,2160.27,2160.48,0.013506,838656,1024.00,0.005527,15.16,13.19,15.16,0,Wed Jul 7 02:02:53 2021,Wed Jul 7 02:03:08 2021
write,2087.46,2087.63,0.005120,838656,1024.00,0.005934,15.69,13.61,15.69,0,Wed Jul 7 02:01:36 2021,Wed Jul 7 02:01:52 2021
write,2024.95,2025.11,0.005663,838656,1024.00,0.005321,16.18,13.59,16.18,0,Wed Jul 7 02:00:17 2021,Wed Jul 7 02:00:33 2021
write,2081.27,2081.49,0.003654,838656,1024.00,0.005642,15.74,13.61,15.74,0,Wed Jul 7 01:53:47 2021,Wed Jul 7 01:54:03 2021
write,2087.53,2087.78,0.003378,838656,1024.00,0.006376,15.69,13.69,15.69,0,Wed Jul 7 01:52:30 2021,Wed Jul 7 01:52:46 2021
write,2042.73,2042.90,0.012321,838656,1024.00,0.006421,16.04,13.93,16.04,0,Wed Jul 7 01:51:13 2021,Wed Jul 7 01:51:29 2021
write,2159.64,2159.84,0.002570,838656,1024.00,0.005955,15.17,13.07,15.17,0,Wed Jul 7 01:49:57 2021,Wed Jul 7 01:50:13 2021
write,2020.01,2020.16,0.015388,838656,1024.00,0.005971,16.22,13.98,16.22,0,Wed Jul 7 01:48:40 2021,Wed Jul 7 01:48:57 2021
write,2156.38,2156.53,0.002572,838656,1024.00,0.005594,15.19,13.08,15.19,0,Wed Jul 7 01:47:24 2021,Wed Jul 7 01:47:39 2021
write,2105.96,2106.16,0.010024,838656,1024.00,0.005240,15.55,13.45,15.56,0,Wed Jul 7 01:46:08 2021,Wed Jul 7 01:46:23 2021
write,2035.15,2035.35,0.002790,838656,1024.00,0.005867,16.10,13.81,16.10,0,Wed Jul 7 01:44:51 2021,Wed Jul 7 01:45:07 2021
write,2027.09,2027.22,0.019730,838656,1024.00,0.005469,16.16,13.79,16.16,0,Wed Jul 7 01:43:34 2021,Wed Jul 7 01:43:50 2021
write,2050.65,2050.78,0.008061,838656,1024.00,0.006180,15.97,13.80,15.98,0,Wed Jul 7 01:42:14 2021,Wed Jul 7 01:42:30 2021
write,2149.64,2149.82,0.002657,838656,1024.00,0.006049,15.24,13.06,15.24,0,Wed Jul 7 01:31:16 2021,Wed Jul 7 01:31:31 2021
write,2053.37,2053.56,0.002810,838656,1024.00,0.005486,15.95,13.65,15.95,0,Wed Jul 7 01:29:59 2021,Wed Jul 7 01:30:15 2021
write,2077.24,2077.41,0.011214,838656,1024.00,0.005354,15.77,13.46,15.77,0,Wed Jul 7 01:28:42 2021,Wed Jul 7 01:28:58 2021
write,2075.21,2075.33,0.004114,838656,1024.00,0.005550,15.79,13.47,15.79,0,Wed Jul 7 01:27:26 2021,Wed Jul 7 01:27:41 2021
write,2160.96,2161.12,0.015203,838656,1024.00,0.006006,15.16,13.16,15.16,0,Wed Jul 7 01:26:10 2021,Wed Jul 7 01:26:25 2021
write,2162.60,2162.77,0.014019,838656,1024.00,0.005730,15.15,13.02,15.15,0,Wed Jul 7 01:24:53 2021,Wed Jul 7 01:25:09 2021
write,2060.08,2060.19,0.005586,838656,1024.00,0.005440,15.90,13.75,15.90,0,Wed Jul 7 01:23:37 2021,Wed Jul 7 01:23:53 2021
write,2067.97,2068.15,0.011205,838656,1024.00,0.004861,15.84,13.83,15.84,0,Wed Jul 7 01:22:20 2021,Wed Jul 7 01:22:36 2021
write,2098.14,2098.29,0.002565,838656,1024.00,0.006087,15.61,13.51,15.61,0,Wed Jul 7 01:21:04 2021,Wed Jul 7 01:21:19 2021
write,2045.08,2045.22,0.005034,838656,1024.00,0.005434,16.02,13.94,16.02,0,Wed Jul 7 01:19:42 2021,Wed Jul 7 01:19:58 2021
write,2091.78,2091.95,0.002510,838656,1024.00,0.007684,15.66,13.66,15.66,0,Wed Jul 7 01:10:45 2021,Wed Jul 7 01:11:00 2021
write,2020.78,2020.96,0.002837,838656,1024.00,0.005667,16.21,13.89,16.21,0,Wed Jul 7 01:09:28 2021,Wed Jul 7 01:09:44 2021
write,2037.45,2037.62,0.019448,838656,1024.00,0.005454,16.08,13.93,16.08,0,Wed Jul 7 01:08:11 2021,Wed Jul 7 01:08:27 2021
write,2047.93,2048.08,0.002572,838656,1024.00,0.005523,16.00,13.90,16.00,0,Wed Jul 7 01:06:54 2021,Wed Jul 7 01:07:10 2021
write,2042.48,2042.65,0.010861,838656,1024.00,0.005806,16.04,13.78,16.04,0,Wed Jul 7 01:05:37 2021,Wed Jul 7 01:05:53 2021
write,1991.86,1992.02,0.007986,838656,1024.00,0.005098,16.45,14.13,16.45,0,Wed Jul 7 01:04:20 2021,Wed Jul 7 01:04:36 2021
write,2005.61,2005.77,0.002673,838656,1024.00,0.005861,16.33,14.14,16.33,0,Wed Jul 7 01:03:02 2021,Wed Jul 7 01:03:19 2021
write,2067.58,2067.77,0.002502,838656,1024.00,0.005659,15.84,13.79,15.84,0,Wed Jul 7 01:01:46 2021,Wed Jul 7 01:02:01 2021
write,2041.84,2042.05,0.019482,838656,1024.00,0.005797,16.04,13.87,16.04,0,Wed Jul 7 01:00:29 2021,Wed Jul 7 01:00:45 2021
write,2076.53,2076.74,0.002622,838656,1024.00,0.006498,15.77,13.63,15.78,0,Wed Jul 7 00:59:10 2021,Wed Jul 7 00:59:26 2021
write,2097.34,2097.52,0.018931,838656,1024.00,0.006612,15.62,13.47,15.62,0,Wed Jul 7 00:49:51 2021,Wed Jul 7 00:50:07 2021
write,2030.76,2030.92,0.011633,838656,1024.00,0.005599,16.13,13.87,16.13,0,Wed Jul 7 00:48:34 2021,Wed Jul 7 00:48:50 2021
write,2047.10,2047.26,0.015660,838656,1024.00,0.005792,16.00,13.69,16.00,0,Wed Jul 7 00:47:17 2021,Wed Jul 7 00:47:33 2021
write,2040.04,2040.21,0.002872,838656,1024.00,0.006105,16.06,13.71,16.06,0,Wed Jul 7 00:46:00 2021,Wed Jul 7 00:46:16 2021
write,2034.11,2034.28,0.002795,838656,1024.00,0.005540,16.10,13.88,16.11,0,Wed Jul 7 00:44:43 2021,Wed Jul 7 00:44:59 2021
write,2059.90,2060.06,0.010021,838656,1024.00,0.005671,15.90,13.82,15.90,0,Wed Jul 7 00:43:26 2021,Wed Jul 7 00:43:42 2021
write,2046.47,2046.61,0.002693,838656,1024.00,0.006038,16.01,13.80,16.01,0,Wed Jul 7 00:42:10 2021,Wed Jul 7 00:42:26 2021
write,1989.20,1989.35,0.002995,838656,1024.00,0.005942,16.47,14.07,16.47,0,Wed Jul 7 00:40:52 2021,Wed Jul 7 00:41:09 2021
write,2148.17,2148.32,0.002615,838656,1024.00,0.007171,15.25,13.34,15.25,0,Wed Jul 7 00:39:36 2021,Wed Jul 7 00:39:51 2021
write,2048.24,2048.44,0.002655,838656,1024.00,0.005443,15.99,13.86,15.99,0,Wed Jul 7 00:38:14 2021,Wed Jul 7 00:38:30 2021
write,2022.46,2022.60,0.013302,838656,1024.00,0.006017,16.20,13.94,16.20,0,Wed Jul 7 00:30:17 2021,Wed Jul 7 00:30:33 2021
write,2022.11,2022.26,0.014066,838656,1024.00,0.006164,16.20,13.82,16.20,0,Wed Jul 7 00:29:00 2021,Wed Jul 7 00:29:16 2021
write,2013.67,2013.83,0.003509,838656,1024.00,0.006393,16.27,13.81,16.27,0,Wed Jul 7 00:27:43 2021,Wed Jul 7 00:27:59 2021
write,1970.50,1970.64,0.003004,838656,1024.00,0.006964,16.62,14.26,16.63,0,Wed Jul 7 00:26:25 2021,Wed Jul 7 00:26:42 2021
write,1998.48,1998.63,0.002833,838656,1024.00,0.006477,16.39,14.08,16.39,0,Wed Jul 7 00:25:08 2021,Wed Jul 7 00:25:25 2021
write,2196.81,2196.99,0.016674,838656,1024.00,0.006311,14.91,13.06,14.91,0,Wed Jul 7 00:23:52 2021,Wed Jul 7 00:24:07 2021
write,2063.00,2063.19,0.008485,838656,1024.00,0.006130,15.88,13.89,15.88,0,Wed Jul 7 00:22:36 2021,Wed Jul 7 00:22:52 2021
write,2004.28,2004.44,0.012621,838656,1024.00,0.007015,16.34,14.00,16.35,0,Wed Jul 7 00:21:18 2021,Wed Jul 7 00:21:35 2021
write,2094.01,2094.18,0.002717,838656,1024.00,0.005527,15.64,13.42,15.64,0,Wed Jul 7 00:20:02 2021,Wed Jul 7 00:20:18 2021
write,2048.81,2048.94,0.002612,838656,1024.00,0.005546,15.99,13.85,15.99,0,Wed Jul 7 00:18:42 2021,Wed Jul 7 00:18:58 2021
write,2021.48,2021.64,0.017801,838656,1024.00,0.005480,16.20,13.91,16.21,0,Wed Jul 7 00:12:13 2021,Wed Jul 7 00:12:30 2021
write,2036.85,2037.02,0.003024,838656,1024.00,0.005542,16.08,13.79,16.08,0,Wed Jul 7 00:10:56 2021,Wed Jul 7 00:11:13 2021
write,2047.59,2047.76,0.002638,838656,1024.00,0.005739,16.00,13.84,16.00,0,Wed Jul 7 00:09:39 2021,Wed Jul 7 00:09:55 2021
write,2041.34,2041.54,0.019581,838656,1024.00,0.005523,16.05,14.00,16.05,0,Wed Jul 7 00:08:22 2021,Wed Jul 7 00:08:38 2021
write,2056.96,2057.12,0.019324,838656,1024.00,0.011959,15.93,13.84,15.93,0,Wed Jul 7 00:07:06 2021,Wed Jul 7 00:07:22 2021
write,2049.51,2049.70,0.007257,838656,1024.00,0.005588,15.98,13.99,15.98,0,Wed Jul 7 00:05:49 2021,Wed Jul 7 00:06:05 2021
write,2001.88,2001.99,0.002603,838656,1024.00,0.010009,16.36,14.23,16.36,0,Wed Jul 7 00:04:31 2021,Wed Jul 7 00:04:48 2021
write,2039.32,2039.45,0.005282,838656,1024.00,0.006337,16.06,13.81,16.06,0,Wed Jul 7 00:03:14 2021,Wed Jul 7 00:03:30 2021
write,2010.98,2011.16,0.010830,838656,1024.00,0.006093,16.29,13.83,16.29,0,Wed Jul 7 00:01:57 2021,Wed Jul 7 00:02:13 2021
write,2064.53,2064.74,0.019301,838656,1024.00,0.006673,15.87,13.73,15.87,0,Wed Jul 7 00:00:37 2021,Wed Jul 7 00:00:53 2021
