access,bw,iops,latency,block,xfer,open,wr/rd,close,total,iter,start,end
write,1468.49,1468.53,0.020201,2097152,1024.00,0.005224,44.63,28.05,44.63,0,Tue Dec 14 05:59:39 2021,Tue Dec 14 06:00:23 2021
write,1466.49,1466.53,0.018168,2097152,1024.00,0.004471,44.69,33.87,44.69,0,Tue Dec 14 06:01:24 2021,Tue Dec 14 06:02:09 2021
write,1474.05,1474.09,0.021589,2097152,1024.00,0.005070,44.46,14.90,44.46,0,Tue Dec 14 06:03:10 2021,Tue Dec 14 06:03:54 2021
write,1474.03,1474.06,0.015863,2097152,1024.00,0.006634,44.46,38.67,44.46,0,Tue Dec 14 06:04:55 2021,Tue Dec 14 06:05:39 2021
write,1459.67,1459.70,0.017991,2097152,1024.00,0.005240,44.90,38.98,44.90,0,Tue Dec 14 06:06:40 2021,Tue Dec 14 06:07:25 2021
write,1480.01,1480.05,0.020280,2097152,1024.00,0.006572,44.28,25.49,44.28,0,Tue Dec 14 06:08:26 2021,Tue Dec 14 06:09:10 2021
write,1467.44,1467.48,0.012547,2097152,1024.00,0.005240,44.66,31.11,44.66,0,Tue Dec 14 06:10:11 2021,Tue Dec 14 06:10:55 2021
write,1471.40,1471.45,0.017101,2097152,1024.00,0.005969,44.54,33.38,44.54,0,Tue Dec 14 06:11:56 2021,Tue Dec 14 06:12:40 2021
write,1470.89,1470.92,0.016394,2097152,1024.00,0.006074,44.55,38.87,44.56,0,Tue Dec 14 06:13:41 2021,Tue Dec 14 06:14:26 2021
write,1466.37,1466.40,0.014084,2097152,1024.00,0.005309,44.69,38.99,44.69,0,Tue Dec 14 06:15:26 2021,Tue Dec 14 06:16:11 2021
write,1462.24,1462.29,0.021870,2097152,1024.00,0.005846,44.82,39.16,44.82,0,Tue Dec 14 06:21:39 2021,Tue Dec 14 06:22:23 2021
write,1458.72,1458.76,0.021719,2097152,1024.00,0.006422,44.93,23.84,44.93,0,Tue Dec 14 06:23:24 2021,Tue Dec 14 06:24:09 2021
write,1461.15,1461.20,0.015925,2097152,1024.00,0.004726,44.85,39.07,44.85,0,Tue Dec 14 06:25:10 2021,Tue Dec 14 06:25:55 2021
write,1471.77,1471.81,0.013811,2097152,1024.00,0.006619,44.53,38.95,44.53,0,Tue Dec 14 06:26:55 2021,Tue Dec 14 06:27:40 2021
write,1440.30,1440.33,0.020729,2097152,1024.00,0.005448,45.50,30.13,45.50,0,Tue Dec 14 06:28:41 2021,Tue Dec 14 06:29:26 2021
write,1455.07,1455.11,0.018064,2097152,1024.00,0.005156,45.04,34.12,45.04,0,Tue Dec 14 06:30:27 2021,Tue Dec 14 06:31:12 2021
write,1458.16,1458.20,0.014985,2097152,1024.00,0.005712,44.94,28.91,44.94,0,Tue Dec 14 06:32:12 2021,Tue Dec 14 06:32:57 2021
write,1456.05,1456.08,0.018813,2097152,1024.00,0.006250,45.01,33.02,45.01,0,Tue Dec 14 06:33:58 2021,Tue Dec 14 06:34:43 2021
write,1464.67,1464.71,0.021786,2097152,1024.00,0.006122,44.74,34.02,44.74,0,Tue Dec 14 06:35:44 2021,Tue Dec 14 06:36:29 2021
write,1472.57,1472.61,0.017585,2097152,1024.00,0.004797,44.50,38.80,44.50,0,Tue Dec 14 06:37:29 2021,Tue Dec 14 06:38:14 2021
write,1464.74,1464.77,0.013220,2097152,1024.00,0.005326,44.74,33.88,44.74,0,Tue Dec 14 06:48:39 2021,Tue Dec 14 06:49:23 2021
write,1449.31,1449.35,0.014837,2097152,1024.00,0.005067,45.22,24.99,45.22,0,Tue Dec 14 06:50:24 2021,Tue Dec 14 06:51:09 2021
write,1449.60,1449.64,0.012548,2097152,1024.00,0.006201,45.21,26.41,45.21,0,Tue Dec 14 06:52:10 2021,Tue Dec 14 06:52:55 2021
write,1365.60,1365.64,0.020121,2097152,1024.00,0.005156,47.99,42.09,47.99,0,Tue Dec 14 06:53:56 2021,Tue Dec 14 06:54:44 2021
write,1434.29,1434.32,0.019789,2097152,1024.00,0.005675,45.69,34.85,45.69,0,Tue Dec 14 06:55:45 2021,Tue Dec 14 06:56:30 2021
write,1410.65,1410.68,0.022684,2097152,1024.00,0.005113,46.46,40.77,46.46,0,Tue Dec 14 06:57:31 2021,Tue Dec 14 06:58:17 2021
write,1441.70,1441.74,0.010356,2097152,1024.00,0.005797,45.46,24.25,45.46,0,Tue Dec 14 06:59:18 2021,Tue Dec 14 07:00:04 2021
write,1443.10,1443.12,0.018557,2097152,1024.00,0.005715,45.41,39.65,45.41,0,Tue Dec 14 07:01:04 2021,Tue Dec 14 07:01:50 2021
write,1451.10,1451.12,0.019806,2097152,1024.00,0.004591,45.16,33.12,45.16,0,Tue Dec 14 07:02:50 2021,Tue Dec 14 07:03:36 2021
write,1455.27,1455.29,0.021965,2097152,1024.00,0.004148,45.03,34.25,45.03,0,Tue Dec 14 07:04:36 2021,Tue Dec 14 07:05:21 2021
write,1467.41,1467.44,0.021291,2097152,1024.00,0.005505,44.66,25.63,44.66,0,Tue Dec 14 07:10:09 2021,Tue Dec 14 07:10:53 2021
write,1457.78,1457.81,0.017192,2097152,1024.00,0.005914,44.96,31.49,44.96,0,Tue Dec 14 07:11:54 2021,Tue Dec 14 07:12:39 2021
write,1466.58,1466.61,0.019407,2097152,1024.00,0.005194,44.69,38.98,44.69,0,Tue Dec 14 07:13:40 2021,Tue Dec 14 07:14:25 2021
write,1465.90,1465.93,0.016609,2097152,1024.00,0.006322,44.71,30.17,44.71,0,Tue Dec 14 07:15:25 2021,Tue Dec 14 07:16:10 2021
write,1461.28,1461.31,0.016799,2097152,1024.00,0.005415,44.85,30.96,44.85,0,Tue Dec 14 07:17:11 2021,Tue Dec 14 07:17:56 2021
write,1464.28,1464.31,0.014606,2097152,1024.00,0.005339,44.76,39.18,44.76,0,Tue Dec 14 07:18:56 2021,Tue Dec 14 07:19:41 2021
write,1454.45,1454.47,0.019772,2097152,1024.00,0.005621,45.06,28.92,45.06,0,Tue Dec 14 07:20:42 2021,Tue Dec 14 07:21:27 2021
write,1450.43,1450.45,0.021780,2097152,1024.00,0.005038,45.18,37.47,45.18,0,Tue Dec 14 07:22:28 2021,Tue Dec 14 07:23:13 2021
write,1464.02,1464.06,0.017823,2097152,1024.00,0.007137,44.76,39.23,44.76,0,Tue Dec 14 07:24:13 2021,Tue Dec 14 07:24:58 2021
write,1459.37,1459.40,0.020028,2097152,1024.00,0.007020,44.91,39.32,44.91,0,Tue Dec 14 07:25:59 2021,Tue Dec 14 07:26:44 2021
write,1448.98,1449.01,0.016041,2097152,1024.00,0.005991,45.23,28.83,45.23,0,Tue Dec 14 07:31:39 2021,Tue Dec 14 07:32:24 2021
write,1463.94,1463.96,0.020373,2097152,1024.00,0.006246,44.77,33.82,44.77,0,Tue Dec 14 07:33:25 2021,Tue Dec 14 07:34:10 2021
write,1470.49,1470.51,0.012403,2097152,1024.00,0.006222,44.57,38.85,44.57,0,Tue Dec 14 07:35:10 2021,Tue Dec 14 07:35:55 2021
write,1471.58,1471.61,0.020224,2097152,1024.00,0.005732,44.53,27.32,44.53,0,Tue Dec 14 07:36:56 2021,Tue Dec 14 07:37:40 2021
write,1473.18,1473.21,0.021464,2097152,1024.00,0.006573,44.49,38.79,44.49,0,Tue Dec 14 07:38:41 2021,Tue Dec 14 07:39:25 2021
write,1465.83,1465.86,0.021680,2097152,1024.00,0.005541,44.71,39.06,44.71,0,Tue Dec 14 07:40:26 2021,Tue Dec 14 07:41:11 2021
write,1461.85,1461.88,0.021487,2097152,1024.00,0.006139,44.83,26.86,44.83,0,Tue Dec 14 07:42:12 2021,Tue Dec 14 07:42:56 2021
write,1466.83,1466.85,0.013906,2097152,1024.00,0.005678,44.68,27.80,44.68,0,Tue Dec 14 07:43:57 2021,Tue Dec 14 07:44:42 2021
write,1454.66,1454.70,0.020688,2097152,1024.00,0.006263,45.05,39.41,45.05,0,Tue Dec 14 07:45:42 2021,Tue Dec 14 07:46:27 2021
write,1465.44,1465.47,0.021369,2097152,1024.00,0.006395,44.72,17.43,44.72,0,Tue Dec 14 07:47:28 2021,Tue Dec 14 07:48:13 2021
write,1462.21,1462.25,0.013507,2097152,1024.00,0.004615,44.82,24.34,44.82,0,Tue Dec 14 07:53:09 2021,Tue Dec 14 07:53:54 2021
write,1463.59,1463.62,0.021811,2097152,1024.00,0.005965,44.78,38.93,44.78,0,Tue Dec 14 07:54:56 2021,Tue Dec 14 07:55:40 2021
write,1468.98,1469.02,0.019179,2097152,1024.00,0.005260,44.61,38.97,44.61,0,Tue Dec 14 07:56:41 2021,Tue Dec 14 07:57:26 2021
write,1441.22,1441.25,0.016129,2097152,1024.00,0.006717,45.47,35.88,45.47,0,Tue Dec 14 07:58:26 2021,Tue Dec 14 07:59:12 2021
write,1472.95,1472.99,0.015639,2097152,1024.00,0.005931,44.49,37.47,44.49,0,Tue Dec 14 08:00:12 2021,Tue Dec 14 08:00:57 2021
write,1472.84,1472.88,0.015963,2097152,1024.00,0.005358,44.50,23.66,44.50,0,Tue Dec 14 08:01:58 2021,Tue Dec 14 08:02:42 2021
write,1474.66,1474.69,0.015348,2097152,1024.00,0.004567,44.44,31.07,44.44,0,Tue Dec 14 08:03:43 2021,Tue Dec 14 08:04:27 2021
write,1478.46,1478.49,0.021569,2097152,1024.00,0.005938,44.33,21.08,44.33,0,Tue Dec 14 08:05:28 2021,Tue Dec 14 08:06:12 2021
write,1474.33,1474.37,0.017761,2097152,1024.00,0.005320,44.45,27.24,44.45,0,Tue Dec 14 08:07:13 2021,Tue Dec 14 08:07:57 2021
write,1470.92,1470.96,0.016441,2097152,1024.00,0.004582,44.55,38.74,44.55,0,Tue Dec 14 08:08:58 2021,Tue Dec 14 08:09:43 2021
write,1448.64,1448.67,0.016918,2097152,1024.00,0.005808,45.24,32.14,45.24,0,Tue Dec 14 08:18:40 2021,Tue Dec 14 08:19:25 2021
write,1456.13,1456.15,0.017978,2097152,1024.00,0.004270,45.01,33.80,45.01,0,Tue Dec 14 08:20:27 2021,Tue Dec 14 08:21:12 2021
write,1463.88,1463.91,0.016463,2097152,1024.00,0.006015,44.77,30.30,44.77,0,Tue Dec 14 08:22:13 2021,Tue Dec 14 08:22:58 2021
write,1454.79,1454.83,0.018019,2097152,1024.00,0.004784,45.05,27.98,45.05,0,Tue Dec 14 08:23:58 2021,Tue Dec 14 08:24:44 2021
write,1474.41,1474.44,0.010272,2097152,1024.00,0.006821,44.45,29.04,44.45,0,Tue Dec 14 08:25:44 2021,Tue Dec 14 08:26:29 2021
write,1466.75,1466.79,0.019471,2097152,1024.00,0.005296,44.68,30.94,44.68,0,Tue Dec 14 08:27:29 2021,Tue Dec 14 08:28:14 2021
write,1471.17,1471.20,0.020089,2097152,1024.00,0.005630,44.55,38.80,44.55,0,Tue Dec 14 08:29:15 2021,Tue Dec 14 08:29:59 2021
write,1469.21,1469.25,0.019091,2097152,1024.00,0.005201,44.61,33.88,44.61,0,Tue Dec 14 08:31:00 2021,Tue Dec 14 08:31:45 2021
write,1465.35,1465.39,0.019956,2097152,1024.00,0.007076,44.72,39.09,44.72,0,Tue Dec 14 08:32:45 2021,Tue Dec 14 08:33:30 2021
write,1457.19,1457.23,0.014953,2097152,1024.00,0.004737,44.97,39.33,44.97,0,Tue Dec 14 08:34:31 2021,Tue Dec 14 08:35:16 2021
write,1463.93,1463.96,0.021270,2097152,1024.00,0.006404,44.77,30.40,44.77,0,Tue Dec 14 08:41:39 2021,Tue Dec 14 08:42:24 2021
write,1435.28,1435.32,0.022181,2097152,1024.00,0.005125,45.66,35.52,45.66,0,Tue Dec 14 08:43:29 2021,Tue Dec 14 08:44:15 2021
write,1446.96,1447.00,0.022114,2097152,1024.00,0.005061,45.29,34.62,45.29,0,Tue Dec 14 08:45:15 2021,Tue Dec 14 08:46:01 2021
write,1460.25,1460.28,0.019601,2097152,1024.00,0.006452,44.88,39.16,44.88,0,Tue Dec 14 08:47:02 2021,Tue Dec 14 08:47:46 2021
write,1473.24,1473.28,0.019066,2097152,1024.00,0.005515,44.48,38.89,44.48,0,Tue Dec 14 08:48:49 2021,Tue Dec 14 08:49:34 2021
write,1470.84,1470.87,0.015215,2097152,1024.00,0.006416,44.56,38.91,44.56,0,Tue Dec 14 08:50:34 2021,Tue Dec 14 08:51:19 2021
write,1475.03,1475.08,0.017246,2097152,1024.00,0.006084,44.43,34.00,44.43,0,Tue Dec 14 08:52:20 2021,Tue Dec 14 08:53:04 2021
write,1447.43,1447.46,0.021498,2097152,1024.00,0.004914,45.28,34.12,45.28,0,Tue Dec 14 08:54:05 2021,Tue Dec 14 08:54:50 2021
write,1448.93,1448.97,0.017338,2097152,1024.00,0.005922,45.23,39.49,45.23,0,Tue Dec 14 08:55:51 2021,Tue Dec 14 08:56:36 2021
write,1471.88,1471.92,0.020686,2097152,1024.00,0.006539,44.52,38.86,44.53,0,Tue Dec 14 08:57:37 2021,Tue Dec 14 08:58:21 2021
write,1456.52,1456.55,0.021394,2097152,1024.00,0.006749,44.99,39.37,45.00,0,Tue Dec 14 09:06:11 2021,Tue Dec 14 09:06:56 2021
write,1456.55,1456.59,0.013106,2097152,1024.00,0.005191,44.99,38.06,44.99,0,Tue Dec 14 09:07:59 2021,Tue Dec 14 09:08:44 2021
write,1463.15,1463.18,0.018036,2097152,1024.00,0.005152,44.79,31.10,44.79,0,Tue Dec 14 09:09:45 2021,Tue Dec 14 09:10:30 2021
write,1437.02,1437.05,0.022150,2097152,1024.00,0.006181,45.60,32.82,45.61,0,Tue Dec 14 09:11:31 2021,Tue Dec 14 09:12:16 2021
write,1460.12,1460.16,0.014974,2097152,1024.00,0.004932,44.88,34.16,44.88,0,Tue Dec 14 09:13:17 2021,Tue Dec 14 09:14:02 2021
write,1468.11,1468.15,0.014673,2097152,1024.00,0.004818,44.64,39.00,44.64,0,Tue Dec 14 09:15:02 2021,Tue Dec 14 09:15:47 2021
write,1455.29,1455.33,0.017271,2097152,1024.00,0.006372,45.03,30.69,45.03,0,Tue Dec 14 09:16:48 2021,Tue Dec 14 09:17:33 2021
write,1457.87,1457.92,0.019115,2097152,1024.00,0.006190,44.95,36.54,44.95,0,Tue Dec 14 09:18:33 2021,Tue Dec 14 09:19:18 2021
write,1474.28,1474.32,0.018992,2097152,1024.00,0.005391,44.45,33.76,44.45,0,Tue Dec 14 09:20:19 2021,Tue Dec 14 09:21:04 2021
write,1457.75,1457.79,0.019721,2097152,1024.00,0.006411,44.96,39.40,44.96,0,Tue Dec 14 09:22:04 2021,Tue Dec 14 09:22:49 2021
write,1471.33,1471.36,0.015515,2097152,1024.00,0.004699,44.54,24.70,44.54,0,Tue Dec 14 09:33:42 2021,Tue Dec 14 09:34:26 2021
write,1435.76,1435.80,0.012317,2097152,1024.00,0.005396,45.64,29.99,45.65,0,Tue Dec 14 09:35:29 2021,Tue Dec 14 09:36:14 2021
write,1428.26,1428.30,0.021632,2097152,1024.00,0.005011,45.88,30.14,45.89,0,Tue Dec 14 09:37:15 2021,Tue Dec 14 09:38:01 2021
write,1467.69,1467.73,0.011300,2097152,1024.00,0.005024,44.65,34.02,44.65,0,Tue Dec 14 09:39:02 2021,Tue Dec 14 09:39:46 2021
write,1467.57,1467.60,0.014855,2097152,1024.00,0.005295,44.66,25.71,44.66,0,Tue Dec 14 09:40:47 2021,Tue Dec 14 09:41:32 2021
write,1418.54,1418.58,0.016210,2097152,1024.00,0.005156,46.20,40.56,46.20,0,Tue Dec 14 09:42:32 2021,Tue Dec 14 09:43:19 2021
write,1453.23,1453.28,0.017266,2097152,1024.00,0.005909,45.10,34.17,45.10,0,Tue Dec 14 09:44:19 2021,Tue Dec 14 09:45:04 2021
write,1464.83,1464.87,0.015857,2097152,1024.00,0.005036,44.74,38.91,44.74,0,Tue Dec 14 09:46:05 2021,Tue Dec 14 09:46:50 2021
write,1453.90,1453.93,0.016070,2097152,1024.00,0.004571,45.08,34.09,45.08,0,Tue Dec 14 09:47:50 2021,Tue Dec 14 09:48:36 2021
write,1456.90,1456.93,0.018925,2097152,1024.00,0.004203,44.98,39.22,44.98,0,Tue Dec 14 09:49:36 2021,Tue Dec 14 09:50:21 2021
