===== My JOB Information ====
Node List:  bora[022-033]
my jobID:  1229482
Partition: routage
submit directory:  /home/lgouveia/luan-teylo/results/IOR/scalability_model/07
submit host:  devel02.plafrim.cluster
In the directory: /home/lgouveia/luan-teylo/results/IOR/scalability_model/07
As the user: lgouveia
============================
IOR-3.4.0+dev: MPI Coordinated Test of Parallel I/O
Began               : Fri Jun 18 04:56:27 2021
Command line        : /home/lgouveia/ior/bin/ior -w -t 1m -b 1024m -k -o /beegfs/lgouveia/ior_8/testFile1
Machine             : Linux bora022.plafrim.cluster
TestID              : 0
StartTime           : Fri Jun 18 04:56:27 2021
Path                : /beegfs/lgouveia/ior_8/testFile1
FS                  : 130.9 TiB   Used FS: 19.3%   Inodes: 0.0 Mi   Used Inodes: -nan%

Options: 
api                 : POSIX
apiVersion          : 
test filename       : /beegfs/lgouveia/ior_8/testFile1
access              : single-shared-file
type                : independent
segments            : 1
ordering in a file  : sequential
ordering inter file : no tasks offsets
nodes               : 12
tasks               : 96
clients per node    : 8
repetitions         : 1
xfersize            : 1 MiB
blocksize           : 1 GiB
aggregate filesize  : 96 GiB

Results: 
WARNING: The file "/beegfs/lgouveia/ior_8/testFile1" exists already and will be overwritten

access    bw(MiB/s)  IOPS       Latency(s)  block(KiB) xfer(KiB)  open(s)    wr/rd(s)   close(s)   total(s)   iter
------    ---------  ----       ----------  ---------- ---------  --------   --------   --------   --------   ----
write     2129.70    2129.76    0.013799    1048576    1024.00    0.179402   46.16      39.99      46.16      0   

Summary of all tests:
Operation   Max(MiB)   Min(MiB)  Mean(MiB)     StdDev   Max(OPs)   Min(OPs)  Mean(OPs)     StdDev    Mean(s) Stonewall(s) Stonewall(MiB) Test# #Tasks tPN reps fPP reord reordoff reordrand seed segcnt   blksiz    xsize aggs(MiB)   API RefNum
write        2129.70    2129.70    2129.70       0.00    2129.70    2129.70    2129.70       0.00   46.15866         NA            NA     0     96   8    1   0     0        1         0    0      1 1073741824  1048576   98304.0 POSIX      0
Finished            : Fri Jun 18 04:57:13 2021
Tracking /beegfs/lgouveia/ior_8/testFile1...



Writing tracked information to tracker.csv...
IOR-3.4.0+dev: MPI Coordinated Test of Parallel I/O
Began               : Fri Jun 18 04:58:15 2021
Command line        : /home/lgouveia/ior/bin/ior -w -t 1m -b 1024m -k -o /beegfs/lgouveia/ior_8/testFile1
Machine             : Linux bora022.plafrim.cluster
TestID              : 0
StartTime           : Fri Jun 18 04:58:15 2021
Path                : /beegfs/lgouveia/ior_8/testFile1
FS                  : 130.9 TiB   Used FS: 19.3%   Inodes: 0.0 Mi   Used Inodes: -nan%

Options: 
api                 : POSIX
apiVersion          : 
test filename       : /beegfs/lgouveia/ior_8/testFile1
access              : single-shared-file
type                : independent
segments            : 1
ordering in a file  : sequential
ordering inter file : no tasks offsets
nodes               : 12
tasks               : 96
clients per node    : 8
repetitions         : 1
xfersize            : 1 MiB
blocksize           : 1 GiB
aggregate filesize  : 96 GiB

Results: 
WARNING: The file "/beegfs/lgouveia/ior_8/testFile1" exists already and will be overwritten

access    bw(MiB/s)  IOPS       Latency(s)  block(KiB) xfer(KiB)  open(s)    wr/rd(s)   close(s)   total(s)   iter
------    ---------  ----       ----------  ---------- ---------  --------   --------   --------   --------   ----
write     2167.78    2167.83    0.038479    1048576    1024.00    0.344232   45.35      39.37      45.35      0   

Summary of all tests:
Operation   Max(MiB)   Min(MiB)  Mean(MiB)     StdDev   Max(OPs)   Min(OPs)  Mean(OPs)     StdDev    Mean(s) Stonewall(s) Stonewall(MiB) Test# #Tasks tPN reps fPP reord reordoff reordrand seed segcnt   blksiz    xsize aggs(MiB)   API RefNum
write        2167.78    2167.78    2167.78       0.00    2167.78    2167.78    2167.78       0.00   45.34787         NA            NA     0     96   8    1   0     0        1         0    0      1 1073741824  1048576   98304.0 POSIX      0
Finished            : Fri Jun 18 04:59:00 2021
Tracking /beegfs/lgouveia/ior_8/testFile1...



Writing tracked information to tracker.csv...
IOR-3.4.0+dev: MPI Coordinated Test of Parallel I/O
Began               : Fri Jun 18 05:00:01 2021
Command line        : /home/lgouveia/ior/bin/ior -w -t 1m -b 1024m -k -o /beegfs/lgouveia/ior_8/testFile1
Machine             : Linux bora022.plafrim.cluster
TestID              : 0
StartTime           : Fri Jun 18 05:00:01 2021
Path                : /beegfs/lgouveia/ior_8/testFile1
FS                  : 130.9 TiB   Used FS: 19.3%   Inodes: 0.0 Mi   Used Inodes: -nan%

Options: 
api                 : POSIX
apiVersion          : 
test filename       : /beegfs/lgouveia/ior_8/testFile1
access              : single-shared-file
type                : independent
segments            : 1
ordering in a file  : sequential
ordering inter file : no tasks offsets
nodes               : 12
tasks               : 96
clients per node    : 8
repetitions         : 1
xfersize            : 1 MiB
blocksize           : 1 GiB
aggregate filesize  : 96 GiB

Results: 
WARNING: The file "/beegfs/lgouveia/ior_8/testFile1" exists already and will be overwritten

access    bw(MiB/s)  IOPS       Latency(s)  block(KiB) xfer(KiB)  open(s)    wr/rd(s)   close(s)   total(s)   iter
------    ---------  ----       ----------  ---------- ---------  --------   --------   --------   --------   ----
write     2161.94    2161.99    0.011747    1048576    1024.00    0.465679   45.47      39.13      45.47      0   

Summary of all tests:
Operation   Max(MiB)   Min(MiB)  Mean(MiB)     StdDev   Max(OPs)   Min(OPs)  Mean(OPs)     StdDev    Mean(s) Stonewall(s) Stonewall(MiB) Test# #Tasks tPN reps fPP reord reordoff reordrand seed segcnt   blksiz    xsize aggs(MiB)   API RefNum
write        2161.94    2161.94    2161.94       0.00    2161.94    2161.94    2161.94       0.00   45.47034         NA            NA     0     96   8    1   0     0        1         0    0      1 1073741824  1048576   98304.0 POSIX      0
Finished            : Fri Jun 18 05:00:47 2021
Tracking /beegfs/lgouveia/ior_8/testFile1...



Writing tracked information to tracker.csv...
IOR-3.4.0+dev: MPI Coordinated Test of Parallel I/O
Began               : Fri Jun 18 05:01:48 2021
Command line        : /home/lgouveia/ior/bin/ior -w -t 1m -b 1024m -k -o /beegfs/lgouveia/ior_8/testFile1
Machine             : Linux bora022.plafrim.cluster
TestID              : 0
StartTime           : Fri Jun 18 05:01:48 2021
Path                : /beegfs/lgouveia/ior_8/testFile1
FS                  : 130.9 TiB   Used FS: 19.3%   Inodes: 0.0 Mi   Used Inodes: -nan%

Options: 
api                 : POSIX
apiVersion          : 
test filename       : /beegfs/lgouveia/ior_8/testFile1
access              : single-shared-file
type                : independent
segments            : 1
ordering in a file  : sequential
ordering inter file : no tasks offsets
nodes               : 12
tasks               : 96
clients per node    : 8
repetitions         : 1
xfersize            : 1 MiB
blocksize           : 1 GiB
aggregate filesize  : 96 GiB

Results: 
WARNING: The file "/beegfs/lgouveia/ior_8/testFile1" exists already and will be overwritten

access    bw(MiB/s)  IOPS       Latency(s)  block(KiB) xfer(KiB)  open(s)    wr/rd(s)   close(s)   total(s)   iter
------    ---------  ----       ----------  ---------- ---------  --------   --------   --------   --------   ----
write     2164.83    2164.88    0.011394    1048576    1024.00    0.312345   45.41      39.32      45.41      0   

Summary of all tests:
Operation   Max(MiB)   Min(MiB)  Mean(MiB)     StdDev   Max(OPs)   Min(OPs)  Mean(OPs)     StdDev    Mean(s) Stonewall(s) Stonewall(MiB) Test# #Tasks tPN reps fPP reord reordoff reordrand seed segcnt   blksiz    xsize aggs(MiB)   API RefNum
write        2164.83    2164.83    2164.83       0.00    2164.83    2164.83    2164.83       0.00   45.40952         NA            NA     0     96   8    1   0     0        1         0    0      1 1073741824  1048576   98304.0 POSIX      0
Finished            : Fri Jun 18 05:02:33 2021
Tracking /beegfs/lgouveia/ior_8/testFile1...



Writing tracked information to tracker.csv...
IOR-3.4.0+dev: MPI Coordinated Test of Parallel I/O
Began               : Fri Jun 18 05:03:34 2021
Command line        : /home/lgouveia/ior/bin/ior -w -t 1m -b 1024m -k -o /beegfs/lgouveia/ior_8/testFile1
Machine             : Linux bora022.plafrim.cluster
TestID              : 0
StartTime           : Fri Jun 18 05:03:34 2021
Path                : /beegfs/lgouveia/ior_8/testFile1
FS                  : 130.9 TiB   Used FS: 19.3%   Inodes: 0.0 Mi   Used Inodes: -nan%

Options: 
api                 : POSIX
apiVersion          : 
test filename       : /beegfs/lgouveia/ior_8/testFile1
access              : single-shared-file
type                : independent
segments            : 1
ordering in a file  : sequential
ordering inter file : no tasks offsets
nodes               : 12
tasks               : 96
clients per node    : 8
repetitions         : 1
xfersize            : 1 MiB
blocksize           : 1 GiB
aggregate filesize  : 96 GiB

Results: 
WARNING: The file "/beegfs/lgouveia/ior_8/testFile1" exists already and will be overwritten

access    bw(MiB/s)  IOPS       Latency(s)  block(KiB) xfer(KiB)  open(s)    wr/rd(s)   close(s)   total(s)   iter
------    ---------  ----       ----------  ---------- ---------  --------   --------   --------   --------   ----
write     2154.74    2154.80    0.037925    1048576    1024.00    0.540227   45.62      39.39      45.62      0   

Summary of all tests:
Operation   Max(MiB)   Min(MiB)  Mean(MiB)     StdDev   Max(OPs)   Min(OPs)  Mean(OPs)     StdDev    Mean(s) Stonewall(s) Stonewall(MiB) Test# #Tasks tPN reps fPP reord reordoff reordrand seed segcnt   blksiz    xsize aggs(MiB)   API RefNum
write        2154.74    2154.74    2154.74       0.00    2154.74    2154.74    2154.74       0.00   45.62214         NA            NA     0     96   8    1   0     0        1         0    0      1 1073741824  1048576   98304.0 POSIX      0
Finished            : Fri Jun 18 05:04:20 2021
Tracking /beegfs/lgouveia/ior_8/testFile1...



Writing tracked information to tracker.csv...
IOR-3.4.0+dev: MPI Coordinated Test of Parallel I/O
Began               : Fri Jun 18 05:05:21 2021
Command line        : /home/lgouveia/ior/bin/ior -w -t 1m -b 1024m -k -o /beegfs/lgouveia/ior_8/testFile1
Machine             : Linux bora022.plafrim.cluster
TestID              : 0
StartTime           : Fri Jun 18 05:05:21 2021
Path                : /beegfs/lgouveia/ior_8/testFile1
FS                  : 130.9 TiB   Used FS: 19.3%   Inodes: 0.0 Mi   Used Inodes: -nan%

Options: 
api                 : POSIX
apiVersion          : 
test filename       : /beegfs/lgouveia/ior_8/testFile1
access              : single-shared-file
type                : independent
segments            : 1
ordering in a file  : sequential
ordering inter file : no tasks offsets
nodes               : 12
tasks               : 96
clients per node    : 8
repetitions         : 1
xfersize            : 1 MiB
blocksize           : 1 GiB
aggregate filesize  : 96 GiB

Results: 
WARNING: The file "/beegfs/lgouveia/ior_8/testFile1" exists already and will be overwritten

access    bw(MiB/s)  IOPS       Latency(s)  block(KiB) xfer(KiB)  open(s)    wr/rd(s)   close(s)   total(s)   iter
------    ---------  ----       ----------  ---------- ---------  --------   --------   --------   --------   ----
write     2177.74    2177.78    0.019871    1048576    1024.00    0.279737   45.14      39.34      45.14      0   

Summary of all tests:
Operation   Max(MiB)   Min(MiB)  Mean(MiB)     StdDev   Max(OPs)   Min(OPs)  Mean(OPs)     StdDev    Mean(s) Stonewall(s) Stonewall(MiB) Test# #Tasks tPN reps fPP reord reordoff reordrand seed segcnt   blksiz    xsize aggs(MiB)   API RefNum
write        2177.74    2177.74    2177.74       0.00    2177.74    2177.74    2177.74       0.00   45.14043         NA            NA     0     96   8    1   0     0        1         0    0      1 1073741824  1048576   98304.0 POSIX      0
Finished            : Fri Jun 18 05:06:06 2021
Tracking /beegfs/lgouveia/ior_8/testFile1...



Writing tracked information to tracker.csv...
IOR-3.4.0+dev: MPI Coordinated Test of Parallel I/O
Began               : Fri Jun 18 05:07:07 2021
Command line        : /home/lgouveia/ior/bin/ior -w -t 1m -b 1024m -k -o /beegfs/lgouveia/ior_8/testFile1
Machine             : Linux bora022.plafrim.cluster
TestID              : 0
StartTime           : Fri Jun 18 05:07:07 2021
Path                : /beegfs/lgouveia/ior_8/testFile1
FS                  : 130.9 TiB   Used FS: 19.3%   Inodes: 0.0 Mi   Used Inodes: -nan%

Options: 
api                 : POSIX
apiVersion          : 
test filename       : /beegfs/lgouveia/ior_8/testFile1
access              : single-shared-file
type                : independent
segments            : 1
ordering in a file  : sequential
ordering inter file : no tasks offsets
nodes               : 12
tasks               : 96
clients per node    : 8
repetitions         : 1
xfersize            : 1 MiB
blocksize           : 1 GiB
aggregate filesize  : 96 GiB

Results: 
WARNING: The file "/beegfs/lgouveia/ior_8/testFile1" exists already and will be overwritten

access    bw(MiB/s)  IOPS       Latency(s)  block(KiB) xfer(KiB)  open(s)    wr/rd(s)   close(s)   total(s)   iter
------    ---------  ----       ----------  ---------- ---------  --------   --------   --------   --------   ----
write     2168.61    2168.68    0.011665    1048576    1024.00    0.427813   45.33      39.11      45.33      0   

Summary of all tests:
Operation   Max(MiB)   Min(MiB)  Mean(MiB)     StdDev   Max(OPs)   Min(OPs)  Mean(OPs)     StdDev    Mean(s) Stonewall(s) Stonewall(MiB) Test# #Tasks tPN reps fPP reord reordoff reordrand seed segcnt   blksiz    xsize aggs(MiB)   API RefNum
write        2168.61    2168.61    2168.61       0.00    2168.61    2168.61    2168.61       0.00   45.33038         NA            NA     0     96   8    1   0     0        1         0    0      1 1073741824  1048576   98304.0 POSIX      0
Finished            : Fri Jun 18 05:07:52 2021
Tracking /beegfs/lgouveia/ior_8/testFile1...



Writing tracked information to tracker.csv...
IOR-3.4.0+dev: MPI Coordinated Test of Parallel I/O
Began               : Fri Jun 18 05:08:53 2021
Command line        : /home/lgouveia/ior/bin/ior -w -t 1m -b 1024m -k -o /beegfs/lgouveia/ior_8/testFile1
Machine             : Linux bora022.plafrim.cluster
TestID              : 0
StartTime           : Fri Jun 18 05:08:53 2021
Path                : /beegfs/lgouveia/ior_8/testFile1
FS                  : 130.9 TiB   Used FS: 19.3%   Inodes: 0.0 Mi   Used Inodes: -nan%

Options: 
api                 : POSIX
apiVersion          : 
test filename       : /beegfs/lgouveia/ior_8/testFile1
access              : single-shared-file
type                : independent
segments            : 1
ordering in a file  : sequential
ordering inter file : no tasks offsets
nodes               : 12
tasks               : 96
clients per node    : 8
repetitions         : 1
xfersize            : 1 MiB
blocksize           : 1 GiB
aggregate filesize  : 96 GiB

Results: 
WARNING: The file "/beegfs/lgouveia/ior_8/testFile1" exists already and will be overwritten

access    bw(MiB/s)  IOPS       Latency(s)  block(KiB) xfer(KiB)  open(s)    wr/rd(s)   close(s)   total(s)   iter
------    ---------  ----       ----------  ---------- ---------  --------   --------   --------   --------   ----
write     2171.74    2171.80    0.022913    1048576    1024.00    0.488329   45.26      38.76      45.27      0   

Summary of all tests:
Operation   Max(MiB)   Min(MiB)  Mean(MiB)     StdDev   Max(OPs)   Min(OPs)  Mean(OPs)     StdDev    Mean(s) Stonewall(s) Stonewall(MiB) Test# #Tasks tPN reps fPP reord reordoff reordrand seed segcnt   blksiz    xsize aggs(MiB)   API RefNum
write        2171.74    2171.74    2171.74       0.00    2171.74    2171.74    2171.74       0.00   45.26509         NA            NA     0     96   8    1   0     0        1         0    0      1 1073741824  1048576   98304.0 POSIX      0
Finished            : Fri Jun 18 05:09:39 2021
Tracking /beegfs/lgouveia/ior_8/testFile1...



Writing tracked information to tracker.csv...
IOR-3.4.0+dev: MPI Coordinated Test of Parallel I/O
Began               : Fri Jun 18 05:10:40 2021
Command line        : /home/lgouveia/ior/bin/ior -w -t 1m -b 1024m -k -o /beegfs/lgouveia/ior_8/testFile1
Machine             : Linux bora022.plafrim.cluster
TestID              : 0
StartTime           : Fri Jun 18 05:10:40 2021
Path                : /beegfs/lgouveia/ior_8/testFile1
FS                  : 130.9 TiB   Used FS: 19.3%   Inodes: 0.0 Mi   Used Inodes: -nan%

Options: 
api                 : POSIX
apiVersion          : 
test filename       : /beegfs/lgouveia/ior_8/testFile1
access              : single-shared-file
type                : independent
segments            : 1
ordering in a file  : sequential
ordering inter file : no tasks offsets
nodes               : 12
tasks               : 96
clients per node    : 8
repetitions         : 1
xfersize            : 1 MiB
blocksize           : 1 GiB
aggregate filesize  : 96 GiB

Results: 
WARNING: The file "/beegfs/lgouveia/ior_8/testFile1" exists already and will be overwritten

access    bw(MiB/s)  IOPS       Latency(s)  block(KiB) xfer(KiB)  open(s)    wr/rd(s)   close(s)   total(s)   iter
------    ---------  ----       ----------  ---------- ---------  --------   --------   --------   --------   ----
write     2165.85    2165.91    0.039803    1048576    1024.00    0.243658   45.39      39.19      45.39      0   

Summary of all tests:
Operation   Max(MiB)   Min(MiB)  Mean(MiB)     StdDev   Max(OPs)   Min(OPs)  Mean(OPs)     StdDev    Mean(s) Stonewall(s) Stonewall(MiB) Test# #Tasks tPN reps fPP reord reordoff reordrand seed segcnt   blksiz    xsize aggs(MiB)   API RefNum
write        2165.85    2165.85    2165.85       0.00    2165.85    2165.85    2165.85       0.00   45.38828         NA            NA     0     96   8    1   0     0        1         0    0      1 1073741824  1048576   98304.0 POSIX      0
Finished            : Fri Jun 18 05:11:25 2021
Tracking /beegfs/lgouveia/ior_8/testFile1...



Writing tracked information to tracker.csv...
IOR-3.4.0+dev: MPI Coordinated Test of Parallel I/O
Began               : Fri Jun 18 05:12:26 2021
Command line        : /home/lgouveia/ior/bin/ior -w -t 1m -b 1024m -k -o /beegfs/lgouveia/ior_8/testFile1
Machine             : Linux bora022.plafrim.cluster
TestID              : 0
StartTime           : Fri Jun 18 05:12:26 2021
Path                : /beegfs/lgouveia/ior_8/testFile1
FS                  : 130.9 TiB   Used FS: 19.3%   Inodes: 0.0 Mi   Used Inodes: -nan%

Options: 
api                 : POSIX
apiVersion          : 
test filename       : /beegfs/lgouveia/ior_8/testFile1
access              : single-shared-file
type                : independent
segments            : 1
ordering in a file  : sequential
ordering inter file : no tasks offsets
nodes               : 12
tasks               : 96
clients per node    : 8
repetitions         : 1
xfersize            : 1 MiB
blocksize           : 1 GiB
aggregate filesize  : 96 GiB

Results: 
WARNING: The file "/beegfs/lgouveia/ior_8/testFile1" exists already and will be overwritten

access    bw(MiB/s)  IOPS       Latency(s)  block(KiB) xfer(KiB)  open(s)    wr/rd(s)   close(s)   total(s)   iter
------    ---------  ----       ----------  ---------- ---------  --------   --------   --------   --------   ----
write     2191.98    2192.03    0.021598    1048576    1024.00    0.284060   44.85      38.87      44.85      0   

Summary of all tests:
Operation   Max(MiB)   Min(MiB)  Mean(MiB)     StdDev   Max(OPs)   Min(OPs)  Mean(OPs)     StdDev    Mean(s) Stonewall(s) Stonewall(MiB) Test# #Tasks tPN reps fPP reord reordoff reordrand seed segcnt   blksiz    xsize aggs(MiB)   API RefNum
write        2191.98    2191.98    2191.98       0.00    2191.98    2191.98    2191.98       0.00   44.84719         NA            NA     0     96   8    1   0     0        1         0    0      1 1073741824  1048576   98304.0 POSIX      0
Finished            : Fri Jun 18 05:13:11 2021
Tracking /beegfs/lgouveia/ior_8/testFile1...



Writing tracked information to tracker.csv...
