access,bw,iops,latency,block,xfer,open,wr/rd,close,total,iter,start,end
write,1417.62,1417.63,0.020389,8388608,1024.00,0.005140,184.92,109.73,184.92,0,Tue Dec 14 15:00:42 2021,Tue Dec 14 15:03:47 2021
write,1449.49,1449.50,0.011940,8388608,1024.00,0.005480,180.85,116.80,180.85,0,Tue Dec 14 15:04:49 2021,Tue Dec 14 15:07:50 2021
write,1453.06,1453.07,0.015841,8388608,1024.00,0.005097,180.41,98.54,180.41,0,Tue Dec 14 15:08:51 2021,Tue Dec 14 15:11:51 2021
write,1460.86,1460.87,0.014607,8388608,1024.00,0.005641,179.44,125.19,179.44,0,Tue Dec 14 15:12:52 2021,Tue Dec 14 15:15:51 2021
write,1422.79,1422.80,0.008882,8388608,1024.00,0.005469,184.24,111.48,184.25,0,Tue Dec 14 15:16:52 2021,Tue Dec 14 15:19:56 2021
write,1417.94,1417.95,0.011254,8388608,1024.00,0.006561,184.88,120.84,184.88,0,Tue Dec 14 15:20:57 2021,Tue Dec 14 15:24:02 2021
write,1428.36,1428.37,0.022295,8388608,1024.00,0.006362,183.53,122.46,183.53,0,Tue Dec 14 15:25:08 2021,Tue Dec 14 15:28:11 2021
write,1382.77,1382.78,0.009726,8388608,1024.00,0.005172,189.58,120.97,189.58,0,Tue Dec 14 15:29:12 2021,Tue Dec 14 15:32:22 2021
write,1405.00,1405.01,0.014720,8388608,1024.00,0.005157,186.58,118.39,186.58,0,Tue Dec 14 15:33:22 2021,Tue Dec 14 15:36:29 2021
write,1427.86,1427.87,0.020324,8388608,1024.00,0.004448,183.59,100.92,183.59,0,Tue Dec 14 15:37:30 2021,Tue Dec 14 15:40:33 2021
write,1375.29,1375.30,0.013930,8388608,1024.00,0.005559,190.61,105.93,190.61,0,Tue Dec 14 15:46:12 2021,Tue Dec 14 15:49:22 2021
write,1436.17,1436.18,0.016734,8388608,1024.00,0.004998,182.53,103.78,182.53,0,Tue Dec 14 15:50:25 2021,Tue Dec 14 15:53:28 2021
write,1435.92,1435.92,0.022220,8388608,1024.00,0.006079,182.56,99.13,182.56,0,Tue Dec 14 15:54:28 2021,Tue Dec 14 15:57:31 2021
write,1428.00,1428.01,0.013630,8388608,1024.00,0.005962,183.57,100.72,183.57,0,Tue Dec 14 15:58:31 2021,Tue Dec 14 16:01:35 2021
write,1444.64,1444.64,0.018439,8388608,1024.00,0.005422,181.46,93.33,181.46,0,Tue Dec 14 16:02:36 2021,Tue Dec 14 16:05:38 2021
write,1439.13,1439.14,0.016783,8388608,1024.00,0.005573,182.15,130.14,182.15,0,Tue Dec 14 16:06:39 2021,Tue Dec 14 16:09:41 2021
write,1441.04,1441.05,0.018466,8388608,1024.00,0.004582,181.91,106.74,181.91,0,Tue Dec 14 16:10:42 2021,Tue Dec 14 16:13:43 2021
write,1395.63,1395.64,0.020543,8388608,1024.00,0.005725,187.83,100.54,187.83,0,Tue Dec 14 16:14:44 2021,Tue Dec 14 16:17:52 2021
write,1431.47,1431.48,0.022288,8388608,1024.00,0.005597,183.13,104.30,183.13,0,Tue Dec 14 16:18:53 2021,Tue Dec 14 16:21:56 2021
write,1433.28,1433.29,0.017574,8388608,1024.00,0.005603,182.90,106.53,182.90,0,Tue Dec 14 16:22:56 2021,Tue Dec 14 16:25:59 2021
write,1438.66,1438.66,0.020624,8388608,1024.00,0.005405,182.21,89.25,182.21,0,Tue Dec 14 16:34:13 2021,Tue Dec 14 16:37:16 2021
write,1412.83,1412.83,0.018227,8388608,1024.00,0.005792,185.54,104.85,185.55,0,Tue Dec 14 16:38:18 2021,Tue Dec 14 16:41:24 2021
write,1421.80,1421.81,0.018419,8388608,1024.00,0.006924,184.37,106.17,184.37,0,Tue Dec 14 16:42:25 2021,Tue Dec 14 16:45:29 2021
write,1459.66,1459.67,0.021913,8388608,1024.00,0.006948,179.59,92.76,179.59,0,Tue Dec 14 16:46:30 2021,Tue Dec 14 16:49:29 2021
write,1458.48,1458.49,0.011464,8388608,1024.00,0.005446,179.74,101.25,179.74,0,Tue Dec 14 16:50:30 2021,Tue Dec 14 16:53:30 2021
write,1462.79,1462.80,0.014000,8388608,1024.00,0.005769,179.21,93.52,179.21,0,Tue Dec 14 16:54:30 2021,Tue Dec 14 16:57:30 2021
write,1467.54,1467.55,0.019360,8388608,1024.00,0.006153,178.63,98.70,178.63,0,Tue Dec 14 16:58:30 2021,Tue Dec 14 17:01:29 2021
write,1473.34,1473.35,0.010578,8388608,1024.00,0.006311,177.92,116.13,177.92,0,Tue Dec 14 17:02:30 2021,Tue Dec 14 17:05:28 2021
write,1463.78,1463.79,0.010081,8388608,1024.00,0.005437,179.09,101.94,179.09,0,Tue Dec 14 17:06:28 2021,Tue Dec 14 17:09:27 2021
write,1449.16,1449.17,0.018435,8388608,1024.00,0.005369,180.89,124.44,180.89,0,Tue Dec 14 17:10:28 2021,Tue Dec 14 17:13:29 2021
write,1450.99,1451.00,0.016992,8388608,1024.00,0.005489,180.66,104.94,180.67,0,Tue Dec 14 17:18:45 2021,Tue Dec 14 17:21:45 2021
write,1387.32,1387.33,0.015902,8388608,1024.00,0.005348,188.96,112.73,188.96,0,Tue Dec 14 17:22:48 2021,Tue Dec 14 17:25:57 2021
write,1393.00,1393.01,0.021028,8388608,1024.00,0.004880,188.19,119.84,188.19,0,Tue Dec 14 17:26:57 2021,Tue Dec 14 17:30:05 2021
write,1417.96,1417.97,0.022407,8388608,1024.00,0.005413,184.87,103.55,184.87,0,Tue Dec 14 17:31:06 2021,Tue Dec 14 17:34:11 2021
write,1473.13,1473.15,0.018395,8388608,1024.00,0.004936,177.95,103.37,177.95,0,Tue Dec 14 17:35:12 2021,Tue Dec 14 17:38:10 2021
write,1456.19,1456.19,0.020571,8388608,1024.00,0.005516,180.02,104.79,180.02,0,Tue Dec 14 17:39:10 2021,Tue Dec 14 17:42:10 2021
write,1471.03,1471.04,0.011283,8388608,1024.00,0.005547,178.20,111.31,178.20,0,Tue Dec 14 17:43:11 2021,Tue Dec 14 17:46:09 2021
write,1388.82,1388.83,0.017094,8388608,1024.00,0.006528,188.75,105.76,188.75,0,Tue Dec 14 17:47:10 2021,Tue Dec 14 17:50:19 2021
write,1444.49,1444.50,0.013934,8388608,1024.00,0.005903,181.48,99.91,181.48,0,Tue Dec 14 17:51:19 2021,Tue Dec 14 17:54:21 2021
write,1429.87,1429.88,0.022339,8388608,1024.00,0.005184,183.33,123.23,183.33,0,Tue Dec 14 17:55:22 2021,Tue Dec 14 17:58:25 2021
write,1456.98,1456.99,0.005969,8388608,1024.00,0.005722,179.92,131.03,179.92,0,Tue Dec 14 18:29:17 2021,Tue Dec 14 18:32:17 2021
write,1458.16,1458.17,0.018001,8388608,1024.00,0.004879,179.78,118.33,179.78,0,Tue Dec 14 18:33:22 2021,Tue Dec 14 18:36:21 2021
write,1459.63,1459.63,0.008574,8388608,1024.00,0.004936,179.60,109.36,179.60,0,Tue Dec 14 18:37:22 2021,Tue Dec 14 18:40:22 2021
write,1443.20,1443.20,0.018551,8388608,1024.00,0.005591,181.64,109.06,181.64,0,Tue Dec 14 18:41:22 2021,Tue Dec 14 18:44:24 2021
write,1426.16,1426.16,0.011245,8388608,1024.00,0.004730,183.81,111.25,183.81,0,Tue Dec 14 18:45:25 2021,Tue Dec 14 18:48:28 2021
write,1438.68,1438.69,0.014157,8388608,1024.00,0.004124,182.21,99.32,182.21,0,Tue Dec 14 18:49:29 2021,Tue Dec 14 18:52:31 2021
write,1419.03,1419.03,0.020699,8388608,1024.00,0.004784,184.73,98.76,184.73,0,Tue Dec 14 18:53:32 2021,Tue Dec 14 18:56:37 2021
write,1432.74,1432.75,0.015614,8388608,1024.00,0.004391,182.97,104.41,182.97,0,Tue Dec 14 18:57:37 2021,Tue Dec 14 19:00:40 2021
write,1445.50,1445.51,0.017917,8388608,1024.00,0.005278,181.35,116.15,181.35,0,Tue Dec 14 19:01:41 2021,Tue Dec 14 19:04:42 2021
write,1438.76,1438.77,0.008892,8388608,1024.00,0.005864,182.20,111.53,182.20,0,Tue Dec 14 19:05:43 2021,Tue Dec 14 19:08:45 2021
write,1439.21,1439.22,0.015660,8388608,1024.00,0.005289,182.14,103.25,182.14,0,Tue Dec 14 19:12:19 2021,Tue Dec 14 19:15:21 2021
write,1369.25,1369.25,0.023370,8388608,1024.00,0.005297,191.45,112.11,191.45,0,Tue Dec 14 19:16:24 2021,Tue Dec 14 19:19:35 2021
write,1394.09,1394.09,0.019721,8388608,1024.00,0.005587,188.04,119.80,188.04,0,Tue Dec 14 19:20:36 2021,Tue Dec 14 19:23:44 2021
write,1452.44,1452.44,0.015872,8388608,1024.00,0.004149,180.49,106.32,180.49,0,Tue Dec 14 19:24:45 2021,Tue Dec 14 19:27:45 2021
write,1414.58,1414.58,0.018482,8388608,1024.00,0.006032,185.32,111.82,185.32,0,Tue Dec 14 19:28:46 2021,Tue Dec 14 19:31:51 2021
write,1463.62,1463.63,0.016399,8388608,1024.00,0.006498,179.11,110.11,179.11,0,Tue Dec 14 19:32:52 2021,Tue Dec 14 19:35:51 2021
write,1458.81,1458.81,0.019712,8388608,1024.00,0.005304,179.70,102.46,179.70,0,Tue Dec 14 19:36:52 2021,Tue Dec 14 19:39:52 2021
write,1450.55,1450.56,0.017259,8388608,1024.00,0.004787,180.72,109.38,180.72,0,Tue Dec 14 19:40:52 2021,Tue Dec 14 19:43:53 2021
write,1445.14,1445.14,0.013106,8388608,1024.00,0.005020,181.40,114.06,181.40,0,Tue Dec 14 19:44:54 2021,Tue Dec 14 19:47:55 2021
write,1430.50,1430.50,0.018410,8388608,1024.00,0.005415,183.25,116.73,183.25,0,Tue Dec 14 19:48:56 2021,Tue Dec 14 19:51:59 2021
write,1447.27,1447.28,0.010304,8388608,1024.00,0.006025,181.13,96.72,181.13,0,Tue Dec 14 20:00:19 2021,Tue Dec 14 20:03:20 2021
write,1449.24,1449.25,0.016528,8388608,1024.00,0.006254,180.88,93.57,180.88,0,Tue Dec 14 20:04:24 2021,Tue Dec 14 20:07:24 2021
write,1447.46,1447.47,0.010557,8388608,1024.00,0.006356,181.10,112.66,181.11,0,Tue Dec 14 20:08:25 2021,Tue Dec 14 20:11:26 2021
write,1435.79,1435.80,0.017389,8388608,1024.00,0.005734,182.58,118.13,182.58,0,Tue Dec 14 20:12:27 2021,Tue Dec 14 20:15:30 2021
write,1445.88,1445.88,0.015679,8388608,1024.00,0.006254,181.30,93.01,181.30,0,Tue Dec 14 20:16:30 2021,Tue Dec 14 20:19:32 2021
write,1463.32,1463.33,0.016710,8388608,1024.00,0.007044,179.14,109.36,179.14,0,Tue Dec 14 20:20:32 2021,Tue Dec 14 20:23:31 2021
write,1475.01,1475.03,0.020343,8388608,1024.00,0.007519,177.72,113.61,177.72,0,Tue Dec 14 20:24:32 2021,Tue Dec 14 20:27:30 2021
write,1421.87,1421.88,0.017304,8388608,1024.00,0.006108,184.36,99.97,184.37,0,Tue Dec 14 20:28:31 2021,Tue Dec 14 20:31:35 2021
write,1440.20,1440.21,0.022146,8388608,1024.00,0.005962,182.02,112.94,182.02,0,Tue Dec 14 20:32:36 2021,Tue Dec 14 20:35:38 2021
write,1454.49,1454.50,0.007407,8388608,1024.00,0.005512,180.23,119.55,180.23,0,Tue Dec 14 20:36:38 2021,Tue Dec 14 20:39:39 2021
write,1464.22,1464.23,0.021018,8388608,1024.00,0.005603,179.03,121.09,179.03,0,Tue Dec 14 20:44:52 2021,Tue Dec 14 20:47:51 2021
write,1466.42,1466.43,0.009478,8388608,1024.00,0.005047,178.76,114.31,178.76,0,Tue Dec 14 20:48:53 2021,Tue Dec 14 20:51:52 2021
write,1453.78,1453.78,0.015321,8388608,1024.00,0.005173,180.32,120.37,180.32,0,Tue Dec 14 20:52:53 2021,Tue Dec 14 20:55:53 2021
write,1460.02,1460.02,0.011809,8388608,1024.00,0.005213,179.55,112.05,179.55,0,Tue Dec 14 20:56:54 2021,Tue Dec 14 20:59:53 2021
write,1445.43,1445.44,0.015608,8388608,1024.00,0.005477,181.36,119.16,181.36,0,Tue Dec 14 21:00:54 2021,Tue Dec 14 21:03:55 2021
write,1450.52,1450.53,0.010339,8388608,1024.00,0.005376,180.72,96.02,180.72,0,Tue Dec 14 21:04:56 2021,Tue Dec 14 21:07:57 2021
write,1444.44,1444.45,0.008158,8388608,1024.00,0.005333,181.48,114.66,181.48,0,Tue Dec 14 21:08:57 2021,Tue Dec 14 21:11:59 2021
write,1418.93,1418.94,0.009345,8388608,1024.00,0.006388,184.75,108.19,184.75,0,Tue Dec 14 21:12:59 2021,Tue Dec 14 21:16:04 2021
write,1449.35,1449.36,0.019736,8388608,1024.00,0.005606,180.87,108.67,180.87,0,Tue Dec 14 21:17:05 2021,Tue Dec 14 21:20:06 2021
write,1446.51,1446.52,0.012503,8388608,1024.00,0.005932,181.22,107.13,181.23,0,Tue Dec 14 21:21:07 2021,Tue Dec 14 21:24:08 2021
write,1442.61,1442.62,0.012553,8388608,1024.00,0.006981,181.71,129.69,181.72,0,Tue Dec 14 21:33:22 2021,Tue Dec 14 21:36:24 2021
write,1470.70,1470.71,0.017020,8388608,1024.00,0.005601,178.24,100.38,178.24,0,Tue Dec 14 21:37:27 2021,Tue Dec 14 21:40:25 2021
write,1443.31,1443.32,0.013728,8388608,1024.00,0.005412,181.63,103.10,181.63,0,Tue Dec 14 21:41:26 2021,Tue Dec 14 21:44:27 2021
write,1463.24,1463.24,0.021812,8388608,1024.00,0.005421,179.15,103.40,179.15,0,Tue Dec 14 21:45:28 2021,Tue Dec 14 21:48:27 2021
write,1446.83,1446.84,0.012889,8388608,1024.00,0.005535,181.18,93.92,181.18,0,Tue Dec 14 21:49:28 2021,Tue Dec 14 21:52:29 2021
write,1463.11,1463.11,0.016212,8388608,1024.00,0.005417,179.17,93.48,179.17,0,Tue Dec 14 21:53:30 2021,Tue Dec 14 21:56:29 2021
write,1462.95,1462.96,0.016536,8388608,1024.00,0.005656,179.19,94.27,179.19,0,Tue Dec 14 21:57:29 2021,Tue Dec 14 22:00:29 2021
write,1465.59,1465.60,0.015179,8388608,1024.00,0.005929,178.86,102.97,178.87,0,Tue Dec 14 22:01:29 2021,Tue Dec 14 22:04:28 2021
write,1468.85,1468.86,0.010445,8388608,1024.00,0.005427,178.47,99.37,178.47,0,Tue Dec 14 22:05:29 2021,Tue Dec 14 22:08:27 2021
write,1441.11,1441.11,0.020745,8388608,1024.00,0.004406,181.90,106.18,181.90,0,Tue Dec 14 22:09:28 2021,Tue Dec 14 22:12:30 2021
write,1456.33,1456.34,0.005901,8388608,1024.00,0.005489,180.00,131.66,180.00,0,Tue Dec 14 22:18:23 2021,Tue Dec 14 22:21:23 2021
write,1459.70,1459.71,0.020985,8388608,1024.00,0.005484,179.59,97.49,179.59,0,Tue Dec 14 22:22:25 2021,Tue Dec 14 22:25:25 2021
write,1443.03,1443.04,0.011390,8388608,1024.00,0.005526,181.66,94.82,181.66,0,Tue Dec 14 22:26:25 2021,Tue Dec 14 22:29:27 2021
write,1460.94,1460.94,0.015158,8388608,1024.00,0.005398,179.43,105.02,179.44,0,Tue Dec 14 22:30:28 2021,Tue Dec 14 22:33:27 2021
write,1449.33,1449.33,0.021966,8388608,1024.00,0.005106,180.87,108.43,180.87,0,Tue Dec 14 22:34:28 2021,Tue Dec 14 22:37:29 2021
write,1467.85,1467.85,0.018544,8388608,1024.00,0.005262,178.59,97.97,178.59,0,Tue Dec 14 22:38:29 2021,Tue Dec 14 22:41:28 2021
write,1466.75,1466.75,0.020367,8388608,1024.00,0.005084,178.72,113.77,178.72,0,Tue Dec 14 22:42:29 2021,Tue Dec 14 22:45:27 2021
write,1469.81,1469.82,0.017500,8388608,1024.00,0.004790,178.35,104.07,178.35,0,Tue Dec 14 22:46:28 2021,Tue Dec 14 22:49:27 2021
write,1465.53,1465.54,0.019255,8388608,1024.00,0.005107,178.87,95.51,178.87,0,Tue Dec 14 22:50:27 2021,Tue Dec 14 22:53:26 2021
write,1443.91,1443.91,0.013172,8388608,1024.00,0.005625,181.55,101.40,181.55,0,Tue Dec 14 22:54:27 2021,Tue Dec 14 22:57:28 2021
