===== My JOB Information ====
Node List:  bora[023-024]
my jobID:  1443568
Partition: routage
submit directory:  /home/lgouveia/luan-teylo/tests/omnipath/compute_nodes/8_targets/02
submit host:  devel02.plafrim.cluster
In the directory: /home/lgouveia/luan-teylo/tests/omnipath/compute_nodes/8_targets/02
As the user: lgouveia
============================
IOR-3.4.0+dev: MPI Coordinated Test of Parallel I/O
Began               : Mon Oct  4 14:49:24 2021
Command line        : /home/lgouveia/ior/bin/ior -w -t 1m -b 2048m -k -o /beegfs/lgouveia/ior_8/testFile1
Machine             : Linux bora023.plafrim.cluster
TestID              : 0
StartTime           : Mon Oct  4 14:49:24 2021
Path                : /beegfs/lgouveia/ior_8/testFile1
FS                  : 130.9 TiB   Used FS: 31.5%   Inodes: 0.0 Mi   Used Inodes: -nan%

Options: 
api                 : POSIX
apiVersion          : 
test filename       : /beegfs/lgouveia/ior_8/testFile1
access              : single-shared-file
type                : independent
segments            : 1
ordering in a file  : sequential
ordering inter file : no tasks offsets
nodes               : 2
tasks               : 16
clients per node    : 8
repetitions         : 1
xfersize            : 1 MiB
blocksize           : 2 GiB
aggregate filesize  : 32 GiB

Results: 
WARNING: The file "/beegfs/lgouveia/ior_8/testFile1" exists already and will be overwritten

access    bw(MiB/s)  IOPS       Latency(s)  block(KiB) xfer(KiB)  open(s)    wr/rd(s)   close(s)   total(s)   iter
------    ---------  ----       ----------  ---------- ---------  --------   --------   --------   --------   ----
write     2634.10    2634.32    0.003986    2097152    1024.00    0.005256   12.44      8.92       12.44      0   

Summary of all tests:
Operation   Max(MiB)   Min(MiB)  Mean(MiB)     StdDev   Max(OPs)   Min(OPs)  Mean(OPs)     StdDev    Mean(s) Stonewall(s) Stonewall(MiB) Test# #Tasks tPN reps fPP reord reordoff reordrand seed segcnt   blksiz    xsize aggs(MiB)   API RefNum
write        2634.10    2634.10    2634.10       0.00    2634.10    2634.10    2634.10       0.00   12.43993         NA            NA     0     16   8    1   0     0        1         0    0      1 2147483648  1048576   32768.0 POSIX      0
Finished            : Mon Oct  4 14:49:37 2021
Tracking /beegfs/lgouveia/ior_8/testFile1...



Writing tracked information to tracker.csv...
