===== My JOB Information ====
Node List:  bora[007-038]
my jobID:  1475651
Partition: routage
submit directory:  /home/lgouveia/luan-teylo/tests/omnipath/compute_nodes/4_targets/8_process/32
submit host:  devel02.plafrim.cluster
In the directory: /home/lgouveia/luan-teylo/tests/omnipath/compute_nodes/4_targets/8_process/32
As the user: lgouveia
============================
IOR-3.4.0+dev: MPI Coordinated Test of Parallel I/O
Began               : Sat Feb  5 14:58:27 2022
Command line        : /home/lgouveia/ior/bin/ior -w -t 1m -b 128m -k -o /beegfs/lgouveia/ior_4/testFile1
Machine             : Linux bora007.plafrim.cluster
TestID              : 0
StartTime           : Sat Feb  5 14:58:27 2022
Path                : /beegfs/lgouveia/ior_4/testFile1
FS                  : 130.9 TiB   Used FS: 37.1%   Inodes: 0.0 Mi   Used Inodes: -nan%

Options: 
api                 : POSIX
apiVersion          : 
test filename       : /beegfs/lgouveia/ior_4/testFile1
access              : single-shared-file
type                : independent
segments            : 1
ordering in a file  : sequential
ordering inter file : no tasks offsets
nodes               : 32
tasks               : 256
clients per node    : 8
repetitions         : 1
xfersize            : 1 MiB
blocksize           : 128 MiB
aggregate filesize  : 32 GiB

Results: 
WARNING: The file "/beegfs/lgouveia/ior_4/testFile1" exists already and will be overwritten

access    bw(MiB/s)  IOPS       Latency(s)  block(KiB) xfer(KiB)  open(s)    wr/rd(s)   close(s)   total(s)   iter
------    ---------  ----       ----------  ---------- ---------  --------   --------   --------   --------   ----
write     5981       5982       0.012161    131072     1024.00    0.233112   5.48       4.87       5.48       0   

Summary of all tests:
Operation   Max(MiB)   Min(MiB)  Mean(MiB)     StdDev   Max(OPs)   Min(OPs)  Mean(OPs)     StdDev    Mean(s) Stonewall(s) Stonewall(MiB) Test# #Tasks tPN reps fPP reord reordoff reordrand seed segcnt   blksiz    xsize aggs(MiB)   API RefNum
write        5981.04    5981.04    5981.04       0.00    5981.04    5981.04    5981.04       0.00    5.47865         NA            NA     0    256   8    1   0     0        1         0    0      1 134217728  1048576   32768.0 POSIX      0
Finished            : Sat Feb  5 14:58:33 2022
Tracking /beegfs/lgouveia/ior_4/testFile1...



Writing tracked information to tracker.csv...
IOR-3.4.0+dev: MPI Coordinated Test of Parallel I/O
Began               : Sat Feb  5 14:59:05 2022
Command line        : /home/lgouveia/ior/bin/ior -w -t 1m -b 128m -k -o /beegfs/lgouveia/ior_4/testFile1
Machine             : Linux bora007.plafrim.cluster
TestID              : 0
StartTime           : Sat Feb  5 14:59:05 2022
Path                : /beegfs/lgouveia/ior_4/testFile1
FS                  : 130.9 TiB   Used FS: 37.1%   Inodes: 0.0 Mi   Used Inodes: -nan%

Options: 
api                 : POSIX
apiVersion          : 
test filename       : /beegfs/lgouveia/ior_4/testFile1
access              : single-shared-file
type                : independent
segments            : 1
ordering in a file  : sequential
ordering inter file : no tasks offsets
nodes               : 32
tasks               : 256
clients per node    : 8
repetitions         : 1
xfersize            : 1 MiB
blocksize           : 128 MiB
aggregate filesize  : 32 GiB

Results: 
WARNING: The file "/beegfs/lgouveia/ior_4/testFile1" exists already and will be overwritten

access    bw(MiB/s)  IOPS       Latency(s)  block(KiB) xfer(KiB)  open(s)    wr/rd(s)   close(s)   total(s)   iter
------    ---------  ----       ----------  ---------- ---------  --------   --------   --------   --------   ----
write     5574       5576       0.043066    131072     1024.00    0.437390   5.88       5.06       5.88       0   

Summary of all tests:
Operation   Max(MiB)   Min(MiB)  Mean(MiB)     StdDev   Max(OPs)   Min(OPs)  Mean(OPs)     StdDev    Mean(s) Stonewall(s) Stonewall(MiB) Test# #Tasks tPN reps fPP reord reordoff reordrand seed segcnt   blksiz    xsize aggs(MiB)   API RefNum
write        5574.42    5574.42    5574.42       0.00    5574.42    5574.42    5574.42       0.00    5.87828         NA            NA     0    256   8    1   0     0        1         0    0      1 134217728  1048576   32768.0 POSIX      0
Finished            : Sat Feb  5 14:59:11 2022
Tracking /beegfs/lgouveia/ior_4/testFile1...



Writing tracked information to tracker.csv...
IOR-3.4.0+dev: MPI Coordinated Test of Parallel I/O
Began               : Sat Feb  5 14:59:42 2022
Command line        : /home/lgouveia/ior/bin/ior -w -t 1m -b 128m -k -o /beegfs/lgouveia/ior_4/testFile1
Machine             : Linux bora007.plafrim.cluster
TestID              : 0
StartTime           : Sat Feb  5 14:59:42 2022
Path                : /beegfs/lgouveia/ior_4/testFile1
FS                  : 130.9 TiB   Used FS: 37.1%   Inodes: 0.0 Mi   Used Inodes: -nan%

Options: 
api                 : POSIX
apiVersion          : 
test filename       : /beegfs/lgouveia/ior_4/testFile1
access              : single-shared-file
type                : independent
segments            : 1
ordering in a file  : sequential
ordering inter file : no tasks offsets
nodes               : 32
tasks               : 256
clients per node    : 8
repetitions         : 1
xfersize            : 1 MiB
blocksize           : 128 MiB
aggregate filesize  : 32 GiB

Results: 
WARNING: The file "/beegfs/lgouveia/ior_4/testFile1" exists already and will be overwritten

access    bw(MiB/s)  IOPS       Latency(s)  block(KiB) xfer(KiB)  open(s)    wr/rd(s)   close(s)   total(s)   iter
------    ---------  ----       ----------  ---------- ---------  --------   --------   --------   --------   ----
write     5941       5942       0.017892    131072     1024.00    0.456003   5.51       4.74       5.52       0   

Summary of all tests:
Operation   Max(MiB)   Min(MiB)  Mean(MiB)     StdDev   Max(OPs)   Min(OPs)  Mean(OPs)     StdDev    Mean(s) Stonewall(s) Stonewall(MiB) Test# #Tasks tPN reps fPP reord reordoff reordrand seed segcnt   blksiz    xsize aggs(MiB)   API RefNum
write        5941.16    5941.16    5941.16       0.00    5941.16    5941.16    5941.16       0.00    5.51542         NA            NA     0    256   8    1   0     0        1         0    0      1 134217728  1048576   32768.0 POSIX      0
Finished            : Sat Feb  5 14:59:48 2022
Tracking /beegfs/lgouveia/ior_4/testFile1...



Writing tracked information to tracker.csv...
IOR-3.4.0+dev: MPI Coordinated Test of Parallel I/O
Began               : Sat Feb  5 15:00:20 2022
Command line        : /home/lgouveia/ior/bin/ior -w -t 1m -b 128m -k -o /beegfs/lgouveia/ior_4/testFile1
Machine             : Linux bora007.plafrim.cluster
TestID              : 0
StartTime           : Sat Feb  5 15:00:20 2022
Path                : /beegfs/lgouveia/ior_4/testFile1
FS                  : 130.9 TiB   Used FS: 37.1%   Inodes: 0.0 Mi   Used Inodes: -nan%

Options: 
api                 : POSIX
apiVersion          : 
test filename       : /beegfs/lgouveia/ior_4/testFile1
access              : single-shared-file
type                : independent
segments            : 1
ordering in a file  : sequential
ordering inter file : no tasks offsets
nodes               : 32
tasks               : 256
clients per node    : 8
repetitions         : 1
xfersize            : 1 MiB
blocksize           : 128 MiB
aggregate filesize  : 32 GiB

Results: 
WARNING: The file "/beegfs/lgouveia/ior_4/testFile1" exists already and will be overwritten

access    bw(MiB/s)  IOPS       Latency(s)  block(KiB) xfer(KiB)  open(s)    wr/rd(s)   close(s)   total(s)   iter
------    ---------  ----       ----------  ---------- ---------  --------   --------   --------   --------   ----
write     5829       5830       0.034531    131072     1024.00    0.341279   5.62       4.87       5.62       0   

Summary of all tests:
Operation   Max(MiB)   Min(MiB)  Mean(MiB)     StdDev   Max(OPs)   Min(OPs)  Mean(OPs)     StdDev    Mean(s) Stonewall(s) Stonewall(MiB) Test# #Tasks tPN reps fPP reord reordoff reordrand seed segcnt   blksiz    xsize aggs(MiB)   API RefNum
write        5828.91    5828.91    5828.91       0.00    5828.91    5828.91    5828.91       0.00    5.62163         NA            NA     0    256   8    1   0     0        1         0    0      1 134217728  1048576   32768.0 POSIX      0
Finished            : Sat Feb  5 15:00:25 2022
Tracking /beegfs/lgouveia/ior_4/testFile1...



Writing tracked information to tracker.csv...
IOR-3.4.0+dev: MPI Coordinated Test of Parallel I/O
Began               : Sat Feb  5 15:00:57 2022
Command line        : /home/lgouveia/ior/bin/ior -w -t 1m -b 128m -k -o /beegfs/lgouveia/ior_4/testFile1
Machine             : Linux bora007.plafrim.cluster
TestID              : 0
StartTime           : Sat Feb  5 15:00:57 2022
Path                : /beegfs/lgouveia/ior_4/testFile1
FS                  : 130.9 TiB   Used FS: 37.1%   Inodes: 0.0 Mi   Used Inodes: -nan%

Options: 
api                 : POSIX
apiVersion          : 
test filename       : /beegfs/lgouveia/ior_4/testFile1
access              : single-shared-file
type                : independent
segments            : 1
ordering in a file  : sequential
ordering inter file : no tasks offsets
nodes               : 32
tasks               : 256
clients per node    : 8
repetitions         : 1
xfersize            : 1 MiB
blocksize           : 128 MiB
aggregate filesize  : 32 GiB

Results: 
WARNING: The file "/beegfs/lgouveia/ior_4/testFile1" exists already and will be overwritten

access    bw(MiB/s)  IOPS       Latency(s)  block(KiB) xfer(KiB)  open(s)    wr/rd(s)   close(s)   total(s)   iter
------    ---------  ----       ----------  ---------- ---------  --------   --------   --------   --------   ----
write     6120       6122       0.033831    131072     1024.00    0.509893   5.35       4.49       5.35       0   

Summary of all tests:
Operation   Max(MiB)   Min(MiB)  Mean(MiB)     StdDev   Max(OPs)   Min(OPs)  Mean(OPs)     StdDev    Mean(s) Stonewall(s) Stonewall(MiB) Test# #Tasks tPN reps fPP reord reordoff reordrand seed segcnt   blksiz    xsize aggs(MiB)   API RefNum
write        6120.02    6120.02    6120.02       0.00    6120.02    6120.02    6120.02       0.00    5.35423         NA            NA     0    256   8    1   0     0        1         0    0      1 134217728  1048576   32768.0 POSIX      0
Finished            : Sat Feb  5 15:01:03 2022
Tracking /beegfs/lgouveia/ior_4/testFile1...



Writing tracked information to tracker.csv...
