===== My JOB Information ====
Node List:  miriel[028-031]
my jobID:  1466549
Partition: routage
submit directory:  /home/lgouveia/luan-teylo/tests/ethernet/scalability_model/file_size/06
submit host:  devel02.plafrim.cluster
In the directory: /home/lgouveia/luan-teylo/tests/ethernet/scalability_model/file_size/06
As the user: lgouveia
============================
IOR-3.4.0+dev: MPI Coordinated Test of Parallel I/O
Began               : Mon Dec 13 23:09:08 2021
Command line        : /home/lgouveia/ior/bin/ior -w -t 1m -b 256m -k -o /beegfs/lgouveia/ior_4/testFile1
Machine             : Linux miriel028.plafrim.cluster
TestID              : 0
StartTime           : Mon Dec 13 23:09:08 2021
Path                : /beegfs/lgouveia/ior_4/testFile1
FS                  : 130.9 TiB   Used FS: 35.8%   Inodes: 0.0 Mi   Used Inodes: -nan%

Options: 
api                 : POSIX
apiVersion          : 
test filename       : /beegfs/lgouveia/ior_4/testFile1
access              : single-shared-file
type                : independent
segments            : 1
ordering in a file  : sequential
ordering inter file : no tasks offsets
nodes               : 4
tasks               : 32
clients per node    : 8
repetitions         : 1
xfersize            : 1 MiB
blocksize           : 256 MiB
aggregate filesize  : 8 GiB

Results: 
WARNING: The file "/beegfs/lgouveia/ior_4/testFile1" exists already and will be overwritten

access    bw(MiB/s)  IOPS       Latency(s)  block(KiB) xfer(KiB)  open(s)    wr/rd(s)   close(s)   total(s)   iter
------    ---------  ----       ----------  ---------- ---------  --------   --------   --------   --------   ----
write     1447.77    1447.98    0.017160    262144     1024.00    0.004844   5.66       4.84       5.66       0   

Summary of all tests:
Operation   Max(MiB)   Min(MiB)  Mean(MiB)     StdDev   Max(OPs)   Min(OPs)  Mean(OPs)     StdDev    Mean(s) Stonewall(s) Stonewall(MiB) Test# #Tasks tPN reps fPP reord reordoff reordrand seed segcnt   blksiz    xsize aggs(MiB)   API RefNum
write        1447.77    1447.77    1447.77       0.00    1447.77    1447.77    1447.77       0.00    5.65835         NA            NA     0     32   8    1   0     0        1         0    0      1 268435456  1048576    8192.0 POSIX      0
Finished            : Mon Dec 13 23:09:13 2021
Tracking /beegfs/lgouveia/ior_4/testFile1...



Writing tracked information to tracker.csv...
IOR-3.4.0+dev: MPI Coordinated Test of Parallel I/O
Began               : Mon Dec 13 23:10:14 2021
Command line        : /home/lgouveia/ior/bin/ior -w -t 1m -b 256m -k -o /beegfs/lgouveia/ior_4/testFile1
Machine             : Linux miriel028.plafrim.cluster
TestID              : 0
StartTime           : Mon Dec 13 23:10:14 2021
Path                : /beegfs/lgouveia/ior_4/testFile1
FS                  : 130.9 TiB   Used FS: 35.8%   Inodes: 0.0 Mi   Used Inodes: -nan%

Options: 
api                 : POSIX
apiVersion          : 
test filename       : /beegfs/lgouveia/ior_4/testFile1
access              : single-shared-file
type                : independent
segments            : 1
ordering in a file  : sequential
ordering inter file : no tasks offsets
nodes               : 4
tasks               : 32
clients per node    : 8
repetitions         : 1
xfersize            : 1 MiB
blocksize           : 256 MiB
aggregate filesize  : 8 GiB

Results: 
WARNING: The file "/beegfs/lgouveia/ior_4/testFile1" exists already and will be overwritten

access    bw(MiB/s)  IOPS       Latency(s)  block(KiB) xfer(KiB)  open(s)    wr/rd(s)   close(s)   total(s)   iter
------    ---------  ----       ----------  ---------- ---------  --------   --------   --------   --------   ----
write     1434.31    1434.47    0.019362    262144     1024.00    0.005670   5.71       4.91       5.71       0   

Summary of all tests:
Operation   Max(MiB)   Min(MiB)  Mean(MiB)     StdDev   Max(OPs)   Min(OPs)  Mean(OPs)     StdDev    Mean(s) Stonewall(s) Stonewall(MiB) Test# #Tasks tPN reps fPP reord reordoff reordrand seed segcnt   blksiz    xsize aggs(MiB)   API RefNum
write        1434.31    1434.31    1434.31       0.00    1434.31    1434.31    1434.31       0.00    5.71145         NA            NA     0     32   8    1   0     0        1         0    0      1 268435456  1048576    8192.0 POSIX      0
Finished            : Mon Dec 13 23:10:20 2021
Tracking /beegfs/lgouveia/ior_4/testFile1...



Writing tracked information to tracker.csv...
IOR-3.4.0+dev: MPI Coordinated Test of Parallel I/O
Began               : Mon Dec 13 23:11:20 2021
Command line        : /home/lgouveia/ior/bin/ior -w -t 1m -b 256m -k -o /beegfs/lgouveia/ior_4/testFile1
Machine             : Linux miriel028.plafrim.cluster
TestID              : 0
StartTime           : Mon Dec 13 23:11:20 2021
Path                : /beegfs/lgouveia/ior_4/testFile1
FS                  : 130.9 TiB   Used FS: 35.8%   Inodes: 0.0 Mi   Used Inodes: -nan%

Options: 
api                 : POSIX
apiVersion          : 
test filename       : /beegfs/lgouveia/ior_4/testFile1
access              : single-shared-file
type                : independent
segments            : 1
ordering in a file  : sequential
ordering inter file : no tasks offsets
nodes               : 4
tasks               : 32
clients per node    : 8
repetitions         : 1
xfersize            : 1 MiB
blocksize           : 256 MiB
aggregate filesize  : 8 GiB

Results: 
WARNING: The file "/beegfs/lgouveia/ior_4/testFile1" exists already and will be overwritten

access    bw(MiB/s)  IOPS       Latency(s)  block(KiB) xfer(KiB)  open(s)    wr/rd(s)   close(s)   total(s)   iter
------    ---------  ----       ----------  ---------- ---------  --------   --------   --------   --------   ----
write     1442.64    1442.85    0.022155    262144     1024.00    0.004916   5.68       4.92       5.68       0   

Summary of all tests:
Operation   Max(MiB)   Min(MiB)  Mean(MiB)     StdDev   Max(OPs)   Min(OPs)  Mean(OPs)     StdDev    Mean(s) Stonewall(s) Stonewall(MiB) Test# #Tasks tPN reps fPP reord reordoff reordrand seed segcnt   blksiz    xsize aggs(MiB)   API RefNum
write        1442.64    1442.64    1442.64       0.00    1442.64    1442.64    1442.64       0.00    5.67847         NA            NA     0     32   8    1   0     0        1         0    0      1 268435456  1048576    8192.0 POSIX      0
Finished            : Mon Dec 13 23:11:26 2021
Tracking /beegfs/lgouveia/ior_4/testFile1...



Writing tracked information to tracker.csv...
IOR-3.4.0+dev: MPI Coordinated Test of Parallel I/O
Began               : Mon Dec 13 23:12:27 2021
Command line        : /home/lgouveia/ior/bin/ior -w -t 1m -b 256m -k -o /beegfs/lgouveia/ior_4/testFile1
Machine             : Linux miriel028.plafrim.cluster
TestID              : 0
StartTime           : Mon Dec 13 23:12:27 2021
Path                : /beegfs/lgouveia/ior_4/testFile1
FS                  : 130.9 TiB   Used FS: 35.8%   Inodes: 0.0 Mi   Used Inodes: -nan%

Options: 
api                 : POSIX
apiVersion          : 
test filename       : /beegfs/lgouveia/ior_4/testFile1
access              : single-shared-file
type                : independent
segments            : 1
ordering in a file  : sequential
ordering inter file : no tasks offsets
nodes               : 4
tasks               : 32
clients per node    : 8
repetitions         : 1
xfersize            : 1 MiB
blocksize           : 256 MiB
aggregate filesize  : 8 GiB

Results: 
WARNING: The file "/beegfs/lgouveia/ior_4/testFile1" exists already and will be overwritten

access    bw(MiB/s)  IOPS       Latency(s)  block(KiB) xfer(KiB)  open(s)    wr/rd(s)   close(s)   total(s)   iter
------    ---------  ----       ----------  ---------- ---------  --------   --------   --------   --------   ----
write     1420.48    1420.73    0.017053    262144     1024.00    0.006442   5.77       4.89       5.77       0   

Summary of all tests:
Operation   Max(MiB)   Min(MiB)  Mean(MiB)     StdDev   Max(OPs)   Min(OPs)  Mean(OPs)     StdDev    Mean(s) Stonewall(s) Stonewall(MiB) Test# #Tasks tPN reps fPP reord reordoff reordrand seed segcnt   blksiz    xsize aggs(MiB)   API RefNum
write        1420.48    1420.48    1420.48       0.00    1420.48    1420.48    1420.48       0.00    5.76707         NA            NA     0     32   8    1   0     0        1         0    0      1 268435456  1048576    8192.0 POSIX      0
Finished            : Mon Dec 13 23:12:33 2021
Tracking /beegfs/lgouveia/ior_4/testFile1...



Writing tracked information to tracker.csv...
IOR-3.4.0+dev: MPI Coordinated Test of Parallel I/O
Began               : Mon Dec 13 23:13:33 2021
Command line        : /home/lgouveia/ior/bin/ior -w -t 1m -b 256m -k -o /beegfs/lgouveia/ior_4/testFile1
Machine             : Linux miriel028.plafrim.cluster
TestID              : 0
StartTime           : Mon Dec 13 23:13:33 2021
Path                : /beegfs/lgouveia/ior_4/testFile1
FS                  : 130.9 TiB   Used FS: 35.8%   Inodes: 0.0 Mi   Used Inodes: -nan%

Options: 
api                 : POSIX
apiVersion          : 
test filename       : /beegfs/lgouveia/ior_4/testFile1
access              : single-shared-file
type                : independent
segments            : 1
ordering in a file  : sequential
ordering inter file : no tasks offsets
nodes               : 4
tasks               : 32
clients per node    : 8
repetitions         : 1
xfersize            : 1 MiB
blocksize           : 256 MiB
aggregate filesize  : 8 GiB

Results: 
WARNING: The file "/beegfs/lgouveia/ior_4/testFile1" exists already and will be overwritten

access    bw(MiB/s)  IOPS       Latency(s)  block(KiB) xfer(KiB)  open(s)    wr/rd(s)   close(s)   total(s)   iter
------    ---------  ----       ----------  ---------- ---------  --------   --------   --------   --------   ----
write     1386.84    1387.03    0.012317    262144     1024.00    0.005478   5.91       4.95       5.91       0   

Summary of all tests:
Operation   Max(MiB)   Min(MiB)  Mean(MiB)     StdDev   Max(OPs)   Min(OPs)  Mean(OPs)     StdDev    Mean(s) Stonewall(s) Stonewall(MiB) Test# #Tasks tPN reps fPP reord reordoff reordrand seed segcnt   blksiz    xsize aggs(MiB)   API RefNum
write        1386.84    1386.84    1386.84       0.00    1386.84    1386.84    1386.84       0.00    5.90698         NA            NA     0     32   8    1   0     0        1         0    0      1 268435456  1048576    8192.0 POSIX      0
Finished            : Mon Dec 13 23:13:39 2021
Tracking /beegfs/lgouveia/ior_4/testFile1...



Writing tracked information to tracker.csv...
IOR-3.4.0+dev: MPI Coordinated Test of Parallel I/O
Began               : Mon Dec 13 23:14:40 2021
Command line        : /home/lgouveia/ior/bin/ior -w -t 1m -b 256m -k -o /beegfs/lgouveia/ior_4/testFile1
Machine             : Linux miriel028.plafrim.cluster
TestID              : 0
StartTime           : Mon Dec 13 23:14:40 2021
Path                : /beegfs/lgouveia/ior_4/testFile1
FS                  : 130.9 TiB   Used FS: 35.8%   Inodes: 0.0 Mi   Used Inodes: -nan%

Options: 
api                 : POSIX
apiVersion          : 
test filename       : /beegfs/lgouveia/ior_4/testFile1
access              : single-shared-file
type                : independent
segments            : 1
ordering in a file  : sequential
ordering inter file : no tasks offsets
nodes               : 4
tasks               : 32
clients per node    : 8
repetitions         : 1
xfersize            : 1 MiB
blocksize           : 256 MiB
aggregate filesize  : 8 GiB

Results: 
WARNING: The file "/beegfs/lgouveia/ior_4/testFile1" exists already and will be overwritten

access    bw(MiB/s)  IOPS       Latency(s)  block(KiB) xfer(KiB)  open(s)    wr/rd(s)   close(s)   total(s)   iter
------    ---------  ----       ----------  ---------- ---------  --------   --------   --------   --------   ----
write     1416.95    1417.15    0.003643    262144     1024.00    0.005855   5.78       4.92       5.78       0   

Summary of all tests:
Operation   Max(MiB)   Min(MiB)  Mean(MiB)     StdDev   Max(OPs)   Min(OPs)  Mean(OPs)     StdDev    Mean(s) Stonewall(s) Stonewall(MiB) Test# #Tasks tPN reps fPP reord reordoff reordrand seed segcnt   blksiz    xsize aggs(MiB)   API RefNum
write        1416.95    1416.95    1416.95       0.00    1416.95    1416.95    1416.95       0.00    5.78143         NA            NA     0     32   8    1   0     0        1         0    0      1 268435456  1048576    8192.0 POSIX      0
Finished            : Mon Dec 13 23:14:46 2021
Tracking /beegfs/lgouveia/ior_4/testFile1...



Writing tracked information to tracker.csv...
IOR-3.4.0+dev: MPI Coordinated Test of Parallel I/O
Began               : Mon Dec 13 23:15:46 2021
Command line        : /home/lgouveia/ior/bin/ior -w -t 1m -b 256m -k -o /beegfs/lgouveia/ior_4/testFile1
Machine             : Linux miriel028.plafrim.cluster
TestID              : 0
StartTime           : Mon Dec 13 23:15:46 2021
Path                : /beegfs/lgouveia/ior_4/testFile1
FS                  : 130.9 TiB   Used FS: 35.8%   Inodes: 0.0 Mi   Used Inodes: -nan%

Options: 
api                 : POSIX
apiVersion          : 
test filename       : /beegfs/lgouveia/ior_4/testFile1
access              : single-shared-file
type                : independent
segments            : 1
ordering in a file  : sequential
ordering inter file : no tasks offsets
nodes               : 4
tasks               : 32
clients per node    : 8
repetitions         : 1
xfersize            : 1 MiB
blocksize           : 256 MiB
aggregate filesize  : 8 GiB

Results: 
WARNING: The file "/beegfs/lgouveia/ior_4/testFile1" exists already and will be overwritten

access    bw(MiB/s)  IOPS       Latency(s)  block(KiB) xfer(KiB)  open(s)    wr/rd(s)   close(s)   total(s)   iter
------    ---------  ----       ----------  ---------- ---------  --------   --------   --------   --------   ----
write     1442.66    1442.88    0.017418    262144     1024.00    0.004958   5.68       4.85       5.68       0   

Summary of all tests:
Operation   Max(MiB)   Min(MiB)  Mean(MiB)     StdDev   Max(OPs)   Min(OPs)  Mean(OPs)     StdDev    Mean(s) Stonewall(s) Stonewall(MiB) Test# #Tasks tPN reps fPP reord reordoff reordrand seed segcnt   blksiz    xsize aggs(MiB)   API RefNum
write        1442.66    1442.66    1442.66       0.00    1442.66    1442.66    1442.66       0.00    5.67839         NA            NA     0     32   8    1   0     0        1         0    0      1 268435456  1048576    8192.0 POSIX      0
Finished            : Mon Dec 13 23:15:52 2021
Tracking /beegfs/lgouveia/ior_4/testFile1...



Writing tracked information to tracker.csv...
IOR-3.4.0+dev: MPI Coordinated Test of Parallel I/O
Began               : Mon Dec 13 23:16:53 2021
Command line        : /home/lgouveia/ior/bin/ior -w -t 1m -b 256m -k -o /beegfs/lgouveia/ior_4/testFile1
Machine             : Linux miriel028.plafrim.cluster
TestID              : 0
StartTime           : Mon Dec 13 23:16:53 2021
Path                : /beegfs/lgouveia/ior_4/testFile1
FS                  : 130.9 TiB   Used FS: 35.8%   Inodes: 0.0 Mi   Used Inodes: -nan%

Options: 
api                 : POSIX
apiVersion          : 
test filename       : /beegfs/lgouveia/ior_4/testFile1
access              : single-shared-file
type                : independent
segments            : 1
ordering in a file  : sequential
ordering inter file : no tasks offsets
nodes               : 4
tasks               : 32
clients per node    : 8
repetitions         : 1
xfersize            : 1 MiB
blocksize           : 256 MiB
aggregate filesize  : 8 GiB

Results: 
WARNING: The file "/beegfs/lgouveia/ior_4/testFile1" exists already and will be overwritten

access    bw(MiB/s)  IOPS       Latency(s)  block(KiB) xfer(KiB)  open(s)    wr/rd(s)   close(s)   total(s)   iter
------    ---------  ----       ----------  ---------- ---------  --------   --------   --------   --------   ----
write     1412.87    1413.16    0.003563    262144     1024.00    0.005523   5.80       4.90       5.80       0   

Summary of all tests:
Operation   Max(MiB)   Min(MiB)  Mean(MiB)     StdDev   Max(OPs)   Min(OPs)  Mean(OPs)     StdDev    Mean(s) Stonewall(s) Stonewall(MiB) Test# #Tasks tPN reps fPP reord reordoff reordrand seed segcnt   blksiz    xsize aggs(MiB)   API RefNum
write        1412.87    1412.87    1412.87       0.00    1412.87    1412.87    1412.87       0.00    5.79811         NA            NA     0     32   8    1   0     0        1         0    0      1 268435456  1048576    8192.0 POSIX      0
Finished            : Mon Dec 13 23:16:58 2021
Tracking /beegfs/lgouveia/ior_4/testFile1...



Writing tracked information to tracker.csv...
IOR-3.4.0+dev: MPI Coordinated Test of Parallel I/O
Began               : Mon Dec 13 23:17:59 2021
Command line        : /home/lgouveia/ior/bin/ior -w -t 1m -b 256m -k -o /beegfs/lgouveia/ior_4/testFile1
Machine             : Linux miriel028.plafrim.cluster
TestID              : 0
StartTime           : Mon Dec 13 23:17:59 2021
Path                : /beegfs/lgouveia/ior_4/testFile1
FS                  : 130.9 TiB   Used FS: 35.8%   Inodes: 0.0 Mi   Used Inodes: -nan%

Options: 
api                 : POSIX
apiVersion          : 
test filename       : /beegfs/lgouveia/ior_4/testFile1
access              : single-shared-file
type                : independent
segments            : 1
ordering in a file  : sequential
ordering inter file : no tasks offsets
nodes               : 4
tasks               : 32
clients per node    : 8
repetitions         : 1
xfersize            : 1 MiB
blocksize           : 256 MiB
aggregate filesize  : 8 GiB

Results: 
WARNING: The file "/beegfs/lgouveia/ior_4/testFile1" exists already and will be overwritten

access    bw(MiB/s)  IOPS       Latency(s)  block(KiB) xfer(KiB)  open(s)    wr/rd(s)   close(s)   total(s)   iter
------    ---------  ----       ----------  ---------- ---------  --------   --------   --------   --------   ----
write     1439.47    1439.68    0.003277    262144     1024.00    0.005266   5.69       4.85       5.69       0   

Summary of all tests:
Operation   Max(MiB)   Min(MiB)  Mean(MiB)     StdDev   Max(OPs)   Min(OPs)  Mean(OPs)     StdDev    Mean(s) Stonewall(s) Stonewall(MiB) Test# #Tasks tPN reps fPP reord reordoff reordrand seed segcnt   blksiz    xsize aggs(MiB)   API RefNum
write        1439.47    1439.47    1439.47       0.00    1439.47    1439.47    1439.47       0.00    5.69098         NA            NA     0     32   8    1   0     0        1         0    0      1 268435456  1048576    8192.0 POSIX      0
Finished            : Mon Dec 13 23:18:05 2021
Tracking /beegfs/lgouveia/ior_4/testFile1...



Writing tracked information to tracker.csv...
IOR-3.4.0+dev: MPI Coordinated Test of Parallel I/O
Began               : Mon Dec 13 23:19:06 2021
Command line        : /home/lgouveia/ior/bin/ior -w -t 1m -b 256m -k -o /beegfs/lgouveia/ior_4/testFile1
Machine             : Linux miriel028.plafrim.cluster
TestID              : 0
StartTime           : Mon Dec 13 23:19:06 2021
Path                : /beegfs/lgouveia/ior_4/testFile1
FS                  : 130.9 TiB   Used FS: 35.8%   Inodes: 0.0 Mi   Used Inodes: -nan%

Options: 
api                 : POSIX
apiVersion          : 
test filename       : /beegfs/lgouveia/ior_4/testFile1
access              : single-shared-file
type                : independent
segments            : 1
ordering in a file  : sequential
ordering inter file : no tasks offsets
nodes               : 4
tasks               : 32
clients per node    : 8
repetitions         : 1
xfersize            : 1 MiB
blocksize           : 256 MiB
aggregate filesize  : 8 GiB

Results: 
WARNING: The file "/beegfs/lgouveia/ior_4/testFile1" exists already and will be overwritten

access    bw(MiB/s)  IOPS       Latency(s)  block(KiB) xfer(KiB)  open(s)    wr/rd(s)   close(s)   total(s)   iter
------    ---------  ----       ----------  ---------- ---------  --------   --------   --------   --------   ----
write     1400.17    1400.39    0.003521    262144     1024.00    0.006465   5.85       4.95       5.85       0   

Summary of all tests:
Operation   Max(MiB)   Min(MiB)  Mean(MiB)     StdDev   Max(OPs)   Min(OPs)  Mean(OPs)     StdDev    Mean(s) Stonewall(s) Stonewall(MiB) Test# #Tasks tPN reps fPP reord reordoff reordrand seed segcnt   blksiz    xsize aggs(MiB)   API RefNum
write        1400.17    1400.17    1400.17       0.00    1400.17    1400.17    1400.17       0.00    5.85074         NA            NA     0     32   8    1   0     0        1         0    0      1 268435456  1048576    8192.0 POSIX      0
Finished            : Mon Dec 13 23:19:11 2021
Tracking /beegfs/lgouveia/ior_4/testFile1...



Writing tracked information to tracker.csv...
