tracker_id,tracker_timestamp,file,size,ctime,mtime,storage_targets
0aa193a2,1643970338.415236,/beegfs/lgouveia/ior_4/testFile1,34359738368,1643970337.0,1643970337.0,203 202 204 101
a3011fa1,1643970408.744112,/beegfs/lgouveia/ior_4/testFile1,34359738368,1643970408.0,1643970408.0,104 103 201 102
af0ad372,1643970478.219878,/beegfs/lgouveia/ior_4/testFile1,34359738368,1643970477.0,1643970477.0,202 203 101 204
7747cf65,1643970547.776941,/beegfs/lgouveia/ior_4/testFile1,34359738368,1643970547.0,1643970547.0,104 201 103 102
421c717b,1643970616.784301,/beegfs/lgouveia/ior_4/testFile1,34359738368,1643970616.0,1643970616.0,201 102 103 104
95f0d08f,1643972250.245916,/beegfs/lgouveia/ior_4/testFile1,34359738368,1643972249.0,1643972249.0,104 103 201 102
861bdc7c,1643972317.087206,/beegfs/lgouveia/ior_4/testFile1,34359738368,1643972316.0,1643972316.0,102 103 104 201
cd049f9b,1643972384.439843,/beegfs/lgouveia/ior_4/testFile1,34359738368,1643972384.0,1643972384.0,201 104 103 102
4b2a68f9,1643972453.064393,/beegfs/lgouveia/ior_4/testFile1,34359738368,1643972452.0,1643972452.0,104 102 201 103
c6121d49,1643972521.794144,/beegfs/lgouveia/ior_4/testFile1,34359738368,1643972521.0,1643972521.0,201 104 102 103
f0fb1b1f,1643974867.082265,/beegfs/lgouveia/ior_4/testFile1,34359738368,1643974866.0,1643974866.0,104 103 201 102
ff7ae2a6,1643974933.997071,/beegfs/lgouveia/ior_4/testFile1,34359738368,1643974933.0,1643974933.0,204 203 202 101
87f39922,1643975000.684627,/beegfs/lgouveia/ior_4/testFile1,34359738368,1643975000.0,1643975000.0,201 102 104 103
64c75fee,1643975067.314925,/beegfs/lgouveia/ior_4/testFile1,34359738368,1643975066.0,1643975066.0,202 204 203 101
6b3dbc29,1643975133.998109,/beegfs/lgouveia/ior_4/testFile1,34359738368,1643975133.0,1643975133.0,102 201 104 103
d707e012,1643978925.00016,/beegfs/lgouveia/ior_4/testFile1,34359738368,1643978924.0,1643978924.0,201 104 102 103
432ae531,1643978991.187832,/beegfs/lgouveia/ior_4/testFile1,34359738368,1643978990.0,1643978990.0,102 201 103 104
c060f2b4,1643979057.853556,/beegfs/lgouveia/ior_4/testFile1,34359738368,1643979057.0,1643979057.0,204 202 203 101
006099c8,1643979124.065868,/beegfs/lgouveia/ior_4/testFile1,34359738368,1643979123.0,1643979123.0,101 204 202 203
7af1beb0,1643979190.899977,/beegfs/lgouveia/ior_4/testFile1,34359738368,1643979190.0,1643979190.0,104 201 103 102
2a3f9fe9,1643979571.062353,/beegfs/lgouveia/ior_4/testFile1,34359738368,1643979570.0,1643979570.0,204 101 202 203
feebf2a2,1643979637.571664,/beegfs/lgouveia/ior_4/testFile1,34359738368,1643979637.0,1643979637.0,201 103 104 102
22819fcf,1643979704.452867,/beegfs/lgouveia/ior_4/testFile1,34359738368,1643979704.0,1643979704.0,203 101 202 204
d9fd3fb7,1643979771.080807,/beegfs/lgouveia/ior_4/testFile1,34359738368,1643979770.0,1643979770.0,103 104 201 102
5d9c4b43,1643979838.094205,/beegfs/lgouveia/ior_4/testFile1,34359738368,1643979837.0,1643979837.0,103 201 104 102
