===== My JOB Information ====
Node List:  bora[001-004]
my jobID:  1472555
Partition: routage
submit directory:  /home/lgouveia/luan-teylo/tests/omnipath/compute_nodes/2_target/04
submit host:  devel02.plafrim.cluster
In the directory: /home/lgouveia/luan-teylo/tests/omnipath/compute_nodes/2_target/04
As the user: lgouveia
============================
IOR-3.4.0+dev: MPI Coordinated Test of Parallel I/O
Began               : Sat Jan 22 12:14:38 2022
Command line        : /home/lgouveia/ior/bin/ior -w -t 1m -b 1024m -k -o /beegfs/lgouveia/ior_2/testFile1
Machine             : Linux bora001.plafrim.cluster
TestID              : 0
StartTime           : Sat Jan 22 12:14:38 2022
Path                : /beegfs/lgouveia/ior_2/testFile1
FS                  : 130.9 TiB   Used FS: 36.6%   Inodes: 0.0 Mi   Used Inodes: -nan%

Options: 
api                 : POSIX
apiVersion          : 
test filename       : /beegfs/lgouveia/ior_2/testFile1
access              : single-shared-file
type                : independent
segments            : 1
ordering in a file  : sequential
ordering inter file : no tasks offsets
nodes               : 4
tasks               : 32
clients per node    : 8
repetitions         : 1
xfersize            : 1 MiB
blocksize           : 1 GiB
aggregate filesize  : 32 GiB

Results: 
WARNING: The file "/beegfs/lgouveia/ior_2/testFile1" exists already and will be overwritten

access    bw(MiB/s)  IOPS       Latency(s)  block(KiB) xfer(KiB)  open(s)    wr/rd(s)   close(s)   total(s)   iter
------    ---------  ----       ----------  ---------- ---------  --------   --------   --------   --------   ----
write     3068.00    3068.37    0.009079    1048576    1024.00    0.005712   10.68      9.54       10.68      0   

Summary of all tests:
Operation   Max(MiB)   Min(MiB)  Mean(MiB)     StdDev   Max(OPs)   Min(OPs)  Mean(OPs)     StdDev    Mean(s) Stonewall(s) Stonewall(MiB) Test# #Tasks tPN reps fPP reord reordoff reordrand seed segcnt   blksiz    xsize aggs(MiB)   API RefNum
write        3068.00    3068.00    3068.00       0.00    3068.00    3068.00    3068.00       0.00   10.68058         NA            NA     0     32   8    1   0     0        1         0    0      1 1073741824  1048576   32768.0 POSIX      0
Finished            : Sat Jan 22 12:14:48 2022
Tracking /beegfs/lgouveia/ior_2/testFile1...
Tracking /beegfs/lgouveia/ior_2/testFileApp_2...
Tracking /beegfs/lgouveia/ior_2/testFileApp_1...



Writing tracked information to tracker.csv...
IOR-3.4.0+dev: MPI Coordinated Test of Parallel I/O
Began               : Sat Jan 22 12:15:50 2022
Command line        : /home/lgouveia/ior/bin/ior -w -t 1m -b 1024m -k -o /beegfs/lgouveia/ior_2/testFile1
Machine             : Linux bora001.plafrim.cluster
TestID              : 0
StartTime           : Sat Jan 22 12:15:50 2022
Path                : /beegfs/lgouveia/ior_2/testFile1
FS                  : 130.9 TiB   Used FS: 36.6%   Inodes: 0.0 Mi   Used Inodes: -nan%

Options: 
api                 : POSIX
apiVersion          : 
test filename       : /beegfs/lgouveia/ior_2/testFile1
access              : single-shared-file
type                : independent
segments            : 1
ordering in a file  : sequential
ordering inter file : no tasks offsets
nodes               : 4
tasks               : 32
clients per node    : 8
repetitions         : 1
xfersize            : 1 MiB
blocksize           : 1 GiB
aggregate filesize  : 32 GiB

Results: 
WARNING: The file "/beegfs/lgouveia/ior_2/testFile1" exists already and will be overwritten

access    bw(MiB/s)  IOPS       Latency(s)  block(KiB) xfer(KiB)  open(s)    wr/rd(s)   close(s)   total(s)   iter
------    ---------  ----       ----------  ---------- ---------  --------   --------   --------   --------   ----
write     3247.16    3247.52    0.004514    1048576    1024.00    0.005591   10.09      8.78       10.09      0   

Summary of all tests:
Operation   Max(MiB)   Min(MiB)  Mean(MiB)     StdDev   Max(OPs)   Min(OPs)  Mean(OPs)     StdDev    Mean(s) Stonewall(s) Stonewall(MiB) Test# #Tasks tPN reps fPP reord reordoff reordrand seed segcnt   blksiz    xsize aggs(MiB)   API RefNum
write        3247.16    3247.16    3247.16       0.00    3247.16    3247.16    3247.16       0.00   10.09127         NA            NA     0     32   8    1   0     0        1         0    0      1 1073741824  1048576   32768.0 POSIX      0
Finished            : Sat Jan 22 12:16:00 2022
Tracking /beegfs/lgouveia/ior_2/testFile1...
Tracking /beegfs/lgouveia/ior_2/testFileApp_2...
Tracking /beegfs/lgouveia/ior_2/testFileApp_1...



Writing tracked information to tracker.csv...
IOR-3.4.0+dev: MPI Coordinated Test of Parallel I/O
Began               : Sat Jan 22 12:17:01 2022
Command line        : /home/lgouveia/ior/bin/ior -w -t 1m -b 1024m -k -o /beegfs/lgouveia/ior_2/testFile1
Machine             : Linux bora001.plafrim.cluster
TestID              : 0
StartTime           : Sat Jan 22 12:17:01 2022
Path                : /beegfs/lgouveia/ior_2/testFile1
FS                  : 130.9 TiB   Used FS: 36.6%   Inodes: 0.0 Mi   Used Inodes: -nan%

Options: 
api                 : POSIX
apiVersion          : 
test filename       : /beegfs/lgouveia/ior_2/testFile1
access              : single-shared-file
type                : independent
segments            : 1
ordering in a file  : sequential
ordering inter file : no tasks offsets
nodes               : 4
tasks               : 32
clients per node    : 8
repetitions         : 1
xfersize            : 1 MiB
blocksize           : 1 GiB
aggregate filesize  : 32 GiB

Results: 
WARNING: The file "/beegfs/lgouveia/ior_2/testFile1" exists already and will be overwritten

access    bw(MiB/s)  IOPS       Latency(s)  block(KiB) xfer(KiB)  open(s)    wr/rd(s)   close(s)   total(s)   iter
------    ---------  ----       ----------  ---------- ---------  --------   --------   --------   --------   ----
write     3973       3974       0.004038    1048576    1024.00    0.004760   8.25       7.03       8.25       0   

Summary of all tests:
Operation   Max(MiB)   Min(MiB)  Mean(MiB)     StdDev   Max(OPs)   Min(OPs)  Mean(OPs)     StdDev    Mean(s) Stonewall(s) Stonewall(MiB) Test# #Tasks tPN reps fPP reord reordoff reordrand seed segcnt   blksiz    xsize aggs(MiB)   API RefNum
write        3973.34    3973.34    3973.34       0.00    3973.34    3973.34    3973.34       0.00    8.24697         NA            NA     0     32   8    1   0     0        1         0    0      1 1073741824  1048576   32768.0 POSIX      0
Finished            : Sat Jan 22 12:17:09 2022
Tracking /beegfs/lgouveia/ior_2/testFile1...
Tracking /beegfs/lgouveia/ior_2/testFileApp_2...
Tracking /beegfs/lgouveia/ior_2/testFileApp_1...



Writing tracked information to tracker.csv...
IOR-3.4.0+dev: MPI Coordinated Test of Parallel I/O
Began               : Sat Jan 22 12:18:10 2022
Command line        : /home/lgouveia/ior/bin/ior -w -t 1m -b 1024m -k -o /beegfs/lgouveia/ior_2/testFile1
Machine             : Linux bora001.plafrim.cluster
TestID              : 0
StartTime           : Sat Jan 22 12:18:10 2022
Path                : /beegfs/lgouveia/ior_2/testFile1
FS                  : 130.9 TiB   Used FS: 36.6%   Inodes: 0.0 Mi   Used Inodes: -nan%

Options: 
api                 : POSIX
apiVersion          : 
test filename       : /beegfs/lgouveia/ior_2/testFile1
access              : single-shared-file
type                : independent
segments            : 1
ordering in a file  : sequential
ordering inter file : no tasks offsets
nodes               : 4
tasks               : 32
clients per node    : 8
repetitions         : 1
xfersize            : 1 MiB
blocksize           : 1 GiB
aggregate filesize  : 32 GiB

Results: 
WARNING: The file "/beegfs/lgouveia/ior_2/testFile1" exists already and will be overwritten

access    bw(MiB/s)  IOPS       Latency(s)  block(KiB) xfer(KiB)  open(s)    wr/rd(s)   close(s)   total(s)   iter
------    ---------  ----       ----------  ---------- ---------  --------   --------   --------   --------   ----
write     3152.94    3153.32    0.003579    1048576    1024.00    0.005219   10.39      9.22       10.39      0   

Summary of all tests:
Operation   Max(MiB)   Min(MiB)  Mean(MiB)     StdDev   Max(OPs)   Min(OPs)  Mean(OPs)     StdDev    Mean(s) Stonewall(s) Stonewall(MiB) Test# #Tasks tPN reps fPP reord reordoff reordrand seed segcnt   blksiz    xsize aggs(MiB)   API RefNum
write        3152.94    3152.94    3152.94       0.00    3152.94    3152.94    3152.94       0.00   10.39285         NA            NA     0     32   8    1   0     0        1         0    0      1 1073741824  1048576   32768.0 POSIX      0
Finished            : Sat Jan 22 12:18:20 2022
Tracking /beegfs/lgouveia/ior_2/testFile1...
Tracking /beegfs/lgouveia/ior_2/testFileApp_2...
Tracking /beegfs/lgouveia/ior_2/testFileApp_1...



Writing tracked information to tracker.csv...
IOR-3.4.0+dev: MPI Coordinated Test of Parallel I/O
Began               : Sat Jan 22 12:19:21 2022
Command line        : /home/lgouveia/ior/bin/ior -w -t 1m -b 1024m -k -o /beegfs/lgouveia/ior_2/testFile1
Machine             : Linux bora001.plafrim.cluster
TestID              : 0
StartTime           : Sat Jan 22 12:19:21 2022
Path                : /beegfs/lgouveia/ior_2/testFile1
FS                  : 130.9 TiB   Used FS: 36.6%   Inodes: 0.0 Mi   Used Inodes: -nan%

Options: 
api                 : POSIX
apiVersion          : 
test filename       : /beegfs/lgouveia/ior_2/testFile1
access              : single-shared-file
type                : independent
segments            : 1
ordering in a file  : sequential
ordering inter file : no tasks offsets
nodes               : 4
tasks               : 32
clients per node    : 8
repetitions         : 1
xfersize            : 1 MiB
blocksize           : 1 GiB
aggregate filesize  : 32 GiB

Results: 
WARNING: The file "/beegfs/lgouveia/ior_2/testFile1" exists already and will be overwritten

access    bw(MiB/s)  IOPS       Latency(s)  block(KiB) xfer(KiB)  open(s)    wr/rd(s)   close(s)   total(s)   iter
------    ---------  ----       ----------  ---------- ---------  --------   --------   --------   --------   ----
write     4107       4107       0.006584    1048576    1024.00    0.005305   7.98       6.86       7.98       0   

Summary of all tests:
Operation   Max(MiB)   Min(MiB)  Mean(MiB)     StdDev   Max(OPs)   Min(OPs)  Mean(OPs)     StdDev    Mean(s) Stonewall(s) Stonewall(MiB) Test# #Tasks tPN reps fPP reord reordoff reordrand seed segcnt   blksiz    xsize aggs(MiB)   API RefNum
write        4106.79    4106.79    4106.79       0.00    4106.79    4106.79    4106.79       0.00    7.97898         NA            NA     0     32   8    1   0     0        1         0    0      1 1073741824  1048576   32768.0 POSIX      0
Finished            : Sat Jan 22 12:19:29 2022
Tracking /beegfs/lgouveia/ior_2/testFile1...
Tracking /beegfs/lgouveia/ior_2/testFileApp_2...
Tracking /beegfs/lgouveia/ior_2/testFileApp_1...



Writing tracked information to tracker.csv...
IOR-3.4.0+dev: MPI Coordinated Test of Parallel I/O
Began               : Sat Jan 22 12:20:30 2022
Command line        : /home/lgouveia/ior/bin/ior -w -t 1m -b 1024m -k -o /beegfs/lgouveia/ior_2/testFile1
Machine             : Linux bora001.plafrim.cluster
TestID              : 0
StartTime           : Sat Jan 22 12:20:30 2022
Path                : /beegfs/lgouveia/ior_2/testFile1
FS                  : 130.9 TiB   Used FS: 36.6%   Inodes: 0.0 Mi   Used Inodes: -nan%

Options: 
api                 : POSIX
apiVersion          : 
test filename       : /beegfs/lgouveia/ior_2/testFile1
access              : single-shared-file
type                : independent
segments            : 1
ordering in a file  : sequential
ordering inter file : no tasks offsets
nodes               : 4
tasks               : 32
clients per node    : 8
repetitions         : 1
xfersize            : 1 MiB
blocksize           : 1 GiB
aggregate filesize  : 32 GiB

Results: 
WARNING: The file "/beegfs/lgouveia/ior_2/testFile1" exists already and will be overwritten

access    bw(MiB/s)  IOPS       Latency(s)  block(KiB) xfer(KiB)  open(s)    wr/rd(s)   close(s)   total(s)   iter
------    ---------  ----       ----------  ---------- ---------  --------   --------   --------   --------   ----
write     3156.00    3156.45    0.007923    1048576    1024.00    0.005548   10.38      9.19       10.38      0   

Summary of all tests:
Operation   Max(MiB)   Min(MiB)  Mean(MiB)     StdDev   Max(OPs)   Min(OPs)  Mean(OPs)     StdDev    Mean(s) Stonewall(s) Stonewall(MiB) Test# #Tasks tPN reps fPP reord reordoff reordrand seed segcnt   blksiz    xsize aggs(MiB)   API RefNum
write        3156.00    3156.00    3156.00       0.00    3156.00    3156.00    3156.00       0.00   10.38276         NA            NA     0     32   8    1   0     0        1         0    0      1 1073741824  1048576   32768.0 POSIX      0
Finished            : Sat Jan 22 12:20:41 2022
Tracking /beegfs/lgouveia/ior_2/testFile1...
Tracking /beegfs/lgouveia/ior_2/testFileApp_2...
Tracking /beegfs/lgouveia/ior_2/testFileApp_1...



Writing tracked information to tracker.csv...
IOR-3.4.0+dev: MPI Coordinated Test of Parallel I/O
Began               : Sat Jan 22 12:21:42 2022
Command line        : /home/lgouveia/ior/bin/ior -w -t 1m -b 1024m -k -o /beegfs/lgouveia/ior_2/testFile1
Machine             : Linux bora001.plafrim.cluster
TestID              : 0
StartTime           : Sat Jan 22 12:21:42 2022
Path                : /beegfs/lgouveia/ior_2/testFile1
FS                  : 130.9 TiB   Used FS: 36.6%   Inodes: 0.0 Mi   Used Inodes: -nan%

Options: 
api                 : POSIX
apiVersion          : 
test filename       : /beegfs/lgouveia/ior_2/testFile1
access              : single-shared-file
type                : independent
segments            : 1
ordering in a file  : sequential
ordering inter file : no tasks offsets
nodes               : 4
tasks               : 32
clients per node    : 8
repetitions         : 1
xfersize            : 1 MiB
blocksize           : 1 GiB
aggregate filesize  : 32 GiB

Results: 
WARNING: The file "/beegfs/lgouveia/ior_2/testFile1" exists already and will be overwritten

access    bw(MiB/s)  IOPS       Latency(s)  block(KiB) xfer(KiB)  open(s)    wr/rd(s)   close(s)   total(s)   iter
------    ---------  ----       ----------  ---------- ---------  --------   --------   --------   --------   ----
write     4024       4024       0.007851    1048576    1024.00    0.005057   8.14       6.99       8.14       0   

Summary of all tests:
Operation   Max(MiB)   Min(MiB)  Mean(MiB)     StdDev   Max(OPs)   Min(OPs)  Mean(OPs)     StdDev    Mean(s) Stonewall(s) Stonewall(MiB) Test# #Tasks tPN reps fPP reord reordoff reordrand seed segcnt   blksiz    xsize aggs(MiB)   API RefNum
write        4023.70    4023.70    4023.70       0.00    4023.70    4023.70    4023.70       0.00    8.14376         NA            NA     0     32   8    1   0     0        1         0    0      1 1073741824  1048576   32768.0 POSIX      0
Finished            : Sat Jan 22 12:21:50 2022
Tracking /beegfs/lgouveia/ior_2/testFile1...
Tracking /beegfs/lgouveia/ior_2/testFileApp_2...
Tracking /beegfs/lgouveia/ior_2/testFileApp_1...



Writing tracked information to tracker.csv...
IOR-3.4.0+dev: MPI Coordinated Test of Parallel I/O
Began               : Sat Jan 22 12:22:51 2022
Command line        : /home/lgouveia/ior/bin/ior -w -t 1m -b 1024m -k -o /beegfs/lgouveia/ior_2/testFile1
Machine             : Linux bora001.plafrim.cluster
TestID              : 0
StartTime           : Sat Jan 22 12:22:51 2022
Path                : /beegfs/lgouveia/ior_2/testFile1
FS                  : 130.9 TiB   Used FS: 36.6%   Inodes: 0.0 Mi   Used Inodes: -nan%

Options: 
api                 : POSIX
apiVersion          : 
test filename       : /beegfs/lgouveia/ior_2/testFile1
access              : single-shared-file
type                : independent
segments            : 1
ordering in a file  : sequential
ordering inter file : no tasks offsets
nodes               : 4
tasks               : 32
clients per node    : 8
repetitions         : 1
xfersize            : 1 MiB
blocksize           : 1 GiB
aggregate filesize  : 32 GiB

Results: 
WARNING: The file "/beegfs/lgouveia/ior_2/testFile1" exists already and will be overwritten

access    bw(MiB/s)  IOPS       Latency(s)  block(KiB) xfer(KiB)  open(s)    wr/rd(s)   close(s)   total(s)   iter
------    ---------  ----       ----------  ---------- ---------  --------   --------   --------   --------   ----
write     3274.31    3274.63    0.005094    1048576    1024.00    0.006986   10.01      8.66       10.01      0   

Summary of all tests:
Operation   Max(MiB)   Min(MiB)  Mean(MiB)     StdDev   Max(OPs)   Min(OPs)  Mean(OPs)     StdDev    Mean(s) Stonewall(s) Stonewall(MiB) Test# #Tasks tPN reps fPP reord reordoff reordrand seed segcnt   blksiz    xsize aggs(MiB)   API RefNum
write        3274.31    3274.31    3274.31       0.00    3274.31    3274.31    3274.31       0.00   10.00761         NA            NA     0     32   8    1   0     0        1         0    0      1 1073741824  1048576   32768.0 POSIX      0
Finished            : Sat Jan 22 12:23:01 2022
Tracking /beegfs/lgouveia/ior_2/testFile1...
Tracking /beegfs/lgouveia/ior_2/testFileApp_2...
Tracking /beegfs/lgouveia/ior_2/testFileApp_1...



Writing tracked information to tracker.csv...
IOR-3.4.0+dev: MPI Coordinated Test of Parallel I/O
Began               : Sat Jan 22 12:24:02 2022
Command line        : /home/lgouveia/ior/bin/ior -w -t 1m -b 1024m -k -o /beegfs/lgouveia/ior_2/testFile1
Machine             : Linux bora001.plafrim.cluster
TestID              : 0
StartTime           : Sat Jan 22 12:24:02 2022
Path                : /beegfs/lgouveia/ior_2/testFile1
FS                  : 130.9 TiB   Used FS: 36.6%   Inodes: 0.0 Mi   Used Inodes: -nan%

Options: 
api                 : POSIX
apiVersion          : 
test filename       : /beegfs/lgouveia/ior_2/testFile1
access              : single-shared-file
type                : independent
segments            : 1
ordering in a file  : sequential
ordering inter file : no tasks offsets
nodes               : 4
tasks               : 32
clients per node    : 8
repetitions         : 1
xfersize            : 1 MiB
blocksize           : 1 GiB
aggregate filesize  : 32 GiB

Results: 
WARNING: The file "/beegfs/lgouveia/ior_2/testFile1" exists already and will be overwritten

access    bw(MiB/s)  IOPS       Latency(s)  block(KiB) xfer(KiB)  open(s)    wr/rd(s)   close(s)   total(s)   iter
------    ---------  ----       ----------  ---------- ---------  --------   --------   --------   --------   ----
write     4155       4156       0.006172    1048576    1024.00    0.006224   7.88       6.79       7.89       0   

Summary of all tests:
Operation   Max(MiB)   Min(MiB)  Mean(MiB)     StdDev   Max(OPs)   Min(OPs)  Mean(OPs)     StdDev    Mean(s) Stonewall(s) Stonewall(MiB) Test# #Tasks tPN reps fPP reord reordoff reordrand seed segcnt   blksiz    xsize aggs(MiB)   API RefNum
write        4155.47    4155.47    4155.47       0.00    4155.47    4155.47    4155.47       0.00    7.88550         NA            NA     0     32   8    1   0     0        1         0    0      1 1073741824  1048576   32768.0 POSIX      0
Finished            : Sat Jan 22 12:24:10 2022
Tracking /beegfs/lgouveia/ior_2/testFile1...
Tracking /beegfs/lgouveia/ior_2/testFileApp_2...
Tracking /beegfs/lgouveia/ior_2/testFileApp_1...



Writing tracked information to tracker.csv...
IOR-3.4.0+dev: MPI Coordinated Test of Parallel I/O
Began               : Sat Jan 22 12:25:11 2022
Command line        : /home/lgouveia/ior/bin/ior -w -t 1m -b 1024m -k -o /beegfs/lgouveia/ior_2/testFile1
Machine             : Linux bora001.plafrim.cluster
TestID              : 0
StartTime           : Sat Jan 22 12:25:11 2022
Path                : /beegfs/lgouveia/ior_2/testFile1
FS                  : 130.9 TiB   Used FS: 36.6%   Inodes: 0.0 Mi   Used Inodes: -nan%

Options: 
api                 : POSIX
apiVersion          : 
test filename       : /beegfs/lgouveia/ior_2/testFile1
access              : single-shared-file
type                : independent
segments            : 1
ordering in a file  : sequential
ordering inter file : no tasks offsets
nodes               : 4
tasks               : 32
clients per node    : 8
repetitions         : 1
xfersize            : 1 MiB
blocksize           : 1 GiB
aggregate filesize  : 32 GiB

Results: 
WARNING: The file "/beegfs/lgouveia/ior_2/testFile1" exists already and will be overwritten

access    bw(MiB/s)  IOPS       Latency(s)  block(KiB) xfer(KiB)  open(s)    wr/rd(s)   close(s)   total(s)   iter
------    ---------  ----       ----------  ---------- ---------  --------   --------   --------   --------   ----
write     3178.58    3178.94    0.008265    1048576    1024.00    0.004384   10.31      9.17       10.31      0   

Summary of all tests:
Operation   Max(MiB)   Min(MiB)  Mean(MiB)     StdDev   Max(OPs)   Min(OPs)  Mean(OPs)     StdDev    Mean(s) Stonewall(s) Stonewall(MiB) Test# #Tasks tPN reps fPP reord reordoff reordrand seed segcnt   blksiz    xsize aggs(MiB)   API RefNum
write        3178.58    3178.58    3178.58       0.00    3178.58    3178.58    3178.58       0.00   10.30901         NA            NA     0     32   8    1   0     0        1         0    0      1 1073741824  1048576   32768.0 POSIX      0
Finished            : Sat Jan 22 12:25:21 2022
Tracking /beegfs/lgouveia/ior_2/testFile1...
Tracking /beegfs/lgouveia/ior_2/testFileApp_2...
Tracking /beegfs/lgouveia/ior_2/testFileApp_1...



Writing tracked information to tracker.csv...
