===== My JOB Information ====
Node List:  bora[010-025]
my jobID:  1470887
Partition: routage
submit directory:  /home/lgouveia/luan-teylo/tests/omnipath/overlap/64_tasks/04
submit host:  devel03.plafrim.cluster
In the directory: /home/lgouveia/luan-teylo/tests/omnipath/overlap/64_tasks/04
As the user: lgouveia
============================
Tracking /beegfs/lgouveia/ior_4/testFileApp_1...
Tracking /beegfs/lgouveia/ior_4/testFileApp_2...
Tracking /beegfs/lgouveia/ior_4/testFile1...



Writing tracked information to tracker.csv...
Tracking /beegfs/lgouveia/ior_4/testFileApp_1...
Tracking /beegfs/lgouveia/ior_4/testFileApp_2...
Tracking /beegfs/lgouveia/ior_4/testFile1...



Writing tracked information to tracker.csv...
Tracking /beegfs/lgouveia/ior_4/testFileApp_1...
Tracking /beegfs/lgouveia/ior_4/testFileApp_2...
Tracking /beegfs/lgouveia/ior_4/testFile1...



Writing tracked information to tracker.csv...
Tracking /beegfs/lgouveia/ior_4/testFileApp_1...
Tracking /beegfs/lgouveia/ior_4/testFileApp_2...
Tracking /beegfs/lgouveia/ior_4/testFile1...



Writing tracked information to tracker.csv...
Tracking /beegfs/lgouveia/ior_4/testFileApp_2...
Tracking /beegfs/lgouveia/ior_4/testFileApp_1...
Tracking /beegfs/lgouveia/ior_4/testFile1...



Writing tracked information to tracker.csv...
Tracking /beegfs/lgouveia/ior_4/testFileApp_2...
Tracking /beegfs/lgouveia/ior_4/testFileApp_1...
Tracking /beegfs/lgouveia/ior_4/testFile1...



Writing tracked information to tracker.csv...
Tracking /beegfs/lgouveia/ior_4/testFileApp_1...
Tracking /beegfs/lgouveia/ior_4/testFileApp_2...
Tracking /beegfs/lgouveia/ior_4/testFile1...



Writing tracked information to tracker.csv...
Tracking /beegfs/lgouveia/ior_4/testFileApp_2...
Tracking /beegfs/lgouveia/ior_4/testFileApp_1...
Tracking /beegfs/lgouveia/ior_4/testFile1...



Writing tracked information to tracker.csv...
Tracking /beegfs/lgouveia/ior_4/testFileApp_1...
Tracking /beegfs/lgouveia/ior_4/testFileApp_2...
Tracking /beegfs/lgouveia/ior_4/testFile1...



Writing tracked information to tracker.csv...
Tracking /beegfs/lgouveia/ior_4/testFileApp_1...
Tracking /beegfs/lgouveia/ior_4/testFileApp_2...
Tracking /beegfs/lgouveia/ior_4/testFile1...



Writing tracked information to tracker.csv...
