===== My JOB Information ====
Node List:  bora[009-014,024-026,034-036]
my jobID:  1465369
Partition: routage
submit directory:  /home/lgouveia/luan-teylo/tests/omnipath/compute_nodes/4_targets/12
submit host:  devel02.plafrim.cluster
In the directory: /home/lgouveia/luan-teylo/tests/omnipath/compute_nodes/4_targets/12
As the user: lgouveia
============================
IOR-3.4.0+dev: MPI Coordinated Test of Parallel I/O
Began               : Wed Dec  8 18:17:24 2021
Command line        : /home/lgouveia/ior/bin/ior -w -t 1m -b 341m -k -o /beegfs/lgouveia/ior_4/testFile1
Machine             : Linux bora009.plafrim.cluster
TestID              : 0
StartTime           : Wed Dec  8 18:17:24 2021
Path                : /beegfs/lgouveia/ior_4/testFile1
FS                  : 130.9 TiB   Used FS: 35.6%   Inodes: 0.0 Mi   Used Inodes: -nan%

Options: 
api                 : POSIX
apiVersion          : 
test filename       : /beegfs/lgouveia/ior_4/testFile1
access              : single-shared-file
type                : independent
segments            : 1
ordering in a file  : sequential
ordering inter file : no tasks offsets
nodes               : 12
tasks               : 96
clients per node    : 8
repetitions         : 1
xfersize            : 1 MiB
blocksize           : 341 MiB
aggregate filesize  : 31.97 GiB

Results: 
WARNING: The file "/beegfs/lgouveia/ior_4/testFile1" exists already and will be overwritten

access    bw(MiB/s)  IOPS       Latency(s)  block(KiB) xfer(KiB)  open(s)    wr/rd(s)   close(s)   total(s)   iter
------    ---------  ----       ----------  ---------- ---------  --------   --------   --------   --------   ----
write     4880       4881       0.019558    349184     1024.00    0.056409   6.71       5.87       6.71       0   

Summary of all tests:
Operation   Max(MiB)   Min(MiB)  Mean(MiB)     StdDev   Max(OPs)   Min(OPs)  Mean(OPs)     StdDev    Mean(s) Stonewall(s) Stonewall(MiB) Test# #Tasks tPN reps fPP reord reordoff reordrand seed segcnt   blksiz    xsize aggs(MiB)   API RefNum
write        4880.40    4880.40    4880.40       0.00    4880.40    4880.40    4880.40       0.00    6.70764         NA            NA     0     96   8    1   0     0        1         0    0      1 357564416  1048576   32736.0 POSIX      0
Finished            : Wed Dec  8 18:17:31 2021
Tracking /beegfs/lgouveia/ior_4/testFile1...



Writing tracked information to tracker.csv...
IOR-3.4.0+dev: MPI Coordinated Test of Parallel I/O
Began               : Wed Dec  8 18:18:34 2021
Command line        : /home/lgouveia/ior/bin/ior -w -t 1m -b 341m -k -o /beegfs/lgouveia/ior_4/testFile1
Machine             : Linux bora009.plafrim.cluster
TestID              : 0
StartTime           : Wed Dec  8 18:18:34 2021
Path                : /beegfs/lgouveia/ior_4/testFile1
FS                  : 130.9 TiB   Used FS: 35.6%   Inodes: 0.0 Mi   Used Inodes: -nan%

Options: 
api                 : POSIX
apiVersion          : 
test filename       : /beegfs/lgouveia/ior_4/testFile1
access              : single-shared-file
type                : independent
segments            : 1
ordering in a file  : sequential
ordering inter file : no tasks offsets
nodes               : 12
tasks               : 96
clients per node    : 8
repetitions         : 1
xfersize            : 1 MiB
blocksize           : 341 MiB
aggregate filesize  : 31.97 GiB

Results: 
WARNING: The file "/beegfs/lgouveia/ior_4/testFile1" exists already and will be overwritten

access    bw(MiB/s)  IOPS       Latency(s)  block(KiB) xfer(KiB)  open(s)    wr/rd(s)   close(s)   total(s)   iter
------    ---------  ----       ----------  ---------- ---------  --------   --------   --------   --------   ----
write     5573       5574       0.002633    349184     1024.00    0.132339   5.87       5.17       5.87       0   

Summary of all tests:
Operation   Max(MiB)   Min(MiB)  Mean(MiB)     StdDev   Max(OPs)   Min(OPs)  Mean(OPs)     StdDev    Mean(s) Stonewall(s) Stonewall(MiB) Test# #Tasks tPN reps fPP reord reordoff reordrand seed segcnt   blksiz    xsize aggs(MiB)   API RefNum
write        5573.20    5573.20    5573.20       0.00    5573.20    5573.20    5573.20       0.00    5.87382         NA            NA     0     96   8    1   0     0        1         0    0      1 357564416  1048576   32736.0 POSIX      0
Finished            : Wed Dec  8 18:18:40 2021
Tracking /beegfs/lgouveia/ior_4/testFile1...



Writing tracked information to tracker.csv...
IOR-3.4.0+dev: MPI Coordinated Test of Parallel I/O
Began               : Wed Dec  8 18:19:41 2021
Command line        : /home/lgouveia/ior/bin/ior -w -t 1m -b 341m -k -o /beegfs/lgouveia/ior_4/testFile1
Machine             : Linux bora009.plafrim.cluster
TestID              : 0
StartTime           : Wed Dec  8 18:19:41 2021
Path                : /beegfs/lgouveia/ior_4/testFile1
FS                  : 130.9 TiB   Used FS: 35.6%   Inodes: 0.0 Mi   Used Inodes: -nan%

Options: 
api                 : POSIX
apiVersion          : 
test filename       : /beegfs/lgouveia/ior_4/testFile1
access              : single-shared-file
type                : independent
segments            : 1
ordering in a file  : sequential
ordering inter file : no tasks offsets
nodes               : 12
tasks               : 96
clients per node    : 8
repetitions         : 1
xfersize            : 1 MiB
blocksize           : 341 MiB
aggregate filesize  : 31.97 GiB

Results: 
WARNING: The file "/beegfs/lgouveia/ior_4/testFile1" exists already and will be overwritten

access    bw(MiB/s)  IOPS       Latency(s)  block(KiB) xfer(KiB)  open(s)    wr/rd(s)   close(s)   total(s)   iter
------    ---------  ----       ----------  ---------- ---------  --------   --------   --------   --------   ----
write     5272       5273       0.011247    349184     1024.00    0.008801   6.21       5.38       6.21       0   

Summary of all tests:
Operation   Max(MiB)   Min(MiB)  Mean(MiB)     StdDev   Max(OPs)   Min(OPs)  Mean(OPs)     StdDev    Mean(s) Stonewall(s) Stonewall(MiB) Test# #Tasks tPN reps fPP reord reordoff reordrand seed segcnt   blksiz    xsize aggs(MiB)   API RefNum
write        5271.95    5271.95    5271.95       0.00    5271.95    5271.95    5271.95       0.00    6.20947         NA            NA     0     96   8    1   0     0        1         0    0      1 357564416  1048576   32736.0 POSIX      0
Finished            : Wed Dec  8 18:19:47 2021
Tracking /beegfs/lgouveia/ior_4/testFile1...



Writing tracked information to tracker.csv...
IOR-3.4.0+dev: MPI Coordinated Test of Parallel I/O
Began               : Wed Dec  8 18:20:48 2021
Command line        : /home/lgouveia/ior/bin/ior -w -t 1m -b 341m -k -o /beegfs/lgouveia/ior_4/testFile1
Machine             : Linux bora009.plafrim.cluster
TestID              : 0
StartTime           : Wed Dec  8 18:20:48 2021
Path                : /beegfs/lgouveia/ior_4/testFile1
FS                  : 130.9 TiB   Used FS: 35.6%   Inodes: 0.0 Mi   Used Inodes: -nan%

Options: 
api                 : POSIX
apiVersion          : 
test filename       : /beegfs/lgouveia/ior_4/testFile1
access              : single-shared-file
type                : independent
segments            : 1
ordering in a file  : sequential
ordering inter file : no tasks offsets
nodes               : 12
tasks               : 96
clients per node    : 8
repetitions         : 1
xfersize            : 1 MiB
blocksize           : 341 MiB
aggregate filesize  : 31.97 GiB

Results: 
WARNING: The file "/beegfs/lgouveia/ior_4/testFile1" exists already and will be overwritten

access    bw(MiB/s)  IOPS       Latency(s)  block(KiB) xfer(KiB)  open(s)    wr/rd(s)   close(s)   total(s)   iter
------    ---------  ----       ----------  ---------- ---------  --------   --------   --------   --------   ----
write     5452       5452       0.006260    349184     1024.00    0.015859   6.00       5.28       6.00       0   

Summary of all tests:
Operation   Max(MiB)   Min(MiB)  Mean(MiB)     StdDev   Max(OPs)   Min(OPs)  Mean(OPs)     StdDev    Mean(s) Stonewall(s) Stonewall(MiB) Test# #Tasks tPN reps fPP reord reordoff reordrand seed segcnt   blksiz    xsize aggs(MiB)   API RefNum
write        5451.53    5451.53    5451.53       0.00    5451.53    5451.53    5451.53       0.00    6.00493         NA            NA     0     96   8    1   0     0        1         0    0      1 357564416  1048576   32736.0 POSIX      0
Finished            : Wed Dec  8 18:20:54 2021
Tracking /beegfs/lgouveia/ior_4/testFile1...



Writing tracked information to tracker.csv...
IOR-3.4.0+dev: MPI Coordinated Test of Parallel I/O
Began               : Wed Dec  8 18:21:55 2021
Command line        : /home/lgouveia/ior/bin/ior -w -t 1m -b 341m -k -o /beegfs/lgouveia/ior_4/testFile1
Machine             : Linux bora009.plafrim.cluster
TestID              : 0
StartTime           : Wed Dec  8 18:21:55 2021
Path                : /beegfs/lgouveia/ior_4/testFile1
FS                  : 130.9 TiB   Used FS: 35.6%   Inodes: 0.0 Mi   Used Inodes: -nan%

Options: 
api                 : POSIX
apiVersion          : 
test filename       : /beegfs/lgouveia/ior_4/testFile1
access              : single-shared-file
type                : independent
segments            : 1
ordering in a file  : sequential
ordering inter file : no tasks offsets
nodes               : 12
tasks               : 96
clients per node    : 8
repetitions         : 1
xfersize            : 1 MiB
blocksize           : 341 MiB
aggregate filesize  : 31.97 GiB

Results: 
WARNING: The file "/beegfs/lgouveia/ior_4/testFile1" exists already and will be overwritten

access    bw(MiB/s)  IOPS       Latency(s)  block(KiB) xfer(KiB)  open(s)    wr/rd(s)   close(s)   total(s)   iter
------    ---------  ----       ----------  ---------- ---------  --------   --------   --------   --------   ----
write     5580       5581       0.002383    349184     1024.00    0.013802   5.87       5.11       5.87       0   

Summary of all tests:
Operation   Max(MiB)   Min(MiB)  Mean(MiB)     StdDev   Max(OPs)   Min(OPs)  Mean(OPs)     StdDev    Mean(s) Stonewall(s) Stonewall(MiB) Test# #Tasks tPN reps fPP reord reordoff reordrand seed segcnt   blksiz    xsize aggs(MiB)   API RefNum
write        5579.92    5579.92    5579.92       0.00    5579.92    5579.92    5579.92       0.00    5.86675         NA            NA     0     96   8    1   0     0        1         0    0      1 357564416  1048576   32736.0 POSIX      0
Finished            : Wed Dec  8 18:22:01 2021
Tracking /beegfs/lgouveia/ior_4/testFile1...



Writing tracked information to tracker.csv...
IOR-3.4.0+dev: MPI Coordinated Test of Parallel I/O
Began               : Wed Dec  8 18:23:02 2021
Command line        : /home/lgouveia/ior/bin/ior -w -t 1m -b 341m -k -o /beegfs/lgouveia/ior_4/testFile1
Machine             : Linux bora009.plafrim.cluster
TestID              : 0
StartTime           : Wed Dec  8 18:23:02 2021
Path                : /beegfs/lgouveia/ior_4/testFile1
FS                  : 130.9 TiB   Used FS: 35.6%   Inodes: 0.0 Mi   Used Inodes: -nan%

Options: 
api                 : POSIX
apiVersion          : 
test filename       : /beegfs/lgouveia/ior_4/testFile1
access              : single-shared-file
type                : independent
segments            : 1
ordering in a file  : sequential
ordering inter file : no tasks offsets
nodes               : 12
tasks               : 96
clients per node    : 8
repetitions         : 1
xfersize            : 1 MiB
blocksize           : 341 MiB
aggregate filesize  : 31.97 GiB

Results: 
WARNING: The file "/beegfs/lgouveia/ior_4/testFile1" exists already and will be overwritten

access    bw(MiB/s)  IOPS       Latency(s)  block(KiB) xfer(KiB)  open(s)    wr/rd(s)   close(s)   total(s)   iter
------    ---------  ----       ----------  ---------- ---------  --------   --------   --------   --------   ----
write     5156       5156       0.011126    349184     1024.00    0.020324   6.35       5.62       6.35       0   

Summary of all tests:
Operation   Max(MiB)   Min(MiB)  Mean(MiB)     StdDev   Max(OPs)   Min(OPs)  Mean(OPs)     StdDev    Mean(s) Stonewall(s) Stonewall(MiB) Test# #Tasks tPN reps fPP reord reordoff reordrand seed segcnt   blksiz    xsize aggs(MiB)   API RefNum
write        5155.60    5155.60    5155.60       0.00    5155.60    5155.60    5155.60       0.00    6.34960         NA            NA     0     96   8    1   0     0        1         0    0      1 357564416  1048576   32736.0 POSIX      0
Finished            : Wed Dec  8 18:23:09 2021
Tracking /beegfs/lgouveia/ior_4/testFile1...



Writing tracked information to tracker.csv...
IOR-3.4.0+dev: MPI Coordinated Test of Parallel I/O
Began               : Wed Dec  8 18:24:10 2021
Command line        : /home/lgouveia/ior/bin/ior -w -t 1m -b 341m -k -o /beegfs/lgouveia/ior_4/testFile1
Machine             : Linux bora009.plafrim.cluster
TestID              : 0
StartTime           : Wed Dec  8 18:24:10 2021
Path                : /beegfs/lgouveia/ior_4/testFile1
FS                  : 130.9 TiB   Used FS: 35.6%   Inodes: 0.0 Mi   Used Inodes: -nan%

Options: 
api                 : POSIX
apiVersion          : 
test filename       : /beegfs/lgouveia/ior_4/testFile1
access              : single-shared-file
type                : independent
segments            : 1
ordering in a file  : sequential
ordering inter file : no tasks offsets
nodes               : 12
tasks               : 96
clients per node    : 8
repetitions         : 1
xfersize            : 1 MiB
blocksize           : 341 MiB
aggregate filesize  : 31.97 GiB

Results: 
WARNING: The file "/beegfs/lgouveia/ior_4/testFile1" exists already and will be overwritten

access    bw(MiB/s)  IOPS       Latency(s)  block(KiB) xfer(KiB)  open(s)    wr/rd(s)   close(s)   total(s)   iter
------    ---------  ----       ----------  ---------- ---------  --------   --------   --------   --------   ----
write     5255       5256       0.002913    349184     1024.00    0.013561   6.23       5.52       6.23       0   

Summary of all tests:
Operation   Max(MiB)   Min(MiB)  Mean(MiB)     StdDev   Max(OPs)   Min(OPs)  Mean(OPs)     StdDev    Mean(s) Stonewall(s) Stonewall(MiB) Test# #Tasks tPN reps fPP reord reordoff reordrand seed segcnt   blksiz    xsize aggs(MiB)   API RefNum
write        5254.89    5254.89    5254.89       0.00    5254.89    5254.89    5254.89       0.00    6.22962         NA            NA     0     96   8    1   0     0        1         0    0      1 357564416  1048576   32736.0 POSIX      0
Finished            : Wed Dec  8 18:24:16 2021
Tracking /beegfs/lgouveia/ior_4/testFile1...



Writing tracked information to tracker.csv...
IOR-3.4.0+dev: MPI Coordinated Test of Parallel I/O
Began               : Wed Dec  8 18:25:17 2021
Command line        : /home/lgouveia/ior/bin/ior -w -t 1m -b 341m -k -o /beegfs/lgouveia/ior_4/testFile1
Machine             : Linux bora009.plafrim.cluster
TestID              : 0
StartTime           : Wed Dec  8 18:25:17 2021
Path                : /beegfs/lgouveia/ior_4/testFile1
FS                  : 130.9 TiB   Used FS: 35.6%   Inodes: 0.0 Mi   Used Inodes: -nan%

Options: 
api                 : POSIX
apiVersion          : 
test filename       : /beegfs/lgouveia/ior_4/testFile1
access              : single-shared-file
type                : independent
segments            : 1
ordering in a file  : sequential
ordering inter file : no tasks offsets
nodes               : 12
tasks               : 96
clients per node    : 8
repetitions         : 1
xfersize            : 1 MiB
blocksize           : 341 MiB
aggregate filesize  : 31.97 GiB

Results: 
WARNING: The file "/beegfs/lgouveia/ior_4/testFile1" exists already and will be overwritten

access    bw(MiB/s)  IOPS       Latency(s)  block(KiB) xfer(KiB)  open(s)    wr/rd(s)   close(s)   total(s)   iter
------    ---------  ----       ----------  ---------- ---------  --------   --------   --------   --------   ----
write     5655       5656       0.002553    349184     1024.00    0.019801   5.79       4.92       5.79       0   

Summary of all tests:
Operation   Max(MiB)   Min(MiB)  Mean(MiB)     StdDev   Max(OPs)   Min(OPs)  Mean(OPs)     StdDev    Mean(s) Stonewall(s) Stonewall(MiB) Test# #Tasks tPN reps fPP reord reordoff reordrand seed segcnt   blksiz    xsize aggs(MiB)   API RefNum
write        5654.94    5654.94    5654.94       0.00    5654.94    5654.94    5654.94       0.00    5.78892         NA            NA     0     96   8    1   0     0        1         0    0      1 357564416  1048576   32736.0 POSIX      0
Finished            : Wed Dec  8 18:25:23 2021
Tracking /beegfs/lgouveia/ior_4/testFile1...



Writing tracked information to tracker.csv...
IOR-3.4.0+dev: MPI Coordinated Test of Parallel I/O
Began               : Wed Dec  8 18:26:24 2021
Command line        : /home/lgouveia/ior/bin/ior -w -t 1m -b 341m -k -o /beegfs/lgouveia/ior_4/testFile1
Machine             : Linux bora009.plafrim.cluster
TestID              : 0
StartTime           : Wed Dec  8 18:26:24 2021
Path                : /beegfs/lgouveia/ior_4/testFile1
FS                  : 130.9 TiB   Used FS: 35.6%   Inodes: 0.0 Mi   Used Inodes: -nan%

Options: 
api                 : POSIX
apiVersion          : 
test filename       : /beegfs/lgouveia/ior_4/testFile1
access              : single-shared-file
type                : independent
segments            : 1
ordering in a file  : sequential
ordering inter file : no tasks offsets
nodes               : 12
tasks               : 96
clients per node    : 8
repetitions         : 1
xfersize            : 1 MiB
blocksize           : 341 MiB
aggregate filesize  : 31.97 GiB

Results: 
WARNING: The file "/beegfs/lgouveia/ior_4/testFile1" exists already and will be overwritten

access    bw(MiB/s)  IOPS       Latency(s)  block(KiB) xfer(KiB)  open(s)    wr/rd(s)   close(s)   total(s)   iter
------    ---------  ----       ----------  ---------- ---------  --------   --------   --------   --------   ----
write     5947       5948       0.007376    349184     1024.00    0.012311   5.50       4.80       5.50       0   

Summary of all tests:
Operation   Max(MiB)   Min(MiB)  Mean(MiB)     StdDev   Max(OPs)   Min(OPs)  Mean(OPs)     StdDev    Mean(s) Stonewall(s) Stonewall(MiB) Test# #Tasks tPN reps fPP reord reordoff reordrand seed segcnt   blksiz    xsize aggs(MiB)   API RefNum
write        5947.28    5947.28    5947.28       0.00    5947.28    5947.28    5947.28       0.00    5.50437         NA            NA     0     96   8    1   0     0        1         0    0      1 357564416  1048576   32736.0 POSIX      0
Finished            : Wed Dec  8 18:26:29 2021
Tracking /beegfs/lgouveia/ior_4/testFile1...



Writing tracked information to tracker.csv...
IOR-3.4.0+dev: MPI Coordinated Test of Parallel I/O
Began               : Wed Dec  8 18:27:30 2021
Command line        : /home/lgouveia/ior/bin/ior -w -t 1m -b 341m -k -o /beegfs/lgouveia/ior_4/testFile1
Machine             : Linux bora009.plafrim.cluster
TestID              : 0
StartTime           : Wed Dec  8 18:27:30 2021
Path                : /beegfs/lgouveia/ior_4/testFile1
FS                  : 130.9 TiB   Used FS: 35.6%   Inodes: 0.0 Mi   Used Inodes: -nan%

Options: 
api                 : POSIX
apiVersion          : 
test filename       : /beegfs/lgouveia/ior_4/testFile1
access              : single-shared-file
type                : independent
segments            : 1
ordering in a file  : sequential
ordering inter file : no tasks offsets
nodes               : 12
tasks               : 96
clients per node    : 8
repetitions         : 1
xfersize            : 1 MiB
blocksize           : 341 MiB
aggregate filesize  : 31.97 GiB

Results: 
WARNING: The file "/beegfs/lgouveia/ior_4/testFile1" exists already and will be overwritten

access    bw(MiB/s)  IOPS       Latency(s)  block(KiB) xfer(KiB)  open(s)    wr/rd(s)   close(s)   total(s)   iter
------    ---------  ----       ----------  ---------- ---------  --------   --------   --------   --------   ----
write     5897       5898       0.002109    349184     1024.00    0.017289   5.55       4.83       5.55       0   

Summary of all tests:
Operation   Max(MiB)   Min(MiB)  Mean(MiB)     StdDev   Max(OPs)   Min(OPs)  Mean(OPs)     StdDev    Mean(s) Stonewall(s) Stonewall(MiB) Test# #Tasks tPN reps fPP reord reordoff reordrand seed segcnt   blksiz    xsize aggs(MiB)   API RefNum
write        5897.26    5897.26    5897.26       0.00    5897.26    5897.26    5897.26       0.00    5.55105         NA            NA     0     96   8    1   0     0        1         0    0      1 357564416  1048576   32736.0 POSIX      0
Finished            : Wed Dec  8 18:27:36 2021
Tracking /beegfs/lgouveia/ior_4/testFile1...



Writing tracked information to tracker.csv...
