tracker_id,tracker_timestamp,file,size,ctime,mtime,storage_targets
630fd517,1637862241.619293,/beegfs/lgouveia/ior_4/testFile1,34359738368,1637862239.0,1637862239.0,204 202 203 101
c478365a,1637862310.164791,/beegfs/lgouveia/ior_4/testFile1,34359738368,1637862309.0,1637862309.0,102 104 103 201
eb89999e,1637862378.575285,/beegfs/lgouveia/ior_4/testFile1,34359738368,1637862378.0,1637862378.0,202 204 203 101
1e94f169,1637862446.979724,/beegfs/lgouveia/ior_4/testFile1,34359738368,1637862446.0,1637862446.0,204 203 101 202
20a2a940,1637862515.346227,/beegfs/lgouveia/ior_4/testFile1,34359738368,1637862515.0,1637862515.0,201 104 103 102
6665f97e,1637862583.841981,/beegfs/lgouveia/ior_4/testFile1,34359738368,1637862583.0,1637862583.0,202 101 203 204
66eff2b3,1637862652.262199,/beegfs/lgouveia/ior_4/testFile1,34359738368,1637862652.0,1637862652.0,103 102 104 201
95507828,1637862720.754269,/beegfs/lgouveia/ior_4/testFile1,34359738368,1637862720.0,1637862720.0,204 101 203 202
534ebff8,1637862789.135983,/beegfs/lgouveia/ior_4/testFile1,34359738368,1637862788.0,1637862788.0,103 102 104 201
94cafb63,1637862857.70806,/beegfs/lgouveia/ior_4/testFile1,34359738368,1637862857.0,1637862857.0,101 203 204 202
6e630653,1637863151.464662,/beegfs/lgouveia/ior_4/testFile1,34359738368,1637863151.0,1637863151.0,104 201 102 103
b67a0cb3,1637863220.177229,/beegfs/lgouveia/ior_4/testFile1,34359738368,1637863219.0,1637863219.0,202 204 203 101
d53ca2e7,1637863288.685279,/beegfs/lgouveia/ior_4/testFile1,34359738368,1637863288.0,1637863288.0,104 201 102 103
72948e47,1637863357.414613,/beegfs/lgouveia/ior_4/testFile1,34359738368,1637863357.0,1637863357.0,101 202 204 203
c34fd826,1637863425.528232,/beegfs/lgouveia/ior_4/testFile1,34359738368,1637863425.0,1637863425.0,103 104 102 201
604663b0,1637863494.218925,/beegfs/lgouveia/ior_4/testFile1,34359738368,1637863493.0,1637863493.0,202 203 204 101
f73e9fe9,1637863562.674048,/beegfs/lgouveia/ior_4/testFile1,34359738368,1637863562.0,1637863562.0,102 201 103 104
44229620,1637863630.839412,/beegfs/lgouveia/ior_4/testFile1,34359738368,1637863630.0,1637863630.0,203 101 204 202
a60fed01,1637863699.433471,/beegfs/lgouveia/ior_4/testFile1,34359738368,1637863699.0,1637863699.0,102 201 104 103
5991115d,1637863767.891678,/beegfs/lgouveia/ior_4/testFile1,34359738368,1637863767.0,1637863767.0,101 202 203 204
aba0222e,1637864117.663503,/beegfs/lgouveia/ior_4/testFile1,34359738368,1637864113.0,1637864113.0,101 203 204 202
d3e6eaf9,1637864186.309387,/beegfs/lgouveia/ior_4/testFile1,34359738368,1637864186.0,1637864186.0,103 201 104 102
a25455a8,1637864254.759122,/beegfs/lgouveia/ior_4/testFile1,34359738368,1637864254.0,1637864254.0,204 101 202 203
be7c16cf,1637864323.526119,/beegfs/lgouveia/ior_4/testFile1,34359738368,1637864323.0,1637864323.0,201 104 103 102
44dec24b,1637864391.928163,/beegfs/lgouveia/ior_4/testFile1,34359738368,1637864391.0,1637864391.0,203 101 202 204
fbe77a0a,1637864460.627751,/beegfs/lgouveia/ior_4/testFile1,34359738368,1637864460.0,1637864460.0,104 201 103 102
18fb2996,1637864529.164881,/beegfs/lgouveia/ior_4/testFile1,34359738368,1637864528.0,1637864528.0,203 202 101 204
f1534a41,1637864598.215702,/beegfs/lgouveia/ior_4/testFile1,34359738368,1637864597.0,1637864597.0,201 103 104 102
04e64d97,1637864666.658061,/beegfs/lgouveia/ior_4/testFile1,34359738368,1637864666.0,1637864666.0,203 202 204 101
e329b154,1637864735.765026,/beegfs/lgouveia/ior_4/testFile1,34359738368,1637864735.0,1637864735.0,201 104 103 102
136a3f96,1637865372.684663,/beegfs/lgouveia/ior_4/testFile1,34359738368,1637865371.0,1637865371.0,104 103 201 102
f44068f0,1637865441.038028,/beegfs/lgouveia/ior_4/testFile1,34359738368,1637865440.0,1637865440.0,202 204 203 101
c2877704,1637865509.641039,/beegfs/lgouveia/ior_4/testFile1,34359738368,1637865509.0,1637865509.0,104 201 103 102
faae630e,1637865578.109795,/beegfs/lgouveia/ior_4/testFile1,34359738368,1637865577.0,1637865577.0,202 203 101 204
0ae3ce58,1637865646.720258,/beegfs/lgouveia/ior_4/testFile1,34359738368,1637865646.0,1637865646.0,103 201 102 104
fbbb8afd,1637865715.273253,/beegfs/lgouveia/ior_4/testFile1,34359738368,1637865714.0,1637865714.0,102 201 104 103
52e723a1,1637865783.500596,/beegfs/lgouveia/ior_4/testFile1,34359738368,1637865783.0,1637865783.0,101 203 204 202
3938980f,1637865852.016006,/beegfs/lgouveia/ior_4/testFile1,34359738368,1637865851.0,1637865851.0,104 201 102 103
6cb5c190,1637865920.589103,/beegfs/lgouveia/ior_4/testFile1,34359738368,1637865920.0,1637865920.0,202 203 101 204
b36b1965,1637865989.199477,/beegfs/lgouveia/ior_4/testFile1,34359738368,1637865988.0,1637865988.0,201 103 104 102
dd20e157,1637866331.533669,/beegfs/lgouveia/ior_4/testFile1,34359738368,1637866331.0,1637866331.0,203 202 204 101
bdffa655,1637866400.346464,/beegfs/lgouveia/ior_4/testFile1,34359738368,1637866400.0,1637866400.0,102 104 103 201
86ca0193,1637866468.805008,/beegfs/lgouveia/ior_4/testFile1,34359738368,1637866468.0,1637866468.0,204 202 203 101
67f18480,1637866537.209663,/beegfs/lgouveia/ior_4/testFile1,34359738368,1637866536.0,1637866536.0,201 104 102 103
3b4760cc,1637866605.921599,/beegfs/lgouveia/ior_4/testFile1,34359738368,1637866605.0,1637866605.0,103 201 102 104
f0df1ecf,1637866674.585693,/beegfs/lgouveia/ior_4/testFile1,34359738368,1637866674.0,1637866674.0,103 201 102 104
9ad12a77,1637866743.559644,/beegfs/lgouveia/ior_4/testFile1,34359738368,1637866743.0,1637866743.0,101 203 204 202
a61cfc64,1637866812.324484,/beegfs/lgouveia/ior_4/testFile1,34359738368,1637866812.0,1637866812.0,102 103 201 104
3049afbe,1637866880.853476,/beegfs/lgouveia/ior_4/testFile1,34359738368,1637866880.0,1637866880.0,103 102 104 201
66b0af63,1637866949.487656,/beegfs/lgouveia/ior_4/testFile1,34359738368,1637866949.0,1637866949.0,203 101 202 204
32c099a1,1637867505.166701,/beegfs/lgouveia/ior_4/testFile1,34359738368,1637867502.0,1637867502.0,202 204 203 101
478f287d,1637867573.974771,/beegfs/lgouveia/ior_4/testFile1,34359738368,1637867573.0,1637867573.0,202 204 101 203
06dff1ee,1637867642.462997,/beegfs/lgouveia/ior_4/testFile1,34359738368,1637867642.0,1637867642.0,103 102 104 201
faf8ea7a,1637867711.195821,/beegfs/lgouveia/ior_4/testFile1,34359738368,1637867710.0,1637867710.0,104 103 102 201
308984b7,1637867779.577765,/beegfs/lgouveia/ior_4/testFile1,34359738368,1637867779.0,1637867779.0,201 104 103 102
b80704c9,1637867848.250573,/beegfs/lgouveia/ior_4/testFile1,34359738368,1637867847.0,1637867847.0,101 202 204 203
4abb2796,1637867916.589144,/beegfs/lgouveia/ior_4/testFile1,34359738368,1637867916.0,1637867916.0,104 102 103 201
8bc0dda6,1637867985.25468,/beegfs/lgouveia/ior_4/testFile1,34359738368,1637867984.0,1637867984.0,203 202 101 204
a7b0efe4,1637868053.713079,/beegfs/lgouveia/ior_4/testFile1,34359738368,1637868053.0,1637868053.0,103 104 102 201
5867503a,1637868122.158824,/beegfs/lgouveia/ior_4/testFile1,34359738368,1637868121.0,1637868121.0,202 203 204 101
8eddf41d,1637868612.84882,/beegfs/lgouveia/ior_4/testFile1,34359738368,1637868611.0,1637868611.0,203 202 101 204
30a68747,1637868681.499441,/beegfs/lgouveia/ior_4/testFile1,34359738368,1637868681.0,1637868681.0,201 102 103 104
a7aedcfe,1637868750.041938,/beegfs/lgouveia/ior_4/testFile1,34359738368,1637868749.0,1637868749.0,202 101 204 203
25540b50,1637868818.784574,/beegfs/lgouveia/ior_4/testFile1,34359738368,1637868818.0,1637868818.0,201 103 104 102
2d2965ab,1637868887.246817,/beegfs/lgouveia/ior_4/testFile1,34359738368,1637868886.0,1637868886.0,202 204 203 101
c3f1d194,1637868955.761803,/beegfs/lgouveia/ior_4/testFile1,34359738368,1637868955.0,1637868955.0,201 103 104 102
0b48c29a,1637869024.14264,/beegfs/lgouveia/ior_4/testFile1,34359738368,1637869023.0,1637869023.0,201 104 102 103
e52f1707,1637869092.615345,/beegfs/lgouveia/ior_4/testFile1,34359738368,1637869092.0,1637869092.0,203 101 202 204
9490698f,1637869161.257107,/beegfs/lgouveia/ior_4/testFile1,34359738368,1637869161.0,1637869161.0,102 103 201 104
bfdd040a,1637869230.217107,/beegfs/lgouveia/ior_4/testFile1,34359738368,1637869229.0,1637869229.0,204 203 101 202
6b614ca8,1637869901.789884,/beegfs/lgouveia/ior_4/testFile1,34359738368,1637869901.0,1637869901.0,201 103 104 102
c5b06a53,1637869970.439952,/beegfs/lgouveia/ior_4/testFile1,34359738368,1637869970.0,1637869970.0,202 204 101 203
afec6c25,1637870039.534443,/beegfs/lgouveia/ior_4/testFile1,34359738368,1637870039.0,1637870039.0,201 102 103 104
5313f52b,1637870107.829121,/beegfs/lgouveia/ior_4/testFile1,34359738368,1637870107.0,1637870107.0,204 101 202 203
f13ed85c,1637870176.394341,/beegfs/lgouveia/ior_4/testFile1,34359738368,1637870176.0,1637870176.0,103 102 104 201
7532c329,1637870245.010694,/beegfs/lgouveia/ior_4/testFile1,34359738368,1637870244.0,1637870244.0,104 201 102 103
d2e4cfb5,1637870313.502558,/beegfs/lgouveia/ior_4/testFile1,34359738368,1637870313.0,1637870313.0,204 101 203 202
342c429a,1637870382.065544,/beegfs/lgouveia/ior_4/testFile1,34359738368,1637870381.0,1637870381.0,102 201 103 104
c4f3256f,1637870450.299836,/beegfs/lgouveia/ior_4/testFile1,34359738368,1637870450.0,1637870450.0,202 203 204 101
c706df47,1637870519.459509,/beegfs/lgouveia/ior_4/testFile1,34359738368,1637870519.0,1637870519.0,103 102 104 201
5f238c22,1637870711.669431,/beegfs/lgouveia/ior_4/testFile1,34359738368,1637870711.0,1637870711.0,202 101 203 204
711e75c9,1637870780.369071,/beegfs/lgouveia/ior_4/testFile1,34359738368,1637870780.0,1637870780.0,104 103 201 102
e5574156,1637870849.182562,/beegfs/lgouveia/ior_4/testFile1,34359738368,1637870848.0,1637870848.0,103 104 201 102
1937f9f1,1637870918.005762,/beegfs/lgouveia/ior_4/testFile1,34359738368,1637870917.0,1637870917.0,101 203 204 202
bc50e239,1637870986.465224,/beegfs/lgouveia/ior_4/testFile1,34359738368,1637870986.0,1637870986.0,203 202 204 101
b37d12e3,1637871055.320246,/beegfs/lgouveia/ior_4/testFile1,34359738368,1637871055.0,1637871055.0,201 102 103 104
a9accb31,1637871124.043765,/beegfs/lgouveia/ior_4/testFile1,34359738368,1637871123.0,1637871123.0,103 201 104 102
7eb9ea3b,1637871192.377946,/beegfs/lgouveia/ior_4/testFile1,34359738368,1637871192.0,1637871192.0,204 101 202 203
ad610648,1637871261.132131,/beegfs/lgouveia/ior_4/testFile1,34359738368,1637871260.0,1637871260.0,103 102 201 104
23c5af17,1637871329.427503,/beegfs/lgouveia/ior_4/testFile1,34359738368,1637871329.0,1637871329.0,203 204 101 202
a0ca7295,1637871851.904072,/beegfs/lgouveia/ior_4/testFile1,34359738368,1637871851.0,1637871851.0,103 102 104 201
ea906a4c,1637871920.366298,/beegfs/lgouveia/ior_4/testFile1,34359738368,1637871920.0,1637871920.0,204 203 202 101
d57bbfd6,1637871988.873734,/beegfs/lgouveia/ior_4/testFile1,34359738368,1637871988.0,1637871988.0,103 104 201 102
2212a9d0,1637872057.474862,/beegfs/lgouveia/ior_4/testFile1,34359738368,1637872057.0,1637872057.0,102 104 201 103
651a58b3,1637872125.600739,/beegfs/lgouveia/ior_4/testFile1,34359738368,1637872125.0,1637872125.0,101 202 204 203
f836f072,1637872195.082516,/beegfs/lgouveia/ior_4/testFile1,34359738368,1637872194.0,1637872194.0,201 102 103 104
df360580,1637872263.246423,/beegfs/lgouveia/ior_4/testFile1,34359738368,1637872262.0,1637872262.0,202 101 203 204
24915812,1637872332.042252,/beegfs/lgouveia/ior_4/testFile1,34359738368,1637872331.0,1637872331.0,201 102 103 104
b3964879,1637872400.085,/beegfs/lgouveia/ior_4/testFile1,34359738368,1637872399.0,1637872399.0,202 203 204 101
84cb19d8,1637872468.561393,/beegfs/lgouveia/ior_4/testFile1,34359738368,1637872468.0,1637872468.0,101 202 203 204
