===== My JOB Information ====
Node List:  bora[001-016]
my jobID:  1443704
Partition: routage
submit directory:  /home/lgouveia/luan-teylo/tests/omnipath/compute_nodes/8_targets/16
submit host:  devel02.plafrim.cluster
In the directory: /home/lgouveia/luan-teylo/tests/omnipath/compute_nodes/8_targets/16
As the user: lgouveia
============================
IOR-3.4.0+dev: MPI Coordinated Test of Parallel I/O
Began               : Tue Oct  5 05:30:13 2021
Command line        : /home/lgouveia/ior/bin/ior -w -t 1m -b 256m -k -o /beegfs/lgouveia/ior_8/testFile1
Machine             : Linux bora001.plafrim.cluster
TestID              : 0
StartTime           : Tue Oct  5 05:30:13 2021
Path                : /beegfs/lgouveia/ior_8/testFile1
FS                  : 130.9 TiB   Used FS: 31.5%   Inodes: 0.0 Mi   Used Inodes: -nan%

Options: 
api                 : POSIX
apiVersion          : 
test filename       : /beegfs/lgouveia/ior_8/testFile1
access              : single-shared-file
type                : independent
segments            : 1
ordering in a file  : sequential
ordering inter file : no tasks offsets
nodes               : 16
tasks               : 128
clients per node    : 8
repetitions         : 1
xfersize            : 1 MiB
blocksize           : 256 MiB
aggregate filesize  : 32 GiB

Results: 
WARNING: The file "/beegfs/lgouveia/ior_8/testFile1" exists already and will be overwritten

access    bw(MiB/s)  IOPS       Latency(s)  block(KiB) xfer(KiB)  open(s)    wr/rd(s)   close(s)   total(s)   iter
------    ---------  ----       ----------  ---------- ---------  --------   --------   --------   --------   ----
write     8600       8602       0.008478    262144     1024.00    0.154003   3.81       2.94       3.81       0   

Summary of all tests:
Operation   Max(MiB)   Min(MiB)  Mean(MiB)     StdDev   Max(OPs)   Min(OPs)  Mean(OPs)     StdDev    Mean(s) Stonewall(s) Stonewall(MiB) Test# #Tasks tPN reps fPP reord reordoff reordrand seed segcnt   blksiz    xsize aggs(MiB)   API RefNum
write        8599.71    8599.71    8599.71       0.00    8599.71    8599.71    8599.71       0.00    3.81036         NA            NA     0    128   8    1   0     0        1         0    0      1 268435456  1048576   32768.0 POSIX      0
Finished            : Tue Oct  5 05:30:17 2021
Tracking /beegfs/lgouveia/ior_8/testFile1...



Writing tracked information to tracker.csv...
