===== My JOB Information ====
Node List:  bora[003-008]
my jobID:  1462559
Partition: routage
submit directory:  /home/lgouveia/luan-teylo/tests/omnipath/compute_nodes/4_targets/06
submit host:  devel02.plafrim.cluster
In the directory: /home/lgouveia/luan-teylo/tests/omnipath/compute_nodes/4_targets/06
As the user: lgouveia
============================
IOR-3.4.0+dev: MPI Coordinated Test of Parallel I/O
Began               : Fri Nov 26 00:31:00 2021
Command line        : /home/lgouveia/ior/bin/ior -w -t 1m -b 682m -k -o /beegfs/lgouveia/ior_4/testFile1
Machine             : Linux bora003.plafrim.cluster
TestID              : 0
StartTime           : Fri Nov 26 00:31:00 2021
Path                : /beegfs/lgouveia/ior_4/testFile1
FS                  : 130.9 TiB   Used FS: 34.7%   Inodes: 0.0 Mi   Used Inodes: -nan%

Options: 
api                 : POSIX
apiVersion          : 
test filename       : /beegfs/lgouveia/ior_4/testFile1
access              : single-shared-file
type                : independent
segments            : 1
ordering in a file  : sequential
ordering inter file : no tasks offsets
nodes               : 6
tasks               : 48
clients per node    : 8
repetitions         : 1
xfersize            : 1 MiB
blocksize           : 682 MiB
aggregate filesize  : 31.97 GiB

Results: 
WARNING: The file "/beegfs/lgouveia/ior_4/testFile1" exists already and will be overwritten

access    bw(MiB/s)  IOPS       Latency(s)  block(KiB) xfer(KiB)  open(s)    wr/rd(s)   close(s)   total(s)   iter
------    ---------  ----       ----------  ---------- ---------  --------   --------   --------   --------   ----
write     5289       5290       0.001282    698368     1024.00    0.005619   6.19       5.31       6.19       0   

Summary of all tests:
Operation   Max(MiB)   Min(MiB)  Mean(MiB)     StdDev   Max(OPs)   Min(OPs)  Mean(OPs)     StdDev    Mean(s) Stonewall(s) Stonewall(MiB) Test# #Tasks tPN reps fPP reord reordoff reordrand seed segcnt   blksiz    xsize aggs(MiB)   API RefNum
write        5289.01    5289.01    5289.01       0.00    5289.01    5289.01    5289.01       0.00    6.18943         NA            NA     0     48   8    1   0     0        1         0    0      1 715128832  1048576   32736.0 POSIX      0
Finished            : Fri Nov 26 00:31:06 2021
Tracking /beegfs/lgouveia/ior_4/testFile1...



Writing tracked information to tracker.csv...
IOR-3.4.0+dev: MPI Coordinated Test of Parallel I/O
Began               : Fri Nov 26 00:32:09 2021
Command line        : /home/lgouveia/ior/bin/ior -w -t 1m -b 682m -k -o /beegfs/lgouveia/ior_4/testFile1
Machine             : Linux bora003.plafrim.cluster
TestID              : 0
StartTime           : Fri Nov 26 00:32:09 2021
Path                : /beegfs/lgouveia/ior_4/testFile1
FS                  : 130.9 TiB   Used FS: 34.7%   Inodes: 0.0 Mi   Used Inodes: -nan%

Options: 
api                 : POSIX
apiVersion          : 
test filename       : /beegfs/lgouveia/ior_4/testFile1
access              : single-shared-file
type                : independent
segments            : 1
ordering in a file  : sequential
ordering inter file : no tasks offsets
nodes               : 6
tasks               : 48
clients per node    : 8
repetitions         : 1
xfersize            : 1 MiB
blocksize           : 682 MiB
aggregate filesize  : 31.97 GiB

Results: 
WARNING: The file "/beegfs/lgouveia/ior_4/testFile1" exists already and will be overwritten

access    bw(MiB/s)  IOPS       Latency(s)  block(KiB) xfer(KiB)  open(s)    wr/rd(s)   close(s)   total(s)   iter
------    ---------  ----       ----------  ---------- ---------  --------   --------   --------   --------   ----
write     5584       5585       0.004617    698368     1024.00    0.008803   5.86       4.61       5.86       0   

Summary of all tests:
Operation   Max(MiB)   Min(MiB)  Mean(MiB)     StdDev   Max(OPs)   Min(OPs)  Mean(OPs)     StdDev    Mean(s) Stonewall(s) Stonewall(MiB) Test# #Tasks tPN reps fPP reord reordoff reordrand seed segcnt   blksiz    xsize aggs(MiB)   API RefNum
write        5583.60    5583.60    5583.60       0.00    5583.60    5583.60    5583.60       0.00    5.86289         NA            NA     0     48   8    1   0     0        1         0    0      1 715128832  1048576   32736.0 POSIX      0
Finished            : Fri Nov 26 00:32:15 2021
Tracking /beegfs/lgouveia/ior_4/testFile1...



Writing tracked information to tracker.csv...
IOR-3.4.0+dev: MPI Coordinated Test of Parallel I/O
Began               : Fri Nov 26 00:33:16 2021
Command line        : /home/lgouveia/ior/bin/ior -w -t 1m -b 682m -k -o /beegfs/lgouveia/ior_4/testFile1
Machine             : Linux bora003.plafrim.cluster
TestID              : 0
StartTime           : Fri Nov 26 00:33:16 2021
Path                : /beegfs/lgouveia/ior_4/testFile1
FS                  : 130.9 TiB   Used FS: 34.7%   Inodes: 0.0 Mi   Used Inodes: -nan%

Options: 
api                 : POSIX
apiVersion          : 
test filename       : /beegfs/lgouveia/ior_4/testFile1
access              : single-shared-file
type                : independent
segments            : 1
ordering in a file  : sequential
ordering inter file : no tasks offsets
nodes               : 6
tasks               : 48
clients per node    : 8
repetitions         : 1
xfersize            : 1 MiB
blocksize           : 682 MiB
aggregate filesize  : 31.97 GiB

Results: 
WARNING: The file "/beegfs/lgouveia/ior_4/testFile1" exists already and will be overwritten

access    bw(MiB/s)  IOPS       Latency(s)  block(KiB) xfer(KiB)  open(s)    wr/rd(s)   close(s)   total(s)   iter
------    ---------  ----       ----------  ---------- ---------  --------   --------   --------   --------   ----
write     5651       5653       0.001311    698368     1024.00    0.011894   5.79       4.90       5.79       0   

Summary of all tests:
Operation   Max(MiB)   Min(MiB)  Mean(MiB)     StdDev   Max(OPs)   Min(OPs)  Mean(OPs)     StdDev    Mean(s) Stonewall(s) Stonewall(MiB) Test# #Tasks tPN reps fPP reord reordoff reordrand seed segcnt   blksiz    xsize aggs(MiB)   API RefNum
write        5651.50    5651.50    5651.50       0.00    5651.50    5651.50    5651.50       0.00    5.79245         NA            NA     0     48   8    1   0     0        1         0    0      1 715128832  1048576   32736.0 POSIX      0
Finished            : Fri Nov 26 00:33:22 2021
Tracking /beegfs/lgouveia/ior_4/testFile1...



Writing tracked information to tracker.csv...
IOR-3.4.0+dev: MPI Coordinated Test of Parallel I/O
Began               : Fri Nov 26 00:34:23 2021
Command line        : /home/lgouveia/ior/bin/ior -w -t 1m -b 682m -k -o /beegfs/lgouveia/ior_4/testFile1
Machine             : Linux bora003.plafrim.cluster
TestID              : 0
StartTime           : Fri Nov 26 00:34:23 2021
Path                : /beegfs/lgouveia/ior_4/testFile1
FS                  : 130.9 TiB   Used FS: 34.7%   Inodes: 0.0 Mi   Used Inodes: -nan%

Options: 
api                 : POSIX
apiVersion          : 
test filename       : /beegfs/lgouveia/ior_4/testFile1
access              : single-shared-file
type                : independent
segments            : 1
ordering in a file  : sequential
ordering inter file : no tasks offsets
nodes               : 6
tasks               : 48
clients per node    : 8
repetitions         : 1
xfersize            : 1 MiB
blocksize           : 682 MiB
aggregate filesize  : 31.97 GiB

Results: 
WARNING: The file "/beegfs/lgouveia/ior_4/testFile1" exists already and will be overwritten

access    bw(MiB/s)  IOPS       Latency(s)  block(KiB) xfer(KiB)  open(s)    wr/rd(s)   close(s)   total(s)   iter
------    ---------  ----       ----------  ---------- ---------  --------   --------   --------   --------   ----
write     5126       5126       0.005776    698368     1024.00    0.006598   6.39       5.50       6.39       0   

Summary of all tests:
Operation   Max(MiB)   Min(MiB)  Mean(MiB)     StdDev   Max(OPs)   Min(OPs)  Mean(OPs)     StdDev    Mean(s) Stonewall(s) Stonewall(MiB) Test# #Tasks tPN reps fPP reord reordoff reordrand seed segcnt   blksiz    xsize aggs(MiB)   API RefNum
write        5125.57    5125.57    5125.57       0.00    5125.57    5125.57    5125.57       0.00    6.38681         NA            NA     0     48   8    1   0     0        1         0    0      1 715128832  1048576   32736.0 POSIX      0
Finished            : Fri Nov 26 00:34:29 2021
Tracking /beegfs/lgouveia/ior_4/testFile1...



Writing tracked information to tracker.csv...
IOR-3.4.0+dev: MPI Coordinated Test of Parallel I/O
Began               : Fri Nov 26 00:35:30 2021
Command line        : /home/lgouveia/ior/bin/ior -w -t 1m -b 682m -k -o /beegfs/lgouveia/ior_4/testFile1
Machine             : Linux bora003.plafrim.cluster
TestID              : 0
StartTime           : Fri Nov 26 00:35:30 2021
Path                : /beegfs/lgouveia/ior_4/testFile1
FS                  : 130.9 TiB   Used FS: 34.7%   Inodes: 0.0 Mi   Used Inodes: -nan%

Options: 
api                 : POSIX
apiVersion          : 
test filename       : /beegfs/lgouveia/ior_4/testFile1
access              : single-shared-file
type                : independent
segments            : 1
ordering in a file  : sequential
ordering inter file : no tasks offsets
nodes               : 6
tasks               : 48
clients per node    : 8
repetitions         : 1
xfersize            : 1 MiB
blocksize           : 682 MiB
aggregate filesize  : 31.97 GiB

Results: 
WARNING: The file "/beegfs/lgouveia/ior_4/testFile1" exists already and will be overwritten

access    bw(MiB/s)  IOPS       Latency(s)  block(KiB) xfer(KiB)  open(s)    wr/rd(s)   close(s)   total(s)   iter
------    ---------  ----       ----------  ---------- ---------  --------   --------   --------   --------   ----
write     5340       5341       0.004594    698368     1024.00    0.010693   6.13       5.06       6.13       0   

Summary of all tests:
Operation   Max(MiB)   Min(MiB)  Mean(MiB)     StdDev   Max(OPs)   Min(OPs)  Mean(OPs)     StdDev    Mean(s) Stonewall(s) Stonewall(MiB) Test# #Tasks tPN reps fPP reord reordoff reordrand seed segcnt   blksiz    xsize aggs(MiB)   API RefNum
write        5339.59    5339.59    5339.59       0.00    5339.59    5339.59    5339.59       0.00    6.13080         NA            NA     0     48   8    1   0     0        1         0    0      1 715128832  1048576   32736.0 POSIX      0
Finished            : Fri Nov 26 00:35:36 2021
Tracking /beegfs/lgouveia/ior_4/testFile1...



Writing tracked information to tracker.csv...
IOR-3.4.0+dev: MPI Coordinated Test of Parallel I/O
Began               : Fri Nov 26 00:36:37 2021
Command line        : /home/lgouveia/ior/bin/ior -w -t 1m -b 682m -k -o /beegfs/lgouveia/ior_4/testFile1
Machine             : Linux bora003.plafrim.cluster
TestID              : 0
StartTime           : Fri Nov 26 00:36:37 2021
Path                : /beegfs/lgouveia/ior_4/testFile1
FS                  : 130.9 TiB   Used FS: 34.7%   Inodes: 0.0 Mi   Used Inodes: -nan%

Options: 
api                 : POSIX
apiVersion          : 
test filename       : /beegfs/lgouveia/ior_4/testFile1
access              : single-shared-file
type                : independent
segments            : 1
ordering in a file  : sequential
ordering inter file : no tasks offsets
nodes               : 6
tasks               : 48
clients per node    : 8
repetitions         : 1
xfersize            : 1 MiB
blocksize           : 682 MiB
aggregate filesize  : 31.97 GiB

Results: 
WARNING: The file "/beegfs/lgouveia/ior_4/testFile1" exists already and will be overwritten

access    bw(MiB/s)  IOPS       Latency(s)  block(KiB) xfer(KiB)  open(s)    wr/rd(s)   close(s)   total(s)   iter
------    ---------  ----       ----------  ---------- ---------  --------   --------   --------   --------   ----
write     5095       5096       0.003731    698368     1024.00    0.006153   6.42       5.59       6.42       0   

Summary of all tests:
Operation   Max(MiB)   Min(MiB)  Mean(MiB)     StdDev   Max(OPs)   Min(OPs)  Mean(OPs)     StdDev    Mean(s) Stonewall(s) Stonewall(MiB) Test# #Tasks tPN reps fPP reord reordoff reordrand seed segcnt   blksiz    xsize aggs(MiB)   API RefNum
write        5095.35    5095.35    5095.35       0.00    5095.35    5095.35    5095.35       0.00    6.42468         NA            NA     0     48   8    1   0     0        1         0    0      1 715128832  1048576   32736.0 POSIX      0
Finished            : Fri Nov 26 00:36:44 2021
Tracking /beegfs/lgouveia/ior_4/testFile1...



Writing tracked information to tracker.csv...
IOR-3.4.0+dev: MPI Coordinated Test of Parallel I/O
Began               : Fri Nov 26 00:37:44 2021
Command line        : /home/lgouveia/ior/bin/ior -w -t 1m -b 682m -k -o /beegfs/lgouveia/ior_4/testFile1
Machine             : Linux bora003.plafrim.cluster
TestID              : 0
StartTime           : Fri Nov 26 00:37:44 2021
Path                : /beegfs/lgouveia/ior_4/testFile1
FS                  : 130.9 TiB   Used FS: 34.7%   Inodes: 0.0 Mi   Used Inodes: -nan%

Options: 
api                 : POSIX
apiVersion          : 
test filename       : /beegfs/lgouveia/ior_4/testFile1
access              : single-shared-file
type                : independent
segments            : 1
ordering in a file  : sequential
ordering inter file : no tasks offsets
nodes               : 6
tasks               : 48
clients per node    : 8
repetitions         : 1
xfersize            : 1 MiB
blocksize           : 682 MiB
aggregate filesize  : 31.97 GiB

Results: 
WARNING: The file "/beegfs/lgouveia/ior_4/testFile1" exists already and will be overwritten

access    bw(MiB/s)  IOPS       Latency(s)  block(KiB) xfer(KiB)  open(s)    wr/rd(s)   close(s)   total(s)   iter
------    ---------  ----       ----------  ---------- ---------  --------   --------   --------   --------   ----
write     5598       5599       0.006703    698368     1024.00    0.009994   5.85       4.71       5.85       0   

Summary of all tests:
Operation   Max(MiB)   Min(MiB)  Mean(MiB)     StdDev   Max(OPs)   Min(OPs)  Mean(OPs)     StdDev    Mean(s) Stonewall(s) Stonewall(MiB) Test# #Tasks tPN reps fPP reord reordoff reordrand seed segcnt   blksiz    xsize aggs(MiB)   API RefNum
write        5598.08    5598.08    5598.08       0.00    5598.08    5598.08    5598.08       0.00    5.84772         NA            NA     0     48   8    1   0     0        1         0    0      1 715128832  1048576   32736.0 POSIX      0
Finished            : Fri Nov 26 00:37:50 2021
Tracking /beegfs/lgouveia/ior_4/testFile1...



Writing tracked information to tracker.csv...
IOR-3.4.0+dev: MPI Coordinated Test of Parallel I/O
Began               : Fri Nov 26 00:38:51 2021
Command line        : /home/lgouveia/ior/bin/ior -w -t 1m -b 682m -k -o /beegfs/lgouveia/ior_4/testFile1
Machine             : Linux bora003.plafrim.cluster
TestID              : 0
StartTime           : Fri Nov 26 00:38:51 2021
Path                : /beegfs/lgouveia/ior_4/testFile1
FS                  : 130.9 TiB   Used FS: 34.7%   Inodes: 0.0 Mi   Used Inodes: -nan%

Options: 
api                 : POSIX
apiVersion          : 
test filename       : /beegfs/lgouveia/ior_4/testFile1
access              : single-shared-file
type                : independent
segments            : 1
ordering in a file  : sequential
ordering inter file : no tasks offsets
nodes               : 6
tasks               : 48
clients per node    : 8
repetitions         : 1
xfersize            : 1 MiB
blocksize           : 682 MiB
aggregate filesize  : 31.97 GiB

Results: 
WARNING: The file "/beegfs/lgouveia/ior_4/testFile1" exists already and will be overwritten

access    bw(MiB/s)  IOPS       Latency(s)  block(KiB) xfer(KiB)  open(s)    wr/rd(s)   close(s)   total(s)   iter
------    ---------  ----       ----------  ---------- ---------  --------   --------   --------   --------   ----
write     5558       5559       0.002453    698368     1024.00    0.013762   5.89       5.04       5.89       0   

Summary of all tests:
Operation   Max(MiB)   Min(MiB)  Mean(MiB)     StdDev   Max(OPs)   Min(OPs)  Mean(OPs)     StdDev    Mean(s) Stonewall(s) Stonewall(MiB) Test# #Tasks tPN reps fPP reord reordoff reordrand seed segcnt   blksiz    xsize aggs(MiB)   API RefNum
write        5557.92    5557.92    5557.92       0.00    5557.92    5557.92    5557.92       0.00    5.88997         NA            NA     0     48   8    1   0     0        1         0    0      1 715128832  1048576   32736.0 POSIX      0
Finished            : Fri Nov 26 00:38:57 2021
Tracking /beegfs/lgouveia/ior_4/testFile1...



Writing tracked information to tracker.csv...
IOR-3.4.0+dev: MPI Coordinated Test of Parallel I/O
Began               : Fri Nov 26 00:39:58 2021
Command line        : /home/lgouveia/ior/bin/ior -w -t 1m -b 682m -k -o /beegfs/lgouveia/ior_4/testFile1
Machine             : Linux bora003.plafrim.cluster
TestID              : 0
StartTime           : Fri Nov 26 00:39:58 2021
Path                : /beegfs/lgouveia/ior_4/testFile1
FS                  : 130.9 TiB   Used FS: 34.7%   Inodes: 0.0 Mi   Used Inodes: -nan%

Options: 
api                 : POSIX
apiVersion          : 
test filename       : /beegfs/lgouveia/ior_4/testFile1
access              : single-shared-file
type                : independent
segments            : 1
ordering in a file  : sequential
ordering inter file : no tasks offsets
nodes               : 6
tasks               : 48
clients per node    : 8
repetitions         : 1
xfersize            : 1 MiB
blocksize           : 682 MiB
aggregate filesize  : 31.97 GiB

Results: 
WARNING: The file "/beegfs/lgouveia/ior_4/testFile1" exists already and will be overwritten

access    bw(MiB/s)  IOPS       Latency(s)  block(KiB) xfer(KiB)  open(s)    wr/rd(s)   close(s)   total(s)   iter
------    ---------  ----       ----------  ---------- ---------  --------   --------   --------   --------   ----
write     5231       5232       0.003753    698368     1024.00    0.005866   6.26       5.50       6.26       0   

Summary of all tests:
Operation   Max(MiB)   Min(MiB)  Mean(MiB)     StdDev   Max(OPs)   Min(OPs)  Mean(OPs)     StdDev    Mean(s) Stonewall(s) Stonewall(MiB) Test# #Tasks tPN reps fPP reord reordoff reordrand seed segcnt   blksiz    xsize aggs(MiB)   API RefNum
write        5231.49    5231.49    5231.49       0.00    5231.49    5231.49    5231.49       0.00    6.25749         NA            NA     0     48   8    1   0     0        1         0    0      1 715128832  1048576   32736.0 POSIX      0
Finished            : Fri Nov 26 00:40:04 2021
Tracking /beegfs/lgouveia/ior_4/testFile1...



Writing tracked information to tracker.csv...
IOR-3.4.0+dev: MPI Coordinated Test of Parallel I/O
Began               : Fri Nov 26 00:41:05 2021
Command line        : /home/lgouveia/ior/bin/ior -w -t 1m -b 682m -k -o /beegfs/lgouveia/ior_4/testFile1
Machine             : Linux bora003.plafrim.cluster
TestID              : 0
StartTime           : Fri Nov 26 00:41:05 2021
Path                : /beegfs/lgouveia/ior_4/testFile1
FS                  : 130.9 TiB   Used FS: 34.7%   Inodes: 0.0 Mi   Used Inodes: -nan%

Options: 
api                 : POSIX
apiVersion          : 
test filename       : /beegfs/lgouveia/ior_4/testFile1
access              : single-shared-file
type                : independent
segments            : 1
ordering in a file  : sequential
ordering inter file : no tasks offsets
nodes               : 6
tasks               : 48
clients per node    : 8
repetitions         : 1
xfersize            : 1 MiB
blocksize           : 682 MiB
aggregate filesize  : 31.97 GiB

Results: 
WARNING: The file "/beegfs/lgouveia/ior_4/testFile1" exists already and will be overwritten

access    bw(MiB/s)  IOPS       Latency(s)  block(KiB) xfer(KiB)  open(s)    wr/rd(s)   close(s)   total(s)   iter
------    ---------  ----       ----------  ---------- ---------  --------   --------   --------   --------   ----
write     5560       5561       0.003342    698368     1024.00    0.009706   5.89       4.98       5.89       0   

Summary of all tests:
Operation   Max(MiB)   Min(MiB)  Mean(MiB)     StdDev   Max(OPs)   Min(OPs)  Mean(OPs)     StdDev    Mean(s) Stonewall(s) Stonewall(MiB) Test# #Tasks tPN reps fPP reord reordoff reordrand seed segcnt   blksiz    xsize aggs(MiB)   API RefNum
write        5560.23    5560.23    5560.23       0.00    5560.23    5560.23    5560.23       0.00    5.88753         NA            NA     0     48   8    1   0     0        1         0    0      1 715128832  1048576   32736.0 POSIX      0
Finished            : Fri Nov 26 00:41:11 2021
Tracking /beegfs/lgouveia/ior_4/testFile1...



Writing tracked information to tracker.csv...
