IOR-3.4.0+dev: MPI Coordinated Test of Parallel I/O
Began               : Wed Feb 23 17:13:58 2022
Command line        : /home/lgouveia/ior/bin/ior -w -t 1m -b 512m -k -o /beegfs/lgouveia/ior_2/file_1
Machine             : Linux bora003.plafrim.cluster
TestID              : 0
StartTime           : Wed Feb 23 17:13:58 2022
Path                : /beegfs/lgouveia/ior_2/file_1
FS                  : 130.9 TiB   Used FS: 37.4%   Inodes: 0.0 Mi   Used Inodes: -nan%

Options: 
api                 : POSIX
apiVersion          : 
test filename       : /beegfs/lgouveia/ior_2/file_1
access              : single-shared-file
type                : independent
segments            : 1
ordering in a file  : sequential
ordering inter file : no tasks offsets
nodes               : 8
tasks               : 64
clients per node    : 8
repetitions         : 1
xfersize            : 1 MiB
blocksize           : 512 MiB
aggregate filesize  : 32 GiB

Results: 

access    bw(MiB/s)  IOPS       Latency(s)  block(KiB) xfer(KiB)  open(s)    wr/rd(s)   close(s)   total(s)   iter
------    ---------  ----       ----------  ---------- ---------  --------   --------   --------   --------   ----
write     2347.72    2347.89    0.020560    524288     1024.00    0.017289   13.96      12.71      13.96      0   

Summary of all tests:
Operation   Max(MiB)   Min(MiB)  Mean(MiB)     StdDev   Max(OPs)   Min(OPs)  Mean(OPs)     StdDev    Mean(s) Stonewall(s) Stonewall(MiB) Test# #Tasks tPN reps fPP reord reordoff reordrand seed segcnt   blksiz    xsize aggs(MiB)   API RefNum
write        2347.72    2347.72    2347.72       0.00    2347.72    2347.72    2347.72       0.00   13.95736         NA            NA     0     64   8    1   0     0        1         0    0      1 536870912  1048576   32768.0 POSIX      0
Finished            : Wed Feb 23 17:14:12 2022
IOR-3.4.0+dev: MPI Coordinated Test of Parallel I/O
Began               : Wed Feb 23 17:15:15 2022
Command line        : /home/lgouveia/ior/bin/ior -w -t 1m -b 512m -k -o /beegfs/lgouveia/ior_2/file_1
Machine             : Linux bora003.plafrim.cluster
TestID              : 0
StartTime           : Wed Feb 23 17:15:15 2022
Path                : /beegfs/lgouveia/ior_2/file_1
FS                  : 130.9 TiB   Used FS: 37.4%   Inodes: 0.0 Mi   Used Inodes: -nan%

Options: 
api                 : POSIX
apiVersion          : 
test filename       : /beegfs/lgouveia/ior_2/file_1
access              : single-shared-file
type                : independent
segments            : 1
ordering in a file  : sequential
ordering inter file : no tasks offsets
nodes               : 8
tasks               : 64
clients per node    : 8
repetitions         : 1
xfersize            : 1 MiB
blocksize           : 512 MiB
aggregate filesize  : 32 GiB

Results: 

access    bw(MiB/s)  IOPS       Latency(s)  block(KiB) xfer(KiB)  open(s)    wr/rd(s)   close(s)   total(s)   iter
------    ---------  ----       ----------  ---------- ---------  --------   --------   --------   --------   ----
write     2302.05    2302.22    0.025744    524288     1024.00    0.019182   14.23      12.83      14.23      0   

Summary of all tests:
Operation   Max(MiB)   Min(MiB)  Mean(MiB)     StdDev   Max(OPs)   Min(OPs)  Mean(OPs)     StdDev    Mean(s) Stonewall(s) Stonewall(MiB) Test# #Tasks tPN reps fPP reord reordoff reordrand seed segcnt   blksiz    xsize aggs(MiB)   API RefNum
write        2302.05    2302.05    2302.05       0.00    2302.05    2302.05    2302.05       0.00   14.23424         NA            NA     0     64   8    1   0     0        1         0    0      1 536870912  1048576   32768.0 POSIX      0
Finished            : Wed Feb 23 17:15:30 2022
IOR-3.4.0+dev: MPI Coordinated Test of Parallel I/O
Began               : Wed Feb 23 17:16:31 2022
Command line        : /home/lgouveia/ior/bin/ior -w -t 1m -b 512m -k -o /beegfs/lgouveia/ior_2/file_1
Machine             : Linux bora003.plafrim.cluster
TestID              : 0
StartTime           : Wed Feb 23 17:16:31 2022
Path                : /beegfs/lgouveia/ior_2/file_1
FS                  : 130.9 TiB   Used FS: 37.4%   Inodes: 0.0 Mi   Used Inodes: -nan%

Options: 
api                 : POSIX
apiVersion          : 
test filename       : /beegfs/lgouveia/ior_2/file_1
access              : single-shared-file
type                : independent
segments            : 1
ordering in a file  : sequential
ordering inter file : no tasks offsets
nodes               : 8
tasks               : 64
clients per node    : 8
repetitions         : 1
xfersize            : 1 MiB
blocksize           : 512 MiB
aggregate filesize  : 32 GiB

Results: 

access    bw(MiB/s)  IOPS       Latency(s)  block(KiB) xfer(KiB)  open(s)    wr/rd(s)   close(s)   total(s)   iter
------    ---------  ----       ----------  ---------- ---------  --------   --------   --------   --------   ----
write     2210.04    2210.19    0.006224    524288     1024.00    0.011569   14.83      13.37      14.83      0   

Summary of all tests:
Operation   Max(MiB)   Min(MiB)  Mean(MiB)     StdDev   Max(OPs)   Min(OPs)  Mean(OPs)     StdDev    Mean(s) Stonewall(s) Stonewall(MiB) Test# #Tasks tPN reps fPP reord reordoff reordrand seed segcnt   blksiz    xsize aggs(MiB)   API RefNum
write        2210.04    2210.04    2210.04       0.00    2210.04    2210.04    2210.04       0.00   14.82690         NA            NA     0     64   8    1   0     0        1         0    0      1 536870912  1048576   32768.0 POSIX      0
Finished            : Wed Feb 23 17:16:46 2022
IOR-3.4.0+dev: MPI Coordinated Test of Parallel I/O
Began               : Wed Feb 23 17:17:48 2022
Command line        : /home/lgouveia/ior/bin/ior -w -t 1m -b 512m -k -o /beegfs/lgouveia/ior_2/file_1
Machine             : Linux bora003.plafrim.cluster
TestID              : 0
StartTime           : Wed Feb 23 17:17:48 2022
Path                : /beegfs/lgouveia/ior_2/file_1
FS                  : 130.9 TiB   Used FS: 37.4%   Inodes: 0.0 Mi   Used Inodes: -nan%

Options: 
api                 : POSIX
apiVersion          : 
test filename       : /beegfs/lgouveia/ior_2/file_1
access              : single-shared-file
type                : independent
segments            : 1
ordering in a file  : sequential
ordering inter file : no tasks offsets
nodes               : 8
tasks               : 64
clients per node    : 8
repetitions         : 1
xfersize            : 1 MiB
blocksize           : 512 MiB
aggregate filesize  : 32 GiB

Results: 

access    bw(MiB/s)  IOPS       Latency(s)  block(KiB) xfer(KiB)  open(s)    wr/rd(s)   close(s)   total(s)   iter
------    ---------  ----       ----------  ---------- ---------  --------   --------   --------   --------   ----
write     2518.58    2518.74    0.007614    524288     1024.00    0.013199   13.01      11.64      13.01      0   

Summary of all tests:
Operation   Max(MiB)   Min(MiB)  Mean(MiB)     StdDev   Max(OPs)   Min(OPs)  Mean(OPs)     StdDev    Mean(s) Stonewall(s) Stonewall(MiB) Test# #Tasks tPN reps fPP reord reordoff reordrand seed segcnt   blksiz    xsize aggs(MiB)   API RefNum
write        2518.58    2518.58    2518.58       0.00    2518.58    2518.58    2518.58       0.00   13.01049         NA            NA     0     64   8    1   0     0        1         0    0      1 536870912  1048576   32768.0 POSIX      0
Finished            : Wed Feb 23 17:18:01 2022
IOR-3.4.0+dev: MPI Coordinated Test of Parallel I/O
Began               : Wed Feb 23 17:19:03 2022
Command line        : /home/lgouveia/ior/bin/ior -w -t 1m -b 512m -k -o /beegfs/lgouveia/ior_2/file_1
Machine             : Linux bora003.plafrim.cluster
TestID              : 0
StartTime           : Wed Feb 23 17:19:03 2022
Path                : /beegfs/lgouveia/ior_2/file_1
FS                  : 130.9 TiB   Used FS: 37.4%   Inodes: 0.0 Mi   Used Inodes: -nan%

Options: 
api                 : POSIX
apiVersion          : 
test filename       : /beegfs/lgouveia/ior_2/file_1
access              : single-shared-file
type                : independent
segments            : 1
ordering in a file  : sequential
ordering inter file : no tasks offsets
nodes               : 8
tasks               : 64
clients per node    : 8
repetitions         : 1
xfersize            : 1 MiB
blocksize           : 512 MiB
aggregate filesize  : 32 GiB

Results: 

access    bw(MiB/s)  IOPS       Latency(s)  block(KiB) xfer(KiB)  open(s)    wr/rd(s)   close(s)   total(s)   iter
------    ---------  ----       ----------  ---------- ---------  --------   --------   --------   --------   ----
write     2488.33    2488.52    0.014752    524288     1024.00    0.006605   13.17      11.88      13.17      0   

Summary of all tests:
Operation   Max(MiB)   Min(MiB)  Mean(MiB)     StdDev   Max(OPs)   Min(OPs)  Mean(OPs)     StdDev    Mean(s) Stonewall(s) Stonewall(MiB) Test# #Tasks tPN reps fPP reord reordoff reordrand seed segcnt   blksiz    xsize aggs(MiB)   API RefNum
write        2488.33    2488.33    2488.33       0.00    2488.33    2488.33    2488.33       0.00   13.16869         NA            NA     0     64   8    1   0     0        1         0    0      1 536870912  1048576   32768.0 POSIX      0
Finished            : Wed Feb 23 17:19:17 2022
IOR-3.4.0+dev: MPI Coordinated Test of Parallel I/O
Began               : Wed Feb 23 17:20:18 2022
Command line        : /home/lgouveia/ior/bin/ior -w -t 1m -b 512m -k -o /beegfs/lgouveia/ior_2/file_1
Machine             : Linux bora003.plafrim.cluster
TestID              : 0
StartTime           : Wed Feb 23 17:20:18 2022
Path                : /beegfs/lgouveia/ior_2/file_1
FS                  : 130.9 TiB   Used FS: 37.4%   Inodes: 0.0 Mi   Used Inodes: -nan%

Options: 
api                 : POSIX
apiVersion          : 
test filename       : /beegfs/lgouveia/ior_2/file_1
access              : single-shared-file
type                : independent
segments            : 1
ordering in a file  : sequential
ordering inter file : no tasks offsets
nodes               : 8
tasks               : 64
clients per node    : 8
repetitions         : 1
xfersize            : 1 MiB
blocksize           : 512 MiB
aggregate filesize  : 32 GiB

Results: 

access    bw(MiB/s)  IOPS       Latency(s)  block(KiB) xfer(KiB)  open(s)    wr/rd(s)   close(s)   total(s)   iter
------    ---------  ----       ----------  ---------- ---------  --------   --------   --------   --------   ----
write     2281.45    2281.64    0.016775    524288     1024.00    0.016055   14.36      13.01      14.36      0   

Summary of all tests:
Operation   Max(MiB)   Min(MiB)  Mean(MiB)     StdDev   Max(OPs)   Min(OPs)  Mean(OPs)     StdDev    Mean(s) Stonewall(s) Stonewall(MiB) Test# #Tasks tPN reps fPP reord reordoff reordrand seed segcnt   blksiz    xsize aggs(MiB)   API RefNum
write        2281.45    2281.45    2281.45       0.00    2281.45    2281.45    2281.45       0.00   14.36277         NA            NA     0     64   8    1   0     0        1         0    0      1 536870912  1048576   32768.0 POSIX      0
Finished            : Wed Feb 23 17:20:32 2022
IOR-3.4.0+dev: MPI Coordinated Test of Parallel I/O
Began               : Wed Feb 23 17:21:36 2022
Command line        : /home/lgouveia/ior/bin/ior -w -t 1m -b 512m -k -o /beegfs/lgouveia/ior_2/file_1
Machine             : Linux bora003.plafrim.cluster
TestID              : 0
StartTime           : Wed Feb 23 17:21:36 2022
Path                : /beegfs/lgouveia/ior_2/file_1
FS                  : 130.9 TiB   Used FS: 37.4%   Inodes: 0.0 Mi   Used Inodes: -nan%

Options: 
api                 : POSIX
apiVersion          : 
test filename       : /beegfs/lgouveia/ior_2/file_1
access              : single-shared-file
type                : independent
segments            : 1
ordering in a file  : sequential
ordering inter file : no tasks offsets
nodes               : 8
tasks               : 64
clients per node    : 8
repetitions         : 1
xfersize            : 1 MiB
blocksize           : 512 MiB
aggregate filesize  : 32 GiB

Results: 

access    bw(MiB/s)  IOPS       Latency(s)  block(KiB) xfer(KiB)  open(s)    wr/rd(s)   close(s)   total(s)   iter
------    ---------  ----       ----------  ---------- ---------  --------   --------   --------   --------   ----
write     2355.08    2355.24    0.022093    524288     1024.00    0.010025   13.91      12.17      13.91      0   

Summary of all tests:
Operation   Max(MiB)   Min(MiB)  Mean(MiB)     StdDev   Max(OPs)   Min(OPs)  Mean(OPs)     StdDev    Mean(s) Stonewall(s) Stonewall(MiB) Test# #Tasks tPN reps fPP reord reordoff reordrand seed segcnt   blksiz    xsize aggs(MiB)   API RefNum
write        2355.08    2355.08    2355.08       0.00    2355.08    2355.08    2355.08       0.00   13.91376         NA            NA     0     64   8    1   0     0        1         0    0      1 536870912  1048576   32768.0 POSIX      0
Finished            : Wed Feb 23 17:21:50 2022
IOR-3.4.0+dev: MPI Coordinated Test of Parallel I/O
Began               : Wed Feb 23 17:22:51 2022
Command line        : /home/lgouveia/ior/bin/ior -w -t 1m -b 512m -k -o /beegfs/lgouveia/ior_2/file_1
Machine             : Linux bora003.plafrim.cluster
TestID              : 0
StartTime           : Wed Feb 23 17:22:51 2022
Path                : /beegfs/lgouveia/ior_2/file_1
FS                  : 130.9 TiB   Used FS: 37.4%   Inodes: 0.0 Mi   Used Inodes: -nan%

Options: 
api                 : POSIX
apiVersion          : 
test filename       : /beegfs/lgouveia/ior_2/file_1
access              : single-shared-file
type                : independent
segments            : 1
ordering in a file  : sequential
ordering inter file : no tasks offsets
nodes               : 8
tasks               : 64
clients per node    : 8
repetitions         : 1
xfersize            : 1 MiB
blocksize           : 512 MiB
aggregate filesize  : 32 GiB

Results: 

access    bw(MiB/s)  IOPS       Latency(s)  block(KiB) xfer(KiB)  open(s)    wr/rd(s)   close(s)   total(s)   iter
------    ---------  ----       ----------  ---------- ---------  --------   --------   --------   --------   ----
write     2307.00    2307.21    0.004285    524288     1024.00    0.010535   14.20      12.30      14.20      0   

Summary of all tests:
Operation   Max(MiB)   Min(MiB)  Mean(MiB)     StdDev   Max(OPs)   Min(OPs)  Mean(OPs)     StdDev    Mean(s) Stonewall(s) Stonewall(MiB) Test# #Tasks tPN reps fPP reord reordoff reordrand seed segcnt   blksiz    xsize aggs(MiB)   API RefNum
write        2307.00    2307.00    2307.00       0.00    2307.00    2307.00    2307.00       0.00   14.20372         NA            NA     0     64   8    1   0     0        1         0    0      1 536870912  1048576   32768.0 POSIX      0
Finished            : Wed Feb 23 17:23:05 2022
IOR-3.4.0+dev: MPI Coordinated Test of Parallel I/O
Began               : Wed Feb 23 17:24:07 2022
Command line        : /home/lgouveia/ior/bin/ior -w -t 1m -b 512m -k -o /beegfs/lgouveia/ior_2/file_1
Machine             : Linux bora003.plafrim.cluster
TestID              : 0
StartTime           : Wed Feb 23 17:24:07 2022
Path                : /beegfs/lgouveia/ior_2/file_1
FS                  : 130.9 TiB   Used FS: 37.4%   Inodes: 0.0 Mi   Used Inodes: -nan%

Options: 
api                 : POSIX
apiVersion          : 
test filename       : /beegfs/lgouveia/ior_2/file_1
access              : single-shared-file
type                : independent
segments            : 1
ordering in a file  : sequential
ordering inter file : no tasks offsets
nodes               : 8
tasks               : 64
clients per node    : 8
repetitions         : 1
xfersize            : 1 MiB
blocksize           : 512 MiB
aggregate filesize  : 32 GiB

Results: 

access    bw(MiB/s)  IOPS       Latency(s)  block(KiB) xfer(KiB)  open(s)    wr/rd(s)   close(s)   total(s)   iter
------    ---------  ----       ----------  ---------- ---------  --------   --------   --------   --------   ----
write     2457.92    2458.32    0.016252    524288     1024.00    0.007254   13.33      11.45      13.33      0   

Summary of all tests:
Operation   Max(MiB)   Min(MiB)  Mean(MiB)     StdDev   Max(OPs)   Min(OPs)  Mean(OPs)     StdDev    Mean(s) Stonewall(s) Stonewall(MiB) Test# #Tasks tPN reps fPP reord reordoff reordrand seed segcnt   blksiz    xsize aggs(MiB)   API RefNum
write        2457.92    2457.92    2457.92       0.00    2457.92    2457.92    2457.92       0.00   13.33162         NA            NA     0     64   8    1   0     0        1         0    0      1 536870912  1048576   32768.0 POSIX      0
Finished            : Wed Feb 23 17:24:20 2022
IOR-3.4.0+dev: MPI Coordinated Test of Parallel I/O
Began               : Wed Feb 23 17:25:23 2022
Command line        : /home/lgouveia/ior/bin/ior -w -t 1m -b 512m -k -o /beegfs/lgouveia/ior_2/file_1
Machine             : Linux bora003.plafrim.cluster
TestID              : 0
StartTime           : Wed Feb 23 17:25:23 2022
Path                : /beegfs/lgouveia/ior_2/file_1
FS                  : 130.9 TiB   Used FS: 37.4%   Inodes: 0.0 Mi   Used Inodes: -nan%

Options: 
api                 : POSIX
apiVersion          : 
test filename       : /beegfs/lgouveia/ior_2/file_1
access              : single-shared-file
type                : independent
segments            : 1
ordering in a file  : sequential
ordering inter file : no tasks offsets
nodes               : 8
tasks               : 64
clients per node    : 8
repetitions         : 1
xfersize            : 1 MiB
blocksize           : 512 MiB
aggregate filesize  : 32 GiB

Results: 

access    bw(MiB/s)  IOPS       Latency(s)  block(KiB) xfer(KiB)  open(s)    wr/rd(s)   close(s)   total(s)   iter
------    ---------  ----       ----------  ---------- ---------  --------   --------   --------   --------   ----
write     2675.66    2675.87    0.015042    524288     1024.00    0.025404   12.25      10.56      12.25      0   

Summary of all tests:
Operation   Max(MiB)   Min(MiB)  Mean(MiB)     StdDev   Max(OPs)   Min(OPs)  Mean(OPs)     StdDev    Mean(s) Stonewall(s) Stonewall(MiB) Test# #Tasks tPN reps fPP reord reordoff reordrand seed segcnt   blksiz    xsize aggs(MiB)   API RefNum
write        2675.66    2675.66    2675.66       0.00    2675.66    2675.66    2675.66       0.00   12.24670         NA            NA     0     64   8    1   0     0        1         0    0      1 536870912  1048576   32768.0 POSIX      0
Finished            : Wed Feb 23 17:25:36 2022
