IOR-3.4.0+dev: MPI Coordinated Test of Parallel I/O
Began               : Thu Feb 24 04:14:36 2022
Command line        : /home/lgouveia/ior/bin/ior -w -t 1m -b 512m -k -o /beegfs/lgouveia/ior_2/file_2
Machine             : Linux bora012.plafrim.cluster
TestID              : 0
StartTime           : Thu Feb 24 04:14:36 2022
Path                : /beegfs/lgouveia/ior_2/file_2
FS                  : 130.9 TiB   Used FS: 37.4%   Inodes: 0.0 Mi   Used Inodes: -nan%

Options: 
api                 : POSIX
apiVersion          : 
test filename       : /beegfs/lgouveia/ior_2/file_2
access              : single-shared-file
type                : independent
segments            : 1
ordering in a file  : sequential
ordering inter file : no tasks offsets
nodes               : 8
tasks               : 64
clients per node    : 8
repetitions         : 1
xfersize            : 1 MiB
blocksize           : 512 MiB
aggregate filesize  : 32 GiB

Results: 

access    bw(MiB/s)  IOPS       Latency(s)  block(KiB) xfer(KiB)  open(s)    wr/rd(s)   close(s)   total(s)   iter
------    ---------  ----       ----------  ---------- ---------  --------   --------   --------   --------   ----
write     2474.12    2474.30    0.008703    524288     1024.00    0.022275   13.24      11.69      13.24      0   

Summary of all tests:
Operation   Max(MiB)   Min(MiB)  Mean(MiB)     StdDev   Max(OPs)   Min(OPs)  Mean(OPs)     StdDev    Mean(s) Stonewall(s) Stonewall(MiB) Test# #Tasks tPN reps fPP reord reordoff reordrand seed segcnt   blksiz    xsize aggs(MiB)   API RefNum
write        2474.12    2474.12    2474.12       0.00    2474.12    2474.12    2474.12       0.00   13.24432         NA            NA     0     64   8    1   0     0        1         0    0      1 536870912  1048576   32768.0 POSIX      0
Finished            : Thu Feb 24 04:14:49 2022
IOR-3.4.0+dev: MPI Coordinated Test of Parallel I/O
Began               : Thu Feb 24 04:15:51 2022
Command line        : /home/lgouveia/ior/bin/ior -w -t 1m -b 512m -k -o /beegfs/lgouveia/ior_2/file_2
Machine             : Linux bora012.plafrim.cluster
TestID              : 0
StartTime           : Thu Feb 24 04:15:51 2022
Path                : /beegfs/lgouveia/ior_2/file_2
FS                  : 130.9 TiB   Used FS: 37.4%   Inodes: 0.0 Mi   Used Inodes: -nan%

Options: 
api                 : POSIX
apiVersion          : 
test filename       : /beegfs/lgouveia/ior_2/file_2
access              : single-shared-file
type                : independent
segments            : 1
ordering in a file  : sequential
ordering inter file : no tasks offsets
nodes               : 8
tasks               : 64
clients per node    : 8
repetitions         : 1
xfersize            : 1 MiB
blocksize           : 512 MiB
aggregate filesize  : 32 GiB

Results: 

access    bw(MiB/s)  IOPS       Latency(s)  block(KiB) xfer(KiB)  open(s)    wr/rd(s)   close(s)   total(s)   iter
------    ---------  ----       ----------  ---------- ---------  --------   --------   --------   --------   ----
write     2619.77    2619.94    0.009763    524288     1024.00    0.021870   12.51      11.09      12.51      0   

Summary of all tests:
Operation   Max(MiB)   Min(MiB)  Mean(MiB)     StdDev   Max(OPs)   Min(OPs)  Mean(OPs)     StdDev    Mean(s) Stonewall(s) Stonewall(MiB) Test# #Tasks tPN reps fPP reord reordoff reordrand seed segcnt   blksiz    xsize aggs(MiB)   API RefNum
write        2619.77    2619.77    2619.77       0.00    2619.77    2619.77    2619.77       0.00   12.50798         NA            NA     0     64   8    1   0     0        1         0    0      1 536870912  1048576   32768.0 POSIX      0
Finished            : Thu Feb 24 04:16:04 2022
IOR-3.4.0+dev: MPI Coordinated Test of Parallel I/O
Began               : Thu Feb 24 04:17:05 2022
Command line        : /home/lgouveia/ior/bin/ior -w -t 1m -b 512m -k -o /beegfs/lgouveia/ior_2/file_2
Machine             : Linux bora012.plafrim.cluster
TestID              : 0
StartTime           : Thu Feb 24 04:17:05 2022
Path                : /beegfs/lgouveia/ior_2/file_2
FS                  : 130.9 TiB   Used FS: 37.4%   Inodes: 0.0 Mi   Used Inodes: -nan%

Options: 
api                 : POSIX
apiVersion          : 
test filename       : /beegfs/lgouveia/ior_2/file_2
access              : single-shared-file
type                : independent
segments            : 1
ordering in a file  : sequential
ordering inter file : no tasks offsets
nodes               : 8
tasks               : 64
clients per node    : 8
repetitions         : 1
xfersize            : 1 MiB
blocksize           : 512 MiB
aggregate filesize  : 32 GiB

Results: 

access    bw(MiB/s)  IOPS       Latency(s)  block(KiB) xfer(KiB)  open(s)    wr/rd(s)   close(s)   total(s)   iter
------    ---------  ----       ----------  ---------- ---------  --------   --------   --------   --------   ----
write     2563.75    2563.94    0.020113    524288     1024.00    0.017363   12.78      11.27      12.78      0   

Summary of all tests:
Operation   Max(MiB)   Min(MiB)  Mean(MiB)     StdDev   Max(OPs)   Min(OPs)  Mean(OPs)     StdDev    Mean(s) Stonewall(s) Stonewall(MiB) Test# #Tasks tPN reps fPP reord reordoff reordrand seed segcnt   blksiz    xsize aggs(MiB)   API RefNum
write        2563.75    2563.75    2563.75       0.00    2563.75    2563.75    2563.75       0.00   12.78126         NA            NA     0     64   8    1   0     0        1         0    0      1 536870912  1048576   32768.0 POSIX      0
Finished            : Thu Feb 24 04:17:18 2022
IOR-3.4.0+dev: MPI Coordinated Test of Parallel I/O
Began               : Thu Feb 24 04:18:20 2022
Command line        : /home/lgouveia/ior/bin/ior -w -t 1m -b 512m -k -o /beegfs/lgouveia/ior_2/file_2
Machine             : Linux bora012.plafrim.cluster
TestID              : 0
StartTime           : Thu Feb 24 04:18:20 2022
Path                : /beegfs/lgouveia/ior_2/file_2
FS                  : 130.9 TiB   Used FS: 37.4%   Inodes: 0.0 Mi   Used Inodes: -nan%

Options: 
api                 : POSIX
apiVersion          : 
test filename       : /beegfs/lgouveia/ior_2/file_2
access              : single-shared-file
type                : independent
segments            : 1
ordering in a file  : sequential
ordering inter file : no tasks offsets
nodes               : 8
tasks               : 64
clients per node    : 8
repetitions         : 1
xfersize            : 1 MiB
blocksize           : 512 MiB
aggregate filesize  : 32 GiB

Results: 

access    bw(MiB/s)  IOPS       Latency(s)  block(KiB) xfer(KiB)  open(s)    wr/rd(s)   close(s)   total(s)   iter
------    ---------  ----       ----------  ---------- ---------  --------   --------   --------   --------   ----
write     2579.33    2579.50    0.013669    524288     1024.00    0.016546   12.70      11.13      12.70      0   

Summary of all tests:
Operation   Max(MiB)   Min(MiB)  Mean(MiB)     StdDev   Max(OPs)   Min(OPs)  Mean(OPs)     StdDev    Mean(s) Stonewall(s) Stonewall(MiB) Test# #Tasks tPN reps fPP reord reordoff reordrand seed segcnt   blksiz    xsize aggs(MiB)   API RefNum
write        2579.33    2579.33    2579.33       0.00    2579.33    2579.33    2579.33       0.00   12.70409         NA            NA     0     64   8    1   0     0        1         0    0      1 536870912  1048576   32768.0 POSIX      0
Finished            : Thu Feb 24 04:18:32 2022
IOR-3.4.0+dev: MPI Coordinated Test of Parallel I/O
Began               : Thu Feb 24 04:19:34 2022
Command line        : /home/lgouveia/ior/bin/ior -w -t 1m -b 512m -k -o /beegfs/lgouveia/ior_2/file_2
Machine             : Linux bora012.plafrim.cluster
TestID              : 0
StartTime           : Thu Feb 24 04:19:34 2022
Path                : /beegfs/lgouveia/ior_2/file_2
FS                  : 130.9 TiB   Used FS: 37.4%   Inodes: 0.0 Mi   Used Inodes: -nan%

Options: 
api                 : POSIX
apiVersion          : 
test filename       : /beegfs/lgouveia/ior_2/file_2
access              : single-shared-file
type                : independent
segments            : 1
ordering in a file  : sequential
ordering inter file : no tasks offsets
nodes               : 8
tasks               : 64
clients per node    : 8
repetitions         : 1
xfersize            : 1 MiB
blocksize           : 512 MiB
aggregate filesize  : 32 GiB

Results: 

access    bw(MiB/s)  IOPS       Latency(s)  block(KiB) xfer(KiB)  open(s)    wr/rd(s)   close(s)   total(s)   iter
------    ---------  ----       ----------  ---------- ---------  --------   --------   --------   --------   ----
write     2584.31    2584.50    0.004282    524288     1024.00    0.007579   12.68      11.06      12.68      0   

Summary of all tests:
Operation   Max(MiB)   Min(MiB)  Mean(MiB)     StdDev   Max(OPs)   Min(OPs)  Mean(OPs)     StdDev    Mean(s) Stonewall(s) Stonewall(MiB) Test# #Tasks tPN reps fPP reord reordoff reordrand seed segcnt   blksiz    xsize aggs(MiB)   API RefNum
write        2584.31    2584.31    2584.31       0.00    2584.31    2584.31    2584.31       0.00   12.67961         NA            NA     0     64   8    1   0     0        1         0    0      1 536870912  1048576   32768.0 POSIX      0
Finished            : Thu Feb 24 04:19:46 2022
IOR-3.4.0+dev: MPI Coordinated Test of Parallel I/O
Began               : Thu Feb 24 04:20:48 2022
Command line        : /home/lgouveia/ior/bin/ior -w -t 1m -b 512m -k -o /beegfs/lgouveia/ior_2/file_2
Machine             : Linux bora012.plafrim.cluster
TestID              : 0
StartTime           : Thu Feb 24 04:20:48 2022
Path                : /beegfs/lgouveia/ior_2/file_2
FS                  : 130.9 TiB   Used FS: 37.4%   Inodes: 0.0 Mi   Used Inodes: -nan%

Options: 
api                 : POSIX
apiVersion          : 
test filename       : /beegfs/lgouveia/ior_2/file_2
access              : single-shared-file
type                : independent
segments            : 1
ordering in a file  : sequential
ordering inter file : no tasks offsets
nodes               : 8
tasks               : 64
clients per node    : 8
repetitions         : 1
xfersize            : 1 MiB
blocksize           : 512 MiB
aggregate filesize  : 32 GiB

Results: 

access    bw(MiB/s)  IOPS       Latency(s)  block(KiB) xfer(KiB)  open(s)    wr/rd(s)   close(s)   total(s)   iter
------    ---------  ----       ----------  ---------- ---------  --------   --------   --------   --------   ----
write     2679.76    2679.93    0.017043    524288     1024.00    0.014380   12.23      10.64      12.23      0   

Summary of all tests:
Operation   Max(MiB)   Min(MiB)  Mean(MiB)     StdDev   Max(OPs)   Min(OPs)  Mean(OPs)     StdDev    Mean(s) Stonewall(s) Stonewall(MiB) Test# #Tasks tPN reps fPP reord reordoff reordrand seed segcnt   blksiz    xsize aggs(MiB)   API RefNum
write        2679.76    2679.76    2679.76       0.00    2679.76    2679.76    2679.76       0.00   12.22796         NA            NA     0     64   8    1   0     0        1         0    0      1 536870912  1048576   32768.0 POSIX      0
Finished            : Thu Feb 24 04:21:00 2022
IOR-3.4.0+dev: MPI Coordinated Test of Parallel I/O
Began               : Thu Feb 24 04:22:02 2022
Command line        : /home/lgouveia/ior/bin/ior -w -t 1m -b 512m -k -o /beegfs/lgouveia/ior_2/file_2
Machine             : Linux bora012.plafrim.cluster
TestID              : 0
StartTime           : Thu Feb 24 04:22:02 2022
Path                : /beegfs/lgouveia/ior_2/file_2
FS                  : 130.9 TiB   Used FS: 37.4%   Inodes: 0.0 Mi   Used Inodes: -nan%

Options: 
api                 : POSIX
apiVersion          : 
test filename       : /beegfs/lgouveia/ior_2/file_2
access              : single-shared-file
type                : independent
segments            : 1
ordering in a file  : sequential
ordering inter file : no tasks offsets
nodes               : 8
tasks               : 64
clients per node    : 8
repetitions         : 1
xfersize            : 1 MiB
blocksize           : 512 MiB
aggregate filesize  : 32 GiB

Results: 

access    bw(MiB/s)  IOPS       Latency(s)  block(KiB) xfer(KiB)  open(s)    wr/rd(s)   close(s)   total(s)   iter
------    ---------  ----       ----------  ---------- ---------  --------   --------   --------   --------   ----
write     2534.37    2534.55    0.003817    524288     1024.00    0.005383   12.93      11.13      12.93      0   

Summary of all tests:
Operation   Max(MiB)   Min(MiB)  Mean(MiB)     StdDev   Max(OPs)   Min(OPs)  Mean(OPs)     StdDev    Mean(s) Stonewall(s) Stonewall(MiB) Test# #Tasks tPN reps fPP reord reordoff reordrand seed segcnt   blksiz    xsize aggs(MiB)   API RefNum
write        2534.37    2534.37    2534.37       0.00    2534.37    2534.37    2534.37       0.00   12.92947         NA            NA     0     64   8    1   0     0        1         0    0      1 536870912  1048576   32768.0 POSIX      0
Finished            : Thu Feb 24 04:22:15 2022
IOR-3.4.0+dev: MPI Coordinated Test of Parallel I/O
Began               : Thu Feb 24 04:23:16 2022
Command line        : /home/lgouveia/ior/bin/ior -w -t 1m -b 512m -k -o /beegfs/lgouveia/ior_2/file_2
Machine             : Linux bora012.plafrim.cluster
TestID              : 0
StartTime           : Thu Feb 24 04:23:16 2022
Path                : /beegfs/lgouveia/ior_2/file_2
FS                  : 130.9 TiB   Used FS: 37.4%   Inodes: 0.0 Mi   Used Inodes: -nan%

Options: 
api                 : POSIX
apiVersion          : 
test filename       : /beegfs/lgouveia/ior_2/file_2
access              : single-shared-file
type                : independent
segments            : 1
ordering in a file  : sequential
ordering inter file : no tasks offsets
nodes               : 8
tasks               : 64
clients per node    : 8
repetitions         : 1
xfersize            : 1 MiB
blocksize           : 512 MiB
aggregate filesize  : 32 GiB

Results: 

access    bw(MiB/s)  IOPS       Latency(s)  block(KiB) xfer(KiB)  open(s)    wr/rd(s)   close(s)   total(s)   iter
------    ---------  ----       ----------  ---------- ---------  --------   --------   --------   --------   ----
write     2549.63    2549.81    0.012975    524288     1024.00    0.008815   12.85      11.53      12.85      0   

Summary of all tests:
Operation   Max(MiB)   Min(MiB)  Mean(MiB)     StdDev   Max(OPs)   Min(OPs)  Mean(OPs)     StdDev    Mean(s) Stonewall(s) Stonewall(MiB) Test# #Tasks tPN reps fPP reord reordoff reordrand seed segcnt   blksiz    xsize aggs(MiB)   API RefNum
write        2549.63    2549.63    2549.63       0.00    2549.63    2549.63    2549.63       0.00   12.85205         NA            NA     0     64   8    1   0     0        1         0    0      1 536870912  1048576   32768.0 POSIX      0
Finished            : Thu Feb 24 04:23:29 2022
IOR-3.4.0+dev: MPI Coordinated Test of Parallel I/O
Began               : Thu Feb 24 04:24:31 2022
Command line        : /home/lgouveia/ior/bin/ior -w -t 1m -b 512m -k -o /beegfs/lgouveia/ior_2/file_2
Machine             : Linux bora012.plafrim.cluster
TestID              : 0
StartTime           : Thu Feb 24 04:24:31 2022
Path                : /beegfs/lgouveia/ior_2/file_2
FS                  : 130.9 TiB   Used FS: 37.4%   Inodes: 0.0 Mi   Used Inodes: -nan%

Options: 
api                 : POSIX
apiVersion          : 
test filename       : /beegfs/lgouveia/ior_2/file_2
access              : single-shared-file
type                : independent
segments            : 1
ordering in a file  : sequential
ordering inter file : no tasks offsets
nodes               : 8
tasks               : 64
clients per node    : 8
repetitions         : 1
xfersize            : 1 MiB
blocksize           : 512 MiB
aggregate filesize  : 32 GiB

Results: 

access    bw(MiB/s)  IOPS       Latency(s)  block(KiB) xfer(KiB)  open(s)    wr/rd(s)   close(s)   total(s)   iter
------    ---------  ----       ----------  ---------- ---------  --------   --------   --------   --------   ----
write     2507.18    2507.36    0.003521    524288     1024.00    0.005180   13.07      11.29      13.07      0   

Summary of all tests:
Operation   Max(MiB)   Min(MiB)  Mean(MiB)     StdDev   Max(OPs)   Min(OPs)  Mean(OPs)     StdDev    Mean(s) Stonewall(s) Stonewall(MiB) Test# #Tasks tPN reps fPP reord reordoff reordrand seed segcnt   blksiz    xsize aggs(MiB)   API RefNum
write        2507.18    2507.18    2507.18       0.00    2507.18    2507.18    2507.18       0.00   13.06964         NA            NA     0     64   8    1   0     0        1         0    0      1 536870912  1048576   32768.0 POSIX      0
Finished            : Thu Feb 24 04:24:44 2022
IOR-3.4.0+dev: MPI Coordinated Test of Parallel I/O
Began               : Thu Feb 24 04:25:45 2022
Command line        : /home/lgouveia/ior/bin/ior -w -t 1m -b 512m -k -o /beegfs/lgouveia/ior_2/file_2
Machine             : Linux bora012.plafrim.cluster
TestID              : 0
StartTime           : Thu Feb 24 04:25:45 2022
Path                : /beegfs/lgouveia/ior_2/file_2
FS                  : 130.9 TiB   Used FS: 37.4%   Inodes: 0.0 Mi   Used Inodes: -nan%

Options: 
api                 : POSIX
apiVersion          : 
test filename       : /beegfs/lgouveia/ior_2/file_2
access              : single-shared-file
type                : independent
segments            : 1
ordering in a file  : sequential
ordering inter file : no tasks offsets
nodes               : 8
tasks               : 64
clients per node    : 8
repetitions         : 1
xfersize            : 1 MiB
blocksize           : 512 MiB
aggregate filesize  : 32 GiB

Results: 

access    bw(MiB/s)  IOPS       Latency(s)  block(KiB) xfer(KiB)  open(s)    wr/rd(s)   close(s)   total(s)   iter
------    ---------  ----       ----------  ---------- ---------  --------   --------   --------   --------   ----
write     2567.34    2567.52    0.018634    524288     1024.00    0.025508   12.76      11.13      12.76      0   

Summary of all tests:
Operation   Max(MiB)   Min(MiB)  Mean(MiB)     StdDev   Max(OPs)   Min(OPs)  Mean(OPs)     StdDev    Mean(s) Stonewall(s) Stonewall(MiB) Test# #Tasks tPN reps fPP reord reordoff reordrand seed segcnt   blksiz    xsize aggs(MiB)   API RefNum
write        2567.34    2567.34    2567.34       0.00    2567.34    2567.34    2567.34       0.00   12.76339         NA            NA     0     64   8    1   0     0        1         0    0      1 536870912  1048576   32768.0 POSIX      0
Finished            : Thu Feb 24 04:25:58 2022
