===== My JOB Information ====
Node List:  bora[002-033]
my jobID:  1444547
Partition: routage
submit directory:  /home/lgouveia/luan-teylo/tests/omnipath/storage_targets/07
submit host:  devel03.plafrim.cluster
In the directory: /home/lgouveia/luan-teylo/tests/omnipath/storage_targets/07
As the user: lgouveia
============================
IOR-3.4.0+dev: MPI Coordinated Test of Parallel I/O
Began               : Thu Oct  7 09:07:53 2021
Command line        : /home/lgouveia/ior/bin/ior -w -t 1m -b 128m -k -o /beegfs/lgouveia/ior_7/testFile1
Machine             : Linux bora002.plafrim.cluster
TestID              : 0
StartTime           : Thu Oct  7 09:07:53 2021
Path                : /beegfs/lgouveia/ior_7/testFile1
FS                  : 130.9 TiB   Used FS: 32.0%   Inodes: 0.0 Mi   Used Inodes: -nan%

Options: 
api                 : POSIX
apiVersion          : 
test filename       : /beegfs/lgouveia/ior_7/testFile1
access              : single-shared-file
type                : independent
segments            : 1
ordering in a file  : sequential
ordering inter file : no tasks offsets
nodes               : 32
tasks               : 256
clients per node    : 8
repetitions         : 1
xfersize            : 1 MiB
blocksize           : 128 MiB
aggregate filesize  : 32 GiB

Results: 

access    bw(MiB/s)  IOPS       Latency(s)  block(KiB) xfer(KiB)  open(s)    wr/rd(s)   close(s)   total(s)   iter
------    ---------  ----       ----------  ---------- ---------  --------   --------   --------   --------   ----
write     8311       8315       0.028797    131072     1024.00    0.332063   3.94       3.21       3.94       0   

Summary of all tests:
Operation   Max(MiB)   Min(MiB)  Mean(MiB)     StdDev   Max(OPs)   Min(OPs)  Mean(OPs)     StdDev    Mean(s) Stonewall(s) Stonewall(MiB) Test# #Tasks tPN reps fPP reord reordoff reordrand seed segcnt   blksiz    xsize aggs(MiB)   API RefNum
write        8311.16    8311.16    8311.16       0.00    8311.16    8311.16    8311.16       0.00    3.94265         NA            NA     0    256   8    1   0     0        1         0    0      1 134217728  1048576   32768.0 POSIX      0
Finished            : Thu Oct  7 09:07:57 2021
Tracking /beegfs/lgouveia/ior_7/testFile1...



Writing tracked information to tracker.csv...
IOR-3.4.0+dev: MPI Coordinated Test of Parallel I/O
Began               : Thu Oct  7 09:09:00 2021
Command line        : /home/lgouveia/ior/bin/ior -w -t 1m -b 128m -k -o /beegfs/lgouveia/ior_7/testFile1
Machine             : Linux bora002.plafrim.cluster
TestID              : 0
StartTime           : Thu Oct  7 09:09:00 2021
Path                : /beegfs/lgouveia/ior_7/testFile1
FS                  : 130.9 TiB   Used FS: 32.0%   Inodes: 0.0 Mi   Used Inodes: -nan%

Options: 
api                 : POSIX
apiVersion          : 
test filename       : /beegfs/lgouveia/ior_7/testFile1
access              : single-shared-file
type                : independent
segments            : 1
ordering in a file  : sequential
ordering inter file : no tasks offsets
nodes               : 32
tasks               : 256
clients per node    : 8
repetitions         : 1
xfersize            : 1 MiB
blocksize           : 128 MiB
aggregate filesize  : 32 GiB

Results: 
WARNING: The file "/beegfs/lgouveia/ior_7/testFile1" exists already and will be overwritten

access    bw(MiB/s)  IOPS       Latency(s)  block(KiB) xfer(KiB)  open(s)    wr/rd(s)   close(s)   total(s)   iter
------    ---------  ----       ----------  ---------- ---------  --------   --------   --------   --------   ----
write     8113       8115       0.030147    131072     1024.00    0.391701   4.04       3.27       4.04       0   

Summary of all tests:
Operation   Max(MiB)   Min(MiB)  Mean(MiB)     StdDev   Max(OPs)   Min(OPs)  Mean(OPs)     StdDev    Mean(s) Stonewall(s) Stonewall(MiB) Test# #Tasks tPN reps fPP reord reordoff reordrand seed segcnt   blksiz    xsize aggs(MiB)   API RefNum
write        8113.26    8113.26    8113.26       0.00    8113.26    8113.26    8113.26       0.00    4.03882         NA            NA     0    256   8    1   0     0        1         0    0      1 134217728  1048576   32768.0 POSIX      0
Finished            : Thu Oct  7 09:09:04 2021
Tracking /beegfs/lgouveia/ior_7/testFile1...



Writing tracked information to tracker.csv...
IOR-3.4.0+dev: MPI Coordinated Test of Parallel I/O
Began               : Thu Oct  7 09:10:05 2021
Command line        : /home/lgouveia/ior/bin/ior -w -t 1m -b 128m -k -o /beegfs/lgouveia/ior_7/testFile1
Machine             : Linux bora002.plafrim.cluster
TestID              : 0
StartTime           : Thu Oct  7 09:10:05 2021
Path                : /beegfs/lgouveia/ior_7/testFile1
FS                  : 130.9 TiB   Used FS: 32.0%   Inodes: 0.0 Mi   Used Inodes: -nan%

Options: 
api                 : POSIX
apiVersion          : 
test filename       : /beegfs/lgouveia/ior_7/testFile1
access              : single-shared-file
type                : independent
segments            : 1
ordering in a file  : sequential
ordering inter file : no tasks offsets
nodes               : 32
tasks               : 256
clients per node    : 8
repetitions         : 1
xfersize            : 1 MiB
blocksize           : 128 MiB
aggregate filesize  : 32 GiB

Results: 
WARNING: The file "/beegfs/lgouveia/ior_7/testFile1" exists already and will be overwritten

access    bw(MiB/s)  IOPS       Latency(s)  block(KiB) xfer(KiB)  open(s)    wr/rd(s)   close(s)   total(s)   iter
------    ---------  ----       ----------  ---------- ---------  --------   --------   --------   --------   ----
write     8370       8371       0.012662    131072     1024.00    0.362724   3.91       3.22       3.91       0   

Summary of all tests:
Operation   Max(MiB)   Min(MiB)  Mean(MiB)     StdDev   Max(OPs)   Min(OPs)  Mean(OPs)     StdDev    Mean(s) Stonewall(s) Stonewall(MiB) Test# #Tasks tPN reps fPP reord reordoff reordrand seed segcnt   blksiz    xsize aggs(MiB)   API RefNum
write        8370.05    8370.05    8370.05       0.00    8370.05    8370.05    8370.05       0.00    3.91491         NA            NA     0    256   8    1   0     0        1         0    0      1 134217728  1048576   32768.0 POSIX      0
Finished            : Thu Oct  7 09:10:09 2021
Tracking /beegfs/lgouveia/ior_7/testFile1...



Writing tracked information to tracker.csv...
IOR-3.4.0+dev: MPI Coordinated Test of Parallel I/O
Began               : Thu Oct  7 09:11:11 2021
Command line        : /home/lgouveia/ior/bin/ior -w -t 1m -b 128m -k -o /beegfs/lgouveia/ior_7/testFile1
Machine             : Linux bora002.plafrim.cluster
TestID              : 0
StartTime           : Thu Oct  7 09:11:11 2021
Path                : /beegfs/lgouveia/ior_7/testFile1
FS                  : 130.9 TiB   Used FS: 32.0%   Inodes: 0.0 Mi   Used Inodes: -nan%

Options: 
api                 : POSIX
apiVersion          : 
test filename       : /beegfs/lgouveia/ior_7/testFile1
access              : single-shared-file
type                : independent
segments            : 1
ordering in a file  : sequential
ordering inter file : no tasks offsets
nodes               : 32
tasks               : 256
clients per node    : 8
repetitions         : 1
xfersize            : 1 MiB
blocksize           : 128 MiB
aggregate filesize  : 32 GiB

Results: 
WARNING: The file "/beegfs/lgouveia/ior_7/testFile1" exists already and will be overwritten

access    bw(MiB/s)  IOPS       Latency(s)  block(KiB) xfer(KiB)  open(s)    wr/rd(s)   close(s)   total(s)   iter
------    ---------  ----       ----------  ---------- ---------  --------   --------   --------   --------   ----
write     7739       7741       0.023014    131072     1024.00    0.320305   4.23       3.57       4.23       0   

Summary of all tests:
Operation   Max(MiB)   Min(MiB)  Mean(MiB)     StdDev   Max(OPs)   Min(OPs)  Mean(OPs)     StdDev    Mean(s) Stonewall(s) Stonewall(MiB) Test# #Tasks tPN reps fPP reord reordoff reordrand seed segcnt   blksiz    xsize aggs(MiB)   API RefNum
write        7739.26    7739.26    7739.26       0.00    7739.26    7739.26    7739.26       0.00    4.23400         NA            NA     0    256   8    1   0     0        1         0    0      1 134217728  1048576   32768.0 POSIX      0
Finished            : Thu Oct  7 09:11:15 2021
Tracking /beegfs/lgouveia/ior_7/testFile1...



Writing tracked information to tracker.csv...
IOR-3.4.0+dev: MPI Coordinated Test of Parallel I/O
Began               : Thu Oct  7 09:12:17 2021
Command line        : /home/lgouveia/ior/bin/ior -w -t 1m -b 128m -k -o /beegfs/lgouveia/ior_7/testFile1
Machine             : Linux bora002.plafrim.cluster
TestID              : 0
StartTime           : Thu Oct  7 09:12:17 2021
Path                : /beegfs/lgouveia/ior_7/testFile1
FS                  : 130.9 TiB   Used FS: 32.0%   Inodes: 0.0 Mi   Used Inodes: -nan%

Options: 
api                 : POSIX
apiVersion          : 
test filename       : /beegfs/lgouveia/ior_7/testFile1
access              : single-shared-file
type                : independent
segments            : 1
ordering in a file  : sequential
ordering inter file : no tasks offsets
nodes               : 32
tasks               : 256
clients per node    : 8
repetitions         : 1
xfersize            : 1 MiB
blocksize           : 128 MiB
aggregate filesize  : 32 GiB

Results: 
WARNING: The file "/beegfs/lgouveia/ior_7/testFile1" exists already and will be overwritten

access    bw(MiB/s)  IOPS       Latency(s)  block(KiB) xfer(KiB)  open(s)    wr/rd(s)   close(s)   total(s)   iter
------    ---------  ----       ----------  ---------- ---------  --------   --------   --------   --------   ----
write     8448       8449       0.011380    131072     1024.00    0.411959   3.88       3.11       3.88       0   

Summary of all tests:
Operation   Max(MiB)   Min(MiB)  Mean(MiB)     StdDev   Max(OPs)   Min(OPs)  Mean(OPs)     StdDev    Mean(s) Stonewall(s) Stonewall(MiB) Test# #Tasks tPN reps fPP reord reordoff reordrand seed segcnt   blksiz    xsize aggs(MiB)   API RefNum
write        8447.60    8447.60    8447.60       0.00    8447.60    8447.60    8447.60       0.00    3.87897         NA            NA     0    256   8    1   0     0        1         0    0      1 134217728  1048576   32768.0 POSIX      0
Finished            : Thu Oct  7 09:12:21 2021
Tracking /beegfs/lgouveia/ior_7/testFile1...



Writing tracked information to tracker.csv...
IOR-3.4.0+dev: MPI Coordinated Test of Parallel I/O
Began               : Thu Oct  7 09:13:22 2021
Command line        : /home/lgouveia/ior/bin/ior -w -t 1m -b 128m -k -o /beegfs/lgouveia/ior_7/testFile1
Machine             : Linux bora002.plafrim.cluster
TestID              : 0
StartTime           : Thu Oct  7 09:13:22 2021
Path                : /beegfs/lgouveia/ior_7/testFile1
FS                  : 130.9 TiB   Used FS: 32.0%   Inodes: 0.0 Mi   Used Inodes: -nan%

Options: 
api                 : POSIX
apiVersion          : 
test filename       : /beegfs/lgouveia/ior_7/testFile1
access              : single-shared-file
type                : independent
segments            : 1
ordering in a file  : sequential
ordering inter file : no tasks offsets
nodes               : 32
tasks               : 256
clients per node    : 8
repetitions         : 1
xfersize            : 1 MiB
blocksize           : 128 MiB
aggregate filesize  : 32 GiB

Results: 
WARNING: The file "/beegfs/lgouveia/ior_7/testFile1" exists already and will be overwritten

access    bw(MiB/s)  IOPS       Latency(s)  block(KiB) xfer(KiB)  open(s)    wr/rd(s)   close(s)   total(s)   iter
------    ---------  ----       ----------  ---------- ---------  --------   --------   --------   --------   ----
write     8172       8174       0.020364    131072     1024.00    0.343420   4.01       3.19       4.01       0   

Summary of all tests:
Operation   Max(MiB)   Min(MiB)  Mean(MiB)     StdDev   Max(OPs)   Min(OPs)  Mean(OPs)     StdDev    Mean(s) Stonewall(s) Stonewall(MiB) Test# #Tasks tPN reps fPP reord reordoff reordrand seed segcnt   blksiz    xsize aggs(MiB)   API RefNum
write        8172.03    8172.03    8172.03       0.00    8172.03    8172.03    8172.03       0.00    4.00977         NA            NA     0    256   8    1   0     0        1         0    0      1 134217728  1048576   32768.0 POSIX      0
Finished            : Thu Oct  7 09:13:26 2021
Tracking /beegfs/lgouveia/ior_7/testFile1...



Writing tracked information to tracker.csv...
IOR-3.4.0+dev: MPI Coordinated Test of Parallel I/O
Began               : Thu Oct  7 09:14:28 2021
Command line        : /home/lgouveia/ior/bin/ior -w -t 1m -b 128m -k -o /beegfs/lgouveia/ior_7/testFile1
Machine             : Linux bora002.plafrim.cluster
TestID              : 0
StartTime           : Thu Oct  7 09:14:28 2021
Path                : /beegfs/lgouveia/ior_7/testFile1
FS                  : 130.9 TiB   Used FS: 32.0%   Inodes: 0.0 Mi   Used Inodes: -nan%

Options: 
api                 : POSIX
apiVersion          : 
test filename       : /beegfs/lgouveia/ior_7/testFile1
access              : single-shared-file
type                : independent
segments            : 1
ordering in a file  : sequential
ordering inter file : no tasks offsets
nodes               : 32
tasks               : 256
clients per node    : 8
repetitions         : 1
xfersize            : 1 MiB
blocksize           : 128 MiB
aggregate filesize  : 32 GiB

Results: 
WARNING: The file "/beegfs/lgouveia/ior_7/testFile1" exists already and will be overwritten

access    bw(MiB/s)  IOPS       Latency(s)  block(KiB) xfer(KiB)  open(s)    wr/rd(s)   close(s)   total(s)   iter
------    ---------  ----       ----------  ---------- ---------  --------   --------   --------   --------   ----
write     7872       7873       0.006643    131072     1024.00    0.445744   4.16       3.33       4.16       0   

Summary of all tests:
Operation   Max(MiB)   Min(MiB)  Mean(MiB)     StdDev   Max(OPs)   Min(OPs)  Mean(OPs)     StdDev    Mean(s) Stonewall(s) Stonewall(MiB) Test# #Tasks tPN reps fPP reord reordoff reordrand seed segcnt   blksiz    xsize aggs(MiB)   API RefNum
write        7871.73    7871.73    7871.73       0.00    7871.73    7871.73    7871.73       0.00    4.16274         NA            NA     0    256   8    1   0     0        1         0    0      1 134217728  1048576   32768.0 POSIX      0
Finished            : Thu Oct  7 09:14:32 2021
Tracking /beegfs/lgouveia/ior_7/testFile1...



Writing tracked information to tracker.csv...
IOR-3.4.0+dev: MPI Coordinated Test of Parallel I/O
Began               : Thu Oct  7 09:15:34 2021
Command line        : /home/lgouveia/ior/bin/ior -w -t 1m -b 128m -k -o /beegfs/lgouveia/ior_7/testFile1
Machine             : Linux bora002.plafrim.cluster
TestID              : 0
StartTime           : Thu Oct  7 09:15:34 2021
Path                : /beegfs/lgouveia/ior_7/testFile1
FS                  : 130.9 TiB   Used FS: 32.0%   Inodes: 0.0 Mi   Used Inodes: -nan%

Options: 
api                 : POSIX
apiVersion          : 
test filename       : /beegfs/lgouveia/ior_7/testFile1
access              : single-shared-file
type                : independent
segments            : 1
ordering in a file  : sequential
ordering inter file : no tasks offsets
nodes               : 32
tasks               : 256
clients per node    : 8
repetitions         : 1
xfersize            : 1 MiB
blocksize           : 128 MiB
aggregate filesize  : 32 GiB

Results: 
WARNING: The file "/beegfs/lgouveia/ior_7/testFile1" exists already and will be overwritten

access    bw(MiB/s)  IOPS       Latency(s)  block(KiB) xfer(KiB)  open(s)    wr/rd(s)   close(s)   total(s)   iter
------    ---------  ----       ----------  ---------- ---------  --------   --------   --------   --------   ----
write     8357       8358       0.022432    131072     1024.00    0.261755   3.92       3.25       3.92       0   

Summary of all tests:
Operation   Max(MiB)   Min(MiB)  Mean(MiB)     StdDev   Max(OPs)   Min(OPs)  Mean(OPs)     StdDev    Mean(s) Stonewall(s) Stonewall(MiB) Test# #Tasks tPN reps fPP reord reordoff reordrand seed segcnt   blksiz    xsize aggs(MiB)   API RefNum
write        8357.13    8357.13    8357.13       0.00    8357.13    8357.13    8357.13       0.00    3.92096         NA            NA     0    256   8    1   0     0        1         0    0      1 134217728  1048576   32768.0 POSIX      0
Finished            : Thu Oct  7 09:15:38 2021
Tracking /beegfs/lgouveia/ior_7/testFile1...



Writing tracked information to tracker.csv...
IOR-3.4.0+dev: MPI Coordinated Test of Parallel I/O
Began               : Thu Oct  7 09:16:39 2021
Command line        : /home/lgouveia/ior/bin/ior -w -t 1m -b 128m -k -o /beegfs/lgouveia/ior_7/testFile1
Machine             : Linux bora002.plafrim.cluster
TestID              : 0
StartTime           : Thu Oct  7 09:16:39 2021
Path                : /beegfs/lgouveia/ior_7/testFile1
FS                  : 130.9 TiB   Used FS: 32.0%   Inodes: 0.0 Mi   Used Inodes: -nan%

Options: 
api                 : POSIX
apiVersion          : 
test filename       : /beegfs/lgouveia/ior_7/testFile1
access              : single-shared-file
type                : independent
segments            : 1
ordering in a file  : sequential
ordering inter file : no tasks offsets
nodes               : 32
tasks               : 256
clients per node    : 8
repetitions         : 1
xfersize            : 1 MiB
blocksize           : 128 MiB
aggregate filesize  : 32 GiB

Results: 
WARNING: The file "/beegfs/lgouveia/ior_7/testFile1" exists already and will be overwritten

access    bw(MiB/s)  IOPS       Latency(s)  block(KiB) xfer(KiB)  open(s)    wr/rd(s)   close(s)   total(s)   iter
------    ---------  ----       ----------  ---------- ---------  --------   --------   --------   --------   ----
write     8917       8919       0.008585    131072     1024.00    0.319265   3.67       2.99       3.67       0   

Summary of all tests:
Operation   Max(MiB)   Min(MiB)  Mean(MiB)     StdDev   Max(OPs)   Min(OPs)  Mean(OPs)     StdDev    Mean(s) Stonewall(s) Stonewall(MiB) Test# #Tasks tPN reps fPP reord reordoff reordrand seed segcnt   blksiz    xsize aggs(MiB)   API RefNum
write        8917.00    8917.00    8917.00       0.00    8917.00    8917.00    8917.00       0.00    3.67478         NA            NA     0    256   8    1   0     0        1         0    0      1 134217728  1048576   32768.0 POSIX      0
Finished            : Thu Oct  7 09:16:43 2021
Tracking /beegfs/lgouveia/ior_7/testFile1...



Writing tracked information to tracker.csv...
IOR-3.4.0+dev: MPI Coordinated Test of Parallel I/O
Began               : Thu Oct  7 09:17:44 2021
Command line        : /home/lgouveia/ior/bin/ior -w -t 1m -b 128m -k -o /beegfs/lgouveia/ior_7/testFile1
Machine             : Linux bora002.plafrim.cluster
TestID              : 0
StartTime           : Thu Oct  7 09:17:44 2021
Path                : /beegfs/lgouveia/ior_7/testFile1
FS                  : 130.9 TiB   Used FS: 32.0%   Inodes: 0.0 Mi   Used Inodes: -nan%

Options: 
api                 : POSIX
apiVersion          : 
test filename       : /beegfs/lgouveia/ior_7/testFile1
access              : single-shared-file
type                : independent
segments            : 1
ordering in a file  : sequential
ordering inter file : no tasks offsets
nodes               : 32
tasks               : 256
clients per node    : 8
repetitions         : 1
xfersize            : 1 MiB
blocksize           : 128 MiB
aggregate filesize  : 32 GiB

Results: 
WARNING: The file "/beegfs/lgouveia/ior_7/testFile1" exists already and will be overwritten

access    bw(MiB/s)  IOPS       Latency(s)  block(KiB) xfer(KiB)  open(s)    wr/rd(s)   close(s)   total(s)   iter
------    ---------  ----       ----------  ---------- ---------  --------   --------   --------   --------   ----
write     7904       7905       0.030689    131072     1024.00    0.315625   4.15       3.39       4.15       0   

Summary of all tests:
Operation   Max(MiB)   Min(MiB)  Mean(MiB)     StdDev   Max(OPs)   Min(OPs)  Mean(OPs)     StdDev    Mean(s) Stonewall(s) Stonewall(MiB) Test# #Tasks tPN reps fPP reord reordoff reordrand seed segcnt   blksiz    xsize aggs(MiB)   API RefNum
write        7903.79    7903.79    7903.79       0.00    7903.79    7903.79    7903.79       0.00    4.14586         NA            NA     0    256   8    1   0     0        1         0    0      1 134217728  1048576   32768.0 POSIX      0
Finished            : Thu Oct  7 09:17:49 2021
Tracking /beegfs/lgouveia/ior_7/testFile1...



Writing tracked information to tracker.csv...
