access,bw,iops,latency,block,xfer,open,wr/rd,close,total,iter,start,end
write,1847.52,1847.57,0.026006,1048576,1024.00,0.007962,35.47,30.99,35.47,0,Mon Jun 28 15:53:45 2021,Mon Jun 28 15:54:20 2021
write,1388.56,1388.60,0.042353,1048576,1024.00,0.012312,47.20,41.18,47.20,0,Mon Jun 28 15:51:57 2021,Mon Jun 28 15:52:44 2021
write,1836.45,1836.50,0.028842,1048576,1024.00,0.008021,35.69,31.12,35.69,0,Mon Jun 28 15:50:20 2021,Mon Jun 28 15:50:56 2021
write,1850.47,1850.53,0.032609,1048576,1024.00,0.014428,35.41,30.96,35.42,0,Mon Jun 28 15:48:44 2021,Mon Jun 28 15:49:20 2021
write,1379.71,1379.75,0.044582,1048576,1024.00,0.016425,47.50,41.47,47.50,0,Mon Jun 28 15:46:56 2021,Mon Jun 28 15:47:43 2021
write,1826.54,1826.62,0.017446,1048576,1024.00,0.008282,35.88,31.39,35.88,0,Mon Jun 28 15:45:19 2021,Mon Jun 28 15:45:55 2021
write,1805.68,1805.74,0.030208,1048576,1024.00,0.007843,36.29,31.79,36.29,0,Mon Jun 28 15:43:42 2021,Mon Jun 28 15:44:18 2021
write,1377.11,1377.15,0.030091,1048576,1024.00,0.007299,47.59,41.61,47.59,0,Mon Jun 28 15:41:54 2021,Mon Jun 28 15:42:41 2021
write,1823.45,1823.50,0.022030,1048576,1024.00,0.007923,35.94,31.18,35.94,0,Mon Jun 28 15:40:17 2021,Mon Jun 28 15:40:53 2021
write,1847.61,1847.66,0.004610,1048576,1024.00,0.013702,35.47,30.94,35.47,0,Mon Jun 28 15:38:39 2021,Mon Jun 28 15:39:14 2021
write,1795.14,1795.20,0.018224,1048576,1024.00,0.007288,36.51,31.96,36.51,0,Mon Jun 28 15:28:26 2021,Mon Jun 28 15:29:02 2021
write,1340.50,1340.53,0.037694,1048576,1024.00,0.006957,48.89,42.79,48.89,0,Mon Jun 28 15:26:36 2021,Mon Jun 28 15:27:25 2021
write,1790.73,1790.79,0.022539,1048576,1024.00,0.007969,36.60,31.82,36.60,0,Mon Jun 28 15:24:59 2021,Mon Jun 28 15:25:35 2021
write,1794.11,1794.16,0.029324,1048576,1024.00,0.007401,36.53,31.92,36.53,0,Mon Jun 28 15:23:21 2021,Mon Jun 28 15:23:58 2021
write,1337.58,1337.61,0.037728,1048576,1024.00,0.011999,48.99,42.73,49.00,0,Mon Jun 28 15:21:31 2021,Mon Jun 28 15:22:20 2021
write,1808.81,1808.86,0.032909,1048576,1024.00,0.007458,36.23,31.57,36.23,0,Mon Jun 28 15:19:54 2021,Mon Jun 28 15:20:31 2021
write,1760.30,1760.36,0.032008,1048576,1024.00,0.013211,37.23,32.49,37.23,0,Mon Jun 28 15:18:16 2021,Mon Jun 28 15:18:54 2021
write,1340.08,1340.11,0.043683,1048576,1024.00,0.007272,48.90,42.65,48.90,0,Mon Jun 28 15:16:27 2021,Mon Jun 28 15:17:15 2021
write,1777.65,1777.70,0.027290,1048576,1024.00,0.007785,36.87,32.13,36.87,0,Mon Jun 28 15:14:49 2021,Mon Jun 28 15:15:26 2021
write,1786.09,1786.15,0.031200,1048576,1024.00,0.007368,36.69,31.83,36.69,0,Mon Jun 28 15:13:08 2021,Mon Jun 28 15:13:44 2021
write,1344.46,1344.49,0.037084,1048576,1024.00,0.016478,48.74,42.61,48.75,0,Mon Jun 28 15:02:31 2021,Mon Jun 28 15:03:19 2021
write,1789.34,1789.40,0.028367,1048576,1024.00,0.007177,36.62,32.03,36.63,0,Mon Jun 28 15:00:53 2021,Mon Jun 28 15:01:30 2021
write,1765.96,1766.01,0.036195,1048576,1024.00,0.008248,37.11,32.15,37.11,0,Mon Jun 28 14:59:15 2021,Mon Jun 28 14:59:52 2021
write,1371.76,1371.79,0.046612,1048576,1024.00,0.011950,47.77,41.68,47.78,0,Mon Jun 28 14:57:27 2021,Mon Jun 28 14:58:14 2021
write,1844.47,1844.52,0.022511,1048576,1024.00,0.007925,35.53,31.05,35.53,0,Mon Jun 28 14:55:50 2021,Mon Jun 28 14:56:26 2021
write,1830.05,1830.09,0.004565,1048576,1024.00,0.008511,35.81,31.16,35.81,0,Mon Jun 28 14:54:14 2021,Mon Jun 28 14:54:50 2021
write,1382.62,1382.64,0.005868,1048576,1024.00,0.007955,47.40,41.46,47.40,0,Mon Jun 28 14:52:26 2021,Mon Jun 28 14:53:13 2021
write,1834.61,1834.65,0.034874,1048576,1024.00,0.006946,35.72,31.11,35.72,0,Mon Jun 28 14:50:49 2021,Mon Jun 28 14:51:25 2021
write,1856.94,1856.99,0.034463,1048576,1024.00,0.012572,35.29,30.82,35.29,0,Mon Jun 28 14:49:13 2021,Mon Jun 28 14:49:48 2021
write,1768.45,1768.51,0.022100,1048576,1024.00,0.012464,37.06,32.34,37.06,0,Mon Jun 28 14:47:33 2021,Mon Jun 28 14:48:10 2021
write,1363.59,1363.62,0.041471,1048576,1024.00,0.006960,48.06,42.12,48.06,0,Mon Jun 28 14:42:18 2021,Mon Jun 28 14:43:06 2021
write,1836.59,1836.65,0.029979,1048576,1024.00,0.007616,35.68,31.12,35.68,0,Mon Jun 28 14:40:41 2021,Mon Jun 28 14:41:17 2021
write,1830.00,1830.06,0.029166,1048576,1024.00,0.015197,35.81,31.12,35.81,0,Mon Jun 28 14:39:05 2021,Mon Jun 28 14:39:40 2021
write,1386.41,1386.43,0.037080,1048576,1024.00,0.017206,47.27,41.18,47.27,0,Mon Jun 28 14:37:17 2021,Mon Jun 28 14:38:04 2021
write,1825.11,1825.15,0.013541,1048576,1024.00,0.007477,35.91,31.31,35.91,0,Mon Jun 28 14:35:40 2021,Mon Jun 28 14:36:16 2021
write,1832.66,1832.72,0.029337,1048576,1024.00,0.007707,35.76,31.15,35.76,0,Mon Jun 28 14:34:03 2021,Mon Jun 28 14:34:39 2021
write,1388.97,1388.99,0.045830,1048576,1024.00,0.007652,47.18,41.17,47.18,0,Mon Jun 28 14:32:15 2021,Mon Jun 28 14:33:02 2021
write,1830.48,1830.53,0.027534,1048576,1024.00,0.007106,35.80,31.19,35.80,0,Mon Jun 28 14:30:38 2021,Mon Jun 28 14:31:14 2021
write,1843.91,1843.97,0.026638,1048576,1024.00,0.008263,35.54,30.95,35.54,0,Mon Jun 28 14:29:02 2021,Mon Jun 28 14:29:38 2021
write,1843.30,1843.36,0.030282,1048576,1024.00,0.009617,35.55,31.03,35.55,0,Mon Jun 28 14:27:23 2021,Mon Jun 28 14:27:59 2021
write,1839.83,1839.88,0.024097,1048576,1024.00,0.013653,35.62,30.97,35.62,0,Mon Jun 28 14:21:00 2021,Mon Jun 28 14:21:36 2021
write,1836.39,1836.44,0.018602,1048576,1024.00,0.006875,35.69,31.09,35.69,0,Mon Jun 28 14:19:24 2021,Mon Jun 28 14:19:59 2021
write,1384.62,1384.65,0.046188,1048576,1024.00,0.011801,47.33,41.33,47.33,0,Mon Jun 28 14:17:35 2021,Mon Jun 28 14:18:23 2021
write,1813.26,1813.31,0.035293,1048576,1024.00,0.011931,36.14,31.49,36.14,0,Mon Jun 28 14:15:59 2021,Mon Jun 28 14:16:35 2021
write,1838.10,1838.15,0.027525,1048576,1024.00,0.007573,35.65,30.94,35.65,0,Mon Jun 28 14:14:22 2021,Mon Jun 28 14:14:58 2021
write,1384.91,1384.95,0.037116,1048576,1024.00,0.008817,47.32,41.05,47.32,0,Mon Jun 28 14:12:34 2021,Mon Jun 28 14:13:21 2021
write,1383.49,1383.52,0.046238,1048576,1024.00,0.011563,47.37,41.40,47.37,0,Mon Jun 28 14:10:46 2021,Mon Jun 28 14:11:33 2021
write,1845.38,1845.42,0.034417,1048576,1024.00,0.008260,35.51,30.87,35.51,0,Mon Jun 28 14:09:10 2021,Mon Jun 28 14:09:45 2021
write,1838.79,1838.84,0.034749,1048576,1024.00,0.007772,35.64,30.89,35.64,0,Mon Jun 28 14:07:33 2021,Mon Jun 28 14:08:09 2021
write,1819.49,1819.54,0.005875,1048576,1024.00,0.014120,36.02,31.41,36.02,0,Mon Jun 28 14:05:53 2021,Mon Jun 28 14:06:29 2021
write,1846.38,1846.43,0.004437,1048576,1024.00,0.007583,35.49,30.96,35.49,0,Mon Jun 28 13:54:21 2021,Mon Jun 28 13:54:56 2021
write,1826.53,1826.60,0.004474,1048576,1024.00,0.007699,35.88,31.34,35.88,0,Mon Jun 28 13:52:44 2021,Mon Jun 28 13:53:20 2021
write,1336.32,1336.34,0.031079,1048576,1024.00,0.022677,49.04,42.98,49.04,0,Mon Jun 28 13:50:54 2021,Mon Jun 28 13:51:43 2021
write,1793.17,1793.23,0.022458,1048576,1024.00,0.011659,36.55,32.00,36.55,0,Mon Jun 28 13:49:17 2021,Mon Jun 28 13:49:53 2021
write,1846.97,1847.03,0.029659,1048576,1024.00,0.010333,35.48,30.98,35.48,0,Mon Jun 28 13:47:41 2021,Mon Jun 28 13:48:16 2021
write,1379.70,1379.72,0.025469,1048576,1024.00,0.007161,47.50,41.45,47.50,0,Mon Jun 28 13:45:52 2021,Mon Jun 28 13:46:40 2021
write,1824.10,1824.14,0.021931,1048576,1024.00,0.007520,35.93,31.44,35.93,0,Mon Jun 28 13:44:16 2021,Mon Jun 28 13:44:52 2021
write,1835.71,1835.78,0.016219,1048576,1024.00,0.009568,35.70,31.14,35.70,0,Mon Jun 28 13:42:39 2021,Mon Jun 28 13:43:15 2021
write,1800.08,1800.16,0.035515,1048576,1024.00,0.008602,36.41,31.88,36.41,0,Mon Jun 28 13:41:02 2021,Mon Jun 28 13:41:38 2021
write,1838.44,1838.51,0.027241,1048576,1024.00,0.008025,35.65,31.18,35.65,0,Mon Jun 28 13:39:23 2021,Mon Jun 28 13:39:59 2021
write,1361.52,1361.55,0.041211,1048576,1024.00,0.007314,48.13,42.18,48.13,0,Mon Jun 28 13:21:18 2021,Mon Jun 28 13:22:07 2021
write,1832.19,1832.25,0.026290,1048576,1024.00,0.008246,35.77,31.21,35.77,0,Mon Jun 28 13:19:42 2021,Mon Jun 28 13:20:18 2021
write,1828.21,1828.25,0.034997,1048576,1024.00,0.006732,35.85,31.30,35.85,0,Mon Jun 28 13:18:05 2021,Mon Jun 28 13:18:41 2021
write,1368.88,1368.91,0.029171,1048576,1024.00,0.007158,47.87,41.83,47.88,0,Mon Jun 28 13:16:16 2021,Mon Jun 28 13:17:04 2021
write,1824.28,1824.34,0.027531,1048576,1024.00,0.007993,35.92,31.41,35.92,0,Mon Jun 28 13:14:40 2021,Mon Jun 28 13:15:16 2021
write,1840.59,1840.65,0.032889,1048576,1024.00,0.008901,35.60,31.03,35.61,0,Mon Jun 28 13:13:03 2021,Mon Jun 28 13:13:39 2021
write,1374.78,1374.81,0.035146,1048576,1024.00,0.007748,47.67,41.71,47.67,0,Mon Jun 28 13:11:15 2021,Mon Jun 28 13:12:03 2021
write,1813.11,1813.17,0.017492,1048576,1024.00,0.008379,36.14,31.66,36.15,0,Mon Jun 28 13:09:38 2021,Mon Jun 28 13:10:14 2021
write,1829.99,1830.05,0.034614,1048576,1024.00,0.008061,35.81,31.27,35.81,0,Mon Jun 28 13:08:01 2021,Mon Jun 28 13:08:37 2021
write,1812.84,1812.90,0.030481,1048576,1024.00,0.008520,36.15,31.56,36.15,0,Mon Jun 28 13:06:22 2021,Mon Jun 28 13:06:58 2021
write,1380.27,1380.31,0.035123,1048576,1024.00,0.007356,47.48,41.45,47.48,0,Mon Jun 28 12:56:21 2021,Mon Jun 28 12:57:09 2021
write,1819.63,1819.68,0.035169,1048576,1024.00,0.014292,36.02,31.39,36.02,0,Mon Jun 28 12:54:45 2021,Mon Jun 28 12:55:21 2021
write,1824.28,1824.35,0.027831,1048576,1024.00,0.007695,35.92,31.34,35.92,0,Mon Jun 28 12:53:08 2021,Mon Jun 28 12:53:44 2021
write,1360.66,1360.69,0.032985,1048576,1024.00,0.009537,48.16,42.18,48.16,0,Mon Jun 28 12:51:19 2021,Mon Jun 28 12:52:07 2021
write,1771.48,1771.53,0.013364,1048576,1024.00,0.007234,36.99,32.45,37.00,0,Mon Jun 28 12:49:41 2021,Mon Jun 28 12:50:18 2021
write,1814.16,1814.22,0.017873,1048576,1024.00,0.007741,36.12,31.48,36.12,0,Mon Jun 28 12:48:04 2021,Mon Jun 28 12:48:40 2021
write,1365.68,1365.72,0.045990,1048576,1024.00,0.007458,47.99,41.87,47.99,0,Mon Jun 28 12:46:15 2021,Mon Jun 28 12:47:03 2021
write,1826.40,1826.46,0.026459,1048576,1024.00,0.007594,35.88,31.33,35.88,0,Mon Jun 28 12:44:39 2021,Mon Jun 28 12:45:14 2021
write,1821.76,1821.82,0.022280,1048576,1024.00,0.007826,35.97,31.49,35.97,0,Mon Jun 28 12:43:02 2021,Mon Jun 28 12:43:38 2021
write,1818.47,1818.51,0.035038,1048576,1024.00,0.016673,36.04,31.24,36.04,0,Mon Jun 28 12:41:22 2021,Mon Jun 28 12:41:58 2021
write,1822.54,1822.60,0.030553,1048576,1024.00,0.008478,35.96,31.45,35.96,0,Mon Jun 28 12:33:11 2021,Mon Jun 28 12:33:46 2021
write,1382.29,1382.33,0.030280,1048576,1024.00,0.013185,47.41,41.42,47.41,0,Mon Jun 28 12:31:22 2021,Mon Jun 28 12:32:10 2021
write,1458.26,1458.29,0.043145,1048576,1024.00,0.007630,44.94,40.25,44.94,0,Mon Jun 28 12:29:37 2021,Mon Jun 28 12:30:22 2021
write,1830.04,1830.10,0.017511,1048576,1024.00,0.017689,35.81,31.25,35.81,0,Mon Jun 28 12:28:00 2021,Mon Jun 28 12:28:36 2021
write,1358.66,1358.70,0.036620,1048576,1024.00,0.015185,48.23,42.04,48.24,0,Mon Jun 28 12:26:11 2021,Mon Jun 28 12:26:59 2021
write,1802.37,1802.41,0.024307,1048576,1024.00,0.007517,36.36,31.66,36.36,0,Mon Jun 28 12:24:34 2021,Mon Jun 28 12:25:10 2021
write,1796.65,1796.73,0.018696,1048576,1024.00,0.007979,36.48,31.77,36.48,0,Mon Jun 28 12:22:56 2021,Mon Jun 28 12:23:33 2021
write,1371.76,1371.78,0.017476,1048576,1024.00,0.015127,47.77,41.72,47.78,0,Mon Jun 28 12:21:08 2021,Mon Jun 28 12:21:56 2021
write,1803.42,1803.47,0.035480,1048576,1024.00,0.016010,36.34,31.80,36.34,0,Mon Jun 28 12:19:31 2021,Mon Jun 28 12:20:07 2021
write,1805.03,1805.09,0.028144,1048576,1024.00,0.007383,36.31,31.85,36.31,0,Mon Jun 28 12:17:52 2021,Mon Jun 28 12:18:28 2021
write,1368.43,1368.47,0.040946,1048576,1024.00,0.011072,47.89,41.79,47.89,0,Mon Jun 28 12:10:57 2021,Mon Jun 28 12:11:45 2021
write,1810.37,1810.44,0.024119,1048576,1024.00,0.013906,36.20,31.75,36.20,0,Mon Jun 28 12:09:20 2021,Mon Jun 28 12:09:56 2021
write,1802.08,1802.14,0.027295,1048576,1024.00,0.006983,36.37,31.83,36.37,0,Mon Jun 28 12:07:42 2021,Mon Jun 28 12:08:19 2021
write,1369.25,1369.28,0.019260,1048576,1024.00,0.007371,47.86,41.82,47.86,0,Mon Jun 28 12:05:54 2021,Mon Jun 28 12:06:42 2021
write,1823.59,1823.65,0.025483,1048576,1024.00,0.012056,35.94,31.47,35.94,0,Mon Jun 28 12:04:17 2021,Mon Jun 28 12:04:53 2021
write,1792.74,1792.80,0.026370,1048576,1024.00,0.007666,36.56,32.05,36.56,0,Mon Jun 28 12:02:40 2021,Mon Jun 28 12:03:16 2021
write,1364.22,1364.26,0.037698,1048576,1024.00,0.007339,48.04,41.96,48.04,0,Mon Jun 28 12:00:51 2021,Mon Jun 28 12:01:39 2021
write,1833.28,1833.34,0.021530,1048576,1024.00,0.007281,35.75,31.27,35.75,0,Mon Jun 28 11:59:14 2021,Mon Jun 28 11:59:50 2021
write,1784.72,1784.78,0.021714,1048576,1024.00,0.007503,36.72,32.27,36.72,0,Mon Jun 28 11:57:37 2021,Mon Jun 28 11:58:14 2021
write,1799.03,1799.11,0.004432,1048576,1024.00,0.010388,36.43,31.90,36.43,0,Mon Jun 28 11:55:54 2021,Mon Jun 28 11:56:30 2021
