tracker_id,tracker_timestamp,file,size,ctime,mtime,storage_targets
38bd09cd,1624874196.727348,/beegfs/lgouveia/ior_5/testFile1,68719476736,1624874190.0,1624874190.0,202 102 201 103 104
0bf2be4f,1624874294.311531,/beegfs/lgouveia/ior_5/testFile1,68719476736,1624874294.0,1624874294.0,202 102 203 204 101
876895ff,1624874390.84226,/beegfs/lgouveia/ior_5/testFile1,68719476736,1624874390.0,1624874390.0,102 204 203 103 101
e4de6770,1624874499.695287,/beegfs/lgouveia/ior_5/testFile1,68719476736,1624874499.0,1624874499.0,201 104 203 204 202
45b67434,1624874597.062206,/beegfs/lgouveia/ior_5/testFile1,68719476736,1624874596.0,1624874596.0,204 202 203 101 102
71a992c9,1624874693.803008,/beegfs/lgouveia/ior_5/testFile1,68719476736,1624874693.0,1624874693.0,104 103 202 201 203
9ea382cc,1624874802.475095,/beegfs/lgouveia/ior_5/testFile1,68719476736,1624874802.0,1624874802.0,104 203 201 202 204
c5da3acc,1624874899.653069,/beegfs/lgouveia/ior_5/testFile1,68719476736,1624874899.0,1624874899.0,102 202 104 201 103
6dd6c3bc,1624874996.692609,/beegfs/lgouveia/ior_5/testFile1,68719476736,1624874996.0,1624874996.0,104 203 103 201 202
2e7d8561,1624875105.387468,/beegfs/lgouveia/ior_5/testFile1,68719476736,1624875105.0,1624875105.0,102 204 101 104 103
c47b22d1,1624875510.586979,/beegfs/lgouveia/ior_5/testFile1,68719476736,1624875508.0,1624875508.0,202 104 102 103 201
6c2ec479,1624875607.834302,/beegfs/lgouveia/ior_5/testFile1,68719476736,1624875607.0,1624875607.0,103 101 102 203 204
53379984,1624875716.438253,/beegfs/lgouveia/ior_5/testFile1,68719476736,1624875716.0,1624875716.0,101 104 204 102 103
83735e41,1624875813.707916,/beegfs/lgouveia/ior_5/testFile1,68719476736,1624875813.0,1624875813.0,204 202 101 102 203
20f2c419,1624875910.886802,/beegfs/lgouveia/ior_5/testFile1,68719476736,1624875910.0,1624875910.0,104 103 201 203 202
0c3f0b87,1624876019.92153,/beegfs/lgouveia/ior_5/testFile1,68719476736,1624876019.0,1624876019.0,104 204 101 103 102
6ceade58,1624876116.5594,/beegfs/lgouveia/ior_5/testFile1,68719476736,1624876116.0,1624876116.0,102 104 201 103 202
083cff47,1624876222.30051,/beegfs/lgouveia/ior_5/testFile1,68719476736,1624876222.0,1624876222.0,202 203 201 104 103
a0a4e6b5,1624876330.53144,/beegfs/lgouveia/ior_5/testFile1,68719476736,1624876330.0,1624876330.0,204 101 103 104 102
85278ee1,1624876427.273434,/beegfs/lgouveia/ior_5/testFile1,68719476736,1624876426.0,1624876426.0,104 102 201 103 202
18b0ef53,1624876921.664988,/beegfs/lgouveia/ior_5/testFile1,68719476736,1624876918.0,1624876918.0,202 102 103 201 104
cf36b16e,1624877018.575464,/beegfs/lgouveia/ior_5/testFile1,68719476736,1624877018.0,1624877018.0,202 103 102 104 201
8cca0a0a,1624877115.282757,/beegfs/lgouveia/ior_5/testFile1,68719476736,1624877114.0,1624877114.0,101 203 103 102 204
73f0ad3c,1624877224.077311,/beegfs/lgouveia/ior_5/testFile1,68719476736,1624877223.0,1624877223.0,202 104 204 201 203
02b7695a,1624877321.033482,/beegfs/lgouveia/ior_5/testFile1,68719476736,1624877320.0,1624877320.0,201 103 104 202 102
c067e32d,1624877418.83968,/beegfs/lgouveia/ior_5/testFile1,68719476736,1624877418.0,1624877418.0,201 203 103 202 104
1bf7021c,1624877527.793598,/beegfs/lgouveia/ior_5/testFile1,68719476736,1624877527.0,1624877527.0,201 202 104 203 204
95bbc7f7,1624877624.523877,/beegfs/lgouveia/ior_5/testFile1,68719476736,1624877624.0,1624877624.0,104 102 201 103 202
6b052ca8,1624877721.341034,/beegfs/lgouveia/ior_5/testFile1,68719476736,1624877721.0,1624877721.0,204 103 101 102 203
5c2c7ed0,1624877829.652181,/beegfs/lgouveia/ior_5/testFile1,68719476736,1624877829.0,1624877829.0,202 104 201 203 204
ac61dc4f,1624878421.185145,/beegfs/lgouveia/ior_5/testFile1,68719476736,1624878418.0,1624878418.0,201 103 202 104 102
1c75cb85,1624878517.932141,/beegfs/lgouveia/ior_5/testFile1,68719476736,1624878517.0,1624878517.0,201 103 202 104 102
a6233d3f,1624878614.855369,/beegfs/lgouveia/ior_5/testFile1,68719476736,1624878614.0,1624878614.0,101 204 203 102 103
858348dd,1624878723.346484,/beegfs/lgouveia/ior_5/testFile1,68719476736,1624878723.0,1624878723.0,203 202 201 104 204
90c70a6d,1624878819.753439,/beegfs/lgouveia/ior_5/testFile1,68719476736,1624878819.0,1624878819.0,202 102 103 104 201
9ebd4805,1624878916.460929,/beegfs/lgouveia/ior_5/testFile1,68719476736,1624878916.0,1624878916.0,101 103 102 204 203
5dbd6c8c,1624879025.137544,/beegfs/lgouveia/ior_5/testFile1,68719476736,1624879024.0,1624879024.0,201 203 204 202 104
dcd992b3,1624879121.805814,/beegfs/lgouveia/ior_5/testFile1,68719476736,1624879121.0,1624879121.0,203 204 102 202 101
2b920969,1624879218.40449,/beegfs/lgouveia/ior_5/testFile1,68719476736,1624879218.0,1624879218.0,204 103 102 203 101
e9df479e,1624879327.352407,/beegfs/lgouveia/ior_5/testFile1,68719476736,1624879327.0,1624879327.0,104 203 201 204 202
93d5d9d4,1624880401.727254,/beegfs/lgouveia/ior_5/testFile1,68719476736,1624880399.0,1624880399.0,102 103 104 201 202
db8ef1f3,1624880499.080496,/beegfs/lgouveia/ior_5/testFile1,68719476736,1624880498.0,1624880498.0,203 101 102 204 103
73e579a5,1624880595.589928,/beegfs/lgouveia/ior_5/testFile1,68719476736,1624880595.0,1624880595.0,102 104 202 103 201
17930d04,1624880692.306906,/beegfs/lgouveia/ior_5/testFile1,68719476736,1624880692.0,1624880692.0,101 204 203 103 102
0b9bb86a,1624880800.624655,/beegfs/lgouveia/ior_5/testFile1,68719476736,1624880800.0,1624880800.0,104 201 203 202 204
4e857bcc,1624880896.895168,/beegfs/lgouveia/ior_5/testFile1,68719476736,1624880896.0,1624880896.0,204 101 102 203 202
2e55b664,1624880994.243089,/beegfs/lgouveia/ior_5/testFile1,68719476736,1624880993.0,1624880993.0,204 102 101 103 203
3c563aac,1624881104.101339,/beegfs/lgouveia/ior_5/testFile1,68719476736,1624881103.0,1624881103.0,102 104 103 204 101
d5c1b03d,1624881200.782418,/beegfs/lgouveia/ior_5/testFile1,68719476736,1624881200.0,1624881200.0,204 102 202 203 101
3c8d922a,1624881297.080837,/beegfs/lgouveia/ior_5/testFile1,68719476736,1624881296.0,1624881296.0,103 102 204 101 203
4f8003af,1624881992.938033,/beegfs/lgouveia/ior_5/testFile1,68719476736,1624881989.0,1624881989.0,103 102 202 104 201
ce02f564,1624882089.493546,/beegfs/lgouveia/ior_5/testFile1,68719476736,1624882089.0,1624882089.0,104 201 202 103 102
7df65ef3,1624882185.825125,/beegfs/lgouveia/ior_5/testFile1,68719476736,1624882185.0,1624882185.0,203 103 102 204 101
598fba4e,1624882293.999892,/beegfs/lgouveia/ior_5/testFile1,68719476736,1624882293.0,1624882293.0,203 204 201 202 104
686e92c0,1624882402.10782,/beegfs/lgouveia/ior_5/testFile1,68719476736,1624882401.0,1624882401.0,103 102 201 101 104
39ead23e,1624882498.535148,/beegfs/lgouveia/ior_5/testFile1,68719476736,1624882498.0,1624882498.0,103 102 202 104 201
71525bb1,1624882595.487385,/beegfs/lgouveia/ior_5/testFile1,68719476736,1624882595.0,1624882595.0,203 102 204 101 103
e604b541,1624882703.651514,/beegfs/lgouveia/ior_5/testFile1,68719476736,1624882703.0,1624882703.0,104 204 101 102 103
64bbc0fb,1624882800.14292,/beegfs/lgouveia/ior_5/testFile1,68719476736,1624882799.0,1624882799.0,204 102 202 203 101
1dfc99df,1624882896.620384,/beegfs/lgouveia/ior_5/testFile1,68719476736,1624882896.0,1624882896.0,102 203 101 204 103
a825d611,1624883282.025432,/beegfs/lgouveia/ior_5/testFile1,68719476736,1624883279.0,1624883279.0,103 201 102 104 202
149fc5af,1624883378.481162,/beegfs/lgouveia/ior_5/testFile1,68719476736,1624883378.0,1624883378.0,204 202 102 101 203
12f4b188,1624883475.081451,/beegfs/lgouveia/ior_5/testFile1,68719476736,1624883474.0,1624883474.0,104 202 201 203 103
8b645fe9,1624883583.134041,/beegfs/lgouveia/ior_5/testFile1,68719476736,1624883582.0,1624883582.0,201 203 202 104 204
1d4b15cf,1624883679.735524,/beegfs/lgouveia/ior_5/testFile1,68719476736,1624883679.0,1624883679.0,204 102 202 101 203
73792d4c,1624883776.559921,/beegfs/lgouveia/ior_5/testFile1,68719476736,1624883776.0,1624883776.0,202 201 104 103 203
8d1eea9d,1624883884.656873,/beegfs/lgouveia/ior_5/testFile1,68719476736,1624883884.0,1624883884.0,204 102 103 101 104
313cd56f,1624883981.256918,/beegfs/lgouveia/ior_5/testFile1,68719476736,1624883980.0,1624883980.0,101 202 203 204 102
3aa898f3,1624884077.745326,/beegfs/lgouveia/ior_5/testFile1,68719476736,1624884077.0,1624884077.0,103 203 104 202 201
46e82858,1624884186.594101,/beegfs/lgouveia/ior_5/testFile1,68719476736,1624884186.0,1624884186.0,104 202 201 204 203
7470f70e,1624884492.777883,/beegfs/lgouveia/ior_5/testFile1,68719476736,1624884490.0,1624884490.0,102 201 103 104 202
c5ea6081,1624884588.984755,/beegfs/lgouveia/ior_5/testFile1,68719476736,1624884588.0,1624884588.0,103 102 202 201 104
2e9643a3,1624884685.511547,/beegfs/lgouveia/ior_5/testFile1,68719476736,1624884685.0,1624884685.0,202 203 104 201 103
b9a3bb2a,1624884793.697509,/beegfs/lgouveia/ior_5/testFile1,68719476736,1624884793.0,1624884793.0,103 102 104 101 204
8e36f247,1624884890.315015,/beegfs/lgouveia/ior_5/testFile1,68719476736,1624884890.0,1624884890.0,103 102 104 201 202
28c211fe,1624884986.656814,/beegfs/lgouveia/ior_5/testFile1,68719476736,1624884986.0,1624884986.0,102 101 203 103 204
1a291f78,1624885095.222712,/beegfs/lgouveia/ior_5/testFile1,68719476736,1624885094.0,1624885094.0,104 102 103 101 204
eae77815,1624885193.141122,/beegfs/lgouveia/ior_5/testFile1,68719476736,1624885192.0,1624885192.0,104 202 103 201 102
19bc5157,1624885290.615189,/beegfs/lgouveia/ior_5/testFile1,68719476736,1624885290.0,1624885290.0,203 104 202 201 103
d51be4d7,1624885400.153912,/beegfs/lgouveia/ior_5/testFile1,68719476736,1624885399.0,1624885399.0,204 102 103 101 104
3d0b75b5,1624886028.77275,/beegfs/lgouveia/ior_5/testFile1,68719476736,1624886024.0,1624886024.0,101 203 102 204 202
e6c26fed,1624886126.56254,/beegfs/lgouveia/ior_5/testFile1,68719476736,1624886126.0,1624886126.0,204 103 102 101 203
754b8fca,1624886236.275961,/beegfs/lgouveia/ior_5/testFile1,68719476736,1624886235.0,1624886235.0,203 104 201 204 202
953ae4d3,1624886334.291689,/beegfs/lgouveia/ior_5/testFile1,68719476736,1624886334.0,1624886334.0,202 103 102 104 201
68d56a8a,1624886431.334942,/beegfs/lgouveia/ior_5/testFile1,68719476736,1624886431.0,1624886431.0,201 203 104 202 103
1a43ab09,1624886541.193732,/beegfs/lgouveia/ior_5/testFile1,68719476736,1624886540.0,1624886540.0,104 201 202 204 203
9a8fda14,1624886638.538878,/beegfs/lgouveia/ior_5/testFile1,68719476736,1624886638.0,1624886638.0,102 202 204 203 101
c0c67a96,1624886735.934458,/beegfs/lgouveia/ior_5/testFile1,68719476736,1624886735.0,1624886735.0,203 102 103 101 204
25238fd6,1624886845.660727,/beegfs/lgouveia/ior_5/testFile1,68719476736,1624886845.0,1624886845.0,203 201 202 104 204
d517a84f,1624886942.974792,/beegfs/lgouveia/ior_5/testFile1,68719476736,1624886942.0,1624886942.0,204 202 101 102 203
7cfcb114,1624887556.799227,/beegfs/lgouveia/ior_5/testFile1,68719476736,1624887554.0,1624887554.0,104 102 202 103 201
d10a2d68,1624887653.651279,/beegfs/lgouveia/ior_5/testFile1,68719476736,1624887653.0,1624887653.0,103 202 201 104 203
26733b9c,1624887762.031664,/beegfs/lgouveia/ior_5/testFile1,68719476736,1624887761.0,1624887761.0,204 202 201 104 203
fe9a3616,1624887859.121434,/beegfs/lgouveia/ior_5/testFile1,68719476736,1624887858.0,1624887858.0,202 204 101 102 203
4aeffb48,1624887955.810209,/beegfs/lgouveia/ior_5/testFile1,68719476736,1624887955.0,1624887955.0,103 104 203 201 202
1fcb6dd4,1624888064.106369,/beegfs/lgouveia/ior_5/testFile1,68719476736,1624888063.0,1624888063.0,104 204 102 101 103
fcf713a3,1624888160.331196,/beegfs/lgouveia/ior_5/testFile1,68719476736,1624888160.0,1624888160.0,202 103 104 201 102
6934420e,1624888256.81643,/beegfs/lgouveia/ior_5/testFile1,68719476736,1624888256.0,1624888256.0,103 204 203 102 101
b6d30bee,1624888364.808383,/beegfs/lgouveia/ior_5/testFile1,68719476736,1624888364.0,1624888364.0,203 104 204 201 202
9a3afcc3,1624888461.073337,/beegfs/lgouveia/ior_5/testFile1,68719476736,1624888460.0,1624888460.0,104 202 102 103 201
