===== My JOB Information ====
Node List:  bora[003-006]
my jobID:  1461462
Partition: routage
submit directory:  /home/lgouveia/luan-teylo/tests/omnipath/file_size/12
submit host:  devel01.plafrim.cluster
In the directory: /home/lgouveia/luan-teylo/tests/omnipath/file_size/12
As the user: lgouveia
============================
IOR-3.4.0+dev: MPI Coordinated Test of Parallel I/O
Began               : Wed Nov 24 03:26:02 2021
Command line        : /home/lgouveia/ior/bin/ior -w -t 1m -b 8m -k -o /beegfs/lgouveia/ior_4/testFile1
Machine             : Linux bora003.plafrim.cluster
TestID              : 0
StartTime           : Wed Nov 24 03:26:02 2021
Path                : /beegfs/lgouveia/ior_4/testFile1
FS                  : 130.9 TiB   Used FS: 33.4%   Inodes: 0.0 Mi   Used Inodes: -nan%

Options: 
api                 : POSIX
apiVersion          : 
test filename       : /beegfs/lgouveia/ior_4/testFile1
access              : single-shared-file
type                : independent
segments            : 1
ordering in a file  : sequential
ordering inter file : no tasks offsets
nodes               : 4
tasks               : 32
clients per node    : 8
repetitions         : 1
xfersize            : 1 MiB
blocksize           : 8 MiB
aggregate filesize  : 256 MiB

Results: 
WARNING: The file "/beegfs/lgouveia/ior_4/testFile1" exists already and will be overwritten
ERROR: write(17, 0x2b600be35000, 1048576) failed, (aiori-POSIX.c:625)
ERROR: write(16, 0x2b2b597e5000, 1048576) failed, (aiori-POSIX.c:625)
ERROR: write(13, 0x2b02694a0000, 1048576) failed, (aiori-POSIX.c:625)
ERROR: write(18, 0x2ba413c67000, 1048576) failed, (aiori-POSIX.c:625)
ERROR: write(13, 0x2b93babc9000, 1048576) failed, (aiori-POSIX.c:625)
ERROR: write(16, 0x2ae815e90000, 1048576) failed, (aiori-POSIX.c:625)
ERROR: write(16, 0x2b34b5371000, 1048576) failed, (aiori-POSIX.c:625)
ERROR: write(13, 0x2b0ce248f000, 1048576) failed, (aiori-POSIX.c:625)
ERROR: write(16, 0x2b074b789000, 1048576) failed, (aiori-POSIX.c:625)
ERROR: write(13, 0x2b2c4e208000, 1048576) failed, (aiori-POSIX.c:625)
ERROR: write(16, 0x2b999b569000, 1048576) failed, (aiori-POSIX.c:625)
ERROR: write(13, 0x2b0044a17000, 1048576) failed, (aiori-POSIX.c:625)
ERROR: write(17, 0x2afbf68ec000, 1048576) failed, (aiori-POSIX.c:625)
ERROR: write(13, 0x2b4ab2348000, 1048576) failed, (aiori-POSIX.c:625)
ERROR: write(16, 0x2b2d456e7000, 1048576) failed, (aiori-POSIX.c:625)
ERROR: write(16, 0x2b7633ca4000, 1048576) failed, (aiori-POSIX.c:625)
ERROR: write(16, 0x2b25ebe4c000, 1048576) failed, (aiori-POSIX.c:625)
ERROR: write(16, 0x2b2a1ae6a000, 1048576) failed, (aiori-POSIX.c:625)
Tracking /beegfs/lgouveia/ior_4/testFile1...



Writing tracked information to tracker.csv...
IOR-3.4.0+dev: MPI Coordinated Test of Parallel I/O
Began               : Wed Nov 24 03:27:04 2021
Command line        : /home/lgouveia/ior/bin/ior -w -t 1m -b 8m -k -o /beegfs/lgouveia/ior_4/testFile1
Machine             : Linux bora003.plafrim.cluster
TestID              : 0
StartTime           : Wed Nov 24 03:27:04 2021
Path                : /beegfs/lgouveia/ior_4/testFile1
FS                  : 130.9 TiB   Used FS: 33.4%   Inodes: 0.0 Mi   Used Inodes: -nan%

Options: 
api                 : POSIX
apiVersion          : 
test filename       : /beegfs/lgouveia/ior_4/testFile1
access              : single-shared-file
type                : independent
segments            : 1
ordering in a file  : sequential
ordering inter file : no tasks offsets
nodes               : 4
tasks               : 32
clients per node    : 8
repetitions         : 1
xfersize            : 1 MiB
blocksize           : 8 MiB
aggregate filesize  : 256 MiB

Results: 
WARNING: The file "/beegfs/lgouveia/ior_4/testFile1" exists already and will be overwritten
ERROR: write(13, 0x2b31ea488000, 1048576) failed, (aiori-POSIX.c:625)
ERROR: write(17, 0x2b0c87e0c000, 1048576) failed, (aiori-POSIX.c:625)
ERROR: write(15, 0x2af653b03000, 1048576) failed, (aiori-POSIX.c:625)
ERROR: write(16, 0x2ab2b639f000, 1048576) failed, (aiori-POSIX.c:625)
ERROR: write(16, 0x2b91121e0000, 1048576) failed, (aiori-POSIX.c:625)
ERROR: write(16, 0x2b7b9e7d3000, 1048576) failed, (aiori-POSIX.c:625)
ERROR: write(16, 0x2b7f155e1000, 1048576) failed, (aiori-POSIX.c:625)
ERROR: write(16, 0x2ad0aec81000, 1048576) failed, (aiori-POSIX.c:625)
ERROR: write(13, 0x2ae41ea3e000, 1048576) failed, (aiori-POSIX.c:625)
ERROR: write(16, 0x2b496e22e000, 1048576) failed, (aiori-POSIX.c:625)
ERROR: write(17, 0x2adf04a17000, 1048576) failed, (aiori-POSIX.c:625)
ERROR: write(16, 0x2ac1b70b1000, 1048576) failed, (aiori-POSIX.c:625)
ERROR: write(16, 0x2b4cc6301000, 1048576) failed, (aiori-POSIX.c:625)
ERROR: write(16, 0x2b8d0158b000, 1048576) failed, (aiori-POSIX.c:625)
ERROR: write(15, 0x2ad612458000, 1048576) failed, (aiori-POSIX.c:625)
ERROR: write(18, 0x2b694b3b4000, 1048576) failed, (aiori-POSIX.c:625)
ERROR: write(16, 0x2b6e27e4a000, 1048576) failed, (aiori-POSIX.c:625)
ERROR: write(13, 0x2b47f1836000, 1048576) failed, (aiori-POSIX.c:625)
ERROR: write(17, 0x2ad439b03000, 1048576) failed, (aiori-POSIX.c:625)
ERROR: write(13, 0x2ba69a665000, 1048576) failed, (aiori-POSIX.c:625)
ERROR: write(16, 0x2ac6ba848000, 1048576) failed, (aiori-POSIX.c:625)
ERROR: write(16, 0x2b9978a17000, 1048576) failed, (aiori-POSIX.c:625)
ERROR: write(16, 0x2b1e5fad4000, 1048576) failed, (aiori-POSIX.c:625)
ERROR: write(16, 0x2b8092d0c000, 1048576) failed, (aiori-POSIX.c:625)
Tracking /beegfs/lgouveia/ior_4/testFile1...



Writing tracked information to tracker.csv...
IOR-3.4.0+dev: MPI Coordinated Test of Parallel I/O
Began               : Wed Nov 24 03:28:05 2021
Command line        : /home/lgouveia/ior/bin/ior -w -t 1m -b 8m -k -o /beegfs/lgouveia/ior_4/testFile1
Machine             : Linux bora003.plafrim.cluster
TestID              : 0
StartTime           : Wed Nov 24 03:28:05 2021
Path                : /beegfs/lgouveia/ior_4/testFile1
FS                  : 130.9 TiB   Used FS: 33.4%   Inodes: 0.0 Mi   Used Inodes: -nan%

Options: 
api                 : POSIX
apiVersion          : 
test filename       : /beegfs/lgouveia/ior_4/testFile1
access              : single-shared-file
type                : independent
segments            : 1
ordering in a file  : sequential
ordering inter file : no tasks offsets
nodes               : 4
tasks               : 32
clients per node    : 8
repetitions         : 1
xfersize            : 1 MiB
blocksize           : 8 MiB
aggregate filesize  : 256 MiB

Results: 
WARNING: The file "/beegfs/lgouveia/ior_4/testFile1" exists already and will be overwritten
ERROR: write(15, 0x2b60cbe11000, 1048576) failed, (aiori-POSIX.c:625)
ERROR: write(15, 0x2b1f65beb000, 1048576) failed, (aiori-POSIX.c:625)
ERROR: write(16, 0x2b29c74bb000, 1048576) failed, (aiori-POSIX.c:625)
ERROR: write(16, 0x2b45e5836000, 1048576) failed, (aiori-POSIX.c:625)

access    bw(MiB/s)  IOPS       Latency(s)  block(KiB) xfer(KiB)  open(s)    wr/rd(s)   close(s)   total(s)   iter
------    ---------  ----       ----------  ---------- ---------  --------   --------   --------   --------   ----
ERROR: write(16, 0x2b0241df1000, 1048576) failed, (aiori-POSIX.c:625)
ERROR: write(16, 0x2ac38a077000, 1048576) failed, (aiori-POSIX.c:625)
ERROR: write(18, 0x2b7879995000, 1048576) failed, (aiori-POSIX.c:625)
ERROR: write(13, 0x2b6b7b972000, 1048576) failed, (aiori-POSIX.c:625)
ERROR: write(16, 0x2b24c2bd1000, 1048576) failed, (aiori-POSIX.c:625)
ERROR: write(16, 0x2ac81fef5000, 1048576) failed, (aiori-POSIX.c:625)
ERROR: write(16, 0x2b6a132de000, 1048576) failed, (aiori-POSIX.c:625)
ERROR: write(13, 0x2ad8237c9000, 1048576) failed, (aiori-POSIX.c:625)
ERROR: write(15, 0x2ac5ff59b000, 1048576) failed, (aiori-POSIX.c:625)
ERROR: write(16, 0x2b593b6a4000, 1048576) failed, (aiori-POSIX.c:625)
ERROR: write(16, 0x2b7441630000, 1048576) failed, (aiori-POSIX.c:625)
ERROR: write(16, 0x2af39e16f000, 1048576) failed, (aiori-POSIX.c:625)
ERROR: write(16, 0x2b7c730bf000, 1048576) failed, (aiori-POSIX.c:625)
ERROR: write(13, 0x2b9aa2a6a000, 1048576) failed, (aiori-POSIX.c:625)
Tracking /beegfs/lgouveia/ior_4/testFile1...



Writing tracked information to tracker.csv...
IOR-3.4.0+dev: MPI Coordinated Test of Parallel I/O
Began               : Wed Nov 24 03:29:06 2021
Command line        : /home/lgouveia/ior/bin/ior -w -t 1m -b 8m -k -o /beegfs/lgouveia/ior_4/testFile1
Machine             : Linux bora003.plafrim.cluster
TestID              : 0
StartTime           : Wed Nov 24 03:29:06 2021
Path                : /beegfs/lgouveia/ior_4/testFile1
FS                  : 130.9 TiB   Used FS: 33.4%   Inodes: 0.0 Mi   Used Inodes: -nan%

Options: 
api                 : POSIX
apiVersion          : 
test filename       : /beegfs/lgouveia/ior_4/testFile1
access              : single-shared-file
type                : independent
segments            : 1
ordering in a file  : sequential
ordering inter file : no tasks offsets
nodes               : 4
tasks               : 32
clients per node    : 8
repetitions         : 1
xfersize            : 1 MiB
blocksize           : 8 MiB
aggregate filesize  : 256 MiB

Results: 
WARNING: The file "/beegfs/lgouveia/ior_4/testFile1" exists already and will be overwritten

access    bw(MiB/s)  IOPS       Latency(s)  block(KiB) xfer(KiB)  open(s)    wr/rd(s)   close(s)   total(s)   iter
------    ---------  ----       ----------  ---------- ---------  --------   --------   --------   --------   ----
write     809.58     811.77     0.039155    8192       1024.00    0.004909   0.315361   0.059545   0.316214   0   

Summary of all tests:
Operation   Max(MiB)   Min(MiB)  Mean(MiB)     StdDev   Max(OPs)   Min(OPs)  Mean(OPs)     StdDev    Mean(s) Stonewall(s) Stonewall(MiB) Test# #Tasks tPN reps fPP reord reordoff reordrand seed segcnt   blksiz    xsize aggs(MiB)   API RefNum
write         809.58     809.58     809.58       0.00     809.58     809.58     809.58       0.00    0.31621         NA            NA     0     32   8    1   0     0        1         0    0      1  8388608  1048576     256.0 POSIX      0
Finished            : Wed Nov 24 03:29:06 2021
Tracking /beegfs/lgouveia/ior_4/testFile1...



Writing tracked information to tracker.csv...
IOR-3.4.0+dev: MPI Coordinated Test of Parallel I/O
Began               : Wed Nov 24 03:30:07 2021
Command line        : /home/lgouveia/ior/bin/ior -w -t 1m -b 8m -k -o /beegfs/lgouveia/ior_4/testFile1
Machine             : Linux bora003.plafrim.cluster
TestID              : 0
StartTime           : Wed Nov 24 03:30:07 2021
Path                : /beegfs/lgouveia/ior_4/testFile1
FS                  : 130.9 TiB   Used FS: 33.4%   Inodes: 0.0 Mi   Used Inodes: -nan%

Options: 
api                 : POSIX
apiVersion          : 
test filename       : /beegfs/lgouveia/ior_4/testFile1
access              : single-shared-file
type                : independent
segments            : 1
ordering in a file  : sequential
ordering inter file : no tasks offsets
nodes               : 4
tasks               : 32
clients per node    : 8
repetitions         : 1
xfersize            : 1 MiB
blocksize           : 8 MiB
aggregate filesize  : 256 MiB

Results: 
WARNING: The file "/beegfs/lgouveia/ior_4/testFile1" exists already and will be overwritten

access    bw(MiB/s)  IOPS       Latency(s)  block(KiB) xfer(KiB)  open(s)    wr/rd(s)   close(s)   total(s)   iter
------    ---------  ----       ----------  ---------- ---------  --------   --------   --------   --------   ----
write     1267.29    1273.76    0.023557    8192       1024.00    0.008234   0.200980   0.059658   0.202005   0   

Summary of all tests:
Operation   Max(MiB)   Min(MiB)  Mean(MiB)     StdDev   Max(OPs)   Min(OPs)  Mean(OPs)     StdDev    Mean(s) Stonewall(s) Stonewall(MiB) Test# #Tasks tPN reps fPP reord reordoff reordrand seed segcnt   blksiz    xsize aggs(MiB)   API RefNum
write        1267.29    1267.29    1267.29       0.00    1267.29    1267.29    1267.29       0.00    0.20201         NA            NA     0     32   8    1   0     0        1         0    0      1  8388608  1048576     256.0 POSIX      0
Finished            : Wed Nov 24 03:30:07 2021
Tracking /beegfs/lgouveia/ior_4/testFile1...



Writing tracked information to tracker.csv...
IOR-3.4.0+dev: MPI Coordinated Test of Parallel I/O
Began               : Wed Nov 24 03:31:08 2021
Command line        : /home/lgouveia/ior/bin/ior -w -t 1m -b 8m -k -o /beegfs/lgouveia/ior_4/testFile1
Machine             : Linux bora003.plafrim.cluster
TestID              : 0
StartTime           : Wed Nov 24 03:31:08 2021
Path                : /beegfs/lgouveia/ior_4/testFile1
FS                  : 130.9 TiB   Used FS: 33.4%   Inodes: 0.0 Mi   Used Inodes: -nan%

Options: 
api                 : POSIX
apiVersion          : 
test filename       : /beegfs/lgouveia/ior_4/testFile1
access              : single-shared-file
type                : independent
segments            : 1
ordering in a file  : sequential
ordering inter file : no tasks offsets
nodes               : 4
tasks               : 32
clients per node    : 8
repetitions         : 1
xfersize            : 1 MiB
blocksize           : 8 MiB
aggregate filesize  : 256 MiB

Results: 
WARNING: The file "/beegfs/lgouveia/ior_4/testFile1" exists already and will be overwritten

access    bw(MiB/s)  IOPS       Latency(s)  block(KiB) xfer(KiB)  open(s)    wr/rd(s)   close(s)   total(s)   iter
------    ---------  ----       ----------  ---------- ---------  --------   --------   --------   --------   ----
write     821.82     824.25     0.038530    8192       1024.00    0.004994   0.310585   0.060400   0.311502   0   

Summary of all tests:
Operation   Max(MiB)   Min(MiB)  Mean(MiB)     StdDev   Max(OPs)   Min(OPs)  Mean(OPs)     StdDev    Mean(s) Stonewall(s) Stonewall(MiB) Test# #Tasks tPN reps fPP reord reordoff reordrand seed segcnt   blksiz    xsize aggs(MiB)   API RefNum
write         821.82     821.82     821.82       0.00     821.82     821.82     821.82       0.00    0.31150         NA            NA     0     32   8    1   0     0        1         0    0      1  8388608  1048576     256.0 POSIX      0
Finished            : Wed Nov 24 03:31:08 2021
Tracking /beegfs/lgouveia/ior_4/testFile1...



Writing tracked information to tracker.csv...
IOR-3.4.0+dev: MPI Coordinated Test of Parallel I/O
Began               : Wed Nov 24 03:32:09 2021
Command line        : /home/lgouveia/ior/bin/ior -w -t 1m -b 8m -k -o /beegfs/lgouveia/ior_4/testFile1
Machine             : Linux bora003.plafrim.cluster
TestID              : 0
StartTime           : Wed Nov 24 03:32:09 2021
Path                : /beegfs/lgouveia/ior_4/testFile1
FS                  : 130.9 TiB   Used FS: 33.4%   Inodes: 0.0 Mi   Used Inodes: -nan%

Options: 
api                 : POSIX
apiVersion          : 
test filename       : /beegfs/lgouveia/ior_4/testFile1
access              : single-shared-file
type                : independent
segments            : 1
ordering in a file  : sequential
ordering inter file : no tasks offsets
nodes               : 4
tasks               : 32
clients per node    : 8
repetitions         : 1
xfersize            : 1 MiB
blocksize           : 8 MiB
aggregate filesize  : 256 MiB

Results: 
WARNING: The file "/beegfs/lgouveia/ior_4/testFile1" exists already and will be overwritten

access    bw(MiB/s)  IOPS       Latency(s)  block(KiB) xfer(KiB)  open(s)    wr/rd(s)   close(s)   total(s)   iter
------    ---------  ----       ----------  ---------- ---------  --------   --------   --------   --------   ----
write     1359.91    1366.56    0.022178    8192       1024.00    0.005382   0.187332   0.057779   0.188248   0   

Summary of all tests:
Operation   Max(MiB)   Min(MiB)  Mean(MiB)     StdDev   Max(OPs)   Min(OPs)  Mean(OPs)     StdDev    Mean(s) Stonewall(s) Stonewall(MiB) Test# #Tasks tPN reps fPP reord reordoff reordrand seed segcnt   blksiz    xsize aggs(MiB)   API RefNum
write        1359.91    1359.91    1359.91       0.00    1359.91    1359.91    1359.91       0.00    0.18825         NA            NA     0     32   8    1   0     0        1         0    0      1  8388608  1048576     256.0 POSIX      0
Finished            : Wed Nov 24 03:32:09 2021
Tracking /beegfs/lgouveia/ior_4/testFile1...



Writing tracked information to tracker.csv...
IOR-3.4.0+dev: MPI Coordinated Test of Parallel I/O
Began               : Wed Nov 24 03:33:10 2021
Command line        : /home/lgouveia/ior/bin/ior -w -t 1m -b 8m -k -o /beegfs/lgouveia/ior_4/testFile1
Machine             : Linux bora003.plafrim.cluster
TestID              : 0
StartTime           : Wed Nov 24 03:33:10 2021
Path                : /beegfs/lgouveia/ior_4/testFile1
FS                  : 130.9 TiB   Used FS: 33.4%   Inodes: 0.0 Mi   Used Inodes: -nan%

Options: 
api                 : POSIX
apiVersion          : 
test filename       : /beegfs/lgouveia/ior_4/testFile1
access              : single-shared-file
type                : independent
segments            : 1
ordering in a file  : sequential
ordering inter file : no tasks offsets
nodes               : 4
tasks               : 32
clients per node    : 8
repetitions         : 1
xfersize            : 1 MiB
blocksize           : 8 MiB
aggregate filesize  : 256 MiB

Results: 
WARNING: The file "/beegfs/lgouveia/ior_4/testFile1" exists already and will be overwritten

access    bw(MiB/s)  IOPS       Latency(s)  block(KiB) xfer(KiB)  open(s)    wr/rd(s)   close(s)   total(s)   iter
------    ---------  ----       ----------  ---------- ---------  --------   --------   --------   --------   ----
write     2412.21    2436.17    0.011415    8192       1024.00    0.005950   0.105083   0.058098   0.106127   0   

Summary of all tests:
Operation   Max(MiB)   Min(MiB)  Mean(MiB)     StdDev   Max(OPs)   Min(OPs)  Mean(OPs)     StdDev    Mean(s) Stonewall(s) Stonewall(MiB) Test# #Tasks tPN reps fPP reord reordoff reordrand seed segcnt   blksiz    xsize aggs(MiB)   API RefNum
write        2412.21    2412.21    2412.21       0.00    2412.21    2412.21    2412.21       0.00    0.10613         NA            NA     0     32   8    1   0     0        1         0    0      1  8388608  1048576     256.0 POSIX      0
Finished            : Wed Nov 24 03:33:10 2021
Tracking /beegfs/lgouveia/ior_4/testFile1...



Writing tracked information to tracker.csv...
IOR-3.4.0+dev: MPI Coordinated Test of Parallel I/O
Began               : Wed Nov 24 03:34:11 2021
Command line        : /home/lgouveia/ior/bin/ior -w -t 1m -b 8m -k -o /beegfs/lgouveia/ior_4/testFile1
Machine             : Linux bora003.plafrim.cluster
TestID              : 0
StartTime           : Wed Nov 24 03:34:11 2021
Path                : /beegfs/lgouveia/ior_4/testFile1
FS                  : 130.9 TiB   Used FS: 33.4%   Inodes: 0.0 Mi   Used Inodes: -nan%

Options: 
api                 : POSIX
apiVersion          : 
test filename       : /beegfs/lgouveia/ior_4/testFile1
access              : single-shared-file
type                : independent
segments            : 1
ordering in a file  : sequential
ordering inter file : no tasks offsets
nodes               : 4
tasks               : 32
clients per node    : 8
repetitions         : 1
xfersize            : 1 MiB
blocksize           : 8 MiB
aggregate filesize  : 256 MiB

Results: 
WARNING: The file "/beegfs/lgouveia/ior_4/testFile1" exists already and will be overwritten

access    bw(MiB/s)  IOPS       Latency(s)  block(KiB) xfer(KiB)  open(s)    wr/rd(s)   close(s)   total(s)   iter
------    ---------  ----       ----------  ---------- ---------  --------   --------   --------   --------   ----
write     1170.12    1175.74    0.025104    8192       1024.00    0.005267   0.217736   0.053984   0.218781   0   

Summary of all tests:
Operation   Max(MiB)   Min(MiB)  Mean(MiB)     StdDev   Max(OPs)   Min(OPs)  Mean(OPs)     StdDev    Mean(s) Stonewall(s) Stonewall(MiB) Test# #Tasks tPN reps fPP reord reordoff reordrand seed segcnt   blksiz    xsize aggs(MiB)   API RefNum
write        1170.12    1170.12    1170.12       0.00    1170.12    1170.12    1170.12       0.00    0.21878         NA            NA     0     32   8    1   0     0        1         0    0      1  8388608  1048576     256.0 POSIX      0
Finished            : Wed Nov 24 03:34:11 2021
Tracking /beegfs/lgouveia/ior_4/testFile1...



Writing tracked information to tracker.csv...
IOR-3.4.0+dev: MPI Coordinated Test of Parallel I/O
Began               : Wed Nov 24 03:35:12 2021
Command line        : /home/lgouveia/ior/bin/ior -w -t 1m -b 8m -k -o /beegfs/lgouveia/ior_4/testFile1
Machine             : Linux bora003.plafrim.cluster
TestID              : 0
StartTime           : Wed Nov 24 03:35:12 2021
Path                : /beegfs/lgouveia/ior_4/testFile1
FS                  : 130.9 TiB   Used FS: 33.4%   Inodes: 0.0 Mi   Used Inodes: -nan%

Options: 
api                 : POSIX
apiVersion          : 
test filename       : /beegfs/lgouveia/ior_4/testFile1
access              : single-shared-file
type                : independent
segments            : 1
ordering in a file  : sequential
ordering inter file : no tasks offsets
nodes               : 4
tasks               : 32
clients per node    : 8
repetitions         : 1
xfersize            : 1 MiB
blocksize           : 8 MiB
aggregate filesize  : 256 MiB

Results: 
WARNING: The file "/beegfs/lgouveia/ior_4/testFile1" exists already and will be overwritten

access    bw(MiB/s)  IOPS       Latency(s)  block(KiB) xfer(KiB)  open(s)    wr/rd(s)   close(s)   total(s)   iter
------    ---------  ----       ----------  ---------- ---------  --------   --------   --------   --------   ----
write     2776.66    2807.66    0.007875    8192       1024.00    0.005348   0.091179   0.059222   0.092197   0   

Summary of all tests:
Operation   Max(MiB)   Min(MiB)  Mean(MiB)     StdDev   Max(OPs)   Min(OPs)  Mean(OPs)     StdDev    Mean(s) Stonewall(s) Stonewall(MiB) Test# #Tasks tPN reps fPP reord reordoff reordrand seed segcnt   blksiz    xsize aggs(MiB)   API RefNum
write        2776.66    2776.66    2776.66       0.00    2776.66    2776.66    2776.66       0.00    0.09220         NA            NA     0     32   8    1   0     0        1         0    0      1  8388608  1048576     256.0 POSIX      0
Finished            : Wed Nov 24 03:35:12 2021
Tracking /beegfs/lgouveia/ior_4/testFile1...



Writing tracked information to tracker.csv...
