===== My JOB Information ====
Node List:  bora010
my jobID:  1461799
Partition: routage
submit directory:  /home/lgouveia/luan-teylo/tests/omnipath/compute_nodes/4_targets/01
submit host:  devel02.plafrim.cluster
In the directory: /home/lgouveia/luan-teylo/tests/omnipath/compute_nodes/4_targets/01
As the user: lgouveia
============================
IOR-3.4.0+dev: MPI Coordinated Test of Parallel I/O
Began               : Wed Nov 24 12:43:17 2021
Command line        : /home/lgouveia/ior/bin/ior -w -t 1m -b 4096m -k -o /beegfs/lgouveia/ior_4/testFile1
Machine             : Linux bora010.plafrim.cluster
TestID              : 0
StartTime           : Wed Nov 24 12:43:17 2021
Path                : /beegfs/lgouveia/ior_4/testFile1
FS                  : 130.9 TiB   Used FS: 33.5%   Inodes: 0.0 Mi   Used Inodes: -nan%

Options: 
api                 : POSIX
apiVersion          : 
test filename       : /beegfs/lgouveia/ior_4/testFile1
access              : single-shared-file
type                : independent
segments            : 1
ordering in a file  : sequential
ordering inter file : no tasks offsets
nodes               : 1
tasks               : 8
clients per node    : 8
repetitions         : 1
xfersize            : 1 MiB
blocksize           : 4 GiB
aggregate filesize  : 32 GiB

Results: 
WARNING: The file "/beegfs/lgouveia/ior_4/testFile1" exists already and will be overwritten

access    bw(MiB/s)  IOPS       Latency(s)  block(KiB) xfer(KiB)  open(s)    wr/rd(s)   close(s)   total(s)   iter
------    ---------  ----       ----------  ---------- ---------  --------   --------   --------   --------   ----
write     1683.01    1683.11    0.001183    4194304    1024.00    0.003405   19.47      14.63      19.47      0   

Summary of all tests:
Operation   Max(MiB)   Min(MiB)  Mean(MiB)     StdDev   Max(OPs)   Min(OPs)  Mean(OPs)     StdDev    Mean(s) Stonewall(s) Stonewall(MiB) Test# #Tasks tPN reps fPP reord reordoff reordrand seed segcnt   blksiz    xsize aggs(MiB)   API RefNum
write        1683.01    1683.01    1683.01       0.00    1683.01    1683.01    1683.01       0.00   19.46990         NA            NA     0      8   8    1   0     0        1         0    0      1 4294967296  1048576   32768.0 POSIX      0
Finished            : Wed Nov 24 12:43:36 2021
Tracking /beegfs/lgouveia/ior_4/testFile1...



Writing tracked information to tracker.csv...
IOR-3.4.0+dev: MPI Coordinated Test of Parallel I/O
Began               : Wed Nov 24 12:44:38 2021
Command line        : /home/lgouveia/ior/bin/ior -w -t 1m -b 4096m -k -o /beegfs/lgouveia/ior_4/testFile1
Machine             : Linux bora010.plafrim.cluster
TestID              : 0
StartTime           : Wed Nov 24 12:44:38 2021
Path                : /beegfs/lgouveia/ior_4/testFile1
FS                  : 130.9 TiB   Used FS: 33.5%   Inodes: 0.0 Mi   Used Inodes: -nan%

Options: 
api                 : POSIX
apiVersion          : 
test filename       : /beegfs/lgouveia/ior_4/testFile1
access              : single-shared-file
type                : independent
segments            : 1
ordering in a file  : sequential
ordering inter file : no tasks offsets
nodes               : 1
tasks               : 8
clients per node    : 8
repetitions         : 1
xfersize            : 1 MiB
blocksize           : 4 GiB
aggregate filesize  : 32 GiB

Results: 
WARNING: The file "/beegfs/lgouveia/ior_4/testFile1" exists already and will be overwritten

access    bw(MiB/s)  IOPS       Latency(s)  block(KiB) xfer(KiB)  open(s)    wr/rd(s)   close(s)   total(s)   iter
------    ---------  ----       ----------  ---------- ---------  --------   --------   --------   --------   ----
write     1682.35    1682.43    0.002095    4194304    1024.00    0.003244   19.48      14.23      19.48      0   

Summary of all tests:
Operation   Max(MiB)   Min(MiB)  Mean(MiB)     StdDev   Max(OPs)   Min(OPs)  Mean(OPs)     StdDev    Mean(s) Stonewall(s) Stonewall(MiB) Test# #Tasks tPN reps fPP reord reordoff reordrand seed segcnt   blksiz    xsize aggs(MiB)   API RefNum
write        1682.35    1682.35    1682.35       0.00    1682.35    1682.35    1682.35       0.00   19.47750         NA            NA     0      8   8    1   0     0        1         0    0      1 4294967296  1048576   32768.0 POSIX      0
Finished            : Wed Nov 24 12:44:57 2021
Tracking /beegfs/lgouveia/ior_4/testFile1...



Writing tracked information to tracker.csv...
IOR-3.4.0+dev: MPI Coordinated Test of Parallel I/O
Began               : Wed Nov 24 12:45:58 2021
Command line        : /home/lgouveia/ior/bin/ior -w -t 1m -b 4096m -k -o /beegfs/lgouveia/ior_4/testFile1
Machine             : Linux bora010.plafrim.cluster
TestID              : 0
StartTime           : Wed Nov 24 12:45:58 2021
Path                : /beegfs/lgouveia/ior_4/testFile1
FS                  : 130.9 TiB   Used FS: 33.4%   Inodes: 0.0 Mi   Used Inodes: -nan%

Options: 
api                 : POSIX
apiVersion          : 
test filename       : /beegfs/lgouveia/ior_4/testFile1
access              : single-shared-file
type                : independent
segments            : 1
ordering in a file  : sequential
ordering inter file : no tasks offsets
nodes               : 1
tasks               : 8
clients per node    : 8
repetitions         : 1
xfersize            : 1 MiB
blocksize           : 4 GiB
aggregate filesize  : 32 GiB

Results: 
WARNING: The file "/beegfs/lgouveia/ior_4/testFile1" exists already and will be overwritten

access    bw(MiB/s)  IOPS       Latency(s)  block(KiB) xfer(KiB)  open(s)    wr/rd(s)   close(s)   total(s)   iter
------    ---------  ----       ----------  ---------- ---------  --------   --------   --------   --------   ----
write     1685.02    1685.11    0.001766    4194304    1024.00    0.003038   19.45      12.32      19.45      0   

Summary of all tests:
Operation   Max(MiB)   Min(MiB)  Mean(MiB)     StdDev   Max(OPs)   Min(OPs)  Mean(OPs)     StdDev    Mean(s) Stonewall(s) Stonewall(MiB) Test# #Tasks tPN reps fPP reord reordoff reordrand seed segcnt   blksiz    xsize aggs(MiB)   API RefNum
write        1685.02    1685.02    1685.02       0.00    1685.02    1685.02    1685.02       0.00   19.44668         NA            NA     0      8   8    1   0     0        1         0    0      1 4294967296  1048576   32768.0 POSIX      0
Finished            : Wed Nov 24 12:46:17 2021
Tracking /beegfs/lgouveia/ior_4/testFile1...



Writing tracked information to tracker.csv...
IOR-3.4.0+dev: MPI Coordinated Test of Parallel I/O
Began               : Wed Nov 24 12:47:18 2021
Command line        : /home/lgouveia/ior/bin/ior -w -t 1m -b 4096m -k -o /beegfs/lgouveia/ior_4/testFile1
Machine             : Linux bora010.plafrim.cluster
TestID              : 0
StartTime           : Wed Nov 24 12:47:18 2021
Path                : /beegfs/lgouveia/ior_4/testFile1
FS                  : 130.9 TiB   Used FS: 33.4%   Inodes: 0.0 Mi   Used Inodes: -nan%

Options: 
api                 : POSIX
apiVersion          : 
test filename       : /beegfs/lgouveia/ior_4/testFile1
access              : single-shared-file
type                : independent
segments            : 1
ordering in a file  : sequential
ordering inter file : no tasks offsets
nodes               : 1
tasks               : 8
clients per node    : 8
repetitions         : 1
xfersize            : 1 MiB
blocksize           : 4 GiB
aggregate filesize  : 32 GiB

Results: 
WARNING: The file "/beegfs/lgouveia/ior_4/testFile1" exists already and will be overwritten

access    bw(MiB/s)  IOPS       Latency(s)  block(KiB) xfer(KiB)  open(s)    wr/rd(s)   close(s)   total(s)   iter
------    ---------  ----       ----------  ---------- ---------  --------   --------   --------   --------   ----
write     1669.54    1669.66    0.001217    4194304    1024.00    0.003353   19.63      14.64      19.63      0   

Summary of all tests:
Operation   Max(MiB)   Min(MiB)  Mean(MiB)     StdDev   Max(OPs)   Min(OPs)  Mean(OPs)     StdDev    Mean(s) Stonewall(s) Stonewall(MiB) Test# #Tasks tPN reps fPP reord reordoff reordrand seed segcnt   blksiz    xsize aggs(MiB)   API RefNum
write        1669.54    1669.54    1669.54       0.00    1669.54    1669.54    1669.54       0.00   19.62698         NA            NA     0      8   8    1   0     0        1         0    0      1 4294967296  1048576   32768.0 POSIX      0
Finished            : Wed Nov 24 12:47:38 2021
Tracking /beegfs/lgouveia/ior_4/testFile1...



Writing tracked information to tracker.csv...
IOR-3.4.0+dev: MPI Coordinated Test of Parallel I/O
Began               : Wed Nov 24 12:48:38 2021
Command line        : /home/lgouveia/ior/bin/ior -w -t 1m -b 4096m -k -o /beegfs/lgouveia/ior_4/testFile1
Machine             : Linux bora010.plafrim.cluster
TestID              : 0
StartTime           : Wed Nov 24 12:48:38 2021
Path                : /beegfs/lgouveia/ior_4/testFile1
FS                  : 130.9 TiB   Used FS: 33.4%   Inodes: 0.0 Mi   Used Inodes: -nan%

Options: 
api                 : POSIX
apiVersion          : 
test filename       : /beegfs/lgouveia/ior_4/testFile1
access              : single-shared-file
type                : independent
segments            : 1
ordering in a file  : sequential
ordering inter file : no tasks offsets
nodes               : 1
tasks               : 8
clients per node    : 8
repetitions         : 1
xfersize            : 1 MiB
blocksize           : 4 GiB
aggregate filesize  : 32 GiB

Results: 
WARNING: The file "/beegfs/lgouveia/ior_4/testFile1" exists already and will be overwritten

access    bw(MiB/s)  IOPS       Latency(s)  block(KiB) xfer(KiB)  open(s)    wr/rd(s)   close(s)   total(s)   iter
------    ---------  ----       ----------  ---------- ---------  --------   --------   --------   --------   ----
write     1613.35    1613.45    0.001213    4194304    1024.00    0.003039   20.31      15.34      20.31      0   

Summary of all tests:
Operation   Max(MiB)   Min(MiB)  Mean(MiB)     StdDev   Max(OPs)   Min(OPs)  Mean(OPs)     StdDev    Mean(s) Stonewall(s) Stonewall(MiB) Test# #Tasks tPN reps fPP reord reordoff reordrand seed segcnt   blksiz    xsize aggs(MiB)   API RefNum
write        1613.35    1613.35    1613.35       0.00    1613.35    1613.35    1613.35       0.00   20.31055         NA            NA     0      8   8    1   0     0        1         0    0      1 4294967296  1048576   32768.0 POSIX      0
Finished            : Wed Nov 24 12:48:59 2021
Tracking /beegfs/lgouveia/ior_4/testFile1...



Writing tracked information to tracker.csv...
IOR-3.4.0+dev: MPI Coordinated Test of Parallel I/O
Began               : Wed Nov 24 12:49:59 2021
Command line        : /home/lgouveia/ior/bin/ior -w -t 1m -b 4096m -k -o /beegfs/lgouveia/ior_4/testFile1
Machine             : Linux bora010.plafrim.cluster
TestID              : 0
StartTime           : Wed Nov 24 12:49:59 2021
Path                : /beegfs/lgouveia/ior_4/testFile1
FS                  : 130.9 TiB   Used FS: 33.4%   Inodes: 0.0 Mi   Used Inodes: -nan%

Options: 
api                 : POSIX
apiVersion          : 
test filename       : /beegfs/lgouveia/ior_4/testFile1
access              : single-shared-file
type                : independent
segments            : 1
ordering in a file  : sequential
ordering inter file : no tasks offsets
nodes               : 1
tasks               : 8
clients per node    : 8
repetitions         : 1
xfersize            : 1 MiB
blocksize           : 4 GiB
aggregate filesize  : 32 GiB

Results: 
WARNING: The file "/beegfs/lgouveia/ior_4/testFile1" exists already and will be overwritten

access    bw(MiB/s)  IOPS       Latency(s)  block(KiB) xfer(KiB)  open(s)    wr/rd(s)   close(s)   total(s)   iter
------    ---------  ----       ----------  ---------- ---------  --------   --------   --------   --------   ----
write     1606.65    1606.73    0.002699    4194304    1024.00    0.003230   20.39      16.26      20.40      0   

Summary of all tests:
Operation   Max(MiB)   Min(MiB)  Mean(MiB)     StdDev   Max(OPs)   Min(OPs)  Mean(OPs)     StdDev    Mean(s) Stonewall(s) Stonewall(MiB) Test# #Tasks tPN reps fPP reord reordoff reordrand seed segcnt   blksiz    xsize aggs(MiB)   API RefNum
write        1606.65    1606.65    1606.65       0.00    1606.65    1606.65    1606.65       0.00   20.39529         NA            NA     0      8   8    1   0     0        1         0    0      1 4294967296  1048576   32768.0 POSIX      0
Finished            : Wed Nov 24 12:50:20 2021
Tracking /beegfs/lgouveia/ior_4/testFile1...



Writing tracked information to tracker.csv...
IOR-3.4.0+dev: MPI Coordinated Test of Parallel I/O
Began               : Wed Nov 24 12:51:21 2021
Command line        : /home/lgouveia/ior/bin/ior -w -t 1m -b 4096m -k -o /beegfs/lgouveia/ior_4/testFile1
Machine             : Linux bora010.plafrim.cluster
TestID              : 0
StartTime           : Wed Nov 24 12:51:21 2021
Path                : /beegfs/lgouveia/ior_4/testFile1
FS                  : 130.9 TiB   Used FS: 33.4%   Inodes: 0.0 Mi   Used Inodes: -nan%

Options: 
api                 : POSIX
apiVersion          : 
test filename       : /beegfs/lgouveia/ior_4/testFile1
access              : single-shared-file
type                : independent
segments            : 1
ordering in a file  : sequential
ordering inter file : no tasks offsets
nodes               : 1
tasks               : 8
clients per node    : 8
repetitions         : 1
xfersize            : 1 MiB
blocksize           : 4 GiB
aggregate filesize  : 32 GiB

Results: 
WARNING: The file "/beegfs/lgouveia/ior_4/testFile1" exists already and will be overwritten

access    bw(MiB/s)  IOPS       Latency(s)  block(KiB) xfer(KiB)  open(s)    wr/rd(s)   close(s)   total(s)   iter
------    ---------  ----       ----------  ---------- ---------  --------   --------   --------   --------   ----
write     1563.58    1563.67    0.001576    4194304    1024.00    0.003158   20.96      14.50      20.96      0   

Summary of all tests:
Operation   Max(MiB)   Min(MiB)  Mean(MiB)     StdDev   Max(OPs)   Min(OPs)  Mean(OPs)     StdDev    Mean(s) Stonewall(s) Stonewall(MiB) Test# #Tasks tPN reps fPP reord reordoff reordrand seed segcnt   blksiz    xsize aggs(MiB)   API RefNum
write        1563.58    1563.58    1563.58       0.00    1563.58    1563.58    1563.58       0.00   20.95710         NA            NA     0      8   8    1   0     0        1         0    0      1 4294967296  1048576   32768.0 POSIX      0
Finished            : Wed Nov 24 12:51:42 2021
Tracking /beegfs/lgouveia/ior_4/testFile1...



Writing tracked information to tracker.csv...
IOR-3.4.0+dev: MPI Coordinated Test of Parallel I/O
Began               : Wed Nov 24 12:52:42 2021
Command line        : /home/lgouveia/ior/bin/ior -w -t 1m -b 4096m -k -o /beegfs/lgouveia/ior_4/testFile1
Machine             : Linux bora010.plafrim.cluster
TestID              : 0
StartTime           : Wed Nov 24 12:52:42 2021
Path                : /beegfs/lgouveia/ior_4/testFile1
FS                  : 130.9 TiB   Used FS: 33.5%   Inodes: 0.0 Mi   Used Inodes: -nan%

Options: 
api                 : POSIX
apiVersion          : 
test filename       : /beegfs/lgouveia/ior_4/testFile1
access              : single-shared-file
type                : independent
segments            : 1
ordering in a file  : sequential
ordering inter file : no tasks offsets
nodes               : 1
tasks               : 8
clients per node    : 8
repetitions         : 1
xfersize            : 1 MiB
blocksize           : 4 GiB
aggregate filesize  : 32 GiB

Results: 
WARNING: The file "/beegfs/lgouveia/ior_4/testFile1" exists already and will be overwritten

access    bw(MiB/s)  IOPS       Latency(s)  block(KiB) xfer(KiB)  open(s)    wr/rd(s)   close(s)   total(s)   iter
------    ---------  ----       ----------  ---------- ---------  --------   --------   --------   --------   ----
write     1640.68    1640.80    0.000984    4194304    1024.00    0.003232   19.97      15.94      19.97      0   

Summary of all tests:
Operation   Max(MiB)   Min(MiB)  Mean(MiB)     StdDev   Max(OPs)   Min(OPs)  Mean(OPs)     StdDev    Mean(s) Stonewall(s) Stonewall(MiB) Test# #Tasks tPN reps fPP reord reordoff reordrand seed segcnt   blksiz    xsize aggs(MiB)   API RefNum
write        1640.68    1640.68    1640.68       0.00    1640.68    1640.68    1640.68       0.00   19.97217         NA            NA     0      8   8    1   0     0        1         0    0      1 4294967296  1048576   32768.0 POSIX      0
Finished            : Wed Nov 24 12:53:02 2021
Tracking /beegfs/lgouveia/ior_4/testFile1...



Writing tracked information to tracker.csv...
IOR-3.4.0+dev: MPI Coordinated Test of Parallel I/O
Began               : Wed Nov 24 12:54:03 2021
Command line        : /home/lgouveia/ior/bin/ior -w -t 1m -b 4096m -k -o /beegfs/lgouveia/ior_4/testFile1
Machine             : Linux bora010.plafrim.cluster
TestID              : 0
StartTime           : Wed Nov 24 12:54:03 2021
Path                : /beegfs/lgouveia/ior_4/testFile1
FS                  : 130.9 TiB   Used FS: 33.5%   Inodes: 0.0 Mi   Used Inodes: -nan%

Options: 
api                 : POSIX
apiVersion          : 
test filename       : /beegfs/lgouveia/ior_4/testFile1
access              : single-shared-file
type                : independent
segments            : 1
ordering in a file  : sequential
ordering inter file : no tasks offsets
nodes               : 1
tasks               : 8
clients per node    : 8
repetitions         : 1
xfersize            : 1 MiB
blocksize           : 4 GiB
aggregate filesize  : 32 GiB

Results: 
WARNING: The file "/beegfs/lgouveia/ior_4/testFile1" exists already and will be overwritten

access    bw(MiB/s)  IOPS       Latency(s)  block(KiB) xfer(KiB)  open(s)    wr/rd(s)   close(s)   total(s)   iter
------    ---------  ----       ----------  ---------- ---------  --------   --------   --------   --------   ----
write     1619.23    1619.31    0.002542    4194304    1024.00    0.002850   20.24      10.18      20.24      0   

Summary of all tests:
Operation   Max(MiB)   Min(MiB)  Mean(MiB)     StdDev   Max(OPs)   Min(OPs)  Mean(OPs)     StdDev    Mean(s) Stonewall(s) Stonewall(MiB) Test# #Tasks tPN reps fPP reord reordoff reordrand seed segcnt   blksiz    xsize aggs(MiB)   API RefNum
write        1619.23    1619.23    1619.23       0.00    1619.23    1619.23    1619.23       0.00   20.23684         NA            NA     0      8   8    1   0     0        1         0    0      1 4294967296  1048576   32768.0 POSIX      0
Finished            : Wed Nov 24 12:54:23 2021
Tracking /beegfs/lgouveia/ior_4/testFile1...



Writing tracked information to tracker.csv...
IOR-3.4.0+dev: MPI Coordinated Test of Parallel I/O
Began               : Wed Nov 24 12:55:24 2021
Command line        : /home/lgouveia/ior/bin/ior -w -t 1m -b 4096m -k -o /beegfs/lgouveia/ior_4/testFile1
Machine             : Linux bora010.plafrim.cluster
TestID              : 0
StartTime           : Wed Nov 24 12:55:24 2021
Path                : /beegfs/lgouveia/ior_4/testFile1
FS                  : 130.9 TiB   Used FS: 33.5%   Inodes: 0.0 Mi   Used Inodes: -nan%

Options: 
api                 : POSIX
apiVersion          : 
test filename       : /beegfs/lgouveia/ior_4/testFile1
access              : single-shared-file
type                : independent
segments            : 1
ordering in a file  : sequential
ordering inter file : no tasks offsets
nodes               : 1
tasks               : 8
clients per node    : 8
repetitions         : 1
xfersize            : 1 MiB
blocksize           : 4 GiB
aggregate filesize  : 32 GiB

Results: 
WARNING: The file "/beegfs/lgouveia/ior_4/testFile1" exists already and will be overwritten

access    bw(MiB/s)  IOPS       Latency(s)  block(KiB) xfer(KiB)  open(s)    wr/rd(s)   close(s)   total(s)   iter
------    ---------  ----       ----------  ---------- ---------  --------   --------   --------   --------   ----
write     1685.15    1685.27    0.001255    4194304    1024.00    0.003952   19.44      14.30      19.45      0   

Summary of all tests:
Operation   Max(MiB)   Min(MiB)  Mean(MiB)     StdDev   Max(OPs)   Min(OPs)  Mean(OPs)     StdDev    Mean(s) Stonewall(s) Stonewall(MiB) Test# #Tasks tPN reps fPP reord reordoff reordrand seed segcnt   blksiz    xsize aggs(MiB)   API RefNum
write        1685.15    1685.15    1685.15       0.00    1685.15    1685.15    1685.15       0.00   19.44521         NA            NA     0      8   8    1   0     0        1         0    0      1 4294967296  1048576   32768.0 POSIX      0
Finished            : Wed Nov 24 12:55:43 2021
Tracking /beegfs/lgouveia/ior_4/testFile1...



Writing tracked information to tracker.csv...
