===== My JOB Information ====
Node List:  bora[003-022]
my jobID:  1463810
Partition: routage
submit directory:  /home/lgouveia/luan-teylo/tests/omnipath/compute_nodes/4_targets/20
submit host:  devel02.plafrim.cluster
In the directory: /home/lgouveia/luan-teylo/tests/omnipath/compute_nodes/4_targets/20
As the user: lgouveia
============================
IOR-3.4.0+dev: MPI Coordinated Test of Parallel I/O
Began               : Thu Dec  2 07:55:07 2021
Command line        : /home/lgouveia/ior/bin/ior -w -t 1m -b 204m -k -o /beegfs/lgouveia/ior_4/testFile1
Machine             : Linux bora003.plafrim.cluster
TestID              : 0
StartTime           : Thu Dec  2 07:55:07 2021
Path                : /beegfs/lgouveia/ior_4/testFile1
FS                  : 130.9 TiB   Used FS: 35.0%   Inodes: 0.0 Mi   Used Inodes: -nan%

Options: 
api                 : POSIX
apiVersion          : 
test filename       : /beegfs/lgouveia/ior_4/testFile1
access              : single-shared-file
type                : independent
segments            : 1
ordering in a file  : sequential
ordering inter file : no tasks offsets
nodes               : 20
tasks               : 160
clients per node    : 8
repetitions         : 1
xfersize            : 1 MiB
blocksize           : 204 MiB
aggregate filesize  : 31.88 GiB

Results: 
WARNING: The file "/beegfs/lgouveia/ior_4/testFile1" exists already and will be overwritten

access    bw(MiB/s)  IOPS       Latency(s)  block(KiB) xfer(KiB)  open(s)    wr/rd(s)   close(s)   total(s)   iter
------    ---------  ----       ----------  ---------- ---------  --------   --------   --------   --------   ----
write     6068       6070       0.014003    208896     1024.00    0.260596   5.38       4.54       5.38       0   

Summary of all tests:
Operation   Max(MiB)   Min(MiB)  Mean(MiB)     StdDev   Max(OPs)   Min(OPs)  Mean(OPs)     StdDev    Mean(s) Stonewall(s) Stonewall(MiB) Test# #Tasks tPN reps fPP reord reordoff reordrand seed segcnt   blksiz    xsize aggs(MiB)   API RefNum
write        6068.20    6068.20    6068.20       0.00    6068.20    6068.20    6068.20       0.00    5.37886         NA            NA     0    160   8    1   0     0        1         0    0      1 213909504  1048576   32640.0 POSIX      0
Finished            : Thu Dec  2 07:55:12 2021
Tracking /beegfs/lgouveia/ior_4/testFile1...



Writing tracked information to tracker.csv...
IOR-3.4.0+dev: MPI Coordinated Test of Parallel I/O
Began               : Thu Dec  2 07:56:14 2021
Command line        : /home/lgouveia/ior/bin/ior -w -t 1m -b 204m -k -o /beegfs/lgouveia/ior_4/testFile1
Machine             : Linux bora003.plafrim.cluster
TestID              : 0
StartTime           : Thu Dec  2 07:56:14 2021
Path                : /beegfs/lgouveia/ior_4/testFile1
FS                  : 130.9 TiB   Used FS: 35.0%   Inodes: 0.0 Mi   Used Inodes: -nan%

Options: 
api                 : POSIX
apiVersion          : 
test filename       : /beegfs/lgouveia/ior_4/testFile1
access              : single-shared-file
type                : independent
segments            : 1
ordering in a file  : sequential
ordering inter file : no tasks offsets
nodes               : 20
tasks               : 160
clients per node    : 8
repetitions         : 1
xfersize            : 1 MiB
blocksize           : 204 MiB
aggregate filesize  : 31.88 GiB

Results: 
WARNING: The file "/beegfs/lgouveia/ior_4/testFile1" exists already and will be overwritten

access    bw(MiB/s)  IOPS       Latency(s)  block(KiB) xfer(KiB)  open(s)    wr/rd(s)   close(s)   total(s)   iter
------    ---------  ----       ----------  ---------- ---------  --------   --------   --------   --------   ----
write     5917       5919       0.004316    208896     1024.00    0.265387   5.51       4.75       5.52       0   

Summary of all tests:
Operation   Max(MiB)   Min(MiB)  Mean(MiB)     StdDev   Max(OPs)   Min(OPs)  Mean(OPs)     StdDev    Mean(s) Stonewall(s) Stonewall(MiB) Test# #Tasks tPN reps fPP reord reordoff reordrand seed segcnt   blksiz    xsize aggs(MiB)   API RefNum
write        5917.43    5917.43    5917.43       0.00    5917.43    5917.43    5917.43       0.00    5.51591         NA            NA     0    160   8    1   0     0        1         0    0      1 213909504  1048576   32640.0 POSIX      0
Finished            : Thu Dec  2 07:56:19 2021
Tracking /beegfs/lgouveia/ior_4/testFile1...



Writing tracked information to tracker.csv...
IOR-3.4.0+dev: MPI Coordinated Test of Parallel I/O
Began               : Thu Dec  2 07:57:20 2021
Command line        : /home/lgouveia/ior/bin/ior -w -t 1m -b 204m -k -o /beegfs/lgouveia/ior_4/testFile1
Machine             : Linux bora003.plafrim.cluster
TestID              : 0
StartTime           : Thu Dec  2 07:57:20 2021
Path                : /beegfs/lgouveia/ior_4/testFile1
FS                  : 130.9 TiB   Used FS: 35.0%   Inodes: 0.0 Mi   Used Inodes: -nan%

Options: 
api                 : POSIX
apiVersion          : 
test filename       : /beegfs/lgouveia/ior_4/testFile1
access              : single-shared-file
type                : independent
segments            : 1
ordering in a file  : sequential
ordering inter file : no tasks offsets
nodes               : 20
tasks               : 160
clients per node    : 8
repetitions         : 1
xfersize            : 1 MiB
blocksize           : 204 MiB
aggregate filesize  : 31.88 GiB

Results: 
WARNING: The file "/beegfs/lgouveia/ior_4/testFile1" exists already and will be overwritten

access    bw(MiB/s)  IOPS       Latency(s)  block(KiB) xfer(KiB)  open(s)    wr/rd(s)   close(s)   total(s)   iter
------    ---------  ----       ----------  ---------- ---------  --------   --------   --------   --------   ----
write     6589       6591       0.006973    208896     1024.00    0.153981   4.95       4.15       4.95       0   

Summary of all tests:
Operation   Max(MiB)   Min(MiB)  Mean(MiB)     StdDev   Max(OPs)   Min(OPs)  Mean(OPs)     StdDev    Mean(s) Stonewall(s) Stonewall(MiB) Test# #Tasks tPN reps fPP reord reordoff reordrand seed segcnt   blksiz    xsize aggs(MiB)   API RefNum
write        6589.45    6589.45    6589.45       0.00    6589.45    6589.45    6589.45       0.00    4.95337         NA            NA     0    160   8    1   0     0        1         0    0      1 213909504  1048576   32640.0 POSIX      0
Finished            : Thu Dec  2 07:57:25 2021
Tracking /beegfs/lgouveia/ior_4/testFile1...



Writing tracked information to tracker.csv...
IOR-3.4.0+dev: MPI Coordinated Test of Parallel I/O
Began               : Thu Dec  2 07:58:27 2021
Command line        : /home/lgouveia/ior/bin/ior -w -t 1m -b 204m -k -o /beegfs/lgouveia/ior_4/testFile1
Machine             : Linux bora003.plafrim.cluster
TestID              : 0
StartTime           : Thu Dec  2 07:58:27 2021
Path                : /beegfs/lgouveia/ior_4/testFile1
FS                  : 130.9 TiB   Used FS: 35.0%   Inodes: 0.0 Mi   Used Inodes: -nan%

Options: 
api                 : POSIX
apiVersion          : 
test filename       : /beegfs/lgouveia/ior_4/testFile1
access              : single-shared-file
type                : independent
segments            : 1
ordering in a file  : sequential
ordering inter file : no tasks offsets
nodes               : 20
tasks               : 160
clients per node    : 8
repetitions         : 1
xfersize            : 1 MiB
blocksize           : 204 MiB
aggregate filesize  : 31.88 GiB

Results: 
WARNING: The file "/beegfs/lgouveia/ior_4/testFile1" exists already and will be overwritten

access    bw(MiB/s)  IOPS       Latency(s)  block(KiB) xfer(KiB)  open(s)    wr/rd(s)   close(s)   total(s)   iter
------    ---------  ----       ----------  ---------- ---------  --------   --------   --------   --------   ----
write     6182       6183       0.003922    208896     1024.00    0.246692   5.28       4.49       5.28       0   

Summary of all tests:
Operation   Max(MiB)   Min(MiB)  Mean(MiB)     StdDev   Max(OPs)   Min(OPs)  Mean(OPs)     StdDev    Mean(s) Stonewall(s) Stonewall(MiB) Test# #Tasks tPN reps fPP reord reordoff reordrand seed segcnt   blksiz    xsize aggs(MiB)   API RefNum
write        6181.89    6181.89    6181.89       0.00    6181.89    6181.89    6181.89       0.00    5.27994         NA            NA     0    160   8    1   0     0        1         0    0      1 213909504  1048576   32640.0 POSIX      0
Finished            : Thu Dec  2 07:58:32 2021
Tracking /beegfs/lgouveia/ior_4/testFile1...



Writing tracked information to tracker.csv...
IOR-3.4.0+dev: MPI Coordinated Test of Parallel I/O
Began               : Thu Dec  2 07:59:33 2021
Command line        : /home/lgouveia/ior/bin/ior -w -t 1m -b 204m -k -o /beegfs/lgouveia/ior_4/testFile1
Machine             : Linux bora003.plafrim.cluster
TestID              : 0
StartTime           : Thu Dec  2 07:59:33 2021
Path                : /beegfs/lgouveia/ior_4/testFile1
FS                  : 130.9 TiB   Used FS: 35.0%   Inodes: 0.0 Mi   Used Inodes: -nan%

Options: 
api                 : POSIX
apiVersion          : 
test filename       : /beegfs/lgouveia/ior_4/testFile1
access              : single-shared-file
type                : independent
segments            : 1
ordering in a file  : sequential
ordering inter file : no tasks offsets
nodes               : 20
tasks               : 160
clients per node    : 8
repetitions         : 1
xfersize            : 1 MiB
blocksize           : 204 MiB
aggregate filesize  : 31.88 GiB

Results: 
WARNING: The file "/beegfs/lgouveia/ior_4/testFile1" exists already and will be overwritten

access    bw(MiB/s)  IOPS       Latency(s)  block(KiB) xfer(KiB)  open(s)    wr/rd(s)   close(s)   total(s)   iter
------    ---------  ----       ----------  ---------- ---------  --------   --------   --------   --------   ----
write     6247       6249       0.006204    208896     1024.00    0.281914   5.22       4.32       5.22       0   

Summary of all tests:
Operation   Max(MiB)   Min(MiB)  Mean(MiB)     StdDev   Max(OPs)   Min(OPs)  Mean(OPs)     StdDev    Mean(s) Stonewall(s) Stonewall(MiB) Test# #Tasks tPN reps fPP reord reordoff reordrand seed segcnt   blksiz    xsize aggs(MiB)   API RefNum
write        6247.04    6247.04    6247.04       0.00    6247.04    6247.04    6247.04       0.00    5.22487         NA            NA     0    160   8    1   0     0        1         0    0      1 213909504  1048576   32640.0 POSIX      0
Finished            : Thu Dec  2 07:59:38 2021
Tracking /beegfs/lgouveia/ior_4/testFile1...



Writing tracked information to tracker.csv...
IOR-3.4.0+dev: MPI Coordinated Test of Parallel I/O
Began               : Thu Dec  2 08:00:40 2021
Command line        : /home/lgouveia/ior/bin/ior -w -t 1m -b 204m -k -o /beegfs/lgouveia/ior_4/testFile1
Machine             : Linux bora003.plafrim.cluster
TestID              : 0
StartTime           : Thu Dec  2 08:00:40 2021
Path                : /beegfs/lgouveia/ior_4/testFile1
FS                  : 130.9 TiB   Used FS: 35.0%   Inodes: 0.0 Mi   Used Inodes: -nan%

Options: 
api                 : POSIX
apiVersion          : 
test filename       : /beegfs/lgouveia/ior_4/testFile1
access              : single-shared-file
type                : independent
segments            : 1
ordering in a file  : sequential
ordering inter file : no tasks offsets
nodes               : 20
tasks               : 160
clients per node    : 8
repetitions         : 1
xfersize            : 1 MiB
blocksize           : 204 MiB
aggregate filesize  : 31.88 GiB

Results: 
WARNING: The file "/beegfs/lgouveia/ior_4/testFile1" exists already and will be overwritten

access    bw(MiB/s)  IOPS       Latency(s)  block(KiB) xfer(KiB)  open(s)    wr/rd(s)   close(s)   total(s)   iter
------    ---------  ----       ----------  ---------- ---------  --------   --------   --------   --------   ----
write     5888       5889       0.013858    208896     1024.00    0.446617   5.54       4.58       5.54       0   

Summary of all tests:
Operation   Max(MiB)   Min(MiB)  Mean(MiB)     StdDev   Max(OPs)   Min(OPs)  Mean(OPs)     StdDev    Mean(s) Stonewall(s) Stonewall(MiB) Test# #Tasks tPN reps fPP reord reordoff reordrand seed segcnt   blksiz    xsize aggs(MiB)   API RefNum
write        5888.24    5888.24    5888.24       0.00    5888.24    5888.24    5888.24       0.00    5.54326         NA            NA     0    160   8    1   0     0        1         0    0      1 213909504  1048576   32640.0 POSIX      0
Finished            : Thu Dec  2 08:00:45 2021
Tracking /beegfs/lgouveia/ior_4/testFile1...



Writing tracked information to tracker.csv...
IOR-3.4.0+dev: MPI Coordinated Test of Parallel I/O
Began               : Thu Dec  2 08:01:47 2021
Command line        : /home/lgouveia/ior/bin/ior -w -t 1m -b 204m -k -o /beegfs/lgouveia/ior_4/testFile1
Machine             : Linux bora003.plafrim.cluster
TestID              : 0
StartTime           : Thu Dec  2 08:01:47 2021
Path                : /beegfs/lgouveia/ior_4/testFile1
FS                  : 130.9 TiB   Used FS: 35.0%   Inodes: 0.0 Mi   Used Inodes: -nan%

Options: 
api                 : POSIX
apiVersion          : 
test filename       : /beegfs/lgouveia/ior_4/testFile1
access              : single-shared-file
type                : independent
segments            : 1
ordering in a file  : sequential
ordering inter file : no tasks offsets
nodes               : 20
tasks               : 160
clients per node    : 8
repetitions         : 1
xfersize            : 1 MiB
blocksize           : 204 MiB
aggregate filesize  : 31.88 GiB

Results: 
WARNING: The file "/beegfs/lgouveia/ior_4/testFile1" exists already and will be overwritten

access    bw(MiB/s)  IOPS       Latency(s)  block(KiB) xfer(KiB)  open(s)    wr/rd(s)   close(s)   total(s)   iter
------    ---------  ----       ----------  ---------- ---------  --------   --------   --------   --------   ----
write     6147       6148       0.004721    208896     1024.00    0.340909   5.31       4.58       5.31       0   

Summary of all tests:
Operation   Max(MiB)   Min(MiB)  Mean(MiB)     StdDev   Max(OPs)   Min(OPs)  Mean(OPs)     StdDev    Mean(s) Stonewall(s) Stonewall(MiB) Test# #Tasks tPN reps fPP reord reordoff reordrand seed segcnt   blksiz    xsize aggs(MiB)   API RefNum
write        6146.68    6146.68    6146.68       0.00    6146.68    6146.68    6146.68       0.00    5.31018         NA            NA     0    160   8    1   0     0        1         0    0      1 213909504  1048576   32640.0 POSIX      0
Finished            : Thu Dec  2 08:01:52 2021
Tracking /beegfs/lgouveia/ior_4/testFile1...



Writing tracked information to tracker.csv...
IOR-3.4.0+dev: MPI Coordinated Test of Parallel I/O
Began               : Thu Dec  2 08:02:53 2021
Command line        : /home/lgouveia/ior/bin/ior -w -t 1m -b 204m -k -o /beegfs/lgouveia/ior_4/testFile1
Machine             : Linux bora003.plafrim.cluster
TestID              : 0
StartTime           : Thu Dec  2 08:02:53 2021
Path                : /beegfs/lgouveia/ior_4/testFile1
FS                  : 130.9 TiB   Used FS: 35.0%   Inodes: 0.0 Mi   Used Inodes: -nan%

Options: 
api                 : POSIX
apiVersion          : 
test filename       : /beegfs/lgouveia/ior_4/testFile1
access              : single-shared-file
type                : independent
segments            : 1
ordering in a file  : sequential
ordering inter file : no tasks offsets
nodes               : 20
tasks               : 160
clients per node    : 8
repetitions         : 1
xfersize            : 1 MiB
blocksize           : 204 MiB
aggregate filesize  : 31.88 GiB

Results: 
WARNING: The file "/beegfs/lgouveia/ior_4/testFile1" exists already and will be overwritten

access    bw(MiB/s)  IOPS       Latency(s)  block(KiB) xfer(KiB)  open(s)    wr/rd(s)   close(s)   total(s)   iter
------    ---------  ----       ----------  ---------- ---------  --------   --------   --------   --------   ----
write     6264       6265       0.016224    208896     1024.00    0.169673   5.21       4.55       5.21       0   

Summary of all tests:
Operation   Max(MiB)   Min(MiB)  Mean(MiB)     StdDev   Max(OPs)   Min(OPs)  Mean(OPs)     StdDev    Mean(s) Stonewall(s) Stonewall(MiB) Test# #Tasks tPN reps fPP reord reordoff reordrand seed segcnt   blksiz    xsize aggs(MiB)   API RefNum
write        6263.81    6263.81    6263.81       0.00    6263.81    6263.81    6263.81       0.00    5.21088         NA            NA     0    160   8    1   0     0        1         0    0      1 213909504  1048576   32640.0 POSIX      0
Finished            : Thu Dec  2 08:02:58 2021
Tracking /beegfs/lgouveia/ior_4/testFile1...



Writing tracked information to tracker.csv...
IOR-3.4.0+dev: MPI Coordinated Test of Parallel I/O
Began               : Thu Dec  2 08:04:00 2021
Command line        : /home/lgouveia/ior/bin/ior -w -t 1m -b 204m -k -o /beegfs/lgouveia/ior_4/testFile1
Machine             : Linux bora003.plafrim.cluster
TestID              : 0
StartTime           : Thu Dec  2 08:04:00 2021
Path                : /beegfs/lgouveia/ior_4/testFile1
FS                  : 130.9 TiB   Used FS: 35.0%   Inodes: 0.0 Mi   Used Inodes: -nan%

Options: 
api                 : POSIX
apiVersion          : 
test filename       : /beegfs/lgouveia/ior_4/testFile1
access              : single-shared-file
type                : independent
segments            : 1
ordering in a file  : sequential
ordering inter file : no tasks offsets
nodes               : 20
tasks               : 160
clients per node    : 8
repetitions         : 1
xfersize            : 1 MiB
blocksize           : 204 MiB
aggregate filesize  : 31.88 GiB

Results: 
WARNING: The file "/beegfs/lgouveia/ior_4/testFile1" exists already and will be overwritten

access    bw(MiB/s)  IOPS       Latency(s)  block(KiB) xfer(KiB)  open(s)    wr/rd(s)   close(s)   total(s)   iter
------    ---------  ----       ----------  ---------- ---------  --------   --------   --------   --------   ----
write     6437       6438       0.017078    208896     1024.00    0.213657   5.07       4.14       5.07       0   

Summary of all tests:
Operation   Max(MiB)   Min(MiB)  Mean(MiB)     StdDev   Max(OPs)   Min(OPs)  Mean(OPs)     StdDev    Mean(s) Stonewall(s) Stonewall(MiB) Test# #Tasks tPN reps fPP reord reordoff reordrand seed segcnt   blksiz    xsize aggs(MiB)   API RefNum
write        6437.02    6437.02    6437.02       0.00    6437.02    6437.02    6437.02       0.00    5.07067         NA            NA     0    160   8    1   0     0        1         0    0      1 213909504  1048576   32640.0 POSIX      0
Finished            : Thu Dec  2 08:04:05 2021
Tracking /beegfs/lgouveia/ior_4/testFile1...



Writing tracked information to tracker.csv...
IOR-3.4.0+dev: MPI Coordinated Test of Parallel I/O
Began               : Thu Dec  2 08:05:06 2021
Command line        : /home/lgouveia/ior/bin/ior -w -t 1m -b 204m -k -o /beegfs/lgouveia/ior_4/testFile1
Machine             : Linux bora003.plafrim.cluster
TestID              : 0
StartTime           : Thu Dec  2 08:05:06 2021
Path                : /beegfs/lgouveia/ior_4/testFile1
FS                  : 130.9 TiB   Used FS: 35.0%   Inodes: 0.0 Mi   Used Inodes: -nan%

Options: 
api                 : POSIX
apiVersion          : 
test filename       : /beegfs/lgouveia/ior_4/testFile1
access              : single-shared-file
type                : independent
segments            : 1
ordering in a file  : sequential
ordering inter file : no tasks offsets
nodes               : 20
tasks               : 160
clients per node    : 8
repetitions         : 1
xfersize            : 1 MiB
blocksize           : 204 MiB
aggregate filesize  : 31.88 GiB

Results: 
WARNING: The file "/beegfs/lgouveia/ior_4/testFile1" exists already and will be overwritten

access    bw(MiB/s)  IOPS       Latency(s)  block(KiB) xfer(KiB)  open(s)    wr/rd(s)   close(s)   total(s)   iter
------    ---------  ----       ----------  ---------- ---------  --------   --------   --------   --------   ----
write     6226       6227       0.004669    208896     1024.00    0.305021   5.24       4.44       5.24       0   

Summary of all tests:
Operation   Max(MiB)   Min(MiB)  Mean(MiB)     StdDev   Max(OPs)   Min(OPs)  Mean(OPs)     StdDev    Mean(s) Stonewall(s) Stonewall(MiB) Test# #Tasks tPN reps fPP reord reordoff reordrand seed segcnt   blksiz    xsize aggs(MiB)   API RefNum
write        6225.63    6225.63    6225.63       0.00    6225.63    6225.63    6225.63       0.00    5.24284         NA            NA     0    160   8    1   0     0        1         0    0      1 213909504  1048576   32640.0 POSIX      0
Finished            : Thu Dec  2 08:05:11 2021
Tracking /beegfs/lgouveia/ior_4/testFile1...



Writing tracked information to tracker.csv...
