===== My JOB Information ====
Node List:  bora[003-022]
my jobID:  1463875
Partition: routage
submit directory:  /home/lgouveia/luan-teylo/tests/omnipath/compute_nodes/4_targets/20
submit host:  devel02.plafrim.cluster
In the directory: /home/lgouveia/luan-teylo/tests/omnipath/compute_nodes/4_targets/20
As the user: lgouveia
============================
IOR-3.4.0+dev: MPI Coordinated Test of Parallel I/O
Began               : Thu Dec  2 11:42:27 2021
Command line        : /home/lgouveia/ior/bin/ior -w -t 1m -b 204m -k -o /beegfs/lgouveia/ior_4/testFile1
Machine             : Linux bora003.plafrim.cluster
TestID              : 0
StartTime           : Thu Dec  2 11:42:27 2021
Path                : /beegfs/lgouveia/ior_4/testFile1
FS                  : 130.9 TiB   Used FS: 35.0%   Inodes: 0.0 Mi   Used Inodes: -nan%

Options: 
api                 : POSIX
apiVersion          : 
test filename       : /beegfs/lgouveia/ior_4/testFile1
access              : single-shared-file
type                : independent
segments            : 1
ordering in a file  : sequential
ordering inter file : no tasks offsets
nodes               : 20
tasks               : 160
clients per node    : 8
repetitions         : 1
xfersize            : 1 MiB
blocksize           : 204 MiB
aggregate filesize  : 31.88 GiB

Results: 
WARNING: The file "/beegfs/lgouveia/ior_4/testFile1" exists already and will be overwritten

access    bw(MiB/s)  IOPS       Latency(s)  block(KiB) xfer(KiB)  open(s)    wr/rd(s)   close(s)   total(s)   iter
------    ---------  ----       ----------  ---------- ---------  --------   --------   --------   --------   ----
write     6529       6531       0.011966    208896     1024.00    0.215431   5.00       4.32       5.00       0   

Summary of all tests:
Operation   Max(MiB)   Min(MiB)  Mean(MiB)     StdDev   Max(OPs)   Min(OPs)  Mean(OPs)     StdDev    Mean(s) Stonewall(s) Stonewall(MiB) Test# #Tasks tPN reps fPP reord reordoff reordrand seed segcnt   blksiz    xsize aggs(MiB)   API RefNum
write        6529.33    6529.33    6529.33       0.00    6529.33    6529.33    6529.33       0.00    4.99898         NA            NA     0    160   8    1   0     0        1         0    0      1 213909504  1048576   32640.0 POSIX      0
Finished            : Thu Dec  2 11:42:32 2021
Tracking /beegfs/lgouveia/ior_4/testFile1...



Writing tracked information to tracker.csv...
IOR-3.4.0+dev: MPI Coordinated Test of Parallel I/O
Began               : Thu Dec  2 11:43:36 2021
Command line        : /home/lgouveia/ior/bin/ior -w -t 1m -b 204m -k -o /beegfs/lgouveia/ior_4/testFile1
Machine             : Linux bora003.plafrim.cluster
TestID              : 0
StartTime           : Thu Dec  2 11:43:36 2021
Path                : /beegfs/lgouveia/ior_4/testFile1
FS                  : 130.9 TiB   Used FS: 35.0%   Inodes: 0.0 Mi   Used Inodes: -nan%

Options: 
api                 : POSIX
apiVersion          : 
test filename       : /beegfs/lgouveia/ior_4/testFile1
access              : single-shared-file
type                : independent
segments            : 1
ordering in a file  : sequential
ordering inter file : no tasks offsets
nodes               : 20
tasks               : 160
clients per node    : 8
repetitions         : 1
xfersize            : 1 MiB
blocksize           : 204 MiB
aggregate filesize  : 31.88 GiB

Results: 
WARNING: The file "/beegfs/lgouveia/ior_4/testFile1" exists already and will be overwritten

access    bw(MiB/s)  IOPS       Latency(s)  block(KiB) xfer(KiB)  open(s)    wr/rd(s)   close(s)   total(s)   iter
------    ---------  ----       ----------  ---------- ---------  --------   --------   --------   --------   ----
write     5776       5777       0.016276    208896     1024.00    0.321528   5.65       4.87       5.65       0   

Summary of all tests:
Operation   Max(MiB)   Min(MiB)  Mean(MiB)     StdDev   Max(OPs)   Min(OPs)  Mean(OPs)     StdDev    Mean(s) Stonewall(s) Stonewall(MiB) Test# #Tasks tPN reps fPP reord reordoff reordrand seed segcnt   blksiz    xsize aggs(MiB)   API RefNum
write        5775.85    5775.85    5775.85       0.00    5775.85    5775.85    5775.85       0.00    5.65111         NA            NA     0    160   8    1   0     0        1         0    0      1 213909504  1048576   32640.0 POSIX      0
Finished            : Thu Dec  2 11:43:42 2021
Tracking /beegfs/lgouveia/ior_4/testFile1...



Writing tracked information to tracker.csv...
IOR-3.4.0+dev: MPI Coordinated Test of Parallel I/O
Began               : Thu Dec  2 11:44:43 2021
Command line        : /home/lgouveia/ior/bin/ior -w -t 1m -b 204m -k -o /beegfs/lgouveia/ior_4/testFile1
Machine             : Linux bora003.plafrim.cluster
TestID              : 0
StartTime           : Thu Dec  2 11:44:43 2021
Path                : /beegfs/lgouveia/ior_4/testFile1
FS                  : 130.9 TiB   Used FS: 35.0%   Inodes: 0.0 Mi   Used Inodes: -nan%

Options: 
api                 : POSIX
apiVersion          : 
test filename       : /beegfs/lgouveia/ior_4/testFile1
access              : single-shared-file
type                : independent
segments            : 1
ordering in a file  : sequential
ordering inter file : no tasks offsets
nodes               : 20
tasks               : 160
clients per node    : 8
repetitions         : 1
xfersize            : 1 MiB
blocksize           : 204 MiB
aggregate filesize  : 31.88 GiB

Results: 
WARNING: The file "/beegfs/lgouveia/ior_4/testFile1" exists already and will be overwritten

access    bw(MiB/s)  IOPS       Latency(s)  block(KiB) xfer(KiB)  open(s)    wr/rd(s)   close(s)   total(s)   iter
------    ---------  ----       ----------  ---------- ---------  --------   --------   --------   --------   ----
write     6289       6290       0.022556    208896     1024.00    0.190632   5.19       4.52       5.19       0   

Summary of all tests:
Operation   Max(MiB)   Min(MiB)  Mean(MiB)     StdDev   Max(OPs)   Min(OPs)  Mean(OPs)     StdDev    Mean(s) Stonewall(s) Stonewall(MiB) Test# #Tasks tPN reps fPP reord reordoff reordrand seed segcnt   blksiz    xsize aggs(MiB)   API RefNum
write        6289.08    6289.08    6289.08       0.00    6289.08    6289.08    6289.08       0.00    5.18995         NA            NA     0    160   8    1   0     0        1         0    0      1 213909504  1048576   32640.0 POSIX      0
Finished            : Thu Dec  2 11:44:48 2021
Tracking /beegfs/lgouveia/ior_4/testFile1...



Writing tracked information to tracker.csv...
IOR-3.4.0+dev: MPI Coordinated Test of Parallel I/O
Began               : Thu Dec  2 11:45:50 2021
Command line        : /home/lgouveia/ior/bin/ior -w -t 1m -b 204m -k -o /beegfs/lgouveia/ior_4/testFile1
Machine             : Linux bora003.plafrim.cluster
TestID              : 0
StartTime           : Thu Dec  2 11:45:50 2021
Path                : /beegfs/lgouveia/ior_4/testFile1
FS                  : 130.9 TiB   Used FS: 35.0%   Inodes: 0.0 Mi   Used Inodes: -nan%

Options: 
api                 : POSIX
apiVersion          : 
test filename       : /beegfs/lgouveia/ior_4/testFile1
access              : single-shared-file
type                : independent
segments            : 1
ordering in a file  : sequential
ordering inter file : no tasks offsets
nodes               : 20
tasks               : 160
clients per node    : 8
repetitions         : 1
xfersize            : 1 MiB
blocksize           : 204 MiB
aggregate filesize  : 31.88 GiB

Results: 
WARNING: The file "/beegfs/lgouveia/ior_4/testFile1" exists already and will be overwritten

access    bw(MiB/s)  IOPS       Latency(s)  block(KiB) xfer(KiB)  open(s)    wr/rd(s)   close(s)   total(s)   iter
------    ---------  ----       ----------  ---------- ---------  --------   --------   --------   --------   ----
write     6121       6122       0.006846    208896     1024.00    0.286677   5.33       4.59       5.33       0   

Summary of all tests:
Operation   Max(MiB)   Min(MiB)  Mean(MiB)     StdDev   Max(OPs)   Min(OPs)  Mean(OPs)     StdDev    Mean(s) Stonewall(s) Stonewall(MiB) Test# #Tasks tPN reps fPP reord reordoff reordrand seed segcnt   blksiz    xsize aggs(MiB)   API RefNum
write        6121.26    6121.26    6121.26       0.00    6121.26    6121.26    6121.26       0.00    5.33224         NA            NA     0    160   8    1   0     0        1         0    0      1 213909504  1048576   32640.0 POSIX      0
Finished            : Thu Dec  2 11:45:55 2021
Tracking /beegfs/lgouveia/ior_4/testFile1...



Writing tracked information to tracker.csv...
IOR-3.4.0+dev: MPI Coordinated Test of Parallel I/O
Began               : Thu Dec  2 11:46:56 2021
Command line        : /home/lgouveia/ior/bin/ior -w -t 1m -b 204m -k -o /beegfs/lgouveia/ior_4/testFile1
Machine             : Linux bora003.plafrim.cluster
TestID              : 0
StartTime           : Thu Dec  2 11:46:56 2021
Path                : /beegfs/lgouveia/ior_4/testFile1
FS                  : 130.9 TiB   Used FS: 35.0%   Inodes: 0.0 Mi   Used Inodes: -nan%

Options: 
api                 : POSIX
apiVersion          : 
test filename       : /beegfs/lgouveia/ior_4/testFile1
access              : single-shared-file
type                : independent
segments            : 1
ordering in a file  : sequential
ordering inter file : no tasks offsets
nodes               : 20
tasks               : 160
clients per node    : 8
repetitions         : 1
xfersize            : 1 MiB
blocksize           : 204 MiB
aggregate filesize  : 31.88 GiB

Results: 
WARNING: The file "/beegfs/lgouveia/ior_4/testFile1" exists already and will be overwritten

access    bw(MiB/s)  IOPS       Latency(s)  block(KiB) xfer(KiB)  open(s)    wr/rd(s)   close(s)   total(s)   iter
------    ---------  ----       ----------  ---------- ---------  --------   --------   --------   --------   ----
write     6502       6503       0.015259    208896     1024.00    0.234779   5.02       4.35       5.02       0   

Summary of all tests:
Operation   Max(MiB)   Min(MiB)  Mean(MiB)     StdDev   Max(OPs)   Min(OPs)  Mean(OPs)     StdDev    Mean(s) Stonewall(s) Stonewall(MiB) Test# #Tasks tPN reps fPP reord reordoff reordrand seed segcnt   blksiz    xsize aggs(MiB)   API RefNum
write        6501.78    6501.78    6501.78       0.00    6501.78    6501.78    6501.78       0.00    5.02016         NA            NA     0    160   8    1   0     0        1         0    0      1 213909504  1048576   32640.0 POSIX      0
Finished            : Thu Dec  2 11:47:01 2021
Tracking /beegfs/lgouveia/ior_4/testFile1...



Writing tracked information to tracker.csv...
IOR-3.4.0+dev: MPI Coordinated Test of Parallel I/O
Began               : Thu Dec  2 11:48:02 2021
Command line        : /home/lgouveia/ior/bin/ior -w -t 1m -b 204m -k -o /beegfs/lgouveia/ior_4/testFile1
Machine             : Linux bora003.plafrim.cluster
TestID              : 0
StartTime           : Thu Dec  2 11:48:02 2021
Path                : /beegfs/lgouveia/ior_4/testFile1
FS                  : 130.9 TiB   Used FS: 35.0%   Inodes: 0.0 Mi   Used Inodes: -nan%

Options: 
api                 : POSIX
apiVersion          : 
test filename       : /beegfs/lgouveia/ior_4/testFile1
access              : single-shared-file
type                : independent
segments            : 1
ordering in a file  : sequential
ordering inter file : no tasks offsets
nodes               : 20
tasks               : 160
clients per node    : 8
repetitions         : 1
xfersize            : 1 MiB
blocksize           : 204 MiB
aggregate filesize  : 31.88 GiB

Results: 
WARNING: The file "/beegfs/lgouveia/ior_4/testFile1" exists already and will be overwritten

access    bw(MiB/s)  IOPS       Latency(s)  block(KiB) xfer(KiB)  open(s)    wr/rd(s)   close(s)   total(s)   iter
------    ---------  ----       ----------  ---------- ---------  --------   --------   --------   --------   ----
write     6342       6343       0.003641    208896     1024.00    0.246471   5.15       4.50       5.15       0   

Summary of all tests:
Operation   Max(MiB)   Min(MiB)  Mean(MiB)     StdDev   Max(OPs)   Min(OPs)  Mean(OPs)     StdDev    Mean(s) Stonewall(s) Stonewall(MiB) Test# #Tasks tPN reps fPP reord reordoff reordrand seed segcnt   blksiz    xsize aggs(MiB)   API RefNum
write        6341.95    6341.95    6341.95       0.00    6341.95    6341.95    6341.95       0.00    5.14668         NA            NA     0    160   8    1   0     0        1         0    0      1 213909504  1048576   32640.0 POSIX      0
Finished            : Thu Dec  2 11:48:08 2021
Tracking /beegfs/lgouveia/ior_4/testFile1...



Writing tracked information to tracker.csv...
IOR-3.4.0+dev: MPI Coordinated Test of Parallel I/O
Began               : Thu Dec  2 11:49:09 2021
Command line        : /home/lgouveia/ior/bin/ior -w -t 1m -b 204m -k -o /beegfs/lgouveia/ior_4/testFile1
Machine             : Linux bora003.plafrim.cluster
TestID              : 0
StartTime           : Thu Dec  2 11:49:09 2021
Path                : /beegfs/lgouveia/ior_4/testFile1
FS                  : 130.9 TiB   Used FS: 35.0%   Inodes: 0.0 Mi   Used Inodes: -nan%

Options: 
api                 : POSIX
apiVersion          : 
test filename       : /beegfs/lgouveia/ior_4/testFile1
access              : single-shared-file
type                : independent
segments            : 1
ordering in a file  : sequential
ordering inter file : no tasks offsets
nodes               : 20
tasks               : 160
clients per node    : 8
repetitions         : 1
xfersize            : 1 MiB
blocksize           : 204 MiB
aggregate filesize  : 31.88 GiB

Results: 
WARNING: The file "/beegfs/lgouveia/ior_4/testFile1" exists already and will be overwritten

access    bw(MiB/s)  IOPS       Latency(s)  block(KiB) xfer(KiB)  open(s)    wr/rd(s)   close(s)   total(s)   iter
------    ---------  ----       ----------  ---------- ---------  --------   --------   --------   --------   ----
write     6395       6396       0.014069    208896     1024.00    0.313295   5.10       4.30       5.10       0   

Summary of all tests:
Operation   Max(MiB)   Min(MiB)  Mean(MiB)     StdDev   Max(OPs)   Min(OPs)  Mean(OPs)     StdDev    Mean(s) Stonewall(s) Stonewall(MiB) Test# #Tasks tPN reps fPP reord reordoff reordrand seed segcnt   blksiz    xsize aggs(MiB)   API RefNum
write        6394.51    6394.51    6394.51       0.00    6394.51    6394.51    6394.51       0.00    5.10438         NA            NA     0    160   8    1   0     0        1         0    0      1 213909504  1048576   32640.0 POSIX      0
Finished            : Thu Dec  2 11:49:14 2021
Tracking /beegfs/lgouveia/ior_4/testFile1...



Writing tracked information to tracker.csv...
IOR-3.4.0+dev: MPI Coordinated Test of Parallel I/O
Began               : Thu Dec  2 11:50:15 2021
Command line        : /home/lgouveia/ior/bin/ior -w -t 1m -b 204m -k -o /beegfs/lgouveia/ior_4/testFile1
Machine             : Linux bora003.plafrim.cluster
TestID              : 0
StartTime           : Thu Dec  2 11:50:15 2021
Path                : /beegfs/lgouveia/ior_4/testFile1
FS                  : 130.9 TiB   Used FS: 35.0%   Inodes: 0.0 Mi   Used Inodes: -nan%

Options: 
api                 : POSIX
apiVersion          : 
test filename       : /beegfs/lgouveia/ior_4/testFile1
access              : single-shared-file
type                : independent
segments            : 1
ordering in a file  : sequential
ordering inter file : no tasks offsets
nodes               : 20
tasks               : 160
clients per node    : 8
repetitions         : 1
xfersize            : 1 MiB
blocksize           : 204 MiB
aggregate filesize  : 31.88 GiB

Results: 
WARNING: The file "/beegfs/lgouveia/ior_4/testFile1" exists already and will be overwritten

access    bw(MiB/s)  IOPS       Latency(s)  block(KiB) xfer(KiB)  open(s)    wr/rd(s)   close(s)   total(s)   iter
------    ---------  ----       ----------  ---------- ---------  --------   --------   --------   --------   ----
write     5991       5992       0.011213    208896     1024.00    0.380658   5.45       4.49       5.45       0   

Summary of all tests:
Operation   Max(MiB)   Min(MiB)  Mean(MiB)     StdDev   Max(OPs)   Min(OPs)  Mean(OPs)     StdDev    Mean(s) Stonewall(s) Stonewall(MiB) Test# #Tasks tPN reps fPP reord reordoff reordrand seed segcnt   blksiz    xsize aggs(MiB)   API RefNum
write        5991.28    5991.28    5991.28       0.00    5991.28    5991.28    5991.28       0.00    5.44792         NA            NA     0    160   8    1   0     0        1         0    0      1 213909504  1048576   32640.0 POSIX      0
Finished            : Thu Dec  2 11:50:21 2021
Tracking /beegfs/lgouveia/ior_4/testFile1...



Writing tracked information to tracker.csv...
IOR-3.4.0+dev: MPI Coordinated Test of Parallel I/O
Began               : Thu Dec  2 11:51:22 2021
Command line        : /home/lgouveia/ior/bin/ior -w -t 1m -b 204m -k -o /beegfs/lgouveia/ior_4/testFile1
Machine             : Linux bora003.plafrim.cluster
TestID              : 0
StartTime           : Thu Dec  2 11:51:22 2021
Path                : /beegfs/lgouveia/ior_4/testFile1
FS                  : 130.9 TiB   Used FS: 35.0%   Inodes: 0.0 Mi   Used Inodes: -nan%

Options: 
api                 : POSIX
apiVersion          : 
test filename       : /beegfs/lgouveia/ior_4/testFile1
access              : single-shared-file
type                : independent
segments            : 1
ordering in a file  : sequential
ordering inter file : no tasks offsets
nodes               : 20
tasks               : 160
clients per node    : 8
repetitions         : 1
xfersize            : 1 MiB
blocksize           : 204 MiB
aggregate filesize  : 31.88 GiB

Results: 
WARNING: The file "/beegfs/lgouveia/ior_4/testFile1" exists already and will be overwritten

access    bw(MiB/s)  IOPS       Latency(s)  block(KiB) xfer(KiB)  open(s)    wr/rd(s)   close(s)   total(s)   iter
------    ---------  ----       ----------  ---------- ---------  --------   --------   --------   --------   ----
write     6021       6022       0.021868    208896     1024.00    0.094720   5.42       4.69       5.42       0   

Summary of all tests:
Operation   Max(MiB)   Min(MiB)  Mean(MiB)     StdDev   Max(OPs)   Min(OPs)  Mean(OPs)     StdDev    Mean(s) Stonewall(s) Stonewall(MiB) Test# #Tasks tPN reps fPP reord reordoff reordrand seed segcnt   blksiz    xsize aggs(MiB)   API RefNum
write        6021.43    6021.43    6021.43       0.00    6021.43    6021.43    6021.43       0.00    5.42064         NA            NA     0    160   8    1   0     0        1         0    0      1 213909504  1048576   32640.0 POSIX      0
Finished            : Thu Dec  2 11:51:27 2021
Tracking /beegfs/lgouveia/ior_4/testFile1...



Writing tracked information to tracker.csv...
IOR-3.4.0+dev: MPI Coordinated Test of Parallel I/O
Began               : Thu Dec  2 11:52:29 2021
Command line        : /home/lgouveia/ior/bin/ior -w -t 1m -b 204m -k -o /beegfs/lgouveia/ior_4/testFile1
Machine             : Linux bora003.plafrim.cluster
TestID              : 0
StartTime           : Thu Dec  2 11:52:29 2021
Path                : /beegfs/lgouveia/ior_4/testFile1
FS                  : 130.9 TiB   Used FS: 35.0%   Inodes: 0.0 Mi   Used Inodes: -nan%

Options: 
api                 : POSIX
apiVersion          : 
test filename       : /beegfs/lgouveia/ior_4/testFile1
access              : single-shared-file
type                : independent
segments            : 1
ordering in a file  : sequential
ordering inter file : no tasks offsets
nodes               : 20
tasks               : 160
clients per node    : 8
repetitions         : 1
xfersize            : 1 MiB
blocksize           : 204 MiB
aggregate filesize  : 31.88 GiB

Results: 
WARNING: The file "/beegfs/lgouveia/ior_4/testFile1" exists already and will be overwritten

access    bw(MiB/s)  IOPS       Latency(s)  block(KiB) xfer(KiB)  open(s)    wr/rd(s)   close(s)   total(s)   iter
------    ---------  ----       ----------  ---------- ---------  --------   --------   --------   --------   ----
write     6511       6512       0.011383    208896     1024.00    0.154403   5.01       4.40       5.01       0   

Summary of all tests:
Operation   Max(MiB)   Min(MiB)  Mean(MiB)     StdDev   Max(OPs)   Min(OPs)  Mean(OPs)     StdDev    Mean(s) Stonewall(s) Stonewall(MiB) Test# #Tasks tPN reps fPP reord reordoff reordrand seed segcnt   blksiz    xsize aggs(MiB)   API RefNum
write        6511.12    6511.12    6511.12       0.00    6511.12    6511.12    6511.12       0.00    5.01296         NA            NA     0    160   8    1   0     0        1         0    0      1 213909504  1048576   32640.0 POSIX      0
Finished            : Thu Dec  2 11:52:34 2021
Tracking /beegfs/lgouveia/ior_4/testFile1...



Writing tracked information to tracker.csv...
