[bora002.plafrim.cluster:51426] mca_base_component_repository_open: unable to open mca_btl_uct: libucp.so.0: cannot open shared object file: No such file or directory (ignored)
[bora001.plafrim.cluster:90618] mca_base_component_repository_open: unable to open mca_btl_uct: libucp.so.0: cannot open shared object file: No such file or directory (ignored)
[bora002.plafrim.cluster:51430] mca_base_component_repository_open: unable to open mca_btl_uct: libucp.so.0: cannot open shared object file: No such file or directory (ignored)
[bora002.plafrim.cluster:51432] mca_base_component_repository_open: unable to open mca_btl_uct: libucp.so.0: cannot open shared object file: No such file or directory (ignored)
[bora002.plafrim.cluster:51427] mca_base_component_repository_open: unable to open mca_btl_uct: libucp.so.0: cannot open shared object file: No such file or directory (ignored)
[bora002.plafrim.cluster:51428] mca_base_component_repository_open: unable to open mca_btl_uct: libucp.so.0: cannot open shared object file: No such file or directory (ignored)
[bora002.plafrim.cluster:51431] mca_base_component_repository_open: unable to open mca_btl_uct: libucp.so.0: cannot open shared object file: No such file or directory (ignored)
[bora002.plafrim.cluster:51433] mca_base_component_repository_open: unable to open mca_btl_uct: libucp.so.0: cannot open shared object file: No such file or directory (ignored)
[bora002.plafrim.cluster:51429] mca_base_component_repository_open: unable to open mca_btl_uct: libucp.so.0: cannot open shared object file: No such file or directory (ignored)
[bora002.plafrim.cluster:51430] mca_base_component_repository_open: unable to open mca_pml_ucx: libucp.so.0: cannot open shared object file: No such file or directory (ignored)
[bora002.plafrim.cluster:51429] mca_base_component_repository_open: unable to open mca_pml_ucx: libucp.so.0: cannot open shared object file: No such file or directory (ignored)
[bora002.plafrim.cluster:51433] mca_base_component_repository_open: unable to open mca_pml_ucx: libucp.so.0: cannot open shared object file: No such file or directory (ignored)
[bora002.plafrim.cluster:51426] mca_base_component_repository_open: unable to open mca_pml_ucx: libucp.so.0: cannot open shared object file: No such file or directory (ignored)
[bora002.plafrim.cluster:51427] mca_base_component_repository_open: unable to open mca_pml_ucx: libucp.so.0: cannot open shared object file: No such file or directory (ignored)
[bora002.plafrim.cluster:51431] mca_base_component_repository_open: unable to open mca_pml_ucx: libucp.so.0: cannot open shared object file: No such file or directory (ignored)
[bora002.plafrim.cluster:51432] mca_base_component_repository_open: unable to open mca_pml_ucx: libucp.so.0: cannot open shared object file: No such file or directory (ignored)
[bora002.plafrim.cluster:51428] mca_base_component_repository_open: unable to open mca_pml_ucx: libucp.so.0: cannot open shared object file: No such file or directory (ignored)
[bora001.plafrim.cluster:90620] mca_base_component_repository_open: unable to open mca_btl_uct: libucp.so.0: cannot open shared object file: No such file or directory (ignored)
[bora001.plafrim.cluster:90614] mca_base_component_repository_open: unable to open mca_btl_uct: libucp.so.0: cannot open shared object file: No such file or directory (ignored)
[bora001.plafrim.cluster:90615] mca_base_component_repository_open: unable to open mca_btl_uct: libucp.so.0: cannot open shared object file: No such file or directory (ignored)
[bora001.plafrim.cluster:90617] mca_base_component_repository_open: unable to open mca_btl_uct: libucp.so.0: cannot open shared object file: No such file or directory (ignored)
[bora001.plafrim.cluster:90619] mca_base_component_repository_open: unable to open mca_btl_uct: libucp.so.0: cannot open shared object file: No such file or directory (ignored)
[bora001.plafrim.cluster:90621] mca_base_component_repository_open: unable to open mca_btl_uct: libucp.so.0: cannot open shared object file: No such file or directory (ignored)
[bora001.plafrim.cluster:90616] mca_base_component_repository_open: unable to open mca_btl_uct: libucp.so.0: cannot open shared object file: No such file or directory (ignored)
[bora001.plafrim.cluster:90620] mca_base_component_repository_open: unable to open mca_pml_ucx: libucp.so.0: cannot open shared object file: No such file or directory (ignored)
[bora001.plafrim.cluster:90615] mca_base_component_repository_open: unable to open mca_pml_ucx: libucp.so.0: cannot open shared object file: No such file or directory (ignored)
[bora001.plafrim.cluster:90619] mca_base_component_repository_open: unable to open mca_pml_ucx: libucp.so.0: cannot open shared object file: No such file or directory (ignored)
[bora001.plafrim.cluster:90616] mca_base_component_repository_open: unable to open mca_pml_ucx: libucp.so.0: cannot open shared object file: No such file or directory (ignored)
[bora001.plafrim.cluster:90614] mca_base_component_repository_open: unable to open mca_pml_ucx: libucp.so.0: cannot open shared object file: No such file or directory (ignored)
[bora001.plafrim.cluster:90617] mca_base_component_repository_open: unable to open mca_pml_ucx: libucp.so.0: cannot open shared object file: No such file or directory (ignored)
[bora001.plafrim.cluster:90618] mca_base_component_repository_open: unable to open mca_pml_ucx: libucp.so.0: cannot open shared object file: No such file or directory (ignored)
[bora001.plafrim.cluster:90621] mca_base_component_repository_open: unable to open mca_pml_ucx: libucp.so.0: cannot open shared object file: No such file or directory (ignored)
[bora002.plafrim.cluster:51428] mca_base_component_repository_open: unable to open mca_osc_ucx: libucp.so.0: cannot open shared object file: No such file or directory (ignored)
[bora001.plafrim.cluster:90621] mca_base_component_repository_open: unable to open mca_osc_ucx: libucp.so.0: cannot open shared object file: No such file or directory (ignored)
[bora001.plafrim.cluster:90618] mca_base_component_repository_open: unable to open mca_osc_ucx: libucp.so.0: cannot open shared object file: No such file or directory (ignored)
[bora002.plafrim.cluster:51426] mca_base_component_repository_open: unable to open mca_osc_ucx: libucp.so.0: cannot open shared object file: No such file or directory (ignored)
[bora002.plafrim.cluster:51427] mca_base_component_repository_open: unable to open mca_osc_ucx: libucp.so.0: cannot open shared object file: No such file or directory (ignored)
[bora002.plafrim.cluster:51433] mca_base_component_repository_open: unable to open mca_osc_ucx: libucp.so.0: cannot open shared object file: No such file or directory (ignored)
[bora002.plafrim.cluster:51430] mca_base_component_repository_open: unable to open mca_osc_ucx: libucp.so.0: cannot open shared object file: No such file or directory (ignored)
[bora001.plafrim.cluster:90614] mca_base_component_repository_open: unable to open mca_osc_ucx: libucp.so.0: cannot open shared object file: No such file or directory (ignored)
[bora001.plafrim.cluster:90615] mca_base_component_repository_open: unable to open mca_osc_ucx: libucp.so.0: cannot open shared object file: No such file or directory (ignored)
[bora002.plafrim.cluster:51431] mca_base_component_repository_open: unable to open mca_osc_ucx: libucp.so.0: cannot open shared object file: No such file or directory (ignored)
[bora001.plafrim.cluster:90617] mca_base_component_repository_open: unable to open mca_osc_ucx: libucp.so.0: cannot open shared object file: No such file or directory (ignored)
[bora002.plafrim.cluster:51432] mca_base_component_repository_open: unable to open mca_osc_ucx: libucp.so.0: cannot open shared object file: No such file or directory (ignored)
[bora001.plafrim.cluster:90619] mca_base_component_repository_open: unable to open mca_osc_ucx: libucp.so.0: cannot open shared object file: No such file or directory (ignored)
[bora001.plafrim.cluster:90620] mca_base_component_repository_open: unable to open mca_osc_ucx: libucp.so.0: cannot open shared object file: No such file or directory (ignored)
[bora002.plafrim.cluster:51429] mca_base_component_repository_open: unable to open mca_osc_ucx: libucp.so.0: cannot open shared object file: No such file or directory (ignored)
[bora001.plafrim.cluster:90616] mca_base_component_repository_open: unable to open mca_osc_ucx: libucp.so.0: cannot open shared object file: No such file or directory (ignored)
[bora001.plafrim.cluster:90698] mca_base_component_repository_open: unable to open mca_btl_uct: libucp.so.0: cannot open shared object file: No such file or directory (ignored)
[bora001.plafrim.cluster:90695] mca_base_component_repository_open: unable to open mca_btl_uct: libucp.so.0: cannot open shared object file: No such file or directory (ignored)
[bora001.plafrim.cluster:90696] mca_base_component_repository_open: unable to open mca_btl_uct: libucp.so.0: cannot open shared object file: No such file or directory (ignored)
[bora001.plafrim.cluster:90699] mca_base_component_repository_open: unable to open mca_btl_uct: libucp.so.0: cannot open shared object file: No such file or directory (ignored)
[bora001.plafrim.cluster:90693] mca_base_component_repository_open: unable to open mca_btl_uct: libucp.so.0: cannot open shared object file: No such file or directory (ignored)
[bora001.plafrim.cluster:90692] mca_base_component_repository_open: unable to open mca_btl_uct: libucp.so.0: cannot open shared object file: No such file or directory (ignored)
[bora001.plafrim.cluster:90694] mca_base_component_repository_open: unable to open mca_btl_uct: libucp.so.0: cannot open shared object file: No such file or directory (ignored)
[bora001.plafrim.cluster:90697] mca_base_component_repository_open: unable to open mca_btl_uct: libucp.so.0: cannot open shared object file: No such file or directory (ignored)
[bora001.plafrim.cluster:90698] mca_base_component_repository_open: unable to open mca_pml_ucx: libucp.so.0: cannot open shared object file: No such file or directory (ignored)
[bora001.plafrim.cluster:90693] mca_base_component_repository_open: unable to open mca_pml_ucx: libucp.so.0: cannot open shared object file: No such file or directory (ignored)
[bora001.plafrim.cluster:90699] mca_base_component_repository_open: unable to open mca_pml_ucx: libucp.so.0: cannot open shared object file: No such file or directory (ignored)
[bora001.plafrim.cluster:90697] mca_base_component_repository_open: unable to open mca_pml_ucx: libucp.so.0: cannot open shared object file: No such file or directory (ignored)
[bora001.plafrim.cluster:90692] mca_base_component_repository_open: unable to open mca_pml_ucx: libucp.so.0: cannot open shared object file: No such file or directory (ignored)
[bora001.plafrim.cluster:90694] mca_base_component_repository_open: unable to open mca_pml_ucx: libucp.so.0: cannot open shared object file: No such file or directory (ignored)
[bora001.plafrim.cluster:90696] mca_base_component_repository_open: unable to open mca_pml_ucx: libucp.so.0: cannot open shared object file: No such file or directory (ignored)
[bora001.plafrim.cluster:90695] mca_base_component_repository_open: unable to open mca_pml_ucx: libucp.so.0: cannot open shared object file: No such file or directory (ignored)
[bora001.plafrim.cluster:90695] mca_base_component_repository_open: unable to open mca_osc_ucx: libucp.so.0: cannot open shared object file: No such file or directory (ignored)
[bora001.plafrim.cluster:90692] mca_base_component_repository_open: unable to open mca_osc_ucx: libucp.so.0: cannot open shared object file: No such file or directory (ignored)
[bora001.plafrim.cluster:90699] mca_base_component_repository_open: unable to open mca_osc_ucx: libucp.so.0: cannot open shared object file: No such file or directory (ignored)
[bora001.plafrim.cluster:90694] mca_base_component_repository_open: unable to open mca_osc_ucx: libucp.so.0: cannot open shared object file: No such file or directory (ignored)
[bora001.plafrim.cluster:90696] mca_base_component_repository_open: unable to open mca_osc_ucx: libucp.so.0: cannot open shared object file: No such file or directory (ignored)
[bora001.plafrim.cluster:90698] mca_base_component_repository_open: unable to open mca_osc_ucx: libucp.so.0: cannot open shared object file: No such file or directory (ignored)
[bora001.plafrim.cluster:90693] mca_base_component_repository_open: unable to open mca_osc_ucx: libucp.so.0: cannot open shared object file: No such file or directory (ignored)
[bora001.plafrim.cluster:90697] mca_base_component_repository_open: unable to open mca_osc_ucx: libucp.so.0: cannot open shared object file: No such file or directory (ignored)
[bora002.plafrim.cluster:51556] mca_base_component_repository_open: unable to open mca_btl_uct: libucp.so.0: cannot open shared object file: No such file or directory (ignored)
[bora002.plafrim.cluster:51558] mca_base_component_repository_open: unable to open mca_btl_uct: libucp.so.0: cannot open shared object file: No such file or directory (ignored)
[bora002.plafrim.cluster:51560] mca_base_component_repository_open: unable to open mca_btl_uct: libucp.so.0: cannot open shared object file: No such file or directory (ignored)
[bora002.plafrim.cluster:51559] mca_base_component_repository_open: unable to open mca_btl_uct: libucp.so.0: cannot open shared object file: No such file or directory (ignored)
[bora002.plafrim.cluster:51561] mca_base_component_repository_open: unable to open mca_btl_uct: libucp.so.0: cannot open shared object file: No such file or directory (ignored)
[bora002.plafrim.cluster:51555] mca_base_component_repository_open: unable to open mca_btl_uct: libucp.so.0: cannot open shared object file: No such file or directory (ignored)
[bora002.plafrim.cluster:51554] mca_base_component_repository_open: unable to open mca_btl_uct: libucp.so.0: cannot open shared object file: No such file or directory (ignored)
[bora002.plafrim.cluster:51557] mca_base_component_repository_open: unable to open mca_btl_uct: libucp.so.0: cannot open shared object file: No such file or directory (ignored)
[bora002.plafrim.cluster:51556] mca_base_component_repository_open: unable to open mca_pml_ucx: libucp.so.0: cannot open shared object file: No such file or directory (ignored)
[bora002.plafrim.cluster:51560] mca_base_component_repository_open: unable to open mca_pml_ucx: libucp.so.0: cannot open shared object file: No such file or directory (ignored)
[bora002.plafrim.cluster:51557] mca_base_component_repository_open: unable to open mca_pml_ucx: libucp.so.0: cannot open shared object file: No such file or directory (ignored)
[bora002.plafrim.cluster:51561] mca_base_component_repository_open: unable to open mca_pml_ucx: libucp.so.0: cannot open shared object file: No such file or directory (ignored)
[bora002.plafrim.cluster:51554] mca_base_component_repository_open: unable to open mca_pml_ucx: libucp.so.0: cannot open shared object file: No such file or directory (ignored)
[bora002.plafrim.cluster:51558] mca_base_component_repository_open: unable to open mca_pml_ucx: libucp.so.0: cannot open shared object file: No such file or directory (ignored)
[bora002.plafrim.cluster:51555] mca_base_component_repository_open: unable to open mca_pml_ucx: libucp.so.0: cannot open shared object file: No such file or directory (ignored)
[bora002.plafrim.cluster:51559] mca_base_component_repository_open: unable to open mca_pml_ucx: libucp.so.0: cannot open shared object file: No such file or directory (ignored)
[bora002.plafrim.cluster:51557] mca_base_component_repository_open: unable to open mca_osc_ucx: libucp.so.0: cannot open shared object file: No such file or directory (ignored)
[bora002.plafrim.cluster:51556] mca_base_component_repository_open: unable to open mca_osc_ucx: libucp.so.0: cannot open shared object file: No such file or directory (ignored)
[bora002.plafrim.cluster:51560] mca_base_component_repository_open: unable to open mca_osc_ucx: libucp.so.0: cannot open shared object file: No such file or directory (ignored)
[bora002.plafrim.cluster:51555] mca_base_component_repository_open: unable to open mca_osc_ucx: libucp.so.0: cannot open shared object file: No such file or directory (ignored)
[bora002.plafrim.cluster:51554] mca_base_component_repository_open: unable to open mca_osc_ucx: libucp.so.0: cannot open shared object file: No such file or directory (ignored)
[bora002.plafrim.cluster:51559] mca_base_component_repository_open: unable to open mca_osc_ucx: libucp.so.0: cannot open shared object file: No such file or directory (ignored)
[bora002.plafrim.cluster:51558] mca_base_component_repository_open: unable to open mca_osc_ucx: libucp.so.0: cannot open shared object file: No such file or directory (ignored)
[bora002.plafrim.cluster:51561] mca_base_component_repository_open: unable to open mca_osc_ucx: libucp.so.0: cannot open shared object file: No such file or directory (ignored)
[bora002.plafrim.cluster:51588] mca_base_component_repository_open: unable to open mca_btl_uct: libucp.so.0: cannot open shared object file: No such file or directory (ignored)
[bora001.plafrim.cluster:90813] mca_base_component_repository_open: unable to open mca_btl_uct: libucp.so.0: cannot open shared object file: No such file or directory (ignored)
[bora002.plafrim.cluster:51591] mca_base_component_repository_open: unable to open mca_btl_uct: libucp.so.0: cannot open shared object file: No such file or directory (ignored)
[bora002.plafrim.cluster:51594] mca_base_component_repository_open: unable to open mca_btl_uct: libucp.so.0: cannot open shared object file: No such file or directory (ignored)
[bora002.plafrim.cluster:51595] mca_base_component_repository_open: unable to open mca_btl_uct: libucp.so.0: cannot open shared object file: No such file or directory (ignored)
[bora002.plafrim.cluster:51590] mca_base_component_repository_open: unable to open mca_btl_uct: libucp.so.0: cannot open shared object file: No such file or directory (ignored)
[bora002.plafrim.cluster:51592] mca_base_component_repository_open: unable to open mca_btl_uct: libucp.so.0: cannot open shared object file: No such file or directory (ignored)
[bora002.plafrim.cluster:51593] mca_base_component_repository_open: unable to open mca_btl_uct: libucp.so.0: cannot open shared object file: No such file or directory (ignored)
[bora002.plafrim.cluster:51589] mca_base_component_repository_open: unable to open mca_btl_uct: libucp.so.0: cannot open shared object file: No such file or directory (ignored)
[bora002.plafrim.cluster:51591] mca_base_component_repository_open: unable to open mca_pml_ucx: libucp.so.0: cannot open shared object file: No such file or directory (ignored)
[bora002.plafrim.cluster:51589] mca_base_component_repository_open: unable to open mca_pml_ucx: libucp.so.0: cannot open shared object file: No such file or directory (ignored)
[bora002.plafrim.cluster:51595] mca_base_component_repository_open: unable to open mca_pml_ucx: libucp.so.0: cannot open shared object file: No such file or directory (ignored)
[bora002.plafrim.cluster:51592] mca_base_component_repository_open: unable to open mca_pml_ucx: libucp.so.0: cannot open shared object file: No such file or directory (ignored)
[bora002.plafrim.cluster:51593] mca_base_component_repository_open: unable to open mca_pml_ucx: libucp.so.0: cannot open shared object file: No such file or directory (ignored)
[bora002.plafrim.cluster:51594] mca_base_component_repository_open: unable to open mca_pml_ucx: libucp.so.0: cannot open shared object file: No such file or directory (ignored)
[bora002.plafrim.cluster:51590] mca_base_component_repository_open: unable to open mca_pml_ucx: libucp.so.0: cannot open shared object file: No such file or directory (ignored)
[bora002.plafrim.cluster:51588] mca_base_component_repository_open: unable to open mca_pml_ucx: libucp.so.0: cannot open shared object file: No such file or directory (ignored)
[bora002.plafrim.cluster:51593] mca_base_component_repository_open: unable to open mca_osc_ucx: libucp.so.0: cannot open shared object file: No such file or directory (ignored)
[bora001.plafrim.cluster:90815] mca_base_component_repository_open: unable to open mca_btl_uct: libucp.so.0: cannot open shared object file: No such file or directory (ignored)
[bora001.plafrim.cluster:90817] mca_base_component_repository_open: unable to open mca_btl_uct: libucp.so.0: cannot open shared object file: No such file or directory (ignored)
[bora001.plafrim.cluster:90812] mca_base_component_repository_open: unable to open mca_btl_uct: libucp.so.0: cannot open shared object file: No such file or directory (ignored)
[bora001.plafrim.cluster:90816] mca_base_component_repository_open: unable to open mca_btl_uct: libucp.so.0: cannot open shared object file: No such file or directory (ignored)
[bora001.plafrim.cluster:90818] mca_base_component_repository_open: unable to open mca_btl_uct: libucp.so.0: cannot open shared object file: No such file or directory (ignored)
[bora001.plafrim.cluster:90811] mca_base_component_repository_open: unable to open mca_btl_uct: libucp.so.0: cannot open shared object file: No such file or directory (ignored)
[bora001.plafrim.cluster:90814] mca_base_component_repository_open: unable to open mca_btl_uct: libucp.so.0: cannot open shared object file: No such file or directory (ignored)
[bora001.plafrim.cluster:90813] mca_base_component_repository_open: unable to open mca_pml_ucx: libucp.so.0: cannot open shared object file: No such file or directory (ignored)
[bora001.plafrim.cluster:90814] mca_base_component_repository_open: unable to open mca_pml_ucx: libucp.so.0: cannot open shared object file: No such file or directory (ignored)
[bora001.plafrim.cluster:90816] mca_base_component_repository_open: unable to open mca_pml_ucx: libucp.so.0: cannot open shared object file: No such file or directory (ignored)
[bora001.plafrim.cluster:90817] mca_base_component_repository_open: unable to open mca_pml_ucx: libucp.so.0: cannot open shared object file: No such file or directory (ignored)
[bora001.plafrim.cluster:90818] mca_base_component_repository_open: unable to open mca_pml_ucx: libucp.so.0: cannot open shared object file: No such file or directory (ignored)
[bora001.plafrim.cluster:90812] mca_base_component_repository_open: unable to open mca_pml_ucx: libucp.so.0: cannot open shared object file: No such file or directory (ignored)
[bora001.plafrim.cluster:90811] mca_base_component_repository_open: unable to open mca_pml_ucx: libucp.so.0: cannot open shared object file: No such file or directory (ignored)
[bora001.plafrim.cluster:90815] mca_base_component_repository_open: unable to open mca_pml_ucx: libucp.so.0: cannot open shared object file: No such file or directory (ignored)
[bora001.plafrim.cluster:90817] mca_base_component_repository_open: unable to open mca_osc_ucx: libucp.so.0: cannot open shared object file: No such file or directory (ignored)
[bora001.plafrim.cluster:90818] mca_base_component_repository_open: unable to open mca_osc_ucx: libucp.so.0: cannot open shared object file: No such file or directory (ignored)
[bora001.plafrim.cluster:90815] mca_base_component_repository_open: unable to open mca_osc_ucx: libucp.so.0: cannot open shared object file: No such file or directory (ignored)
[bora001.plafrim.cluster:90813] mca_base_component_repository_open: unable to open mca_osc_ucx: libucp.so.0: cannot open shared object file: No such file or directory (ignored)
[bora001.plafrim.cluster:90811] mca_base_component_repository_open: unable to open mca_osc_ucx: libucp.so.0: cannot open shared object file: No such file or directory (ignored)
[bora001.plafrim.cluster:90816] mca_base_component_repository_open: unable to open mca_osc_ucx: libucp.so.0: cannot open shared object file: No such file or directory (ignored)
[bora001.plafrim.cluster:90814] mca_base_component_repository_open: unable to open mca_osc_ucx: libucp.so.0: cannot open shared object file: No such file or directory (ignored)
[bora001.plafrim.cluster:90812] mca_base_component_repository_open: unable to open mca_osc_ucx: libucp.so.0: cannot open shared object file: No such file or directory (ignored)
[bora002.plafrim.cluster:51589] mca_base_component_repository_open: unable to open mca_osc_ucx: libucp.so.0: cannot open shared object file: No such file or directory (ignored)
[bora002.plafrim.cluster:51595] mca_base_component_repository_open: unable to open mca_osc_ucx: libucp.so.0: cannot open shared object file: No such file or directory (ignored)
[bora002.plafrim.cluster:51592] mca_base_component_repository_open: unable to open mca_osc_ucx: libucp.so.0: cannot open shared object file: No such file or directory (ignored)
[bora002.plafrim.cluster:51594] mca_base_component_repository_open: unable to open mca_osc_ucx: libucp.so.0: cannot open shared object file: No such file or directory (ignored)
[bora002.plafrim.cluster:51591] mca_base_component_repository_open: unable to open mca_osc_ucx: libucp.so.0: cannot open shared object file: No such file or directory (ignored)
[bora002.plafrim.cluster:51590] mca_base_component_repository_open: unable to open mca_osc_ucx: libucp.so.0: cannot open shared object file: No such file or directory (ignored)
[bora002.plafrim.cluster:51588] mca_base_component_repository_open: unable to open mca_osc_ucx: libucp.so.0: cannot open shared object file: No such file or directory (ignored)
[bora002.plafrim.cluster:51629] mca_base_component_repository_open: unable to open mca_btl_uct: libucp.so.0: cannot open shared object file: No such file or directory (ignored)
[bora002.plafrim.cluster:51632] mca_base_component_repository_open: unable to open mca_btl_uct: libucp.so.0: cannot open shared object file: No such file or directory (ignored)
[bora002.plafrim.cluster:51635] mca_base_component_repository_open: unable to open mca_btl_uct: libucp.so.0: cannot open shared object file: No such file or directory (ignored)
[bora002.plafrim.cluster:51636] mca_base_component_repository_open: unable to open mca_btl_uct: libucp.so.0: cannot open shared object file: No such file or directory (ignored)
[bora002.plafrim.cluster:51633] mca_base_component_repository_open: unable to open mca_btl_uct: libucp.so.0: cannot open shared object file: No such file or directory (ignored)
[bora002.plafrim.cluster:51634] mca_base_component_repository_open: unable to open mca_btl_uct: libucp.so.0: cannot open shared object file: No such file or directory (ignored)
[bora002.plafrim.cluster:51630] mca_base_component_repository_open: unable to open mca_btl_uct: libucp.so.0: cannot open shared object file: No such file or directory (ignored)
[bora002.plafrim.cluster:51631] mca_base_component_repository_open: unable to open mca_btl_uct: libucp.so.0: cannot open shared object file: No such file or directory (ignored)
[bora002.plafrim.cluster:51629] mca_base_component_repository_open: unable to open mca_pml_ucx: libucp.so.0: cannot open shared object file: No such file or directory (ignored)
[bora001.plafrim.cluster:90915] mca_base_component_repository_open: unable to open mca_btl_uct: libucp.so.0: cannot open shared object file: No such file or directory (ignored)
[bora002.plafrim.cluster:51636] mca_base_component_repository_open: unable to open mca_pml_ucx: libucp.so.0: cannot open shared object file: No such file or directory (ignored)
[bora002.plafrim.cluster:51630] mca_base_component_repository_open: unable to open mca_pml_ucx: libucp.so.0: cannot open shared object file: No such file or directory (ignored)
[bora002.plafrim.cluster:51633] mca_base_component_repository_open: unable to open mca_pml_ucx: libucp.so.0: cannot open shared object file: No such file or directory (ignored)
[bora002.plafrim.cluster:51632] mca_base_component_repository_open: unable to open mca_pml_ucx: libucp.so.0: cannot open shared object file: No such file or directory (ignored)
[bora002.plafrim.cluster:51631] mca_base_component_repository_open: unable to open mca_pml_ucx: libucp.so.0: cannot open shared object file: No such file or directory (ignored)
[bora002.plafrim.cluster:51635] mca_base_component_repository_open: unable to open mca_pml_ucx: libucp.so.0: cannot open shared object file: No such file or directory (ignored)
[bora002.plafrim.cluster:51634] mca_base_component_repository_open: unable to open mca_pml_ucx: libucp.so.0: cannot open shared object file: No such file or directory (ignored)
[bora002.plafrim.cluster:51635] mca_base_component_repository_open: unable to open mca_osc_ucx: libucp.so.0: cannot open shared object file: No such file or directory (ignored)
[bora001.plafrim.cluster:90916] mca_base_component_repository_open: unable to open mca_btl_uct: libucp.so.0: cannot open shared object file: No such file or directory (ignored)
[bora001.plafrim.cluster:90917] mca_base_component_repository_open: unable to open mca_btl_uct: libucp.so.0: cannot open shared object file: No such file or directory (ignored)
[bora001.plafrim.cluster:90921] mca_base_component_repository_open: unable to open mca_btl_uct: libucp.so.0: cannot open shared object file: No such file or directory (ignored)
[bora001.plafrim.cluster:90922] mca_base_component_repository_open: unable to open mca_btl_uct: libucp.so.0: cannot open shared object file: No such file or directory (ignored)
[bora001.plafrim.cluster:90919] mca_base_component_repository_open: unable to open mca_btl_uct: libucp.so.0: cannot open shared object file: No such file or directory (ignored)
[bora001.plafrim.cluster:90920] mca_base_component_repository_open: unable to open mca_btl_uct: libucp.so.0: cannot open shared object file: No such file or directory (ignored)
[bora001.plafrim.cluster:90918] mca_base_component_repository_open: unable to open mca_btl_uct: libucp.so.0: cannot open shared object file: No such file or directory (ignored)
[bora001.plafrim.cluster:90920] mca_base_component_repository_open: unable to open mca_pml_ucx: libucp.so.0: cannot open shared object file: No such file or directory (ignored)
[bora001.plafrim.cluster:90919] mca_base_component_repository_open: unable to open mca_pml_ucx: libucp.so.0: cannot open shared object file: No such file or directory (ignored)
[bora001.plafrim.cluster:90918] mca_base_component_repository_open: unable to open mca_pml_ucx: libucp.so.0: cannot open shared object file: No such file or directory (ignored)
[bora001.plafrim.cluster:90917] mca_base_component_repository_open: unable to open mca_pml_ucx: libucp.so.0: cannot open shared object file: No such file or directory (ignored)
[bora001.plafrim.cluster:90921] mca_base_component_repository_open: unable to open mca_pml_ucx: libucp.so.0: cannot open shared object file: No such file or directory (ignored)
[bora001.plafrim.cluster:90916] mca_base_component_repository_open: unable to open mca_pml_ucx: libucp.so.0: cannot open shared object file: No such file or directory (ignored)
[bora001.plafrim.cluster:90915] mca_base_component_repository_open: unable to open mca_pml_ucx: libucp.so.0: cannot open shared object file: No such file or directory (ignored)
[bora001.plafrim.cluster:90922] mca_base_component_repository_open: unable to open mca_pml_ucx: libucp.so.0: cannot open shared object file: No such file or directory (ignored)
[bora001.plafrim.cluster:90919] mca_base_component_repository_open: unable to open mca_osc_ucx: libucp.so.0: cannot open shared object file: No such file or directory (ignored)
[bora001.plafrim.cluster:90915] mca_base_component_repository_open: unable to open mca_osc_ucx: libucp.so.0: cannot open shared object file: No such file or directory (ignored)
[bora001.plafrim.cluster:90921] mca_base_component_repository_open: unable to open mca_osc_ucx: libucp.so.0: cannot open shared object file: No such file or directory (ignored)
[bora001.plafrim.cluster:90917] mca_base_component_repository_open: unable to open mca_osc_ucx: libucp.so.0: cannot open shared object file: No such file or directory (ignored)
[bora001.plafrim.cluster:90918] mca_base_component_repository_open: unable to open mca_osc_ucx: libucp.so.0: cannot open shared object file: No such file or directory (ignored)
[bora001.plafrim.cluster:90920] mca_base_component_repository_open: unable to open mca_osc_ucx: libucp.so.0: cannot open shared object file: No such file or directory (ignored)
[bora001.plafrim.cluster:90916] mca_base_component_repository_open: unable to open mca_osc_ucx: libucp.so.0: cannot open shared object file: No such file or directory (ignored)
[bora001.plafrim.cluster:90922] mca_base_component_repository_open: unable to open mca_osc_ucx: libucp.so.0: cannot open shared object file: No such file or directory (ignored)
[bora002.plafrim.cluster:51633] mca_base_component_repository_open: unable to open mca_osc_ucx: libucp.so.0: cannot open shared object file: No such file or directory (ignored)
[bora002.plafrim.cluster:51634] mca_base_component_repository_open: unable to open mca_osc_ucx: libucp.so.0: cannot open shared object file: No such file or directory (ignored)
[bora002.plafrim.cluster:51629] mca_base_component_repository_open: unable to open mca_osc_ucx: libucp.so.0: cannot open shared object file: No such file or directory (ignored)
[bora002.plafrim.cluster:51630] mca_base_component_repository_open: unable to open mca_osc_ucx: libucp.so.0: cannot open shared object file: No such file or directory (ignored)
[bora002.plafrim.cluster:51631] mca_base_component_repository_open: unable to open mca_osc_ucx: libucp.so.0: cannot open shared object file: No such file or directory (ignored)
[bora002.plafrim.cluster:51636] mca_base_component_repository_open: unable to open mca_osc_ucx: libucp.so.0: cannot open shared object file: No such file or directory (ignored)
[bora002.plafrim.cluster:51632] mca_base_component_repository_open: unable to open mca_osc_ucx: libucp.so.0: cannot open shared object file: No such file or directory (ignored)
[bora002.plafrim.cluster:51661] mca_base_component_repository_open: unable to open mca_btl_uct: libucp.so.0: cannot open shared object file: No such file or directory (ignored)
[bora002.plafrim.cluster:51662] mca_base_component_repository_open: unable to open mca_btl_uct: libucp.so.0: cannot open shared object file: No such file or directory (ignored)
[bora002.plafrim.cluster:51656] mca_base_component_repository_open: unable to open mca_btl_uct: libucp.so.0: cannot open shared object file: No such file or directory (ignored)
[bora002.plafrim.cluster:51658] mca_base_component_repository_open: unable to open mca_btl_uct: libucp.so.0: cannot open shared object file: No such file or directory (ignored)
[bora002.plafrim.cluster:51660] mca_base_component_repository_open: unable to open mca_btl_uct: libucp.so.0: cannot open shared object file: No such file or directory (ignored)
[bora002.plafrim.cluster:51659] mca_base_component_repository_open: unable to open mca_btl_uct: libucp.so.0: cannot open shared object file: No such file or directory (ignored)
[bora002.plafrim.cluster:51663] mca_base_component_repository_open: unable to open mca_btl_uct: libucp.so.0: cannot open shared object file: No such file or directory (ignored)
[bora002.plafrim.cluster:51657] mca_base_component_repository_open: unable to open mca_btl_uct: libucp.so.0: cannot open shared object file: No such file or directory (ignored)
[bora002.plafrim.cluster:51660] mca_base_component_repository_open: unable to open mca_pml_ucx: libucp.so.0: cannot open shared object file: No such file or directory (ignored)
[bora001.plafrim.cluster:90998] mca_base_component_repository_open: unable to open mca_btl_uct: libucp.so.0: cannot open shared object file: No such file or directory (ignored)
[bora002.plafrim.cluster:51662] mca_base_component_repository_open: unable to open mca_pml_ucx: libucp.so.0: cannot open shared object file: No such file or directory (ignored)
[bora002.plafrim.cluster:51663] mca_base_component_repository_open: unable to open mca_pml_ucx: libucp.so.0: cannot open shared object file: No such file or directory (ignored)
[bora002.plafrim.cluster:51657] mca_base_component_repository_open: unable to open mca_pml_ucx: libucp.so.0: cannot open shared object file: No such file or directory (ignored)
[bora002.plafrim.cluster:51661] mca_base_component_repository_open: unable to open mca_pml_ucx: libucp.so.0: cannot open shared object file: No such file or directory (ignored)
[bora002.plafrim.cluster:51656] mca_base_component_repository_open: unable to open mca_pml_ucx: libucp.so.0: cannot open shared object file: No such file or directory (ignored)
[bora002.plafrim.cluster:51659] mca_base_component_repository_open: unable to open mca_pml_ucx: libucp.so.0: cannot open shared object file: No such file or directory (ignored)
[bora002.plafrim.cluster:51658] mca_base_component_repository_open: unable to open mca_pml_ucx: libucp.so.0: cannot open shared object file: No such file or directory (ignored)
[bora002.plafrim.cluster:51658] mca_base_component_repository_open: unable to open mca_osc_ucx: libucp.so.0: cannot open shared object file: No such file or directory (ignored)
[bora002.plafrim.cluster:51662] mca_base_component_repository_open: unable to open mca_osc_ucx: libucp.so.0: cannot open shared object file: No such file or directory (ignored)
[bora001.plafrim.cluster:90993] mca_base_component_repository_open: unable to open mca_btl_uct: libucp.so.0: cannot open shared object file: No such file or directory (ignored)
[bora001.plafrim.cluster:90994] mca_base_component_repository_open: unable to open mca_btl_uct: libucp.so.0: cannot open shared object file: No such file or directory (ignored)
[bora001.plafrim.cluster:90995] mca_base_component_repository_open: unable to open mca_btl_uct: libucp.so.0: cannot open shared object file: No such file or directory (ignored)
[bora001.plafrim.cluster:91000] mca_base_component_repository_open: unable to open mca_btl_uct: libucp.so.0: cannot open shared object file: No such file or directory (ignored)
[bora001.plafrim.cluster:90996] mca_base_component_repository_open: unable to open mca_btl_uct: libucp.so.0: cannot open shared object file: No such file or directory (ignored)
[bora001.plafrim.cluster:90997] mca_base_component_repository_open: unable to open mca_btl_uct: libucp.so.0: cannot open shared object file: No such file or directory (ignored)
[bora001.plafrim.cluster:90999] mca_base_component_repository_open: unable to open mca_btl_uct: libucp.so.0: cannot open shared object file: No such file or directory (ignored)
[bora001.plafrim.cluster:90999] mca_base_component_repository_open: unable to open mca_pml_ucx: libucp.so.0: cannot open shared object file: No such file or directory (ignored)
[bora001.plafrim.cluster:90996] mca_base_component_repository_open: unable to open mca_pml_ucx: libucp.so.0: cannot open shared object file: No such file or directory (ignored)
[bora001.plafrim.cluster:90995] mca_base_component_repository_open: unable to open mca_pml_ucx: libucp.so.0: cannot open shared object file: No such file or directory (ignored)
[bora001.plafrim.cluster:90994] mca_base_component_repository_open: unable to open mca_pml_ucx: libucp.so.0: cannot open shared object file: No such file or directory (ignored)
[bora001.plafrim.cluster:91000] mca_base_component_repository_open: unable to open mca_pml_ucx: libucp.so.0: cannot open shared object file: No such file or directory (ignored)
[bora001.plafrim.cluster:90997] mca_base_component_repository_open: unable to open mca_pml_ucx: libucp.so.0: cannot open shared object file: No such file or directory (ignored)
[bora001.plafrim.cluster:90993] mca_base_component_repository_open: unable to open mca_pml_ucx: libucp.so.0: cannot open shared object file: No such file or directory (ignored)
[bora001.plafrim.cluster:90998] mca_base_component_repository_open: unable to open mca_pml_ucx: libucp.so.0: cannot open shared object file: No such file or directory (ignored)
[bora001.plafrim.cluster:90998] mca_base_component_repository_open: unable to open mca_osc_ucx: libucp.so.0: cannot open shared object file: No such file or directory (ignored)
[bora001.plafrim.cluster:90997] mca_base_component_repository_open: unable to open mca_osc_ucx: libucp.so.0: cannot open shared object file: No such file or directory (ignored)
[bora001.plafrim.cluster:90995] mca_base_component_repository_open: unable to open mca_osc_ucx: libucp.so.0: cannot open shared object file: No such file or directory (ignored)
[bora001.plafrim.cluster:90999] mca_base_component_repository_open: unable to open mca_osc_ucx: libucp.so.0: cannot open shared object file: No such file or directory (ignored)
[bora001.plafrim.cluster:90996] mca_base_component_repository_open: unable to open mca_osc_ucx: libucp.so.0: cannot open shared object file: No such file or directory (ignored)
[bora001.plafrim.cluster:90994] mca_base_component_repository_open: unable to open mca_osc_ucx: libucp.so.0: cannot open shared object file: No such file or directory (ignored)
[bora001.plafrim.cluster:91000] mca_base_component_repository_open: unable to open mca_osc_ucx: libucp.so.0: cannot open shared object file: No such file or directory (ignored)
[bora001.plafrim.cluster:90993] mca_base_component_repository_open: unable to open mca_osc_ucx: libucp.so.0: cannot open shared object file: No such file or directory (ignored)
[bora002.plafrim.cluster:51663] mca_base_component_repository_open: unable to open mca_osc_ucx: libucp.so.0: cannot open shared object file: No such file or directory (ignored)
[bora002.plafrim.cluster:51660] mca_base_component_repository_open: unable to open mca_osc_ucx: libucp.so.0: cannot open shared object file: No such file or directory (ignored)
[bora002.plafrim.cluster:51661] mca_base_component_repository_open: unable to open mca_osc_ucx: libucp.so.0: cannot open shared object file: No such file or directory (ignored)
[bora002.plafrim.cluster:51657] mca_base_component_repository_open: unable to open mca_osc_ucx: libucp.so.0: cannot open shared object file: No such file or directory (ignored)
[bora002.plafrim.cluster:51659] mca_base_component_repository_open: unable to open mca_osc_ucx: libucp.so.0: cannot open shared object file: No such file or directory (ignored)
[bora002.plafrim.cluster:51656] mca_base_component_repository_open: unable to open mca_osc_ucx: libucp.so.0: cannot open shared object file: No such file or directory (ignored)
[bora002.plafrim.cluster:51691] mca_base_component_repository_open: unable to open mca_btl_uct: libucp.so.0: cannot open shared object file: No such file or directory (ignored)
[bora002.plafrim.cluster:51697] mca_base_component_repository_open: unable to open mca_btl_uct: libucp.so.0: cannot open shared object file: No such file or directory (ignored)
[bora002.plafrim.cluster:51692] mca_base_component_repository_open: unable to open mca_btl_uct: libucp.so.0: cannot open shared object file: No such file or directory (ignored)
[bora002.plafrim.cluster:51696] mca_base_component_repository_open: unable to open mca_btl_uct: libucp.so.0: cannot open shared object file: No such file or directory (ignored)
[bora002.plafrim.cluster:51698] mca_base_component_repository_open: unable to open mca_btl_uct: libucp.so.0: cannot open shared object file: No such file or directory (ignored)
[bora002.plafrim.cluster:51693] mca_base_component_repository_open: unable to open mca_btl_uct: libucp.so.0: cannot open shared object file: No such file or directory (ignored)
[bora002.plafrim.cluster:51694] mca_base_component_repository_open: unable to open mca_btl_uct: libucp.so.0: cannot open shared object file: No such file or directory (ignored)
[bora002.plafrim.cluster:51695] mca_base_component_repository_open: unable to open mca_btl_uct: libucp.so.0: cannot open shared object file: No such file or directory (ignored)
[bora002.plafrim.cluster:51695] mca_base_component_repository_open: unable to open mca_pml_ucx: libucp.so.0: cannot open shared object file: No such file or directory (ignored)
[bora002.plafrim.cluster:51693] mca_base_component_repository_open: unable to open mca_pml_ucx: libucp.so.0: cannot open shared object file: No such file or directory (ignored)
[bora001.plafrim.cluster:91065] mca_base_component_repository_open: unable to open mca_btl_uct: libucp.so.0: cannot open shared object file: No such file or directory (ignored)
[bora002.plafrim.cluster:51691] mca_base_component_repository_open: unable to open mca_pml_ucx: libucp.so.0: cannot open shared object file: No such file or directory (ignored)
[bora002.plafrim.cluster:51692] mca_base_component_repository_open: unable to open mca_pml_ucx: libucp.so.0: cannot open shared object file: No such file or directory (ignored)
[bora002.plafrim.cluster:51697] mca_base_component_repository_open: unable to open mca_pml_ucx: libucp.so.0: cannot open shared object file: No such file or directory (ignored)
[bora002.plafrim.cluster:51696] mca_base_component_repository_open: unable to open mca_pml_ucx: libucp.so.0: cannot open shared object file: No such file or directory (ignored)
[bora002.plafrim.cluster:51694] mca_base_component_repository_open: unable to open mca_pml_ucx: libucp.so.0: cannot open shared object file: No such file or directory (ignored)
[bora002.plafrim.cluster:51698] mca_base_component_repository_open: unable to open mca_pml_ucx: libucp.so.0: cannot open shared object file: No such file or directory (ignored)
[bora002.plafrim.cluster:51696] mca_base_component_repository_open: unable to open mca_osc_ucx: libucp.so.0: cannot open shared object file: No such file or directory (ignored)
[bora002.plafrim.cluster:51691] mca_base_component_repository_open: unable to open mca_osc_ucx: libucp.so.0: cannot open shared object file: No such file or directory (ignored)
[bora002.plafrim.cluster:51697] mca_base_component_repository_open: unable to open mca_osc_ucx: libucp.so.0: cannot open shared object file: No such file or directory (ignored)
[bora001.plafrim.cluster:91060] mca_base_component_repository_open: unable to open mca_btl_uct: libucp.so.0: cannot open shared object file: No such file or directory (ignored)
[bora001.plafrim.cluster:91062] mca_base_component_repository_open: unable to open mca_btl_uct: libucp.so.0: cannot open shared object file: No such file or directory (ignored)
[bora001.plafrim.cluster:91059] mca_base_component_repository_open: unable to open mca_btl_uct: libucp.so.0: cannot open shared object file: No such file or directory (ignored)
[bora001.plafrim.cluster:91061] mca_base_component_repository_open: unable to open mca_btl_uct: libucp.so.0: cannot open shared object file: No such file or directory (ignored)
[bora001.plafrim.cluster:91063] mca_base_component_repository_open: unable to open mca_btl_uct: libucp.so.0: cannot open shared object file: No such file or directory (ignored)
[bora001.plafrim.cluster:91064] mca_base_component_repository_open: unable to open mca_btl_uct: libucp.so.0: cannot open shared object file: No such file or directory (ignored)
[bora001.plafrim.cluster:91066] mca_base_component_repository_open: unable to open mca_btl_uct: libucp.so.0: cannot open shared object file: No such file or directory (ignored)
[bora001.plafrim.cluster:91064] mca_base_component_repository_open: unable to open mca_pml_ucx: libucp.so.0: cannot open shared object file: No such file or directory (ignored)
[bora001.plafrim.cluster:91066] mca_base_component_repository_open: unable to open mca_pml_ucx: libucp.so.0: cannot open shared object file: No such file or directory (ignored)
[bora001.plafrim.cluster:91065] mca_base_component_repository_open: unable to open mca_pml_ucx: libucp.so.0: cannot open shared object file: No such file or directory (ignored)
[bora001.plafrim.cluster:91060] mca_base_component_repository_open: unable to open mca_pml_ucx: libucp.so.0: cannot open shared object file: No such file or directory (ignored)
[bora001.plafrim.cluster:91059] mca_base_component_repository_open: unable to open mca_pml_ucx: libucp.so.0: cannot open shared object file: No such file or directory (ignored)
[bora001.plafrim.cluster:91061] mca_base_component_repository_open: unable to open mca_pml_ucx: libucp.so.0: cannot open shared object file: No such file or directory (ignored)
[bora001.plafrim.cluster:91062] mca_base_component_repository_open: unable to open mca_pml_ucx: libucp.so.0: cannot open shared object file: No such file or directory (ignored)
[bora001.plafrim.cluster:91063] mca_base_component_repository_open: unable to open mca_pml_ucx: libucp.so.0: cannot open shared object file: No such file or directory (ignored)
[bora001.plafrim.cluster:91061] mca_base_component_repository_open: unable to open mca_osc_ucx: libucp.so.0: cannot open shared object file: No such file or directory (ignored)
[bora001.plafrim.cluster:91060] mca_base_component_repository_open: unable to open mca_osc_ucx: libucp.so.0: cannot open shared object file: No such file or directory (ignored)
[bora001.plafrim.cluster:91065] mca_base_component_repository_open: unable to open mca_osc_ucx: libucp.so.0: cannot open shared object file: No such file or directory (ignored)
[bora001.plafrim.cluster:91064] mca_base_component_repository_open: unable to open mca_osc_ucx: libucp.so.0: cannot open shared object file: No such file or directory (ignored)
[bora001.plafrim.cluster:91059] mca_base_component_repository_open: unable to open mca_osc_ucx: libucp.so.0: cannot open shared object file: No such file or directory (ignored)
[bora001.plafrim.cluster:91063] mca_base_component_repository_open: unable to open mca_osc_ucx: libucp.so.0: cannot open shared object file: No such file or directory (ignored)
[bora001.plafrim.cluster:91062] mca_base_component_repository_open: unable to open mca_osc_ucx: libucp.so.0: cannot open shared object file: No such file or directory (ignored)
[bora001.plafrim.cluster:91066] mca_base_component_repository_open: unable to open mca_osc_ucx: libucp.so.0: cannot open shared object file: No such file or directory (ignored)
[bora002.plafrim.cluster:51694] mca_base_component_repository_open: unable to open mca_osc_ucx: libucp.so.0: cannot open shared object file: No such file or directory (ignored)
[bora002.plafrim.cluster:51698] mca_base_component_repository_open: unable to open mca_osc_ucx: libucp.so.0: cannot open shared object file: No such file or directory (ignored)
[bora002.plafrim.cluster:51692] mca_base_component_repository_open: unable to open mca_osc_ucx: libucp.so.0: cannot open shared object file: No such file or directory (ignored)
[bora002.plafrim.cluster:51695] mca_base_component_repository_open: unable to open mca_osc_ucx: libucp.so.0: cannot open shared object file: No such file or directory (ignored)
[bora002.plafrim.cluster:51693] mca_base_component_repository_open: unable to open mca_osc_ucx: libucp.so.0: cannot open shared object file: No such file or directory (ignored)
[bora002.plafrim.cluster:51728] mca_base_component_repository_open: unable to open mca_btl_uct: libucp.so.0: cannot open shared object file: No such file or directory (ignored)
[bora002.plafrim.cluster:51730] mca_base_component_repository_open: unable to open mca_btl_uct: libucp.so.0: cannot open shared object file: No such file or directory (ignored)
[bora002.plafrim.cluster:51726] mca_base_component_repository_open: unable to open mca_btl_uct: libucp.so.0: cannot open shared object file: No such file or directory (ignored)
[bora002.plafrim.cluster:51729] mca_base_component_repository_open: unable to open mca_btl_uct: libucp.so.0: cannot open shared object file: No such file or directory (ignored)
[bora002.plafrim.cluster:51724] mca_base_component_repository_open: unable to open mca_btl_uct: libucp.so.0: cannot open shared object file: No such file or directory (ignored)
[bora002.plafrim.cluster:51727] mca_base_component_repository_open: unable to open mca_btl_uct: libucp.so.0: cannot open shared object file: No such file or directory (ignored)
[bora002.plafrim.cluster:51731] mca_base_component_repository_open: unable to open mca_btl_uct: libucp.so.0: cannot open shared object file: No such file or directory (ignored)
[bora002.plafrim.cluster:51725] mca_base_component_repository_open: unable to open mca_btl_uct: libucp.so.0: cannot open shared object file: No such file or directory (ignored)
[bora002.plafrim.cluster:51724] mca_base_component_repository_open: unable to open mca_pml_ucx: libucp.so.0: cannot open shared object file: No such file or directory (ignored)
[bora001.plafrim.cluster:91129] mca_base_component_repository_open: unable to open mca_btl_uct: libucp.so.0: cannot open shared object file: No such file or directory (ignored)
[bora002.plafrim.cluster:51731] mca_base_component_repository_open: unable to open mca_pml_ucx: libucp.so.0: cannot open shared object file: No such file or directory (ignored)
[bora002.plafrim.cluster:51727] mca_base_component_repository_open: unable to open mca_pml_ucx: libucp.so.0: cannot open shared object file: No such file or directory (ignored)
[bora002.plafrim.cluster:51728] mca_base_component_repository_open: unable to open mca_pml_ucx: libucp.so.0: cannot open shared object file: No such file or directory (ignored)
[bora002.plafrim.cluster:51730] mca_base_component_repository_open: unable to open mca_pml_ucx: libucp.so.0: cannot open shared object file: No such file or directory (ignored)
[bora002.plafrim.cluster:51726] mca_base_component_repository_open: unable to open mca_pml_ucx: libucp.so.0: cannot open shared object file: No such file or directory (ignored)
[bora002.plafrim.cluster:51725] mca_base_component_repository_open: unable to open mca_pml_ucx: libucp.so.0: cannot open shared object file: No such file or directory (ignored)
[bora002.plafrim.cluster:51729] mca_base_component_repository_open: unable to open mca_pml_ucx: libucp.so.0: cannot open shared object file: No such file or directory (ignored)
[bora002.plafrim.cluster:51727] mca_base_component_repository_open: unable to open mca_osc_ucx: libucp.so.0: cannot open shared object file: No such file or directory (ignored)
[bora001.plafrim.cluster:91135] mca_base_component_repository_open: unable to open mca_btl_uct: libucp.so.0: cannot open shared object file: No such file or directory (ignored)
[bora001.plafrim.cluster:91130] mca_base_component_repository_open: unable to open mca_btl_uct: libucp.so.0: cannot open shared object file: No such file or directory (ignored)
[bora001.plafrim.cluster:91133] mca_base_component_repository_open: unable to open mca_btl_uct: libucp.so.0: cannot open shared object file: No such file or directory (ignored)
[bora001.plafrim.cluster:91132] mca_base_component_repository_open: unable to open mca_btl_uct: libucp.so.0: cannot open shared object file: No such file or directory (ignored)
[bora001.plafrim.cluster:91134] mca_base_component_repository_open: unable to open mca_btl_uct: libucp.so.0: cannot open shared object file: No such file or directory (ignored)
[bora001.plafrim.cluster:91136] mca_base_component_repository_open: unable to open mca_btl_uct: libucp.so.0: cannot open shared object file: No such file or directory (ignored)
[bora001.plafrim.cluster:91131] mca_base_component_repository_open: unable to open mca_btl_uct: libucp.so.0: cannot open shared object file: No such file or directory (ignored)
[bora001.plafrim.cluster:91135] mca_base_component_repository_open: unable to open mca_pml_ucx: libucp.so.0: cannot open shared object file: No such file or directory (ignored)
[bora001.plafrim.cluster:91136] mca_base_component_repository_open: unable to open mca_pml_ucx: libucp.so.0: cannot open shared object file: No such file or directory (ignored)
[bora001.plafrim.cluster:91133] mca_base_component_repository_open: unable to open mca_pml_ucx: libucp.so.0: cannot open shared object file: No such file or directory (ignored)
[bora001.plafrim.cluster:91132] mca_base_component_repository_open: unable to open mca_pml_ucx: libucp.so.0: cannot open shared object file: No such file or directory (ignored)
[bora001.plafrim.cluster:91129] mca_base_component_repository_open: unable to open mca_pml_ucx: libucp.so.0: cannot open shared object file: No such file or directory (ignored)
[bora001.plafrim.cluster:91134] mca_base_component_repository_open: unable to open mca_pml_ucx: libucp.so.0: cannot open shared object file: No such file or directory (ignored)
[bora001.plafrim.cluster:91131] mca_base_component_repository_open: unable to open mca_pml_ucx: libucp.so.0: cannot open shared object file: No such file or directory (ignored)
[bora001.plafrim.cluster:91130] mca_base_component_repository_open: unable to open mca_pml_ucx: libucp.so.0: cannot open shared object file: No such file or directory (ignored)
[bora001.plafrim.cluster:91135] mca_base_component_repository_open: unable to open mca_osc_ucx: libucp.so.0: cannot open shared object file: No such file or directory (ignored)
[bora001.plafrim.cluster:91133] mca_base_component_repository_open: unable to open mca_osc_ucx: libucp.so.0: cannot open shared object file: No such file or directory (ignored)
[bora001.plafrim.cluster:91132] mca_base_component_repository_open: unable to open mca_osc_ucx: libucp.so.0: cannot open shared object file: No such file or directory (ignored)
[bora001.plafrim.cluster:91134] mca_base_component_repository_open: unable to open mca_osc_ucx: libucp.so.0: cannot open shared object file: No such file or directory (ignored)
[bora001.plafrim.cluster:91131] mca_base_component_repository_open: unable to open mca_osc_ucx: libucp.so.0: cannot open shared object file: No such file or directory (ignored)
[bora001.plafrim.cluster:91136] mca_base_component_repository_open: unable to open mca_osc_ucx: libucp.so.0: cannot open shared object file: No such file or directory (ignored)
[bora001.plafrim.cluster:91129] mca_base_component_repository_open: unable to open mca_osc_ucx: libucp.so.0: cannot open shared object file: No such file or directory (ignored)
[bora001.plafrim.cluster:91130] mca_base_component_repository_open: unable to open mca_osc_ucx: libucp.so.0: cannot open shared object file: No such file or directory (ignored)
[bora002.plafrim.cluster:51731] mca_base_component_repository_open: unable to open mca_osc_ucx: libucp.so.0: cannot open shared object file: No such file or directory (ignored)
[bora002.plafrim.cluster:51724] mca_base_component_repository_open: unable to open mca_osc_ucx: libucp.so.0: cannot open shared object file: No such file or directory (ignored)
[bora002.plafrim.cluster:51728] mca_base_component_repository_open: unable to open mca_osc_ucx: libucp.so.0: cannot open shared object file: No such file or directory (ignored)
[bora002.plafrim.cluster:51725] mca_base_component_repository_open: unable to open mca_osc_ucx: libucp.so.0: cannot open shared object file: No such file or directory (ignored)
[bora002.plafrim.cluster:51730] mca_base_component_repository_open: unable to open mca_osc_ucx: libucp.so.0: cannot open shared object file: No such file or directory (ignored)
[bora002.plafrim.cluster:51729] mca_base_component_repository_open: unable to open mca_osc_ucx: libucp.so.0: cannot open shared object file: No such file or directory (ignored)
[bora002.plafrim.cluster:51726] mca_base_component_repository_open: unable to open mca_osc_ucx: libucp.so.0: cannot open shared object file: No such file or directory (ignored)
[bora002.plafrim.cluster:51887] mca_base_component_repository_open: unable to open mca_btl_uct: libucp.so.0: cannot open shared object file: No such file or directory (ignored)
[bora002.plafrim.cluster:51893] mca_base_component_repository_open: unable to open mca_btl_uct: libucp.so.0: cannot open shared object file: No such file or directory (ignored)
[bora002.plafrim.cluster:51890] mca_base_component_repository_open: unable to open mca_btl_uct: libucp.so.0: cannot open shared object file: No such file or directory (ignored)
[bora002.plafrim.cluster:51888] mca_base_component_repository_open: unable to open mca_btl_uct: libucp.so.0: cannot open shared object file: No such file or directory (ignored)
[bora002.plafrim.cluster:51892] mca_base_component_repository_open: unable to open mca_btl_uct: libucp.so.0: cannot open shared object file: No such file or directory (ignored)
[bora002.plafrim.cluster:51889] mca_base_component_repository_open: unable to open mca_btl_uct: libucp.so.0: cannot open shared object file: No such file or directory (ignored)
[bora002.plafrim.cluster:51894] mca_base_component_repository_open: unable to open mca_btl_uct: libucp.so.0: cannot open shared object file: No such file or directory (ignored)
[bora002.plafrim.cluster:51891] mca_base_component_repository_open: unable to open mca_btl_uct: libucp.so.0: cannot open shared object file: No such file or directory (ignored)
[bora002.plafrim.cluster:51890] mca_base_component_repository_open: unable to open mca_pml_ucx: libucp.so.0: cannot open shared object file: No such file or directory (ignored)
[bora001.plafrim.cluster:91343] mca_base_component_repository_open: unable to open mca_btl_uct: libucp.so.0: cannot open shared object file: No such file or directory (ignored)
[bora002.plafrim.cluster:51888] mca_base_component_repository_open: unable to open mca_pml_ucx: libucp.so.0: cannot open shared object file: No such file or directory (ignored)
[bora002.plafrim.cluster:51889] mca_base_component_repository_open: unable to open mca_pml_ucx: libucp.so.0: cannot open shared object file: No such file or directory (ignored)
[bora002.plafrim.cluster:51893] mca_base_component_repository_open: unable to open mca_pml_ucx: libucp.so.0: cannot open shared object file: No such file or directory (ignored)
[bora002.plafrim.cluster:51894] mca_base_component_repository_open: unable to open mca_pml_ucx: libucp.so.0: cannot open shared object file: No such file or directory (ignored)
[bora002.plafrim.cluster:51891] mca_base_component_repository_open: unable to open mca_pml_ucx: libucp.so.0: cannot open shared object file: No such file or directory (ignored)
[bora002.plafrim.cluster:51887] mca_base_component_repository_open: unable to open mca_pml_ucx: libucp.so.0: cannot open shared object file: No such file or directory (ignored)
[bora002.plafrim.cluster:51892] mca_base_component_repository_open: unable to open mca_pml_ucx: libucp.so.0: cannot open shared object file: No such file or directory (ignored)
[bora002.plafrim.cluster:51892] mca_base_component_repository_open: unable to open mca_osc_ucx: libucp.so.0: cannot open shared object file: No such file or directory (ignored)
[bora001.plafrim.cluster:91341] mca_base_component_repository_open: unable to open mca_btl_uct: libucp.so.0: cannot open shared object file: No such file or directory (ignored)
[bora001.plafrim.cluster:91345] mca_base_component_repository_open: unable to open mca_btl_uct: libucp.so.0: cannot open shared object file: No such file or directory (ignored)
[bora001.plafrim.cluster:91338] mca_base_component_repository_open: unable to open mca_btl_uct: libucp.so.0: cannot open shared object file: No such file or directory (ignored)
[bora001.plafrim.cluster:91342] mca_base_component_repository_open: unable to open mca_btl_uct: libucp.so.0: cannot open shared object file: No such file or directory (ignored)
[bora001.plafrim.cluster:91339] mca_base_component_repository_open: unable to open mca_btl_uct: libucp.so.0: cannot open shared object file: No such file or directory (ignored)
[bora001.plafrim.cluster:91344] mca_base_component_repository_open: unable to open mca_btl_uct: libucp.so.0: cannot open shared object file: No such file or directory (ignored)
[bora001.plafrim.cluster:91340] mca_base_component_repository_open: unable to open mca_btl_uct: libucp.so.0: cannot open shared object file: No such file or directory (ignored)
[bora001.plafrim.cluster:91342] mca_base_component_repository_open: unable to open mca_pml_ucx: libucp.so.0: cannot open shared object file: No such file or directory (ignored)
[bora001.plafrim.cluster:91339] mca_base_component_repository_open: unable to open mca_pml_ucx: libucp.so.0: cannot open shared object file: No such file or directory (ignored)
[bora001.plafrim.cluster:91345] mca_base_component_repository_open: unable to open mca_pml_ucx: libucp.so.0: cannot open shared object file: No such file or directory (ignored)
[bora001.plafrim.cluster:91338] mca_base_component_repository_open: unable to open mca_pml_ucx: libucp.so.0: cannot open shared object file: No such file or directory (ignored)
[bora001.plafrim.cluster:91340] mca_base_component_repository_open: unable to open mca_pml_ucx: libucp.so.0: cannot open shared object file: No such file or directory (ignored)
[bora001.plafrim.cluster:91341] mca_base_component_repository_open: unable to open mca_pml_ucx: libucp.so.0: cannot open shared object file: No such file or directory (ignored)
[bora001.plafrim.cluster:91344] mca_base_component_repository_open: unable to open mca_pml_ucx: libucp.so.0: cannot open shared object file: No such file or directory (ignored)
[bora001.plafrim.cluster:91343] mca_base_component_repository_open: unable to open mca_pml_ucx: libucp.so.0: cannot open shared object file: No such file or directory (ignored)
[bora001.plafrim.cluster:91342] mca_base_component_repository_open: unable to open mca_osc_ucx: libucp.so.0: cannot open shared object file: No such file or directory (ignored)
[bora001.plafrim.cluster:91343] mca_base_component_repository_open: unable to open mca_osc_ucx: libucp.so.0: cannot open shared object file: No such file or directory (ignored)
[bora001.plafrim.cluster:91340] mca_base_component_repository_open: unable to open mca_osc_ucx: libucp.so.0: cannot open shared object file: No such file or directory (ignored)
[bora001.plafrim.cluster:91344] mca_base_component_repository_open: unable to open mca_osc_ucx: libucp.so.0: cannot open shared object file: No such file or directory (ignored)
[bora001.plafrim.cluster:91345] mca_base_component_repository_open: unable to open mca_osc_ucx: libucp.so.0: cannot open shared object file: No such file or directory (ignored)
[bora001.plafrim.cluster:91341] mca_base_component_repository_open: unable to open mca_osc_ucx: libucp.so.0: cannot open shared object file: No such file or directory (ignored)
[bora001.plafrim.cluster:91339] mca_base_component_repository_open: unable to open mca_osc_ucx: libucp.so.0: cannot open shared object file: No such file or directory (ignored)
[bora001.plafrim.cluster:91338] mca_base_component_repository_open: unable to open mca_osc_ucx: libucp.so.0: cannot open shared object file: No such file or directory (ignored)
[bora002.plafrim.cluster:51888] mca_base_component_repository_open: unable to open mca_osc_ucx: libucp.so.0: cannot open shared object file: No such file or directory (ignored)
[bora002.plafrim.cluster:51894] mca_base_component_repository_open: unable to open mca_osc_ucx: libucp.so.0: cannot open shared object file: No such file or directory (ignored)
[bora002.plafrim.cluster:51891] mca_base_component_repository_open: unable to open mca_osc_ucx: libucp.so.0: cannot open shared object file: No such file or directory (ignored)
[bora002.plafrim.cluster:51889] mca_base_component_repository_open: unable to open mca_osc_ucx: libucp.so.0: cannot open shared object file: No such file or directory (ignored)
[bora002.plafrim.cluster:51887] mca_base_component_repository_open: unable to open mca_osc_ucx: libucp.so.0: cannot open shared object file: No such file or directory (ignored)
[bora002.plafrim.cluster:51893] mca_base_component_repository_open: unable to open mca_osc_ucx: libucp.so.0: cannot open shared object file: No such file or directory (ignored)
[bora002.plafrim.cluster:51890] mca_base_component_repository_open: unable to open mca_osc_ucx: libucp.so.0: cannot open shared object file: No such file or directory (ignored)
[bora002.plafrim.cluster:51923] mca_base_component_repository_open: unable to open mca_btl_uct: libucp.so.0: cannot open shared object file: No such file or directory (ignored)
[bora002.plafrim.cluster:51917] mca_base_component_repository_open: unable to open mca_btl_uct: libucp.so.0: cannot open shared object file: No such file or directory (ignored)
[bora002.plafrim.cluster:51919] mca_base_component_repository_open: unable to open mca_btl_uct: libucp.so.0: cannot open shared object file: No such file or directory (ignored)
[bora002.plafrim.cluster:51924] mca_base_component_repository_open: unable to open mca_btl_uct: libucp.so.0: cannot open shared object file: No such file or directory (ignored)
[bora002.plafrim.cluster:51920] mca_base_component_repository_open: unable to open mca_btl_uct: libucp.so.0: cannot open shared object file: No such file or directory (ignored)
[bora002.plafrim.cluster:51921] mca_base_component_repository_open: unable to open mca_btl_uct: libucp.so.0: cannot open shared object file: No such file or directory (ignored)
[bora002.plafrim.cluster:51922] mca_base_component_repository_open: unable to open mca_btl_uct: libucp.so.0: cannot open shared object file: No such file or directory (ignored)
[bora002.plafrim.cluster:51918] mca_base_component_repository_open: unable to open mca_btl_uct: libucp.so.0: cannot open shared object file: No such file or directory (ignored)
[bora002.plafrim.cluster:51924] mca_base_component_repository_open: unable to open mca_pml_ucx: libucp.so.0: cannot open shared object file: No such file or directory (ignored)
[bora001.plafrim.cluster:91409] mca_base_component_repository_open: unable to open mca_btl_uct: libucp.so.0: cannot open shared object file: No such file or directory (ignored)
[bora002.plafrim.cluster:51921] mca_base_component_repository_open: unable to open mca_pml_ucx: libucp.so.0: cannot open shared object file: No such file or directory (ignored)
[bora002.plafrim.cluster:51923] mca_base_component_repository_open: unable to open mca_pml_ucx: libucp.so.0: cannot open shared object file: No such file or directory (ignored)
[bora002.plafrim.cluster:51920] mca_base_component_repository_open: unable to open mca_pml_ucx: libucp.so.0: cannot open shared object file: No such file or directory (ignored)
[bora002.plafrim.cluster:51917] mca_base_component_repository_open: unable to open mca_pml_ucx: libucp.so.0: cannot open shared object file: No such file or directory (ignored)
[bora002.plafrim.cluster:51919] mca_base_component_repository_open: unable to open mca_pml_ucx: libucp.so.0: cannot open shared object file: No such file or directory (ignored)
[bora002.plafrim.cluster:51922] mca_base_component_repository_open: unable to open mca_pml_ucx: libucp.so.0: cannot open shared object file: No such file or directory (ignored)
[bora002.plafrim.cluster:51918] mca_base_component_repository_open: unable to open mca_pml_ucx: libucp.so.0: cannot open shared object file: No such file or directory (ignored)
[bora002.plafrim.cluster:51918] mca_base_component_repository_open: unable to open mca_osc_ucx: libucp.so.0: cannot open shared object file: No such file or directory (ignored)
[bora001.plafrim.cluster:91405] mca_base_component_repository_open: unable to open mca_btl_uct: libucp.so.0: cannot open shared object file: No such file or directory (ignored)
[bora001.plafrim.cluster:91407] mca_base_component_repository_open: unable to open mca_btl_uct: libucp.so.0: cannot open shared object file: No such file or directory (ignored)
[bora001.plafrim.cluster:91410] mca_base_component_repository_open: unable to open mca_btl_uct: libucp.so.0: cannot open shared object file: No such file or directory (ignored)
[bora001.plafrim.cluster:91406] mca_base_component_repository_open: unable to open mca_btl_uct: libucp.so.0: cannot open shared object file: No such file or directory (ignored)
[bora001.plafrim.cluster:91412] mca_base_component_repository_open: unable to open mca_btl_uct: libucp.so.0: cannot open shared object file: No such file or directory (ignored)
[bora001.plafrim.cluster:91408] mca_base_component_repository_open: unable to open mca_btl_uct: libucp.so.0: cannot open shared object file: No such file or directory (ignored)
[bora001.plafrim.cluster:91411] mca_base_component_repository_open: unable to open mca_btl_uct: libucp.so.0: cannot open shared object file: No such file or directory (ignored)
[bora001.plafrim.cluster:91407] mca_base_component_repository_open: unable to open mca_pml_ucx: libucp.so.0: cannot open shared object file: No such file or directory (ignored)
[bora001.plafrim.cluster:91410] mca_base_component_repository_open: unable to open mca_pml_ucx: libucp.so.0: cannot open shared object file: No such file or directory (ignored)
[bora001.plafrim.cluster:91406] mca_base_component_repository_open: unable to open mca_pml_ucx: libucp.so.0: cannot open shared object file: No such file or directory (ignored)
[bora001.plafrim.cluster:91408] mca_base_component_repository_open: unable to open mca_pml_ucx: libucp.so.0: cannot open shared object file: No such file or directory (ignored)
[bora001.plafrim.cluster:91409] mca_base_component_repository_open: unable to open mca_pml_ucx: libucp.so.0: cannot open shared object file: No such file or directory (ignored)
[bora001.plafrim.cluster:91405] mca_base_component_repository_open: unable to open mca_pml_ucx: libucp.so.0: cannot open shared object file: No such file or directory (ignored)
[bora001.plafrim.cluster:91412] mca_base_component_repository_open: unable to open mca_pml_ucx: libucp.so.0: cannot open shared object file: No such file or directory (ignored)
[bora001.plafrim.cluster:91411] mca_base_component_repository_open: unable to open mca_pml_ucx: libucp.so.0: cannot open shared object file: No such file or directory (ignored)
[bora001.plafrim.cluster:91408] mca_base_component_repository_open: unable to open mca_osc_ucx: libucp.so.0: cannot open shared object file: No such file or directory (ignored)
[bora001.plafrim.cluster:91406] mca_base_component_repository_open: unable to open mca_osc_ucx: libucp.so.0: cannot open shared object file: No such file or directory (ignored)
[bora001.plafrim.cluster:91412] mca_base_component_repository_open: unable to open mca_osc_ucx: libucp.so.0: cannot open shared object file: No such file or directory (ignored)
[bora001.plafrim.cluster:91409] mca_base_component_repository_open: unable to open mca_osc_ucx: libucp.so.0: cannot open shared object file: No such file or directory (ignored)
[bora001.plafrim.cluster:91411] mca_base_component_repository_open: unable to open mca_osc_ucx: libucp.so.0: cannot open shared object file: No such file or directory (ignored)
[bora001.plafrim.cluster:91410] mca_base_component_repository_open: unable to open mca_osc_ucx: libucp.so.0: cannot open shared object file: No such file or directory (ignored)
[bora001.plafrim.cluster:91407] mca_base_component_repository_open: unable to open mca_osc_ucx: libucp.so.0: cannot open shared object file: No such file or directory (ignored)
[bora001.plafrim.cluster:91405] mca_base_component_repository_open: unable to open mca_osc_ucx: libucp.so.0: cannot open shared object file: No such file or directory (ignored)
[bora002.plafrim.cluster:51921] mca_base_component_repository_open: unable to open mca_osc_ucx: libucp.so.0: cannot open shared object file: No such file or directory (ignored)
[bora002.plafrim.cluster:51917] mca_base_component_repository_open: unable to open mca_osc_ucx: libucp.so.0: cannot open shared object file: No such file or directory (ignored)
[bora002.plafrim.cluster:51919] mca_base_component_repository_open: unable to open mca_osc_ucx: libucp.so.0: cannot open shared object file: No such file or directory (ignored)
[bora002.plafrim.cluster:51920] mca_base_component_repository_open: unable to open mca_osc_ucx: libucp.so.0: cannot open shared object file: No such file or directory (ignored)
[bora002.plafrim.cluster:51922] mca_base_component_repository_open: unable to open mca_osc_ucx: libucp.so.0: cannot open shared object file: No such file or directory (ignored)
[bora002.plafrim.cluster:51923] mca_base_component_repository_open: unable to open mca_osc_ucx: libucp.so.0: cannot open shared object file: No such file or directory (ignored)
[bora002.plafrim.cluster:51924] mca_base_component_repository_open: unable to open mca_osc_ucx: libucp.so.0: cannot open shared object file: No such file or directory (ignored)
[bora002.plafrim.cluster:51948] mca_base_component_repository_open: unable to open mca_btl_uct: libucp.so.0: cannot open shared object file: No such file or directory (ignored)
[bora002.plafrim.cluster:51945] mca_base_component_repository_open: unable to open mca_btl_uct: libucp.so.0: cannot open shared object file: No such file or directory (ignored)
[bora001.plafrim.cluster:91476] mca_base_component_repository_open: unable to open mca_btl_uct: libucp.so.0: cannot open shared object file: No such file or directory (ignored)
[bora002.plafrim.cluster:51947] mca_base_component_repository_open: unable to open mca_btl_uct: libucp.so.0: cannot open shared object file: No such file or directory (ignored)
[bora002.plafrim.cluster:51946] mca_base_component_repository_open: unable to open mca_btl_uct: libucp.so.0: cannot open shared object file: No such file or directory (ignored)
[bora002.plafrim.cluster:51950] mca_base_component_repository_open: unable to open mca_btl_uct: libucp.so.0: cannot open shared object file: No such file or directory (ignored)
[bora002.plafrim.cluster:51952] mca_base_component_repository_open: unable to open mca_btl_uct: libucp.so.0: cannot open shared object file: No such file or directory (ignored)
[bora002.plafrim.cluster:51951] mca_base_component_repository_open: unable to open mca_btl_uct: libucp.so.0: cannot open shared object file: No such file or directory (ignored)
[bora002.plafrim.cluster:51949] mca_base_component_repository_open: unable to open mca_btl_uct: libucp.so.0: cannot open shared object file: No such file or directory (ignored)
[bora002.plafrim.cluster:51951] mca_base_component_repository_open: unable to open mca_pml_ucx: libucp.so.0: cannot open shared object file: No such file or directory (ignored)
[bora002.plafrim.cluster:51949] mca_base_component_repository_open: unable to open mca_pml_ucx: libucp.so.0: cannot open shared object file: No such file or directory (ignored)
[bora002.plafrim.cluster:51948] mca_base_component_repository_open: unable to open mca_pml_ucx: libucp.so.0: cannot open shared object file: No such file or directory (ignored)
[bora002.plafrim.cluster:51946] mca_base_component_repository_open: unable to open mca_pml_ucx: libucp.so.0: cannot open shared object file: No such file or directory (ignored)
[bora002.plafrim.cluster:51947] mca_base_component_repository_open: unable to open mca_pml_ucx: libucp.so.0: cannot open shared object file: No such file or directory (ignored)
[bora002.plafrim.cluster:51945] mca_base_component_repository_open: unable to open mca_pml_ucx: libucp.so.0: cannot open shared object file: No such file or directory (ignored)
[bora002.plafrim.cluster:51950] mca_base_component_repository_open: unable to open mca_pml_ucx: libucp.so.0: cannot open shared object file: No such file or directory (ignored)
[bora002.plafrim.cluster:51952] mca_base_component_repository_open: unable to open mca_pml_ucx: libucp.so.0: cannot open shared object file: No such file or directory (ignored)
[bora002.plafrim.cluster:51948] mca_base_component_repository_open: unable to open mca_osc_ucx: libucp.so.0: cannot open shared object file: No such file or directory (ignored)
[bora002.plafrim.cluster:51951] mca_base_component_repository_open: unable to open mca_osc_ucx: libucp.so.0: cannot open shared object file: No such file or directory (ignored)
[bora001.plafrim.cluster:91474] mca_base_component_repository_open: unable to open mca_btl_uct: libucp.so.0: cannot open shared object file: No such file or directory (ignored)
[bora001.plafrim.cluster:91478] mca_base_component_repository_open: unable to open mca_btl_uct: libucp.so.0: cannot open shared object file: No such file or directory (ignored)
[bora001.plafrim.cluster:91477] mca_base_component_repository_open: unable to open mca_btl_uct: libucp.so.0: cannot open shared object file: No such file or directory (ignored)
[bora001.plafrim.cluster:91479] mca_base_component_repository_open: unable to open mca_btl_uct: libucp.so.0: cannot open shared object file: No such file or directory (ignored)
[bora001.plafrim.cluster:91472] mca_base_component_repository_open: unable to open mca_btl_uct: libucp.so.0: cannot open shared object file: No such file or directory (ignored)
[bora001.plafrim.cluster:91473] mca_base_component_repository_open: unable to open mca_btl_uct: libucp.so.0: cannot open shared object file: No such file or directory (ignored)
[bora001.plafrim.cluster:91475] mca_base_component_repository_open: unable to open mca_btl_uct: libucp.so.0: cannot open shared object file: No such file or directory (ignored)
[bora001.plafrim.cluster:91477] mca_base_component_repository_open: unable to open mca_pml_ucx: libucp.so.0: cannot open shared object file: No such file or directory (ignored)
[bora001.plafrim.cluster:91473] mca_base_component_repository_open: unable to open mca_pml_ucx: libucp.so.0: cannot open shared object file: No such file or directory (ignored)
[bora001.plafrim.cluster:91475] mca_base_component_repository_open: unable to open mca_pml_ucx: libucp.so.0: cannot open shared object file: No such file or directory (ignored)
[bora001.plafrim.cluster:91476] mca_base_component_repository_open: unable to open mca_pml_ucx: libucp.so.0: cannot open shared object file: No such file or directory (ignored)
[bora001.plafrim.cluster:91478] mca_base_component_repository_open: unable to open mca_pml_ucx: libucp.so.0: cannot open shared object file: No such file or directory (ignored)
[bora001.plafrim.cluster:91474] mca_base_component_repository_open: unable to open mca_pml_ucx: libucp.so.0: cannot open shared object file: No such file or directory (ignored)
[bora001.plafrim.cluster:91472] mca_base_component_repository_open: unable to open mca_pml_ucx: libucp.so.0: cannot open shared object file: No such file or directory (ignored)
[bora001.plafrim.cluster:91479] mca_base_component_repository_open: unable to open mca_pml_ucx: libucp.so.0: cannot open shared object file: No such file or directory (ignored)
[bora001.plafrim.cluster:91479] mca_base_component_repository_open: unable to open mca_osc_ucx: libucp.so.0: cannot open shared object file: No such file or directory (ignored)
[bora001.plafrim.cluster:91477] mca_base_component_repository_open: unable to open mca_osc_ucx: libucp.so.0: cannot open shared object file: No such file or directory (ignored)
[bora001.plafrim.cluster:91473] mca_base_component_repository_open: unable to open mca_osc_ucx: libucp.so.0: cannot open shared object file: No such file or directory (ignored)
[bora001.plafrim.cluster:91474] mca_base_component_repository_open: unable to open mca_osc_ucx: libucp.so.0: cannot open shared object file: No such file or directory (ignored)
[bora001.plafrim.cluster:91475] mca_base_component_repository_open: unable to open mca_osc_ucx: libucp.so.0: cannot open shared object file: No such file or directory (ignored)
[bora001.plafrim.cluster:91476] mca_base_component_repository_open: unable to open mca_osc_ucx: libucp.so.0: cannot open shared object file: No such file or directory (ignored)
[bora001.plafrim.cluster:91472] mca_base_component_repository_open: unable to open mca_osc_ucx: libucp.so.0: cannot open shared object file: No such file or directory (ignored)
[bora001.plafrim.cluster:91478] mca_base_component_repository_open: unable to open mca_osc_ucx: libucp.so.0: cannot open shared object file: No such file or directory (ignored)
[bora002.plafrim.cluster:51949] mca_base_component_repository_open: unable to open mca_osc_ucx: libucp.so.0: cannot open shared object file: No such file or directory (ignored)
[bora002.plafrim.cluster:51950] mca_base_component_repository_open: unable to open mca_osc_ucx: libucp.so.0: cannot open shared object file: No such file or directory (ignored)
[bora002.plafrim.cluster:51945] mca_base_component_repository_open: unable to open mca_osc_ucx: libucp.so.0: cannot open shared object file: No such file or directory (ignored)
[bora002.plafrim.cluster:51946] mca_base_component_repository_open: unable to open mca_osc_ucx: libucp.so.0: cannot open shared object file: No such file or directory (ignored)
[bora002.plafrim.cluster:51947] mca_base_component_repository_open: unable to open mca_osc_ucx: libucp.so.0: cannot open shared object file: No such file or directory (ignored)
[bora002.plafrim.cluster:51952] mca_base_component_repository_open: unable to open mca_osc_ucx: libucp.so.0: cannot open shared object file: No such file or directory (ignored)
