tracker_id,tracker_timestamp,file,size,ctime,mtime,storage_targets
64b9713a,1642807625.626156,/beegfs/lgouveia/ior_2/testFile1,34359738368,1642807624.0,1642807624.0,203 202
64b9713a,1642807625.626156,/beegfs/lgouveia/ior_2/testFileApp_2,34359738368,1642119769.0,1642119769.0,203 202
64b9713a,1642807625.626156,/beegfs/lgouveia/ior_2/testFileApp_1,34359738368,1642119768.0,1642119768.0,204 101
45d61e50,1642807697.968649,/beegfs/lgouveia/ior_2/testFile1,34359738368,1642807697.0,1642807697.0,204 101
45d61e50,1642807697.968649,/beegfs/lgouveia/ior_2/testFileApp_2,34359738368,1642119769.0,1642119769.0,203 202
45d61e50,1642807697.968649,/beegfs/lgouveia/ior_2/testFileApp_1,34359738368,1642119768.0,1642119768.0,204 101
c84eda75,1642807771.817818,/beegfs/lgouveia/ior_2/testFile1,34359738368,1642807771.0,1642807771.0,102 103
c84eda75,1642807771.817818,/beegfs/lgouveia/ior_2/testFileApp_2,34359738368,1642119769.0,1642119769.0,203 202
c84eda75,1642807771.817818,/beegfs/lgouveia/ior_2/testFileApp_1,34359738368,1642119768.0,1642119768.0,204 101
92c0ffd9,1642807844.505359,/beegfs/lgouveia/ior_2/testFile1,34359738368,1642807844.0,1642807844.0,204 101
92c0ffd9,1642807844.505359,/beegfs/lgouveia/ior_2/testFileApp_2,34359738368,1642119769.0,1642119769.0,203 202
92c0ffd9,1642807844.505359,/beegfs/lgouveia/ior_2/testFileApp_1,34359738368,1642119768.0,1642119768.0,204 101
1a8de464,1642807918.644201,/beegfs/lgouveia/ior_2/testFile1,34359738368,1642807918.0,1642807918.0,203 202
1a8de464,1642807918.644201,/beegfs/lgouveia/ior_2/testFileApp_2,34359738368,1642119769.0,1642119769.0,203 202
1a8de464,1642807918.644201,/beegfs/lgouveia/ior_2/testFileApp_1,34359738368,1642119768.0,1642119768.0,204 101
a9d3ac17,1642807991.204044,/beegfs/lgouveia/ior_2/testFile1,34359738368,1642807990.0,1642807990.0,204 101
a9d3ac17,1642807991.204044,/beegfs/lgouveia/ior_2/testFileApp_2,34359738368,1642119769.0,1642119769.0,203 202
a9d3ac17,1642807991.204044,/beegfs/lgouveia/ior_2/testFileApp_1,34359738368,1642119768.0,1642119768.0,204 101
315d5fd2,1642808064.697893,/beegfs/lgouveia/ior_2/testFile1,34359738368,1642808064.0,1642808064.0,103 102
315d5fd2,1642808064.697893,/beegfs/lgouveia/ior_2/testFileApp_2,34359738368,1642119769.0,1642119769.0,203 202
315d5fd2,1642808064.697893,/beegfs/lgouveia/ior_2/testFileApp_1,34359738368,1642119768.0,1642119768.0,204 101
4f080d3d,1642808137.406434,/beegfs/lgouveia/ior_2/testFile1,34359738368,1642808137.0,1642808137.0,101 204
4f080d3d,1642808137.406434,/beegfs/lgouveia/ior_2/testFileApp_2,34359738368,1642119769.0,1642119769.0,203 202
4f080d3d,1642808137.406434,/beegfs/lgouveia/ior_2/testFileApp_1,34359738368,1642119768.0,1642119768.0,204 101
35990be8,1642808210.621554,/beegfs/lgouveia/ior_2/testFile1,34359738368,1642808210.0,1642808210.0,103 102
35990be8,1642808210.621554,/beegfs/lgouveia/ior_2/testFileApp_2,34359738368,1642119769.0,1642119769.0,203 202
35990be8,1642808210.621554,/beegfs/lgouveia/ior_2/testFileApp_1,34359738368,1642119768.0,1642119768.0,204 101
133b84e2,1642808282.979064,/beegfs/lgouveia/ior_2/testFile1,34359738368,1642808282.0,1642808282.0,104 201
133b84e2,1642808282.979064,/beegfs/lgouveia/ior_2/testFileApp_2,34359738368,1642119769.0,1642119769.0,203 202
133b84e2,1642808282.979064,/beegfs/lgouveia/ior_2/testFileApp_1,34359738368,1642119768.0,1642119768.0,204 101
977ffd65,1642808639.944876,/beegfs/lgouveia/ior_2/testFile1,34359738368,1642808639.0,1642808639.0,203 202
977ffd65,1642808639.944876,/beegfs/lgouveia/ior_2/testFileApp_2,34359738368,1642119769.0,1642119769.0,203 202
977ffd65,1642808639.944876,/beegfs/lgouveia/ior_2/testFileApp_1,34359738368,1642119768.0,1642119768.0,204 101
6094809c,1642808712.424524,/beegfs/lgouveia/ior_2/testFile1,34359738368,1642808712.0,1642808712.0,204 101
6094809c,1642808712.424524,/beegfs/lgouveia/ior_2/testFileApp_2,34359738368,1642119769.0,1642119769.0,203 202
6094809c,1642808712.424524,/beegfs/lgouveia/ior_2/testFileApp_1,34359738368,1642119768.0,1642119768.0,204 101
c95ef073,1642808785.900194,/beegfs/lgouveia/ior_2/testFile1,34359738368,1642808785.0,1642808785.0,103 102
c95ef073,1642808785.900194,/beegfs/lgouveia/ior_2/testFileApp_2,34359738368,1642119769.0,1642119769.0,203 202
c95ef073,1642808785.900194,/beegfs/lgouveia/ior_2/testFileApp_1,34359738368,1642119768.0,1642119768.0,204 101
08c0d9d5,1642808859.16182,/beegfs/lgouveia/ior_2/testFile1,34359738368,1642808858.0,1642808858.0,204 101
08c0d9d5,1642808859.16182,/beegfs/lgouveia/ior_2/testFileApp_2,34359738368,1642119769.0,1642119769.0,203 202
08c0d9d5,1642808859.16182,/beegfs/lgouveia/ior_2/testFileApp_1,34359738368,1642119768.0,1642119768.0,204 101
5b71d737,1642808932.549092,/beegfs/lgouveia/ior_2/testFile1,34359738368,1642808932.0,1642808932.0,103 102
5b71d737,1642808932.549092,/beegfs/lgouveia/ior_2/testFileApp_2,34359738368,1642119769.0,1642119769.0,203 202
5b71d737,1642808932.549092,/beegfs/lgouveia/ior_2/testFileApp_1,34359738368,1642119768.0,1642119768.0,204 101
4176d686,1642809005.334324,/beegfs/lgouveia/ior_2/testFile1,34359738368,1642809005.0,1642809005.0,104 201
4176d686,1642809005.334324,/beegfs/lgouveia/ior_2/testFileApp_2,34359738368,1642119769.0,1642119769.0,203 202
4176d686,1642809005.334324,/beegfs/lgouveia/ior_2/testFileApp_1,34359738368,1642119768.0,1642119768.0,204 101
26c8661a,1642809078.229063,/beegfs/lgouveia/ior_2/testFile1,34359738368,1642809077.0,1642809077.0,103 102
26c8661a,1642809078.229063,/beegfs/lgouveia/ior_2/testFileApp_2,34359738368,1642119769.0,1642119769.0,203 202
26c8661a,1642809078.229063,/beegfs/lgouveia/ior_2/testFileApp_1,34359738368,1642119768.0,1642119768.0,204 101
a49c1163,1642809150.522002,/beegfs/lgouveia/ior_2/testFile1,34359738368,1642809150.0,1642809150.0,101 204
a49c1163,1642809150.522002,/beegfs/lgouveia/ior_2/testFileApp_2,34359738368,1642119769.0,1642119769.0,203 202
a49c1163,1642809150.522002,/beegfs/lgouveia/ior_2/testFileApp_1,34359738368,1642119768.0,1642119768.0,204 101
10c155d9,1642809223.591615,/beegfs/lgouveia/ior_2/testFile1,34359738368,1642809223.0,1642809223.0,103 102
10c155d9,1642809223.591615,/beegfs/lgouveia/ior_2/testFileApp_2,34359738368,1642119769.0,1642119769.0,203 202
10c155d9,1642809223.591615,/beegfs/lgouveia/ior_2/testFileApp_1,34359738368,1642119768.0,1642119768.0,204 101
8e1b3ed3,1642809296.700405,/beegfs/lgouveia/ior_2/testFile1,34359738368,1642809296.0,1642809296.0,201 104
8e1b3ed3,1642809296.700405,/beegfs/lgouveia/ior_2/testFileApp_2,34359738368,1642119769.0,1642119769.0,203 202
8e1b3ed3,1642809296.700405,/beegfs/lgouveia/ior_2/testFileApp_1,34359738368,1642119768.0,1642119768.0,204 101
0d9e10b4,1642809753.419558,/beegfs/lgouveia/ior_2/testFile1,34359738368,1642809752.0,1642809752.0,102 103
0d9e10b4,1642809753.419558,/beegfs/lgouveia/ior_2/testFileApp_2,34359738368,1642119769.0,1642119769.0,203 202
0d9e10b4,1642809753.419558,/beegfs/lgouveia/ior_2/testFileApp_1,34359738368,1642119768.0,1642119768.0,204 101
4061288f,1642809826.867753,/beegfs/lgouveia/ior_2/testFile1,34359738368,1642809826.0,1642809826.0,103 102
4061288f,1642809826.867753,/beegfs/lgouveia/ior_2/testFileApp_2,34359738368,1642119769.0,1642119769.0,203 202
4061288f,1642809826.867753,/beegfs/lgouveia/ior_2/testFileApp_1,34359738368,1642119768.0,1642119768.0,204 101
7594d51a,1642809898.709333,/beegfs/lgouveia/ior_2/testFile1,34359738368,1642809898.0,1642809898.0,201 104
7594d51a,1642809898.709333,/beegfs/lgouveia/ior_2/testFileApp_2,34359738368,1642119769.0,1642119769.0,203 202
7594d51a,1642809898.709333,/beegfs/lgouveia/ior_2/testFileApp_1,34359738368,1642119768.0,1642119768.0,204 101
1b0d1294,1642809972.742618,/beegfs/lgouveia/ior_2/testFile1,34359738368,1642809972.0,1642809972.0,202 203
1b0d1294,1642809972.742618,/beegfs/lgouveia/ior_2/testFileApp_2,34359738368,1642119769.0,1642119769.0,203 202
1b0d1294,1642809972.742618,/beegfs/lgouveia/ior_2/testFileApp_1,34359738368,1642119768.0,1642119768.0,204 101
2fc5260a,1642810045.152312,/beegfs/lgouveia/ior_2/testFile1,34359738368,1642810044.0,1642810044.0,204 101
2fc5260a,1642810045.152312,/beegfs/lgouveia/ior_2/testFileApp_2,34359738368,1642119769.0,1642119769.0,203 202
2fc5260a,1642810045.152312,/beegfs/lgouveia/ior_2/testFileApp_1,34359738368,1642119768.0,1642119768.0,204 101
02618394,1642810118.679233,/beegfs/lgouveia/ior_2/testFile1,34359738368,1642810118.0,1642810118.0,103 102
02618394,1642810118.679233,/beegfs/lgouveia/ior_2/testFileApp_2,34359738368,1642119769.0,1642119769.0,203 202
02618394,1642810118.679233,/beegfs/lgouveia/ior_2/testFileApp_1,34359738368,1642119768.0,1642119768.0,204 101
5f6fb4b1,1642810192.978983,/beegfs/lgouveia/ior_2/testFile1,34359738368,1642810192.0,1642810192.0,202 203
5f6fb4b1,1642810192.978983,/beegfs/lgouveia/ior_2/testFileApp_2,34359738368,1642119769.0,1642119769.0,203 202
5f6fb4b1,1642810192.978983,/beegfs/lgouveia/ior_2/testFileApp_1,34359738368,1642119768.0,1642119768.0,204 101
517e343e,1642810265.362073,/beegfs/lgouveia/ior_2/testFile1,34359738368,1642810265.0,1642810265.0,101 204
517e343e,1642810265.362073,/beegfs/lgouveia/ior_2/testFileApp_2,34359738368,1642119769.0,1642119769.0,203 202
517e343e,1642810265.362073,/beegfs/lgouveia/ior_2/testFileApp_1,34359738368,1642119768.0,1642119768.0,204 101
e34cc6d0,1642810338.935405,/beegfs/lgouveia/ior_2/testFile1,34359738368,1642810338.0,1642810338.0,103 102
e34cc6d0,1642810338.935405,/beegfs/lgouveia/ior_2/testFileApp_2,34359738368,1642119769.0,1642119769.0,203 202
e34cc6d0,1642810338.935405,/beegfs/lgouveia/ior_2/testFileApp_1,34359738368,1642119768.0,1642119768.0,204 101
c9f0330a,1642810411.932995,/beegfs/lgouveia/ior_2/testFile1,34359738368,1642810411.0,1642810411.0,201 104
c9f0330a,1642810411.932995,/beegfs/lgouveia/ior_2/testFileApp_2,34359738368,1642119769.0,1642119769.0,203 202
c9f0330a,1642810411.932995,/beegfs/lgouveia/ior_2/testFileApp_1,34359738368,1642119768.0,1642119768.0,204 101
af53bc85,1642810961.54209,/beegfs/lgouveia/ior_2/testFile1,34359738368,1642810961.0,1642810961.0,102 103
af53bc85,1642810961.54209,/beegfs/lgouveia/ior_2/testFileApp_2,34359738368,1642119769.0,1642119769.0,203 202
af53bc85,1642810961.54209,/beegfs/lgouveia/ior_2/testFileApp_1,34359738368,1642119768.0,1642119768.0,204 101
ce2de308,1642811034.928731,/beegfs/lgouveia/ior_2/testFile1,34359738368,1642811034.0,1642811034.0,102 103
ce2de308,1642811034.928731,/beegfs/lgouveia/ior_2/testFileApp_2,34359738368,1642119769.0,1642119769.0,203 202
ce2de308,1642811034.928731,/beegfs/lgouveia/ior_2/testFileApp_1,34359738368,1642119768.0,1642119768.0,204 101
6174fe53,1642811107.354253,/beegfs/lgouveia/ior_2/testFile1,34359738368,1642811107.0,1642811107.0,104 201
6174fe53,1642811107.354253,/beegfs/lgouveia/ior_2/testFileApp_2,34359738368,1642119769.0,1642119769.0,203 202
6174fe53,1642811107.354253,/beegfs/lgouveia/ior_2/testFileApp_1,34359738368,1642119768.0,1642119768.0,204 101
98c88a8d,1642811182.348953,/beegfs/lgouveia/ior_2/testFile1,34359738368,1642811182.0,1642811182.0,203 202
98c88a8d,1642811182.348953,/beegfs/lgouveia/ior_2/testFileApp_2,34359738368,1642119769.0,1642119769.0,203 202
98c88a8d,1642811182.348953,/beegfs/lgouveia/ior_2/testFileApp_1,34359738368,1642119768.0,1642119768.0,204 101
ae457cfa,1642811254.79938,/beegfs/lgouveia/ior_2/testFile1,34359738368,1642811254.0,1642811254.0,204 101
ae457cfa,1642811254.79938,/beegfs/lgouveia/ior_2/testFileApp_2,34359738368,1642119769.0,1642119769.0,203 202
ae457cfa,1642811254.79938,/beegfs/lgouveia/ior_2/testFileApp_1,34359738368,1642119768.0,1642119768.0,204 101
498b8915,1642811328.172232,/beegfs/lgouveia/ior_2/testFile1,34359738368,1642811327.0,1642811327.0,102 103
498b8915,1642811328.172232,/beegfs/lgouveia/ior_2/testFileApp_2,34359738368,1642119769.0,1642119769.0,203 202
498b8915,1642811328.172232,/beegfs/lgouveia/ior_2/testFileApp_1,34359738368,1642119768.0,1642119768.0,204 101
73e904fd,1642811401.291889,/beegfs/lgouveia/ior_2/testFile1,34359738368,1642811400.0,1642811400.0,103 102
73e904fd,1642811401.291889,/beegfs/lgouveia/ior_2/testFileApp_2,34359738368,1642119769.0,1642119769.0,203 202
73e904fd,1642811401.291889,/beegfs/lgouveia/ior_2/testFileApp_1,34359738368,1642119768.0,1642119768.0,204 101
385af537,1642811473.842819,/beegfs/lgouveia/ior_2/testFile1,34359738368,1642811473.0,1642811473.0,104 201
385af537,1642811473.842819,/beegfs/lgouveia/ior_2/testFileApp_2,34359738368,1642119769.0,1642119769.0,203 202
385af537,1642811473.842819,/beegfs/lgouveia/ior_2/testFileApp_1,34359738368,1642119768.0,1642119768.0,204 101
74ea8286,1642811548.093418,/beegfs/lgouveia/ior_2/testFile1,34359738368,1642811547.0,1642811547.0,202 203
74ea8286,1642811548.093418,/beegfs/lgouveia/ior_2/testFileApp_2,34359738368,1642119769.0,1642119769.0,203 202
74ea8286,1642811548.093418,/beegfs/lgouveia/ior_2/testFileApp_1,34359738368,1642119768.0,1642119768.0,204 101
577c0f47,1642811620.594821,/beegfs/lgouveia/ior_2/testFile1,34359738368,1642811620.0,1642811620.0,101 204
577c0f47,1642811620.594821,/beegfs/lgouveia/ior_2/testFileApp_2,34359738368,1642119769.0,1642119769.0,203 202
577c0f47,1642811620.594821,/beegfs/lgouveia/ior_2/testFileApp_1,34359738368,1642119768.0,1642119768.0,204 101
e0a96ebb,1642812134.841561,/beegfs/lgouveia/ior_2/testFile1,34359738368,1642812134.0,1642812134.0,103 102
e0a96ebb,1642812134.841561,/beegfs/lgouveia/ior_2/testFileApp_2,34359738368,1642119769.0,1642119769.0,203 202
e0a96ebb,1642812134.841561,/beegfs/lgouveia/ior_2/testFileApp_1,34359738368,1642119768.0,1642119768.0,204 101
1d822e26,1642812207.821776,/beegfs/lgouveia/ior_2/testFile1,34359738368,1642812207.0,1642812207.0,104 201
1d822e26,1642812207.821776,/beegfs/lgouveia/ior_2/testFileApp_2,34359738368,1642119769.0,1642119769.0,203 202
1d822e26,1642812207.821776,/beegfs/lgouveia/ior_2/testFileApp_1,34359738368,1642119768.0,1642119768.0,204 101
170e4edc,1642812281.075688,/beegfs/lgouveia/ior_2/testFile1,34359738368,1642812280.0,1642812280.0,102 103
170e4edc,1642812281.075688,/beegfs/lgouveia/ior_2/testFileApp_2,34359738368,1642119769.0,1642119769.0,203 202
170e4edc,1642812281.075688,/beegfs/lgouveia/ior_2/testFileApp_1,34359738368,1642119768.0,1642119768.0,204 101
0b377b0c,1642812353.395483,/beegfs/lgouveia/ior_2/testFile1,34359738368,1642812353.0,1642812353.0,201 104
0b377b0c,1642812353.395483,/beegfs/lgouveia/ior_2/testFileApp_2,34359738368,1642119769.0,1642119769.0,203 202
0b377b0c,1642812353.395483,/beegfs/lgouveia/ior_2/testFileApp_1,34359738368,1642119768.0,1642119768.0,204 101
60622cff,1642812427.162598,/beegfs/lgouveia/ior_2/testFile1,34359738368,1642812426.0,1642812426.0,203 202
60622cff,1642812427.162598,/beegfs/lgouveia/ior_2/testFileApp_2,34359738368,1642119769.0,1642119769.0,203 202
60622cff,1642812427.162598,/beegfs/lgouveia/ior_2/testFileApp_1,34359738368,1642119768.0,1642119768.0,204 101
bad3d2b6,1642812499.694123,/beegfs/lgouveia/ior_2/testFile1,34359738368,1642812499.0,1642812499.0,101 204
bad3d2b6,1642812499.694123,/beegfs/lgouveia/ior_2/testFileApp_2,34359738368,1642119769.0,1642119769.0,203 202
bad3d2b6,1642812499.694123,/beegfs/lgouveia/ior_2/testFileApp_1,34359738368,1642119768.0,1642119768.0,204 101
74de869f,1642812573.194537,/beegfs/lgouveia/ior_2/testFile1,34359738368,1642812572.0,1642812572.0,102 103
74de869f,1642812573.194537,/beegfs/lgouveia/ior_2/testFileApp_2,34359738368,1642119769.0,1642119769.0,203 202
74de869f,1642812573.194537,/beegfs/lgouveia/ior_2/testFileApp_1,34359738368,1642119768.0,1642119768.0,204 101
db44bb36,1642812646.170632,/beegfs/lgouveia/ior_2/testFile1,34359738368,1642812645.0,1642812645.0,201 104
db44bb36,1642812646.170632,/beegfs/lgouveia/ior_2/testFileApp_2,34359738368,1642119769.0,1642119769.0,203 202
db44bb36,1642812646.170632,/beegfs/lgouveia/ior_2/testFileApp_1,34359738368,1642119768.0,1642119768.0,204 101
bbf0b762,1642812720.177419,/beegfs/lgouveia/ior_2/testFile1,34359738368,1642812719.0,1642812719.0,202 203
bbf0b762,1642812720.177419,/beegfs/lgouveia/ior_2/testFileApp_2,34359738368,1642119769.0,1642119769.0,203 202
bbf0b762,1642812720.177419,/beegfs/lgouveia/ior_2/testFileApp_1,34359738368,1642119768.0,1642119768.0,204 101
f91dff56,1642812792.611575,/beegfs/lgouveia/ior_2/testFile1,34359738368,1642812792.0,1642812792.0,204 101
f91dff56,1642812792.611575,/beegfs/lgouveia/ior_2/testFileApp_2,34359738368,1642119769.0,1642119769.0,203 202
f91dff56,1642812792.611575,/beegfs/lgouveia/ior_2/testFileApp_1,34359738368,1642119768.0,1642119768.0,204 101
ab54ee6f,1642813444.249362,/beegfs/lgouveia/ior_2/testFile1,34359738368,1642813443.0,1642813443.0,102 103
ab54ee6f,1642813444.249362,/beegfs/lgouveia/ior_2/testFileApp_2,34359738368,1642119769.0,1642119769.0,203 202
ab54ee6f,1642813444.249362,/beegfs/lgouveia/ior_2/testFileApp_1,34359738368,1642119768.0,1642119768.0,204 101
853939c7,1642813518.911071,/beegfs/lgouveia/ior_2/testFile1,34359738368,1642813518.0,1642813518.0,103 102
853939c7,1642813518.911071,/beegfs/lgouveia/ior_2/testFileApp_2,34359738368,1642119769.0,1642119769.0,203 202
853939c7,1642813518.911071,/beegfs/lgouveia/ior_2/testFileApp_1,34359738368,1642119768.0,1642119768.0,204 101
c23fb0fb,1642813591.680469,/beegfs/lgouveia/ior_2/testFile1,34359738368,1642813591.0,1642813591.0,201 104
c23fb0fb,1642813591.680469,/beegfs/lgouveia/ior_2/testFileApp_2,34359738368,1642119769.0,1642119769.0,203 202
c23fb0fb,1642813591.680469,/beegfs/lgouveia/ior_2/testFileApp_1,34359738368,1642119768.0,1642119768.0,204 101
790b8186,1642813666.409449,/beegfs/lgouveia/ior_2/testFile1,34359738368,1642813666.0,1642813666.0,203 202
790b8186,1642813666.409449,/beegfs/lgouveia/ior_2/testFileApp_2,34359738368,1642119769.0,1642119769.0,203 202
790b8186,1642813666.409449,/beegfs/lgouveia/ior_2/testFileApp_1,34359738368,1642119768.0,1642119768.0,204 101
348b4f9b,1642813739.155067,/beegfs/lgouveia/ior_2/testFile1,34359738368,1642813738.0,1642813738.0,204 101
348b4f9b,1642813739.155067,/beegfs/lgouveia/ior_2/testFileApp_2,34359738368,1642119769.0,1642119769.0,203 202
348b4f9b,1642813739.155067,/beegfs/lgouveia/ior_2/testFileApp_1,34359738368,1642119768.0,1642119768.0,204 101
c002ffd5,1642813812.824749,/beegfs/lgouveia/ior_2/testFile1,34359738368,1642813812.0,1642813812.0,102 103
c002ffd5,1642813812.824749,/beegfs/lgouveia/ior_2/testFileApp_2,34359738368,1642119769.0,1642119769.0,203 202
c002ffd5,1642813812.824749,/beegfs/lgouveia/ior_2/testFileApp_1,34359738368,1642119768.0,1642119768.0,204 101
acd8bc90,1642813885.184649,/beegfs/lgouveia/ior_2/testFile1,34359738368,1642813884.0,1642813884.0,104 201
acd8bc90,1642813885.184649,/beegfs/lgouveia/ior_2/testFileApp_2,34359738368,1642119769.0,1642119769.0,203 202
acd8bc90,1642813885.184649,/beegfs/lgouveia/ior_2/testFileApp_1,34359738368,1642119768.0,1642119768.0,204 101
e368555b,1642813959.077209,/beegfs/lgouveia/ior_2/testFile1,34359738368,1642813958.0,1642813958.0,203 202
e368555b,1642813959.077209,/beegfs/lgouveia/ior_2/testFileApp_2,34359738368,1642119769.0,1642119769.0,203 202
e368555b,1642813959.077209,/beegfs/lgouveia/ior_2/testFileApp_1,34359738368,1642119768.0,1642119768.0,204 101
3bbb0b00,1642814031.921191,/beegfs/lgouveia/ior_2/testFile1,34359738368,1642814031.0,1642814031.0,101 204
3bbb0b00,1642814031.921191,/beegfs/lgouveia/ior_2/testFileApp_2,34359738368,1642119769.0,1642119769.0,203 202
3bbb0b00,1642814031.921191,/beegfs/lgouveia/ior_2/testFileApp_1,34359738368,1642119768.0,1642119768.0,204 101
99945579,1642814105.156347,/beegfs/lgouveia/ior_2/testFile1,34359738368,1642814104.0,1642814104.0,102 103
99945579,1642814105.156347,/beegfs/lgouveia/ior_2/testFileApp_2,34359738368,1642119769.0,1642119769.0,203 202
99945579,1642814105.156347,/beegfs/lgouveia/ior_2/testFileApp_1,34359738368,1642119768.0,1642119768.0,204 101
63b57989,1642814461.187436,/beegfs/lgouveia/ior_2/testFile1,34359738368,1642814460.0,1642814460.0,102 103
63b57989,1642814461.187436,/beegfs/lgouveia/ior_2/testFileApp_2,34359738368,1642119769.0,1642119769.0,203 202
63b57989,1642814461.187436,/beegfs/lgouveia/ior_2/testFileApp_1,34359738368,1642119768.0,1642119768.0,204 101
b5d852a4,1642814533.99225,/beegfs/lgouveia/ior_2/testFile1,34359738368,1642814533.0,1642814533.0,201 104
b5d852a4,1642814533.99225,/beegfs/lgouveia/ior_2/testFileApp_2,34359738368,1642119769.0,1642119769.0,203 202
b5d852a4,1642814533.99225,/beegfs/lgouveia/ior_2/testFileApp_1,34359738368,1642119768.0,1642119768.0,204 101
db86b230,1642814608.077568,/beegfs/lgouveia/ior_2/testFile1,34359738368,1642814607.0,1642814607.0,203 202
db86b230,1642814608.077568,/beegfs/lgouveia/ior_2/testFileApp_2,34359738368,1642119769.0,1642119769.0,203 202
db86b230,1642814608.077568,/beegfs/lgouveia/ior_2/testFileApp_1,34359738368,1642119768.0,1642119768.0,204 101
c6738d14,1642814681.69762,/beegfs/lgouveia/ior_2/testFile1,34359738368,1642814681.0,1642814681.0,102 103
c6738d14,1642814681.69762,/beegfs/lgouveia/ior_2/testFileApp_2,34359738368,1642119769.0,1642119769.0,203 202
c6738d14,1642814681.69762,/beegfs/lgouveia/ior_2/testFileApp_1,34359738368,1642119768.0,1642119768.0,204 101
6667c37a,1642814754.451363,/beegfs/lgouveia/ior_2/testFile1,34359738368,1642814754.0,1642814754.0,201 104
6667c37a,1642814754.451363,/beegfs/lgouveia/ior_2/testFileApp_2,34359738368,1642119769.0,1642119769.0,203 202
6667c37a,1642814754.451363,/beegfs/lgouveia/ior_2/testFileApp_1,34359738368,1642119768.0,1642119768.0,204 101
0fe040ec,1642814828.540223,/beegfs/lgouveia/ior_2/testFile1,34359738368,1642814828.0,1642814828.0,202 203
0fe040ec,1642814828.540223,/beegfs/lgouveia/ior_2/testFileApp_2,34359738368,1642119769.0,1642119769.0,203 202
0fe040ec,1642814828.540223,/beegfs/lgouveia/ior_2/testFileApp_1,34359738368,1642119768.0,1642119768.0,204 101
85e884f9,1642814901.016444,/beegfs/lgouveia/ior_2/testFile1,34359738368,1642814900.0,1642814900.0,101 204
85e884f9,1642814901.016444,/beegfs/lgouveia/ior_2/testFileApp_2,34359738368,1642119769.0,1642119769.0,203 202
85e884f9,1642814901.016444,/beegfs/lgouveia/ior_2/testFileApp_1,34359738368,1642119768.0,1642119768.0,204 101
c4485baa,1642814974.102126,/beegfs/lgouveia/ior_2/testFile1,34359738368,1642814973.0,1642814973.0,103 102
c4485baa,1642814974.102126,/beegfs/lgouveia/ior_2/testFileApp_2,34359738368,1642119769.0,1642119769.0,203 202
c4485baa,1642814974.102126,/beegfs/lgouveia/ior_2/testFileApp_1,34359738368,1642119768.0,1642119768.0,204 101
60f7af31,1642815046.707278,/beegfs/lgouveia/ior_2/testFile1,34359738368,1642815046.0,1642815046.0,104 201
60f7af31,1642815046.707278,/beegfs/lgouveia/ior_2/testFileApp_2,34359738368,1642119769.0,1642119769.0,203 202
60f7af31,1642815046.707278,/beegfs/lgouveia/ior_2/testFileApp_1,34359738368,1642119768.0,1642119768.0,204 101
35db921d,1642815120.782171,/beegfs/lgouveia/ior_2/testFile1,34359738368,1642815120.0,1642815120.0,203 202
35db921d,1642815120.782171,/beegfs/lgouveia/ior_2/testFileApp_2,34359738368,1642119769.0,1642119769.0,203 202
35db921d,1642815120.782171,/beegfs/lgouveia/ior_2/testFileApp_1,34359738368,1642119768.0,1642119768.0,204 101
ba9b34a8,1642815410.533891,/beegfs/lgouveia/ior_2/testFile1,34359738368,1642815410.0,1642815410.0,103 102
ba9b34a8,1642815410.533891,/beegfs/lgouveia/ior_2/testFileApp_2,34359738368,1642119769.0,1642119769.0,203 202
ba9b34a8,1642815410.533891,/beegfs/lgouveia/ior_2/testFileApp_1,34359738368,1642119768.0,1642119768.0,204 101
2445dc6e,1642815483.397718,/beegfs/lgouveia/ior_2/testFile1,34359738368,1642815483.0,1642815483.0,201 104
2445dc6e,1642815483.397718,/beegfs/lgouveia/ior_2/testFileApp_2,34359738368,1642119769.0,1642119769.0,203 202
2445dc6e,1642815483.397718,/beegfs/lgouveia/ior_2/testFileApp_1,34359738368,1642119768.0,1642119768.0,204 101
585ec3ea,1642815556.701651,/beegfs/lgouveia/ior_2/testFile1,34359738368,1642815556.0,1642815556.0,103 102
585ec3ea,1642815556.701651,/beegfs/lgouveia/ior_2/testFileApp_2,34359738368,1642119769.0,1642119769.0,203 202
585ec3ea,1642815556.701651,/beegfs/lgouveia/ior_2/testFileApp_1,34359738368,1642119768.0,1642119768.0,204 101
eca54143,1642815631.201424,/beegfs/lgouveia/ior_2/testFile1,34359738368,1642815630.0,1642815630.0,202 203
eca54143,1642815631.201424,/beegfs/lgouveia/ior_2/testFileApp_2,34359738368,1642119769.0,1642119769.0,203 202
eca54143,1642815631.201424,/beegfs/lgouveia/ior_2/testFileApp_1,34359738368,1642119768.0,1642119768.0,204 101
f76a517c,1642815703.516389,/beegfs/lgouveia/ior_2/testFile1,34359738368,1642815703.0,1642815703.0,101 204
f76a517c,1642815703.516389,/beegfs/lgouveia/ior_2/testFileApp_2,34359738368,1642119769.0,1642119769.0,203 202
f76a517c,1642815703.516389,/beegfs/lgouveia/ior_2/testFileApp_1,34359738368,1642119768.0,1642119768.0,204 101
f1b60fed,1642815776.80117,/beegfs/lgouveia/ior_2/testFile1,34359738368,1642815776.0,1642815776.0,103 102
f1b60fed,1642815776.80117,/beegfs/lgouveia/ior_2/testFileApp_2,34359738368,1642119769.0,1642119769.0,203 202
f1b60fed,1642815776.80117,/beegfs/lgouveia/ior_2/testFileApp_1,34359738368,1642119768.0,1642119768.0,204 101
08ed2ac5,1642815849.379413,/beegfs/lgouveia/ior_2/testFile1,34359738368,1642815849.0,1642815849.0,101 204
08ed2ac5,1642815849.379413,/beegfs/lgouveia/ior_2/testFileApp_2,34359738368,1642119769.0,1642119769.0,203 202
08ed2ac5,1642815849.379413,/beegfs/lgouveia/ior_2/testFileApp_1,34359738368,1642119768.0,1642119768.0,204 101
1965a223,1642815923.005558,/beegfs/lgouveia/ior_2/testFile1,34359738368,1642815922.0,1642815922.0,103 102
1965a223,1642815923.005558,/beegfs/lgouveia/ior_2/testFileApp_2,34359738368,1642119769.0,1642119769.0,203 202
1965a223,1642815923.005558,/beegfs/lgouveia/ior_2/testFileApp_1,34359738368,1642119768.0,1642119768.0,204 101
eff707b0,1642815996.050128,/beegfs/lgouveia/ior_2/testFile1,34359738368,1642815995.0,1642815995.0,104 201
eff707b0,1642815996.050128,/beegfs/lgouveia/ior_2/testFileApp_2,34359738368,1642119769.0,1642119769.0,203 202
eff707b0,1642815996.050128,/beegfs/lgouveia/ior_2/testFileApp_1,34359738368,1642119768.0,1642119768.0,204 101
5f23c9df,1642816069.937855,/beegfs/lgouveia/ior_2/testFile1,34359738368,1642816069.0,1642816069.0,103 102
5f23c9df,1642816069.937855,/beegfs/lgouveia/ior_2/testFileApp_2,34359738368,1642119769.0,1642119769.0,203 202
5f23c9df,1642816069.937855,/beegfs/lgouveia/ior_2/testFileApp_1,34359738368,1642119768.0,1642119768.0,204 101
809ede0c,1642816671.486972,/beegfs/lgouveia/ior_2/testFile1,34359738368,1642816671.0,1642816671.0,203 202
809ede0c,1642816671.486972,/beegfs/lgouveia/ior_2/testFileApp_2,34359738368,1642119769.0,1642119769.0,203 202
809ede0c,1642816671.486972,/beegfs/lgouveia/ior_2/testFileApp_1,34359738368,1642119768.0,1642119768.0,204 101
75e33e96,1642816744.936537,/beegfs/lgouveia/ior_2/testFile1,34359738368,1642816744.0,1642816744.0,101 204
75e33e96,1642816744.936537,/beegfs/lgouveia/ior_2/testFileApp_2,34359738368,1642119769.0,1642119769.0,203 202
75e33e96,1642816744.936537,/beegfs/lgouveia/ior_2/testFileApp_1,34359738368,1642119768.0,1642119768.0,204 101
0a367bc6,1642816818.130278,/beegfs/lgouveia/ior_2/testFile1,34359738368,1642816817.0,1642816817.0,103 102
0a367bc6,1642816818.130278,/beegfs/lgouveia/ior_2/testFileApp_2,34359738368,1642119769.0,1642119769.0,203 202
0a367bc6,1642816818.130278,/beegfs/lgouveia/ior_2/testFileApp_1,34359738368,1642119768.0,1642119768.0,204 101
81b041ab,1642816890.790698,/beegfs/lgouveia/ior_2/testFile1,34359738368,1642816890.0,1642816890.0,104 201
81b041ab,1642816890.790698,/beegfs/lgouveia/ior_2/testFileApp_2,34359738368,1642119769.0,1642119769.0,203 202
81b041ab,1642816890.790698,/beegfs/lgouveia/ior_2/testFileApp_1,34359738368,1642119768.0,1642119768.0,204 101
ef9f8ea6,1642816964.887484,/beegfs/lgouveia/ior_2/testFile1,34359738368,1642816964.0,1642816964.0,203 202
ef9f8ea6,1642816964.887484,/beegfs/lgouveia/ior_2/testFileApp_2,34359738368,1642119769.0,1642119769.0,203 202
ef9f8ea6,1642816964.887484,/beegfs/lgouveia/ior_2/testFileApp_1,34359738368,1642119768.0,1642119768.0,204 101
d4f7b952,1642817037.334565,/beegfs/lgouveia/ior_2/testFile1,34359738368,1642817037.0,1642817037.0,101 204
d4f7b952,1642817037.334565,/beegfs/lgouveia/ior_2/testFileApp_2,34359738368,1642119769.0,1642119769.0,203 202
d4f7b952,1642817037.334565,/beegfs/lgouveia/ior_2/testFileApp_1,34359738368,1642119768.0,1642119768.0,204 101
8340627a,1642817111.043551,/beegfs/lgouveia/ior_2/testFile1,34359738368,1642817110.0,1642817110.0,103 102
8340627a,1642817111.043551,/beegfs/lgouveia/ior_2/testFileApp_2,34359738368,1642119769.0,1642119769.0,203 202
8340627a,1642817111.043551,/beegfs/lgouveia/ior_2/testFileApp_1,34359738368,1642119768.0,1642119768.0,204 101
bd9b4ad2,1642817183.673244,/beegfs/lgouveia/ior_2/testFile1,34359738368,1642817183.0,1642817183.0,104 201
bd9b4ad2,1642817183.673244,/beegfs/lgouveia/ior_2/testFileApp_2,34359738368,1642119769.0,1642119769.0,203 202
bd9b4ad2,1642817183.673244,/beegfs/lgouveia/ior_2/testFileApp_1,34359738368,1642119768.0,1642119768.0,204 101
872f8068,1642817258.259563,/beegfs/lgouveia/ior_2/testFile1,34359738368,1642817257.0,1642817257.0,202 203
872f8068,1642817258.259563,/beegfs/lgouveia/ior_2/testFileApp_2,34359738368,1642119769.0,1642119769.0,203 202
872f8068,1642817258.259563,/beegfs/lgouveia/ior_2/testFileApp_1,34359738368,1642119768.0,1642119768.0,204 101
a9a184c3,1642817330.845987,/beegfs/lgouveia/ior_2/testFile1,34359738368,1642817330.0,1642817330.0,204 101
a9a184c3,1642817330.845987,/beegfs/lgouveia/ior_2/testFileApp_2,34359738368,1642119769.0,1642119769.0,203 202
a9a184c3,1642817330.845987,/beegfs/lgouveia/ior_2/testFileApp_1,34359738368,1642119768.0,1642119768.0,204 101
1d480398,1642817931.442217,/beegfs/lgouveia/ior_2/testFile1,34359738368,1642817930.0,1642817930.0,202 203
1d480398,1642817931.442217,/beegfs/lgouveia/ior_2/testFileApp_2,34359738368,1642119769.0,1642119769.0,203 202
1d480398,1642817931.442217,/beegfs/lgouveia/ior_2/testFileApp_1,34359738368,1642119768.0,1642119768.0,204 101
bc70862a,1642818004.718715,/beegfs/lgouveia/ior_2/testFile1,34359738368,1642818004.0,1642818004.0,102 103
bc70862a,1642818004.718715,/beegfs/lgouveia/ior_2/testFileApp_2,34359738368,1642119769.0,1642119769.0,203 202
bc70862a,1642818004.718715,/beegfs/lgouveia/ior_2/testFileApp_1,34359738368,1642119768.0,1642119768.0,204 101
771b3799,1642818076.852055,/beegfs/lgouveia/ior_2/testFile1,34359738368,1642818076.0,1642818076.0,201 104
771b3799,1642818076.852055,/beegfs/lgouveia/ior_2/testFileApp_2,34359738368,1642119769.0,1642119769.0,203 202
771b3799,1642818076.852055,/beegfs/lgouveia/ior_2/testFileApp_1,34359738368,1642119768.0,1642119768.0,204 101
7a21e179,1642818150.200731,/beegfs/lgouveia/ior_2/testFile1,34359738368,1642818149.0,1642818149.0,102 103
7a21e179,1642818150.200731,/beegfs/lgouveia/ior_2/testFileApp_2,34359738368,1642119769.0,1642119769.0,203 202
7a21e179,1642818150.200731,/beegfs/lgouveia/ior_2/testFileApp_1,34359738368,1642119768.0,1642119768.0,204 101
751d8387,1642818222.760132,/beegfs/lgouveia/ior_2/testFile1,34359738368,1642818222.0,1642818222.0,104 201
751d8387,1642818222.760132,/beegfs/lgouveia/ior_2/testFileApp_2,34359738368,1642119769.0,1642119769.0,203 202
751d8387,1642818222.760132,/beegfs/lgouveia/ior_2/testFileApp_1,34359738368,1642119768.0,1642119768.0,204 101
cd2a0f3e,1642818296.141882,/beegfs/lgouveia/ior_2/testFile1,34359738368,1642818295.0,1642818295.0,102 103
cd2a0f3e,1642818296.141882,/beegfs/lgouveia/ior_2/testFileApp_2,34359738368,1642119769.0,1642119769.0,203 202
cd2a0f3e,1642818296.141882,/beegfs/lgouveia/ior_2/testFileApp_1,34359738368,1642119768.0,1642119768.0,204 101
5240c464,1642818368.388855,/beegfs/lgouveia/ior_2/testFile1,34359738368,1642818368.0,1642818368.0,101 204
5240c464,1642818368.388855,/beegfs/lgouveia/ior_2/testFileApp_2,34359738368,1642119769.0,1642119769.0,203 202
5240c464,1642818368.388855,/beegfs/lgouveia/ior_2/testFileApp_1,34359738368,1642119768.0,1642119768.0,204 101
f969e5c2,1642818442.708781,/beegfs/lgouveia/ior_2/testFile1,34359738368,1642818442.0,1642818442.0,203 202
f969e5c2,1642818442.708781,/beegfs/lgouveia/ior_2/testFileApp_2,34359738368,1642119769.0,1642119769.0,203 202
f969e5c2,1642818442.708781,/beegfs/lgouveia/ior_2/testFileApp_1,34359738368,1642119768.0,1642119768.0,204 101
8bde0c4f,1642818515.325174,/beegfs/lgouveia/ior_2/testFile1,34359738368,1642818515.0,1642818515.0,101 204
8bde0c4f,1642818515.325174,/beegfs/lgouveia/ior_2/testFileApp_2,34359738368,1642119769.0,1642119769.0,203 202
8bde0c4f,1642818515.325174,/beegfs/lgouveia/ior_2/testFileApp_1,34359738368,1642119768.0,1642119768.0,204 101
d76563e2,1642818589.58492,/beegfs/lgouveia/ior_2/testFile1,34359738368,1642818589.0,1642818589.0,202 203
d76563e2,1642818589.58492,/beegfs/lgouveia/ior_2/testFileApp_2,34359738368,1642119769.0,1642119769.0,203 202
d76563e2,1642818589.58492,/beegfs/lgouveia/ior_2/testFileApp_1,34359738368,1642119768.0,1642119768.0,204 101
