access,bw,iops,latency,block,xfer,open,wr/rd,close,total,iter,start,end
write,1441.58,1441.89,0.014128,262144,1024.00,0.004623,5.68,4.82,5.68,0,Mon Dec 13 21:08:37 2021,Mon Dec 13 21:08:43 2021
write,1425.01,1425.29,0.012978,262144,1024.00,0.005308,5.75,5.01,5.75,0,Mon Dec 13 21:09:44 2021,Mon Dec 13 21:09:50 2021
write,1445.07,1445.39,0.021810,262144,1024.00,0.005018,5.67,4.84,5.67,0,Mon Dec 13 21:10:50 2021,Mon Dec 13 21:10:56 2021
write,1475.13,1475.36,0.021306,262144,1024.00,0.005885,5.55,4.86,5.55,0,Mon Dec 13 21:11:57 2021,Mon Dec 13 21:12:02 2021
write,1447.63,1447.99,0.022089,262144,1024.00,0.006199,5.66,4.82,5.66,0,Mon Dec 13 21:13:03 2021,Mon Dec 13 21:13:09 2021
write,1459.23,1459.52,0.016526,262144,1024.00,0.005058,5.61,4.88,5.61,0,Mon Dec 13 21:14:09 2021,Mon Dec 13 21:14:15 2021
write,1442.49,1442.83,0.019004,262144,1024.00,0.005776,5.68,4.85,5.68,0,Mon Dec 13 21:15:16 2021,Mon Dec 13 21:15:21 2021
write,1470.75,1471.00,0.016420,262144,1024.00,0.006742,5.57,4.80,5.57,0,Mon Dec 13 21:16:22 2021,Mon Dec 13 21:16:28 2021
write,1445.56,1445.84,0.011721,262144,1024.00,0.004967,5.67,4.81,5.67,0,Mon Dec 13 21:17:28 2021,Mon Dec 13 21:17:34 2021
write,1458.29,1458.54,0.011321,262144,1024.00,0.005116,5.62,4.84,5.62,0,Mon Dec 13 21:18:35 2021,Mon Dec 13 21:18:40 2021
write,1446.00,1446.32,0.013996,262144,1024.00,0.004924,5.66,4.83,5.67,0,Mon Dec 13 21:23:37 2021,Mon Dec 13 21:23:43 2021
write,1460.67,1460.95,0.018968,262144,1024.00,0.004975,5.61,4.83,5.61,0,Mon Dec 13 21:24:44 2021,Mon Dec 13 21:24:49 2021
write,1426.87,1427.26,0.014459,262144,1024.00,0.005262,5.74,4.89,5.74,0,Mon Dec 13 21:25:50 2021,Mon Dec 13 21:25:56 2021
write,1447.80,1448.10,0.019426,262144,1024.00,0.005195,5.66,4.94,5.66,0,Mon Dec 13 21:26:56 2021,Mon Dec 13 21:27:02 2021
write,1431.53,1431.87,0.016960,262144,1024.00,0.005219,5.72,4.83,5.72,0,Mon Dec 13 21:28:03 2021,Mon Dec 13 21:28:09 2021
write,1445.03,1445.28,0.014131,262144,1024.00,0.005493,5.67,4.81,5.67,0,Mon Dec 13 21:29:09 2021,Mon Dec 13 21:29:15 2021
write,1425.31,1425.60,0.011050,262144,1024.00,0.005690,5.75,4.91,5.75,0,Mon Dec 13 21:30:16 2021,Mon Dec 13 21:30:21 2021
write,1464.39,1464.66,0.011428,262144,1024.00,0.005771,5.59,4.86,5.59,0,Mon Dec 13 21:31:22 2021,Mon Dec 13 21:31:28 2021
write,1415.39,1415.76,0.019861,262144,1024.00,0.005437,5.79,4.96,5.79,0,Mon Dec 13 21:32:28 2021,Mon Dec 13 21:32:34 2021
write,1466.21,1466.59,0.021558,262144,1024.00,0.007042,5.59,4.86,5.59,0,Mon Dec 13 21:33:35 2021,Mon Dec 13 21:33:40 2021
write,1465.81,1466.09,0.013733,262144,1024.00,0.006142,5.59,4.88,5.59,0,Mon Dec 13 21:41:37 2021,Mon Dec 13 21:41:43 2021
write,1441.27,1441.50,0.006396,262144,1024.00,0.005463,5.68,4.83,5.68,0,Mon Dec 13 21:42:44 2021,Mon Dec 13 21:42:49 2021
write,1461.85,1462.21,0.016729,262144,1024.00,0.005700,5.60,4.88,5.60,0,Mon Dec 13 21:43:50 2021,Mon Dec 13 21:43:56 2021
write,1427.11,1427.50,0.020032,262144,1024.00,0.005972,5.74,4.88,5.74,0,Mon Dec 13 21:44:57 2021,Mon Dec 13 21:45:02 2021
write,1429.18,1429.57,0.022377,262144,1024.00,0.005590,5.73,4.90,5.73,0,Mon Dec 13 21:46:03 2021,Mon Dec 13 21:46:09 2021
write,1456.22,1456.74,0.021515,262144,1024.00,0.004930,5.62,4.91,5.63,0,Mon Dec 13 21:47:09 2021,Mon Dec 13 21:47:15 2021
write,1467.00,1467.35,0.021678,262144,1024.00,0.005304,5.58,4.84,5.58,0,Mon Dec 13 21:48:16 2021,Mon Dec 13 21:48:21 2021
write,1457.36,1457.70,0.021856,262144,1024.00,0.006567,5.62,4.86,5.62,0,Mon Dec 13 21:49:22 2021,Mon Dec 13 21:49:28 2021
write,1431.07,1431.36,0.006067,262144,1024.00,0.006566,5.72,4.89,5.72,0,Mon Dec 13 21:50:28 2021,Mon Dec 13 21:50:34 2021
write,1427.24,1427.52,0.013979,262144,1024.00,0.005483,5.74,5.04,5.74,0,Mon Dec 13 21:51:35 2021,Mon Dec 13 21:51:40 2021
write,1430.83,1431.11,0.013243,262144,1024.00,0.005232,5.72,4.88,5.73,0,Mon Dec 13 21:55:07 2021,Mon Dec 13 21:55:13 2021
write,1435.15,1435.39,0.014387,262144,1024.00,0.005396,5.71,4.85,5.71,0,Mon Dec 13 21:56:14 2021,Mon Dec 13 21:56:20 2021
write,1408.15,1408.41,0.009045,262144,1024.00,0.005819,5.82,4.92,5.82,0,Mon Dec 13 21:57:20 2021,Mon Dec 13 21:57:26 2021
write,1431.34,1431.64,0.022059,262144,1024.00,0.005280,5.72,4.91,5.72,0,Mon Dec 13 21:58:27 2021,Mon Dec 13 21:58:32 2021
write,1408.18,1408.59,0.012242,262144,1024.00,0.005598,5.82,4.97,5.82,0,Mon Dec 13 21:59:33 2021,Mon Dec 13 21:59:39 2021
write,1421.56,1421.88,0.020493,262144,1024.00,0.005903,5.76,5.04,5.76,0,Mon Dec 13 22:00:40 2021,Mon Dec 13 22:00:46 2021
write,1459.13,1459.39,0.003183,262144,1024.00,0.005131,5.61,4.83,5.61,0,Mon Dec 13 22:01:46 2021,Mon Dec 13 22:01:52 2021
write,1436.18,1436.48,0.006282,262144,1024.00,0.006261,5.70,4.93,5.70,0,Mon Dec 13 22:02:53 2021,Mon Dec 13 22:02:58 2021
write,1459.28,1459.53,0.021797,262144,1024.00,0.006038,5.61,4.89,5.61,0,Mon Dec 13 22:03:59 2021,Mon Dec 13 22:04:05 2021
write,1420.08,1420.33,0.003876,262144,1024.00,0.005501,5.77,4.78,5.77,0,Mon Dec 13 22:05:05 2021,Mon Dec 13 22:05:11 2021
write,1444.84,1445.10,0.017076,262144,1024.00,0.006153,5.67,4.91,5.67,0,Mon Dec 13 22:16:07 2021,Mon Dec 13 22:16:13 2021
write,1455.53,1455.81,0.019798,262144,1024.00,0.006116,5.63,4.90,5.63,0,Mon Dec 13 22:17:14 2021,Mon Dec 13 22:17:20 2021
write,1412.37,1412.63,0.014682,262144,1024.00,0.005076,5.80,4.93,5.80,0,Mon Dec 13 22:18:20 2021,Mon Dec 13 22:18:26 2021
write,1469.89,1470.15,0.011171,262144,1024.00,0.004807,5.57,4.84,5.57,0,Mon Dec 13 22:19:27 2021,Mon Dec 13 22:19:32 2021
write,1470.41,1470.70,0.011634,262144,1024.00,0.005347,5.57,4.84,5.57,0,Mon Dec 13 22:20:33 2021,Mon Dec 13 22:20:38 2021
write,1442.94,1443.25,0.011421,262144,1024.00,0.004858,5.68,4.89,5.68,0,Mon Dec 13 22:21:39 2021,Mon Dec 13 22:21:45 2021
write,1447.54,1447.81,0.003079,262144,1024.00,0.006647,5.66,4.87,5.66,0,Mon Dec 13 22:22:46 2021,Mon Dec 13 22:22:51 2021
write,1468.51,1468.78,0.013749,262144,1024.00,0.004699,5.58,4.89,5.58,0,Mon Dec 13 22:23:52 2021,Mon Dec 13 22:23:57 2021
write,1445.18,1445.39,0.021947,262144,1024.00,0.005660,5.67,4.89,5.67,0,Mon Dec 13 22:24:58 2021,Mon Dec 13 22:25:04 2021
write,1459.69,1459.97,0.021883,262144,1024.00,0.006606,5.61,4.89,5.61,0,Mon Dec 13 22:26:04 2021,Mon Dec 13 22:26:10 2021
write,1373.59,1373.83,0.009822,262144,1024.00,0.005031,5.96,4.92,5.96,0,Mon Dec 13 22:35:37 2021,Mon Dec 13 22:35:43 2021
write,1471.12,1471.39,0.020672,262144,1024.00,0.006390,5.57,4.82,5.57,0,Mon Dec 13 22:36:45 2021,Mon Dec 13 22:36:51 2021
write,1423.87,1424.17,0.014512,262144,1024.00,0.005199,5.75,4.91,5.75,0,Mon Dec 13 22:37:52 2021,Mon Dec 13 22:37:58 2021
write,1471.60,1471.86,0.011106,262144,1024.00,0.006089,5.57,4.84,5.57,0,Mon Dec 13 22:38:58 2021,Mon Dec 13 22:39:04 2021
write,1462.50,1462.77,0.003142,262144,1024.00,0.004699,5.60,4.82,5.60,0,Mon Dec 13 22:40:04 2021,Mon Dec 13 22:40:10 2021
write,1442.49,1442.74,0.021957,262144,1024.00,0.004992,5.68,4.85,5.68,0,Mon Dec 13 22:41:11 2021,Mon Dec 13 22:41:16 2021
write,1425.79,1426.04,0.003546,262144,1024.00,0.005650,5.74,4.84,5.75,0,Mon Dec 13 22:42:17 2021,Mon Dec 13 22:42:23 2021
write,1476.06,1476.32,0.005494,262144,1024.00,0.006341,5.55,4.84,5.55,0,Mon Dec 13 22:43:24 2021,Mon Dec 13 22:43:29 2021
write,1448.64,1448.98,0.003025,262144,1024.00,0.005064,5.65,4.88,5.65,0,Mon Dec 13 22:44:30 2021,Mon Dec 13 22:44:35 2021
write,1432.15,1432.39,0.018012,262144,1024.00,0.005976,5.72,4.95,5.72,0,Mon Dec 13 22:45:36 2021,Mon Dec 13 22:45:42 2021
write,1439.60,1439.80,0.003391,262144,1024.00,0.004927,5.69,4.87,5.69,0,Mon Dec 13 22:53:08 2021,Mon Dec 13 22:53:13 2021
write,1444.09,1444.28,0.011342,262144,1024.00,0.004782,5.67,4.96,5.67,0,Mon Dec 13 22:54:14 2021,Mon Dec 13 22:54:20 2021
write,1452.62,1452.86,0.016564,262144,1024.00,0.008985,5.64,4.92,5.64,0,Mon Dec 13 22:55:20 2021,Mon Dec 13 22:55:26 2021
write,1443.04,1443.28,0.022089,262144,1024.00,0.005646,5.68,4.94,5.68,0,Mon Dec 13 22:56:27 2021,Mon Dec 13 22:56:32 2021
write,1456.09,1456.29,0.019311,262144,1024.00,0.004542,5.63,4.84,5.63,0,Mon Dec 13 22:57:33 2021,Mon Dec 13 22:57:39 2021
write,1448.35,1448.53,0.011664,262144,1024.00,0.004675,5.66,4.92,5.66,0,Mon Dec 13 22:58:39 2021,Mon Dec 13 22:58:45 2021
write,1471.56,1471.80,0.016485,262144,1024.00,0.004618,5.57,4.83,5.57,0,Mon Dec 13 22:59:46 2021,Mon Dec 13 22:59:51 2021
write,1427.51,1427.70,0.015514,262144,1024.00,0.004975,5.74,4.89,5.74,0,Mon Dec 13 23:00:52 2021,Mon Dec 13 23:00:58 2021
write,1456.39,1456.64,0.021879,262144,1024.00,0.005460,5.62,4.84,5.62,0,Mon Dec 13 23:01:58 2021,Mon Dec 13 23:02:04 2021
write,1430.95,1431.17,0.017043,262144,1024.00,0.005978,5.72,4.89,5.72,0,Mon Dec 13 23:03:05 2021,Mon Dec 13 23:03:11 2021
write,1447.77,1447.98,0.017160,262144,1024.00,0.004844,5.66,4.84,5.66,0,Mon Dec 13 23:09:08 2021,Mon Dec 13 23:09:13 2021
write,1434.31,1434.47,0.019362,262144,1024.00,0.005670,5.71,4.91,5.71,0,Mon Dec 13 23:10:14 2021,Mon Dec 13 23:10:20 2021
write,1442.64,1442.85,0.022155,262144,1024.00,0.004916,5.68,4.92,5.68,0,Mon Dec 13 23:11:20 2021,Mon Dec 13 23:11:26 2021
write,1420.48,1420.73,0.017053,262144,1024.00,0.006442,5.77,4.89,5.77,0,Mon Dec 13 23:12:27 2021,Mon Dec 13 23:12:33 2021
write,1386.84,1387.03,0.012317,262144,1024.00,0.005478,5.91,4.95,5.91,0,Mon Dec 13 23:13:33 2021,Mon Dec 13 23:13:39 2021
write,1416.95,1417.15,0.003643,262144,1024.00,0.005855,5.78,4.92,5.78,0,Mon Dec 13 23:14:40 2021,Mon Dec 13 23:14:46 2021
write,1442.66,1442.88,0.017418,262144,1024.00,0.004958,5.68,4.85,5.68,0,Mon Dec 13 23:15:46 2021,Mon Dec 13 23:15:52 2021
write,1412.87,1413.16,0.003563,262144,1024.00,0.005523,5.80,4.90,5.80,0,Mon Dec 13 23:16:53 2021,Mon Dec 13 23:16:58 2021
write,1439.47,1439.68,0.003277,262144,1024.00,0.005266,5.69,4.85,5.69,0,Mon Dec 13 23:17:59 2021,Mon Dec 13 23:18:05 2021
write,1400.17,1400.39,0.003521,262144,1024.00,0.006465,5.85,4.95,5.85,0,Mon Dec 13 23:19:06 2021,Mon Dec 13 23:19:11 2021
write,1470.63,1470.84,0.017169,262144,1024.00,0.005336,5.57,4.84,5.57,0,Mon Dec 13 23:26:08 2021,Mon Dec 13 23:26:13 2021
write,1432.54,1432.75,0.021610,262144,1024.00,0.005942,5.72,4.83,5.72,0,Mon Dec 13 23:27:15 2021,Mon Dec 13 23:27:21 2021
write,1470.14,1470.39,0.019893,262144,1024.00,0.006789,5.57,4.83,5.57,0,Mon Dec 13 23:28:22 2021,Mon Dec 13 23:28:27 2021
write,1456.28,1456.52,0.021267,262144,1024.00,0.006136,5.62,4.85,5.63,0,Mon Dec 13 23:29:28 2021,Mon Dec 13 23:29:34 2021
write,1447.20,1447.42,0.021352,262144,1024.00,0.004509,5.66,4.85,5.66,0,Mon Dec 13 23:30:34 2021,Mon Dec 13 23:30:40 2021
write,1477.66,1477.96,0.021645,262144,1024.00,0.006267,5.54,4.82,5.54,0,Mon Dec 13 23:31:41 2021,Mon Dec 13 23:31:46 2021
write,1429.53,1429.85,0.003517,262144,1024.00,0.005595,5.73,4.83,5.73,0,Mon Dec 13 23:32:47 2021,Mon Dec 13 23:32:53 2021
write,1444.02,1444.38,0.022067,262144,1024.00,0.005910,5.67,4.94,5.67,0,Mon Dec 13 23:33:53 2021,Mon Dec 13 23:33:59 2021
write,1404.87,1405.24,0.014606,262144,1024.00,0.006237,5.83,4.81,5.83,0,Mon Dec 13 23:35:00 2021,Mon Dec 13 23:35:05 2021
write,1476.39,1476.71,0.013622,262144,1024.00,0.006122,5.55,4.81,5.55,0,Mon Dec 13 23:36:06 2021,Mon Dec 13 23:36:12 2021
write,1450.09,1450.44,0.016907,262144,1024.00,0.006083,5.65,4.89,5.65,0,Mon Dec 13 23:40:38 2021,Mon Dec 13 23:40:44 2021
write,1452.14,1452.43,0.014638,262144,1024.00,0.006204,5.64,4.91,5.64,0,Mon Dec 13 23:41:46 2021,Mon Dec 13 23:41:51 2021
write,1469.92,1470.25,0.013915,262144,1024.00,0.005622,5.57,4.82,5.57,0,Mon Dec 13 23:42:52 2021,Mon Dec 13 23:42:58 2021
write,1433.51,1433.84,0.022295,262144,1024.00,0.005024,5.71,4.82,5.71,0,Mon Dec 13 23:43:58 2021,Mon Dec 13 23:44:04 2021
write,1442.44,1442.76,0.022051,262144,1024.00,0.005656,5.68,4.82,5.68,0,Mon Dec 13 23:45:05 2021,Mon Dec 13 23:45:10 2021
write,1397.59,1397.86,0.020891,262144,1024.00,0.005171,5.86,4.94,5.86,0,Mon Dec 13 23:46:11 2021,Mon Dec 13 23:46:17 2021
write,1430.43,1430.73,0.011605,262144,1024.00,0.005444,5.73,4.88,5.73,0,Mon Dec 13 23:47:18 2021,Mon Dec 13 23:47:23 2021
write,1460.38,1460.68,0.013956,262144,1024.00,0.005335,5.61,4.79,5.61,0,Mon Dec 13 23:48:24 2021,Mon Dec 13 23:48:30 2021
write,1477.39,1477.65,0.018676,262144,1024.00,0.005962,5.54,4.81,5.54,0,Mon Dec 13 23:49:30 2021,Mon Dec 13 23:49:36 2021
write,1461.21,1461.53,0.016818,262144,1024.00,0.006500,5.61,4.89,5.61,0,Mon Dec 13 23:50:37 2021,Mon Dec 13 23:50:42 2021
