tracker_id,tracker_timestamp,file,size,ctime,mtime,storage_targets
dde2408d,1644051820.689684,/beegfs/lgouveia/ior_4/testFile1,34359738368,1644051820.0,1644051820.0,102 104 201 103
368c0086,1644051859.967804,/beegfs/lgouveia/ior_4/testFile1,34359738368,1644051859.0,1644051859.0,101 203 202 204
192640f1,1644051899.387667,/beegfs/lgouveia/ior_4/testFile1,34359738368,1644051899.0,1644051899.0,102 104 201 103
d9e9c786,1644051938.788098,/beegfs/lgouveia/ior_4/testFile1,34359738368,1644051938.0,1644051938.0,202 203 101 204
0fb042ee,1644051977.93123,/beegfs/lgouveia/ior_4/testFile1,34359738368,1644051977.0,1644051977.0,103 102 104 201
8618a605,1644053467.892521,/beegfs/lgouveia/ior_4/testFile1,34359738368,1644053467.0,1644053467.0,204 101 203 202
90b294cb,1644053506.914262,/beegfs/lgouveia/ior_4/testFile1,34359738368,1644053506.0,1644053506.0,201 104 103 102
9e293145,1644053546.142963,/beegfs/lgouveia/ior_4/testFile1,34359738368,1644053545.0,1644053545.0,204 203 202 101
0fc6baa1,1644053585.264153,/beegfs/lgouveia/ior_4/testFile1,34359738368,1644053584.0,1644053584.0,104 201 102 103
a59069fd,1644053624.367278,/beegfs/lgouveia/ior_4/testFile1,34359738368,1644053624.0,1644053624.0,204 203 101 202
82e9a1a9,1644058221.43385,/beegfs/lgouveia/ior_4/testFile1,34359738368,1644058220.0,1644058220.0,202 204 101 203
2b23eb11,1644058260.197133,/beegfs/lgouveia/ior_4/testFile1,34359738368,1644058259.0,1644058259.0,103 201 102 104
5b65952c,1644058299.21387,/beegfs/lgouveia/ior_4/testFile1,34359738368,1644058298.0,1644058298.0,102 104 201 103
30414bd3,1644058338.428877,/beegfs/lgouveia/ior_4/testFile1,34359738368,1644058338.0,1644058338.0,204 202 203 101
6a667d84,1644058377.631757,/beegfs/lgouveia/ior_4/testFile1,34359738368,1644058377.0,1644058377.0,201 102 104 103
851ee908,1644063247.051219,/beegfs/lgouveia/ior_4/testFile1,34359738368,1644063246.0,1644063246.0,103 102 104 201
494d4f19,1644063286.620368,/beegfs/lgouveia/ior_4/testFile1,34359738368,1644063286.0,1644063286.0,203 101 202 204
d141dc5c,1644063325.392884,/beegfs/lgouveia/ior_4/testFile1,34359738368,1644063325.0,1644063325.0,103 104 102 201
ab2f8d20,1644063364.944488,/beegfs/lgouveia/ior_4/testFile1,34359738368,1644063364.0,1644063364.0,204 203 202 101
b62bafca,1644063403.901184,/beegfs/lgouveia/ior_4/testFile1,34359738368,1644063403.0,1644063403.0,102 103 104 201
c9483e18,1644065728.374723,/beegfs/lgouveia/ior_4/testFile1,34359738368,1644065727.0,1644065727.0,103 201 102 104
23ada1fe,1644065767.971574,/beegfs/lgouveia/ior_4/testFile1,34359738368,1644065767.0,1644065767.0,101 202 204 203
e7d660ab,1644065806.714756,/beegfs/lgouveia/ior_4/testFile1,34359738368,1644065806.0,1644065806.0,102 104 103 201
37283b3d,1644065846.652028,/beegfs/lgouveia/ior_4/testFile1,34359738368,1644065846.0,1644065846.0,204 203 101 202
72058f85,1644065885.446847,/beegfs/lgouveia/ior_4/testFile1,34359738368,1644065885.0,1644065885.0,103 102 201 104
