access,bw,iops,latency,block,xfer,open,wr/rd,close,total,iter,start,end
write,1111.58,1111.60,0.031397,1048576,1024.00,0.010479,58.96,51.48,58.96,0,Fri Jul 16 22:39:47 2021,Fri Jul 16 22:40:46 2021
write,1090.43,1090.45,0.024472,1048576,1024.00,0.005360,60.10,52.38,60.10,0,Fri Jul 16 22:37:46 2021,Fri Jul 16 22:38:46 2021
write,1663.37,1663.43,0.030336,1048576,1024.00,0.005922,39.40,34.33,39.40,0,Fri Jul 16 22:36:06 2021,Fri Jul 16 22:36:45 2021
write,1107.13,1107.15,0.029295,1048576,1024.00,0.009478,59.19,51.81,59.19,0,Fri Jul 16 22:34:06 2021,Fri Jul 16 22:35:05 2021
write,1108.45,1108.47,0.051974,1048576,1024.00,0.005354,59.12,51.69,59.12,0,Fri Jul 16 22:32:06 2021,Fri Jul 16 22:33:05 2021
write,1106.66,1106.68,0.054019,1048576,1024.00,0.005376,59.22,51.83,59.22,0,Fri Jul 16 22:30:05 2021,Fri Jul 16 22:31:05 2021
write,1103.21,1103.24,0.058000,1048576,1024.00,0.021451,59.40,51.96,59.40,0,Fri Jul 16 22:28:05 2021,Fri Jul 16 22:29:04 2021
write,1653.09,1653.15,0.038443,1048576,1024.00,0.009234,39.64,34.58,39.64,0,Fri Jul 16 22:26:24 2021,Fri Jul 16 22:27:04 2021
write,1102.54,1102.57,0.051320,1048576,1024.00,0.013932,59.44,52.09,59.44,0,Fri Jul 16 22:24:24 2021,Fri Jul 16 22:25:24 2021
write,1113.24,1113.26,0.037415,1048576,1024.00,0.005518,58.87,51.33,58.87,0,Fri Jul 16 22:22:22 2021,Fri Jul 16 22:23:21 2021
write,1658.33,1658.38,0.036144,1048576,1024.00,0.006019,39.52,34.55,39.52,0,Fri Jul 16 22:11:33 2021,Fri Jul 16 22:12:12 2021
write,1109.94,1109.96,0.050762,1048576,1024.00,0.010753,59.04,51.65,59.04,0,Fri Jul 16 22:09:33 2021,Fri Jul 16 22:10:32 2021
write,1106.53,1106.55,0.033597,1048576,1024.00,0.005182,59.23,51.67,59.23,0,Fri Jul 16 22:07:33 2021,Fri Jul 16 22:08:32 2021
write,1108.94,1108.96,0.028956,1048576,1024.00,0.015294,59.10,51.74,59.10,0,Fri Jul 16 22:05:33 2021,Fri Jul 16 22:06:32 2021
write,1107.18,1107.20,0.034153,1048576,1024.00,0.005629,59.19,51.74,59.19,0,Fri Jul 16 22:03:33 2021,Fri Jul 16 22:04:32 2021
write,1646.15,1646.18,0.011519,1048576,1024.00,0.007373,39.81,34.71,39.81,0,Fri Jul 16 22:01:52 2021,Fri Jul 16 22:02:32 2021
write,1109.06,1109.08,0.028771,1048576,1024.00,0.005226,59.09,51.61,59.09,0,Fri Jul 16 21:59:52 2021,Fri Jul 16 22:00:51 2021
write,1107.98,1108.01,0.022793,1048576,1024.00,0.014816,59.15,51.55,59.15,0,Fri Jul 16 21:57:52 2021,Fri Jul 16 21:58:51 2021
write,1110.94,1110.96,0.028787,1048576,1024.00,0.013970,58.99,51.62,58.99,0,Fri Jul 16 21:55:52 2021,Fri Jul 16 21:56:51 2021
write,1111.47,1111.49,0.050956,1048576,1024.00,0.005770,58.96,51.56,58.96,0,Fri Jul 16 21:53:50 2021,Fri Jul 16 21:54:49 2021
write,1090.24,1090.26,0.029230,1048576,1024.00,0.005564,60.11,52.60,60.11,0,Fri Jul 16 21:42:44 2021,Fri Jul 16 21:43:44 2021
write,1650.83,1650.88,0.037432,1048576,1024.00,0.008937,39.70,34.56,39.70,0,Fri Jul 16 21:41:03 2021,Fri Jul 16 21:41:43 2021
write,1105.09,1105.11,0.049071,1048576,1024.00,0.010034,59.30,51.84,59.30,0,Fri Jul 16 21:39:03 2021,Fri Jul 16 21:40:02 2021
write,1109.56,1109.59,0.028930,1048576,1024.00,0.005381,59.06,51.68,59.06,0,Fri Jul 16 21:37:03 2021,Fri Jul 16 21:38:02 2021
write,1107.15,1107.17,0.040106,1048576,1024.00,0.014486,59.19,51.59,59.19,0,Fri Jul 16 21:35:03 2021,Fri Jul 16 21:36:02 2021
write,1109.40,1109.42,0.057685,1048576,1024.00,0.020619,59.07,51.70,59.07,0,Fri Jul 16 21:33:03 2021,Fri Jul 16 21:34:02 2021
write,1653.87,1653.92,0.022021,1048576,1024.00,0.018336,39.62,34.56,39.63,0,Fri Jul 16 21:31:22 2021,Fri Jul 16 21:32:02 2021
write,1108.52,1108.54,0.036478,1048576,1024.00,0.009608,59.12,51.51,59.12,0,Fri Jul 16 21:29:22 2021,Fri Jul 16 21:30:21 2021
write,1109.78,1109.80,0.050403,1048576,1024.00,0.004838,59.05,51.63,59.05,0,Fri Jul 16 21:27:22 2021,Fri Jul 16 21:28:21 2021
write,1098.37,1098.38,0.056189,1048576,1024.00,0.010342,59.67,52.06,59.67,0,Fri Jul 16 21:25:20 2021,Fri Jul 16 21:26:19 2021
write,1103.32,1103.34,0.029101,1048576,1024.00,0.014226,59.40,51.93,59.40,0,Fri Jul 16 21:19:35 2021,Fri Jul 16 21:20:34 2021
write,1111.09,1111.11,0.029016,1048576,1024.00,0.005434,58.98,51.61,58.98,0,Fri Jul 16 21:17:35 2021,Fri Jul 16 21:18:34 2021
write,1103.03,1103.06,0.030500,1048576,1024.00,0.005830,59.41,51.96,59.41,0,Fri Jul 16 21:15:35 2021,Fri Jul 16 21:16:34 2021
write,1104.86,1104.89,0.052614,1048576,1024.00,0.012202,59.31,51.75,59.32,0,Fri Jul 16 21:13:34 2021,Fri Jul 16 21:14:34 2021
write,1636.33,1636.38,0.035099,1048576,1024.00,0.011749,40.05,34.84,40.05,0,Fri Jul 16 21:11:53 2021,Fri Jul 16 21:12:33 2021
write,1112.28,1112.30,0.028156,1048576,1024.00,0.010739,58.92,51.58,58.92,0,Fri Jul 16 21:09:54 2021,Fri Jul 16 21:10:53 2021
write,1096.32,1096.34,0.048866,1048576,1024.00,0.005062,59.78,52.12,59.78,0,Fri Jul 16 21:07:53 2021,Fri Jul 16 21:08:53 2021
write,1103.67,1103.69,0.023763,1048576,1024.00,0.005752,59.38,51.94,59.38,0,Fri Jul 16 21:05:53 2021,Fri Jul 16 21:06:52 2021
write,1097.48,1097.50,0.027678,1048576,1024.00,0.017351,59.71,52.25,59.72,0,Fri Jul 16 21:03:52 2021,Fri Jul 16 21:04:52 2021
write,1102.17,1102.19,0.032948,1048576,1024.00,0.011195,59.46,51.80,59.46,0,Fri Jul 16 21:01:50 2021,Fri Jul 16 21:02:49 2021
write,1107.52,1107.55,0.047281,1048576,1024.00,0.010772,59.17,51.77,59.17,0,Fri Jul 16 20:54:36 2021,Fri Jul 16 20:55:35 2021
write,1106.02,1106.06,0.028737,1048576,1024.00,0.006130,59.25,51.89,59.25,0,Fri Jul 16 20:52:36 2021,Fri Jul 16 20:53:35 2021
write,1664.82,1664.87,0.036254,1048576,1024.00,0.019152,39.36,34.37,39.37,0,Fri Jul 16 20:50:56 2021,Fri Jul 16 20:51:35 2021
write,1102.47,1102.52,0.038586,1048576,1024.00,0.015395,59.44,51.93,59.44,0,Fri Jul 16 20:48:55 2021,Fri Jul 16 20:49:55 2021
write,1110.29,1110.31,0.057498,1048576,1024.00,0.005637,59.02,51.63,59.03,0,Fri Jul 16 20:46:56 2021,Fri Jul 16 20:47:55 2021
write,1104.50,1104.52,0.021987,1048576,1024.00,0.006103,59.33,51.77,59.34,0,Fri Jul 16 20:44:55 2021,Fri Jul 16 20:45:55 2021
write,1111.45,1111.47,0.051383,1048576,1024.00,0.010813,58.96,51.56,58.96,0,Fri Jul 16 20:42:55 2021,Fri Jul 16 20:43:54 2021
write,1106.12,1106.13,0.052556,1048576,1024.00,0.015314,59.25,51.73,59.25,0,Fri Jul 16 20:40:55 2021,Fri Jul 16 20:41:55 2021
write,1099.80,1099.83,0.051751,1048576,1024.00,0.010010,59.59,51.93,59.59,0,Fri Jul 16 20:38:55 2021,Fri Jul 16 20:39:54 2021
write,1110.24,1110.27,0.023304,1048576,1024.00,0.005405,59.03,51.54,59.03,0,Fri Jul 16 20:36:49 2021,Fri Jul 16 20:37:48 2021
write,1105.89,1105.92,0.028892,1048576,1024.00,0.008305,59.26,51.78,59.26,0,Fri Jul 16 20:24:51 2021,Fri Jul 16 20:25:50 2021
write,1105.82,1105.84,0.052072,1048576,1024.00,0.005789,59.26,51.80,59.26,0,Fri Jul 16 20:22:51 2021,Fri Jul 16 20:23:50 2021
write,1662.34,1662.39,0.033527,1048576,1024.00,0.005973,39.42,34.44,39.42,0,Fri Jul 16 20:21:10 2021,Fri Jul 16 20:21:50 2021
write,1106.98,1107.00,0.044374,1048576,1024.00,0.018629,59.20,51.73,59.20,0,Fri Jul 16 20:19:10 2021,Fri Jul 16 20:20:10 2021
write,1100.03,1100.05,0.026023,1048576,1024.00,0.014828,59.58,52.26,59.58,0,Fri Jul 16 20:17:10 2021,Fri Jul 16 20:18:09 2021
write,1074.69,1074.71,0.045847,1048576,1024.00,0.005651,60.98,53.49,60.98,0,Fri Jul 16 20:15:08 2021,Fri Jul 16 20:16:09 2021
write,1097.17,1097.19,0.048369,1048576,1024.00,0.005790,59.73,52.35,59.73,0,Fri Jul 16 20:13:07 2021,Fri Jul 16 20:14:07 2021
write,1543.59,1543.64,0.019467,1048576,1024.00,0.009113,42.46,37.52,42.46,0,Fri Jul 16 20:11:24 2021,Fri Jul 16 20:12:06 2021
write,1108.51,1108.52,0.026746,1048576,1024.00,0.017596,59.12,51.68,59.12,0,Fri Jul 16 20:09:24 2021,Fri Jul 16 20:10:23 2021
write,1096.78,1096.80,0.055454,1048576,1024.00,0.005579,59.75,52.22,59.75,0,Fri Jul 16 20:07:19 2021,Fri Jul 16 20:08:19 2021
write,1091.74,1091.75,0.011297,1048576,1024.00,0.011268,60.03,52.17,60.03,0,Fri Jul 16 19:57:54 2021,Fri Jul 16 19:58:54 2021
write,1608.47,1608.50,0.030893,1048576,1024.00,0.007101,40.74,35.65,40.74,0,Fri Jul 16 19:56:12 2021,Fri Jul 16 19:56:53 2021
write,1072.45,1072.46,0.020764,1048576,1024.00,0.006020,61.11,53.59,61.11,0,Fri Jul 16 19:54:10 2021,Fri Jul 16 19:55:11 2021
write,1099.34,1099.36,0.022322,1048576,1024.00,0.012642,59.61,51.82,59.61,0,Fri Jul 16 19:52:10 2021,Fri Jul 16 19:53:09 2021
write,1101.91,1101.93,0.029087,1048576,1024.00,0.010522,59.47,52.08,59.48,0,Fri Jul 16 19:50:09 2021,Fri Jul 16 19:51:09 2021
write,1071.80,1071.82,0.052448,1048576,1024.00,0.005803,61.14,53.70,61.15,0,Fri Jul 16 19:48:07 2021,Fri Jul 16 19:49:08 2021
write,1654.47,1654.53,0.021789,1048576,1024.00,0.005996,39.61,34.67,39.61,0,Fri Jul 16 19:46:27 2021,Fri Jul 16 19:47:06 2021
write,1101.91,1101.93,0.028942,1048576,1024.00,0.005987,59.47,52.13,59.48,0,Fri Jul 16 19:44:26 2021,Fri Jul 16 19:45:26 2021
write,1057.37,1057.38,0.044256,1048576,1024.00,0.005264,61.98,54.24,61.98,0,Fri Jul 16 19:42:23 2021,Fri Jul 16 19:43:25 2021
write,1080.02,1080.04,0.015372,1048576,1024.00,0.015366,60.68,52.74,60.68,0,Fri Jul 16 19:40:19 2021,Fri Jul 16 19:41:19 2021
write,1099.43,1099.45,0.028930,1048576,1024.00,0.018579,59.61,51.84,59.61,0,Fri Jul 16 19:29:53 2021,Fri Jul 16 19:30:53 2021
write,1096.82,1096.84,0.034638,1048576,1024.00,0.005573,59.75,51.97,59.75,0,Fri Jul 16 19:27:53 2021,Fri Jul 16 19:28:53 2021
write,1603.00,1603.05,0.021676,1048576,1024.00,0.006286,40.88,35.84,40.88,0,Fri Jul 16 19:26:11 2021,Fri Jul 16 19:26:52 2021
write,1091.89,1091.90,0.041928,1048576,1024.00,0.005671,60.02,52.03,60.02,0,Fri Jul 16 19:24:10 2021,Fri Jul 16 19:25:10 2021
write,1095.22,1095.23,0.029715,1048576,1024.00,0.013391,59.84,52.37,59.84,0,Fri Jul 16 19:22:09 2021,Fri Jul 16 19:23:09 2021
write,1581.97,1582.03,0.030937,1048576,1024.00,0.006422,41.43,36.42,41.43,0,Fri Jul 16 19:20:27 2021,Fri Jul 16 19:21:08 2021
write,1094.90,1094.92,0.046237,1048576,1024.00,0.005707,59.85,51.91,59.86,0,Fri Jul 16 19:18:26 2021,Fri Jul 16 19:19:26 2021
write,1110.55,1110.58,0.029145,1048576,1024.00,0.006117,59.01,51.57,59.01,0,Fri Jul 16 19:16:26 2021,Fri Jul 16 19:17:25 2021
write,1083.72,1083.76,0.032128,1048576,1024.00,0.006633,60.47,52.55,60.47,0,Fri Jul 16 19:14:25 2021,Fri Jul 16 19:15:25 2021
write,1084.55,1084.57,0.037957,1048576,1024.00,0.017561,60.43,52.67,60.43,0,Fri Jul 16 19:12:22 2021,Fri Jul 16 19:13:22 2021
write,1101.03,1101.05,0.029154,1048576,1024.00,0.005259,59.52,52.06,59.52,0,Fri Jul 16 19:03:51 2021,Fri Jul 16 19:04:50 2021
write,1093.75,1093.77,0.058281,1048576,1024.00,0.010039,59.92,52.52,59.92,0,Fri Jul 16 19:01:50 2021,Fri Jul 16 19:02:50 2021
write,1098.25,1098.27,0.047580,1048576,1024.00,0.007090,59.67,52.23,59.67,0,Fri Jul 16 18:59:49 2021,Fri Jul 16 19:00:49 2021
write,1083.63,1083.65,0.033900,1048576,1024.00,0.005598,60.48,52.91,60.48,0,Fri Jul 16 18:57:48 2021,Fri Jul 16 18:58:49 2021
write,1647.85,1647.91,0.023652,1048576,1024.00,0.006144,39.77,34.67,39.77,0,Fri Jul 16 18:56:07 2021,Fri Jul 16 18:56:47 2021
write,1035.31,1035.33,0.054615,1048576,1024.00,0.006259,63.30,54.03,63.30,0,Fri Jul 16 18:54:03 2021,Fri Jul 16 18:55:07 2021
write,1106.92,1106.95,0.019726,1048576,1024.00,0.005366,59.20,51.62,59.21,0,Fri Jul 16 18:52:03 2021,Fri Jul 16 18:53:02 2021
write,1656.63,1656.67,0.019344,1048576,1024.00,0.005743,39.56,34.54,39.56,0,Fri Jul 16 18:50:23 2021,Fri Jul 16 18:51:02 2021
write,1099.30,1099.32,0.046126,1048576,1024.00,0.011099,59.62,51.85,59.62,0,Fri Jul 16 18:48:22 2021,Fri Jul 16 18:49:22 2021
write,1099.22,1099.25,0.045513,1048576,1024.00,0.005254,59.62,51.94,59.62,0,Fri Jul 16 18:46:17 2021,Fri Jul 16 18:47:17 2021
write,1099.18,1099.19,0.024805,1048576,1024.00,0.016645,59.62,51.95,59.62,0,Fri Jul 16 18:39:14 2021,Fri Jul 16 18:40:14 2021
write,1104.30,1104.32,0.030253,1048576,1024.00,0.005673,59.35,51.81,59.35,0,Fri Jul 16 18:37:14 2021,Fri Jul 16 18:38:13 2021
write,1632.01,1632.06,0.019820,1048576,1024.00,0.006876,40.16,35.15,40.16,0,Fri Jul 16 18:35:33 2021,Fri Jul 16 18:36:13 2021
write,1101.27,1101.29,0.057957,1048576,1024.00,0.005382,59.51,51.99,59.51,0,Fri Jul 16 18:33:33 2021,Fri Jul 16 18:34:32 2021
write,1100.96,1100.98,0.026219,1048576,1024.00,0.015105,59.53,52.03,59.53,0,Fri Jul 16 18:31:32 2021,Fri Jul 16 18:32:32 2021
write,1102.63,1102.65,0.055278,1048576,1024.00,0.005727,59.43,51.97,59.44,0,Fri Jul 16 18:29:32 2021,Fri Jul 16 18:30:31 2021
write,1103.84,1103.87,0.027609,1048576,1024.00,0.011957,59.37,51.99,59.37,0,Fri Jul 16 18:27:32 2021,Fri Jul 16 18:28:31 2021
write,1643.71,1643.74,0.014649,1048576,1024.00,0.005647,39.87,34.88,39.87,0,Fri Jul 16 18:25:51 2021,Fri Jul 16 18:26:31 2021
write,1094.43,1094.45,0.051937,1048576,1024.00,0.005783,59.88,52.22,59.88,0,Fri Jul 16 18:23:50 2021,Fri Jul 16 18:24:50 2021
write,1103.67,1103.70,0.029045,1048576,1024.00,0.004794,59.38,51.93,59.38,0,Fri Jul 16 18:21:48 2021,Fri Jul 16 18:22:47 2021
