access,bw,iops,latency,block,xfer,open,wr/rd,close,total,iter,start,end
write,3363.43,3363.80,0.018772,524288,1024.00,0.020715,9.74,7.95,9.74,0,Fri Feb 11 00:45:09 2022,Fri Feb 11 00:45:19 2022
write,2878.38,2878.68,0.010606,524288,1024.00,0.180394,11.38,9.92,11.38,0,Fri Feb 11 00:46:21 2022,Fri Feb 11 00:46:33 2022
write,3586.79,3587.51,0.014234,524288,1024.00,0.023196,9.13,7.95,9.14,0,Fri Feb 11 00:47:34 2022,Fri Feb 11 00:47:43 2022
write,3438.86,3439.17,0.014746,524288,1024.00,0.024698,9.53,8.11,9.53,0,Fri Feb 11 00:48:47 2022,Fri Feb 11 00:48:57 2022
write,2641.82,2642.02,0.005900,524288,1024.00,0.324290,12.40,11.53,12.40,0,Fri Feb 11 00:49:59 2022,Fri Feb 11 00:50:11 2022
write,3011.20,3011.54,0.016226,524288,1024.00,0.012498,10.88,9.14,10.88,0,Fri Feb 11 00:51:13 2022,Fri Feb 11 00:51:24 2022
write,3536.94,3537.31,0.006785,524288,1024.00,0.021797,9.26,7.80,9.26,0,Fri Feb 11 00:52:25 2022,Fri Feb 11 00:52:34 2022
write,3299.56,3299.99,0.009515,524288,1024.00,0.022877,9.93,8.63,9.93,0,Fri Feb 11 00:53:36 2022,Fri Feb 11 00:53:46 2022
write,3441.41,3441.70,0.016290,524288,1024.00,0.031497,9.52,7.90,9.52,0,Fri Feb 11 00:54:49 2022,Fri Feb 11 00:54:59 2022
write,3275.89,3276.28,0.015681,524288,1024.00,0.029735,10.00,8.18,10.00,0,Fri Feb 11 00:56:01 2022,Fri Feb 11 00:56:11 2022
write,3427.24,3427.53,0.006517,524288,1024.00,0.021483,9.56,7.82,9.56,0,Fri Feb 11 00:58:33 2022,Fri Feb 11 00:58:43 2022
write,3377.25,3377.73,0.017234,524288,1024.00,0.034339,9.70,8.28,9.70,0,Fri Feb 11 00:59:45 2022,Fri Feb 11 00:59:55 2022
write,3110.94,3111.21,0.019980,524288,1024.00,0.121441,10.53,8.92,10.53,0,Fri Feb 11 01:00:58 2022,Fri Feb 11 01:01:09 2022
write,3073.82,3074.18,0.017237,524288,1024.00,0.163426,10.66,9.01,10.66,0,Fri Feb 11 01:02:10 2022,Fri Feb 11 01:02:21 2022
write,2643.20,2668.20,0.014655,524288,1024.00,0.151324,12.28,10.95,12.40,0,Fri Feb 11 01:03:22 2022,Fri Feb 11 01:03:34 2022
write,3160.22,3160.53,0.016798,524288,1024.00,0.021293,10.37,9.12,10.37,0,Fri Feb 11 01:04:36 2022,Fri Feb 11 01:04:46 2022
write,2690.47,2690.62,0.022912,524288,1024.00,0.160929,12.18,10.65,12.18,0,Fri Feb 11 01:05:47 2022,Fri Feb 11 01:06:00 2022
write,3499.83,3500.30,0.014971,524288,1024.00,0.028781,9.36,7.91,9.36,0,Fri Feb 11 01:07:01 2022,Fri Feb 11 01:07:10 2022
write,2562.09,2562.27,0.023497,524288,1024.00,0.144004,12.79,11.35,12.79,0,Fri Feb 11 01:08:12 2022,Fri Feb 11 01:08:25 2022
write,3447.50,3447.87,0.012875,524288,1024.00,0.042296,9.50,7.93,9.50,0,Fri Feb 11 01:09:26 2022,Fri Feb 11 01:09:36 2022
write,3094.91,3095.20,0.005036,524288,1024.00,0.017154,10.59,8.99,10.59,0,Fri Feb 11 01:17:40 2022,Fri Feb 11 01:17:50 2022
write,2705.00,2705.20,0.013234,524288,1024.00,0.157733,12.11,10.45,12.11,0,Fri Feb 11 01:18:52 2022,Fri Feb 11 01:19:04 2022
write,3058.55,3058.87,0.020348,524288,1024.00,0.014000,10.71,9.16,10.71,0,Fri Feb 11 01:20:05 2022,Fri Feb 11 01:20:16 2022
write,2547.07,2547.29,0.017315,524288,1024.00,0.027211,12.86,11.40,12.86,0,Fri Feb 11 01:21:17 2022,Fri Feb 11 01:21:30 2022
write,3098.21,3098.56,0.015247,524288,1024.00,0.194687,10.58,8.96,10.58,0,Fri Feb 11 01:22:31 2022,Fri Feb 11 01:22:42 2022
write,2572.99,2573.22,0.012238,524288,1024.00,0.084458,12.73,11.59,12.74,0,Fri Feb 11 01:23:43 2022,Fri Feb 11 01:23:56 2022
write,3046.81,3047.06,0.018589,524288,1024.00,0.013833,10.75,9.25,10.75,0,Fri Feb 11 01:24:57 2022,Fri Feb 11 01:25:08 2022
write,2706.15,2706.39,0.020002,524288,1024.00,0.152942,12.11,11.10,12.11,0,Fri Feb 11 01:26:09 2022,Fri Feb 11 01:26:21 2022
write,3145.42,3145.87,0.017008,524288,1024.00,0.069790,10.42,9.15,10.42,0,Fri Feb 11 01:27:23 2022,Fri Feb 11 01:27:33 2022
write,2606.28,2606.54,0.015392,524288,1024.00,0.194507,12.57,11.31,12.57,0,Fri Feb 11 01:28:35 2022,Fri Feb 11 01:28:47 2022
write,3464.34,3464.86,0.004650,524288,1024.00,0.019121,9.46,8.14,9.46,0,Fri Feb 11 03:09:07 2022,Fri Feb 11 03:09:17 2022
write,3464.08,3465.15,0.010388,524288,1024.00,0.024731,9.46,8.49,9.46,0,Fri Feb 11 03:10:21 2022,Fri Feb 11 03:10:30 2022
write,2681.78,2681.96,0.018411,524288,1024.00,0.352820,12.22,10.48,12.22,0,Fri Feb 11 03:11:34 2022,Fri Feb 11 03:11:46 2022
write,2572.65,2572.84,0.016054,524288,1024.00,0.016690,12.74,10.98,12.74,0,Fri Feb 11 03:12:47 2022,Fri Feb 11 03:13:00 2022
write,2546.02,2546.20,0.017044,524288,1024.00,0.021109,12.87,11.44,12.87,0,Fri Feb 11 03:14:01 2022,Fri Feb 11 03:14:14 2022
write,3076.11,3076.36,0.017083,524288,1024.00,0.020171,10.65,9.56,10.65,0,Fri Feb 11 03:15:15 2022,Fri Feb 11 03:15:26 2022
write,2885.36,2885.62,0.017913,524288,1024.00,0.172721,11.36,10.17,11.36,0,Fri Feb 11 03:16:28 2022,Fri Feb 11 03:16:39 2022
write,3536.32,3536.83,0.007377,524288,1024.00,0.030219,9.26,8.05,9.27,0,Fri Feb 11 03:17:41 2022,Fri Feb 11 03:17:50 2022
write,2582.01,2582.22,0.010325,524288,1024.00,0.146995,12.69,10.44,12.69,0,Fri Feb 11 03:18:53 2022,Fri Feb 11 03:19:05 2022
write,3065.82,3066.12,0.003494,524288,1024.00,0.079683,10.69,9.26,10.69,0,Fri Feb 11 03:20:07 2022,Fri Feb 11 03:20:17 2022
write,2993.42,2993.64,0.007691,524288,1024.00,0.129517,10.95,9.42,10.95,0,Fri Feb 11 04:19:37 2022,Fri Feb 11 04:19:48 2022
write,3061.25,3061.47,0.006571,524288,1024.00,0.244753,10.70,9.19,10.70,0,Fri Feb 11 04:20:50 2022,Fri Feb 11 04:21:00 2022
write,2586.12,2586.30,0.024471,524288,1024.00,0.015288,12.67,11.14,12.67,0,Fri Feb 11 04:22:02 2022,Fri Feb 11 04:22:14 2022
write,3118.20,3118.97,0.018932,524288,1024.00,0.125163,10.51,9.10,10.51,0,Fri Feb 11 04:23:16 2022,Fri Feb 11 04:23:26 2022
write,3295.44,3295.97,0.013549,524288,1024.00,0.016397,9.94,8.16,9.94,0,Fri Feb 11 04:24:28 2022,Fri Feb 11 04:24:37 2022
write,3083.91,3084.30,0.019290,524288,1024.00,0.238332,10.62,9.49,10.63,0,Fri Feb 11 04:25:39 2022,Fri Feb 11 04:25:50 2022
write,2587.13,2587.34,0.024626,524288,1024.00,0.313192,12.66,11.53,12.67,0,Fri Feb 11 04:26:52 2022,Fri Feb 11 04:27:04 2022
write,3520.36,3520.87,0.006018,524288,1024.00,0.033478,9.31,8.00,9.31,0,Fri Feb 11 04:28:06 2022,Fri Feb 11 04:28:15 2022
write,2673.66,2673.88,0.022318,524288,1024.00,0.015745,12.25,10.53,12.26,0,Fri Feb 11 04:29:17 2022,Fri Feb 11 04:29:30 2022
write,3424.56,3425.10,0.010262,524288,1024.00,0.023814,9.57,8.00,9.57,0,Fri Feb 11 04:30:31 2022,Fri Feb 11 04:30:40 2022
write,2797.93,2798.24,0.005038,524288,1024.00,0.551477,11.71,10.14,11.71,0,Thu Feb 10 21:24:40 2022,Thu Feb 10 21:24:51 2022
write,3030.05,3030.33,0.003170,524288,1024.00,0.023756,10.81,9.25,10.81,0,Thu Feb 10 21:25:53 2022,Thu Feb 10 21:26:04 2022
write,2554.24,2554.42,0.016259,524288,1024.00,0.021294,12.83,10.94,12.83,0,Thu Feb 10 21:27:05 2022,Thu Feb 10 21:27:18 2022
write,2726.75,2726.92,0.003260,524288,1024.00,0.200805,12.02,10.69,12.02,0,Thu Feb 10 21:28:20 2022,Thu Feb 10 21:28:32 2022
write,2521.10,2521.23,0.008765,524288,1024.00,0.347648,13.00,10.87,13.00,0,Thu Feb 10 21:29:33 2022,Thu Feb 10 21:29:46 2022
write,2965.89,2966.13,0.019453,524288,1024.00,0.208190,11.05,9.58,11.05,0,Thu Feb 10 21:30:47 2022,Thu Feb 10 21:30:58 2022
write,2553.59,2553.72,0.022821,524288,1024.00,0.143879,12.83,11.64,12.83,0,Thu Feb 10 21:32:00 2022,Thu Feb 10 21:32:13 2022
write,3016.55,3016.73,0.014583,524288,1024.00,0.010661,10.86,9.35,10.86,0,Thu Feb 10 21:33:14 2022,Thu Feb 10 21:33:25 2022
write,3284.54,3284.92,0.018485,524288,1024.00,0.016630,9.98,8.71,9.98,0,Thu Feb 10 21:34:26 2022,Thu Feb 10 21:34:36 2022
write,3437.87,3438.30,0.013763,524288,1024.00,0.020343,9.53,8.01,9.53,0,Thu Feb 10 21:35:38 2022,Thu Feb 10 21:35:48 2022
write,2443.40,2443.55,0.018015,524288,1024.00,0.295054,13.41,11.69,13.41,0,Thu Feb 10 22:15:40 2022,Thu Feb 10 22:15:53 2022
write,2528.63,2528.80,0.020618,524288,1024.00,0.157046,12.96,11.83,12.96,0,Thu Feb 10 22:16:55 2022,Thu Feb 10 22:17:07 2022
write,2929.24,2929.44,0.019987,524288,1024.00,0.022780,11.19,9.63,11.19,0,Thu Feb 10 22:18:09 2022,Thu Feb 10 22:18:20 2022
write,3071.32,3071.54,0.012542,524288,1024.00,0.176595,10.67,9.14,10.67,0,Thu Feb 10 22:19:21 2022,Thu Feb 10 22:19:32 2022
write,3051.45,3051.83,0.009750,524288,1024.00,0.019480,10.74,9.08,10.74,0,Thu Feb 10 22:20:33 2022,Thu Feb 10 22:20:44 2022
write,3180.07,3180.39,0.017661,524288,1024.00,0.025812,10.30,8.88,10.30,0,Thu Feb 10 22:21:47 2022,Thu Feb 10 22:21:57 2022
write,2600.54,2600.69,0.016351,524288,1024.00,0.011090,12.60,11.10,12.60,0,Thu Feb 10 22:23:00 2022,Thu Feb 10 22:23:12 2022
write,2595.12,2595.29,0.015515,524288,1024.00,0.020200,12.63,11.24,12.63,0,Thu Feb 10 22:24:14 2022,Thu Feb 10 22:24:26 2022
write,2590.18,2590.35,0.013626,524288,1024.00,0.235514,12.65,10.86,12.65,0,Thu Feb 10 22:25:27 2022,Thu Feb 10 22:25:40 2022
write,2625.02,2625.30,0.015845,524288,1024.00,0.238556,12.48,11.02,12.48,0,Thu Feb 10 22:26:41 2022,Thu Feb 10 22:26:54 2022
write,3440.03,3440.47,0.016336,524288,1024.00,0.022978,9.52,8.10,9.53,0,Thu Feb 10 22:35:10 2022,Thu Feb 10 22:35:19 2022
write,2794.57,2794.83,0.020997,524288,1024.00,0.143449,11.72,10.36,11.73,0,Thu Feb 10 22:36:22 2022,Thu Feb 10 22:36:34 2022
write,3095.18,3095.58,0.014627,524288,1024.00,0.028338,10.59,9.12,10.59,0,Thu Feb 10 22:37:35 2022,Thu Feb 10 22:37:46 2022
write,3309.41,3309.88,0.004851,524288,1024.00,0.023533,9.90,8.86,9.90,0,Thu Feb 10 22:38:48 2022,Thu Feb 10 22:38:58 2022
write,2991.77,2991.98,0.020783,524288,1024.00,0.025924,10.95,9.24,10.95,0,Thu Feb 10 22:40:02 2022,Thu Feb 10 22:40:12 2022
write,2501.42,2501.57,0.020294,524288,1024.00,0.014414,13.10,10.96,13.10,0,Thu Feb 10 22:41:14 2022,Thu Feb 10 22:41:27 2022
write,2593.10,2593.28,0.019776,524288,1024.00,0.153068,12.64,10.58,12.64,0,Thu Feb 10 22:42:28 2022,Thu Feb 10 22:42:41 2022
write,2942.19,2942.40,0.015433,524288,1024.00,0.027193,11.14,9.24,11.14,0,Thu Feb 10 22:43:42 2022,Thu Feb 10 22:43:53 2022
write,3424.40,3424.72,0.012864,524288,1024.00,0.032601,9.57,8.18,9.57,0,Thu Feb 10 22:44:55 2022,Thu Feb 10 22:45:05 2022
write,2477.59,2477.72,0.024006,524288,1024.00,0.271774,13.23,11.90,13.23,0,Thu Feb 10 22:46:08 2022,Thu Feb 10 22:46:21 2022
write,3386.93,3399.89,0.016334,524288,1024.00,0.021630,9.64,8.28,9.67,0,Thu Feb 10 23:03:42 2022,Thu Feb 10 23:03:52 2022
write,2609.21,2609.37,0.024110,524288,1024.00,0.377651,12.56,10.94,12.56,0,Thu Feb 10 23:04:56 2022,Thu Feb 10 23:05:08 2022
write,2956.96,2957.20,0.019453,524288,1024.00,0.227421,11.08,9.61,11.08,0,Thu Feb 10 23:06:10 2022,Thu Feb 10 23:06:21 2022
write,3015.92,3016.15,0.010462,524288,1024.00,0.007228,10.86,9.38,10.86,0,Thu Feb 10 23:07:22 2022,Thu Feb 10 23:07:33 2022
write,3172.80,3173.05,0.006426,524288,1024.00,0.035605,10.33,8.92,10.33,0,Thu Feb 10 23:08:35 2022,Thu Feb 10 23:08:45 2022
write,3176.73,3177.17,0.002819,524288,1024.00,0.028515,10.31,9.18,10.32,0,Thu Feb 10 23:09:48 2022,Thu Feb 10 23:09:59 2022
write,2576.63,2576.77,0.009754,524288,1024.00,0.309625,12.72,11.33,12.72,0,Thu Feb 10 23:11:02 2022,Thu Feb 10 23:11:15 2022
write,3113.73,3113.98,0.016070,524288,1024.00,0.150642,10.52,9.05,10.52,0,Thu Feb 10 23:12:16 2022,Thu Feb 10 23:12:27 2022
write,2509.05,2509.40,0.024778,524288,1024.00,0.187827,13.06,11.71,13.06,0,Thu Feb 10 23:13:28 2022,Thu Feb 10 23:13:42 2022
write,3059.04,3059.29,0.017721,524288,1024.00,0.180307,10.71,9.35,10.71,0,Thu Feb 10 23:14:43 2022,Thu Feb 10 23:14:54 2022
write,2968.52,2968.73,0.019915,524288,1024.00,0.219340,11.04,9.35,11.04,0,Thu Feb 10 23:35:34 2022,Thu Feb 10 23:35:45 2022
write,3174.28,3174.81,0.014362,524288,1024.00,0.023528,10.32,9.09,10.32,0,Thu Feb 10 23:36:47 2022,Thu Feb 10 23:36:57 2022
write,2980.22,2980.46,0.009849,524288,1024.00,0.021952,10.99,9.32,11.00,0,Thu Feb 10 23:38:00 2022,Thu Feb 10 23:38:11 2022
write,2655.96,2656.25,0.022565,524288,1024.00,0.178109,12.34,10.75,12.34,0,Thu Feb 10 23:39:12 2022,Thu Feb 10 23:39:25 2022
write,3274.77,3275.65,0.013312,524288,1024.00,0.023605,10.00,8.64,10.01,0,Thu Feb 10 23:40:26 2022,Thu Feb 10 23:40:36 2022
write,3098.85,3099.07,0.015751,524288,1024.00,0.022626,10.57,9.20,10.57,0,Thu Feb 10 23:41:39 2022,Thu Feb 10 23:41:50 2022
write,3300.66,3301.20,0.011536,524288,1024.00,0.030672,9.93,8.61,9.93,0,Thu Feb 10 23:42:51 2022,Thu Feb 10 23:43:01 2022
write,2634.30,2634.53,0.016636,524288,1024.00,0.168744,12.44,11.31,12.44,0,Thu Feb 10 23:44:04 2022,Thu Feb 10 23:44:17 2022
write,3134.52,3134.87,0.018215,524288,1024.00,0.017188,10.45,8.83,10.45,0,Thu Feb 10 23:45:18 2022,Thu Feb 10 23:45:28 2022
write,3411.41,3411.97,0.017613,524288,1024.00,0.019799,9.60,8.12,9.61,0,Thu Feb 10 23:46:30 2022,Thu Feb 10 23:46:39 2022
