access,bw,iops,latency,block,xfer,open,wr/rd,close,total,iter,start,end
write,3146.20,3146.55,0.009874,524288,1024.00,0.247339,10.41,8.61,10.42,0,Fri Feb 11 00:45:09 2022,Fri Feb 11 00:45:20 2022
write,3436.11,3436.51,0.017263,524288,1024.00,0.028982,9.54,7.93,9.54,0,Fri Feb 11 00:46:21 2022,Fri Feb 11 00:46:31 2022
write,2995.28,2995.52,0.010491,524288,1024.00,0.029528,10.94,9.39,10.94,0,Fri Feb 11 00:47:34 2022,Fri Feb 11 00:47:45 2022
write,3178.43,3178.74,0.012573,524288,1024.00,0.132313,10.31,8.44,10.31,0,Fri Feb 11 00:48:47 2022,Fri Feb 11 00:48:58 2022
write,3442.21,3442.76,0.012141,524288,1024.00,0.038622,9.52,8.15,9.52,0,Fri Feb 11 00:49:59 2022,Fri Feb 11 00:50:09 2022
write,3113.50,3113.82,0.017983,524288,1024.00,0.217227,10.52,8.81,10.52,0,Fri Feb 11 00:51:13 2022,Fri Feb 11 00:51:23 2022
write,3217.89,3218.18,0.013459,524288,1024.00,0.149342,10.18,8.69,10.18,0,Fri Feb 11 00:52:25 2022,Fri Feb 11 00:52:35 2022
write,2808.34,2808.55,0.016976,524288,1024.00,0.193248,11.67,9.99,11.67,0,Fri Feb 11 00:53:36 2022,Fri Feb 11 00:53:48 2022
write,3120.44,3120.76,0.006477,524288,1024.00,0.131123,10.50,8.59,10.50,0,Fri Feb 11 00:54:49 2022,Fri Feb 11 00:55:00 2022
write,2890.32,2890.54,0.008563,524288,1024.00,0.206937,11.34,10.04,11.34,0,Fri Feb 11 00:56:01 2022,Fri Feb 11 00:56:13 2022
write,3253.82,3254.24,0.014557,524288,1024.00,0.020178,10.07,8.32,10.07,0,Fri Feb 11 00:58:33 2022,Fri Feb 11 00:58:43 2022
write,2862.45,2862.73,0.011771,524288,1024.00,0.196962,11.45,9.81,11.45,0,Fri Feb 11 00:59:45 2022,Fri Feb 11 00:59:57 2022
write,3742,3743,0.005133,524288,1024.00,0.028838,8.75,7.15,8.76,0,Fri Feb 11 01:00:58 2022,Fri Feb 11 01:01:07 2022
write,3825,3826,0.004965,524288,1024.00,0.016075,8.56,7.15,8.57,0,Fri Feb 11 01:02:10 2022,Fri Feb 11 01:02:18 2022
write,3418.95,3419.55,0.007644,524288,1024.00,0.012558,9.58,8.56,9.58,0,Fri Feb 11 01:03:22 2022,Fri Feb 11 01:03:32 2022
write,3695,3696,0.007315,524288,1024.00,0.013596,8.87,7.35,8.87,0,Fri Feb 11 01:04:36 2022,Fri Feb 11 01:04:45 2022
write,3390.09,3390.50,0.007062,524288,1024.00,0.022603,9.66,8.22,9.67,0,Fri Feb 11 01:05:47 2022,Fri Feb 11 01:05:57 2022
write,3231.24,3231.53,0.010711,524288,1024.00,0.127469,10.14,8.52,10.14,0,Fri Feb 11 01:07:01 2022,Fri Feb 11 01:07:11 2022
write,2630.59,2630.80,0.011102,524288,1024.00,0.131964,12.46,10.77,12.46,0,Fri Feb 11 01:08:12 2022,Fri Feb 11 01:08:25 2022
write,3140.51,3140.83,0.011057,524288,1024.00,0.027539,10.43,8.50,10.43,0,Fri Feb 11 01:09:27 2022,Fri Feb 11 01:09:37 2022
write,3733,3733,0.015472,524288,1024.00,0.019433,8.78,7.26,8.78,0,Fri Feb 11 01:17:40 2022,Fri Feb 11 01:17:49 2022
write,3410.57,3410.90,0.010122,524288,1024.00,0.020418,9.61,8.51,9.61,0,Fri Feb 11 01:18:52 2022,Fri Feb 11 01:19:01 2022
write,3642,3642,0.013793,524288,1024.00,0.017453,9.00,7.46,9.00,0,Fri Feb 11 01:20:05 2022,Fri Feb 11 01:20:14 2022
write,2597.24,2597.41,0.013222,524288,1024.00,0.019884,12.62,10.74,12.62,0,Fri Feb 11 01:21:17 2022,Fri Feb 11 01:21:30 2022
write,3785,3786,0.007951,524288,1024.00,0.140406,8.66,7.33,8.66,0,Fri Feb 11 01:22:31 2022,Fri Feb 11 01:22:40 2022
write,2597.05,2597.26,0.017057,524288,1024.00,0.017191,12.62,10.52,12.62,0,Fri Feb 11 01:23:43 2022,Fri Feb 11 01:23:56 2022
write,3922,3922,0.008125,524288,1024.00,0.023586,8.35,7.09,8.36,0,Fri Feb 11 01:24:57 2022,Fri Feb 11 01:25:06 2022
write,3555.37,3556.13,0.011618,524288,1024.00,0.027039,9.21,8.00,9.22,0,Fri Feb 11 01:26:09 2022,Fri Feb 11 01:26:19 2022
write,3676,3677,0.010841,524288,1024.00,0.031283,8.91,7.30,8.91,0,Fri Feb 11 01:27:23 2022,Fri Feb 11 01:27:32 2022
write,2608.88,2609.19,0.007389,524288,1024.00,0.201544,12.56,10.92,12.56,0,Fri Feb 11 01:28:35 2022,Fri Feb 11 01:28:47 2022
write,2800.51,2800.71,0.017239,524288,1024.00,0.212146,11.70,9.99,11.70,0,Fri Feb 11 03:09:07 2022,Fri Feb 11 03:09:19 2022
write,2809.87,2810.06,0.007496,524288,1024.00,0.167335,11.66,9.83,11.66,0,Fri Feb 11 03:10:21 2022,Fri Feb 11 03:10:32 2022
write,3432.43,3432.88,0.011968,524288,1024.00,0.019943,9.55,8.62,9.55,0,Fri Feb 11 03:11:34 2022,Fri Feb 11 03:11:43 2022
write,2571.75,2571.92,0.015973,524288,1024.00,0.224944,12.74,10.89,12.74,0,Fri Feb 11 03:12:47 2022,Fri Feb 11 03:13:00 2022
write,2705.12,2705.32,0.013604,524288,1024.00,0.014718,12.11,10.80,12.11,0,Fri Feb 11 03:14:01 2022,Fri Feb 11 03:14:13 2022
write,2884.19,2884.37,0.020323,524288,1024.00,0.202798,11.36,9.53,11.36,0,Fri Feb 11 03:15:15 2022,Fri Feb 11 03:15:27 2022
write,2808.58,2808.79,0.015412,524288,1024.00,0.165703,11.67,10.08,11.67,0,Fri Feb 11 03:16:28 2022,Fri Feb 11 03:16:40 2022
write,3158.31,3158.64,0.014432,524288,1024.00,0.026663,10.37,8.76,10.38,0,Fri Feb 11 03:17:41 2022,Fri Feb 11 03:17:51 2022
write,2695.34,2695.54,0.013184,524288,1024.00,0.400859,12.16,10.69,12.16,0,Fri Feb 11 03:18:53 2022,Fri Feb 11 03:19:05 2022
write,2999.70,3000.03,0.019361,524288,1024.00,0.011660,10.92,9.37,10.92,0,Fri Feb 11 03:20:07 2022,Fri Feb 11 03:20:17 2022
write,3796,3797,0.015487,524288,1024.00,0.020603,8.63,7.32,8.63,0,Fri Feb 11 04:19:37 2022,Fri Feb 11 04:19:46 2022
write,3730,3730,0.011921,524288,1024.00,0.025088,8.78,7.57,8.79,0,Fri Feb 11 04:20:50 2022,Fri Feb 11 04:20:59 2022
write,2630.27,2630.43,0.007750,524288,1024.00,0.020112,12.46,10.77,12.46,0,Fri Feb 11 04:22:02 2022,Fri Feb 11 04:22:14 2022
write,3702,3703,0.013524,524288,1024.00,0.014986,8.85,7.19,8.85,0,Fri Feb 11 04:23:16 2022,Fri Feb 11 04:23:25 2022
write,3121.07,3121.32,0.009035,524288,1024.00,0.184614,10.50,8.83,10.50,0,Fri Feb 11 04:24:28 2022,Fri Feb 11 04:24:38 2022
write,3001.23,3001.48,0.020892,524288,1024.00,0.014885,10.92,9.12,10.92,0,Fri Feb 11 04:25:39 2022,Fri Feb 11 04:25:50 2022
write,2653.35,2653.59,0.004506,524288,1024.00,0.012543,12.35,10.65,12.35,0,Fri Feb 11 04:26:52 2022,Fri Feb 11 04:27:04 2022
write,3123.78,3124.12,0.013434,524288,1024.00,0.034217,10.49,8.62,10.49,0,Fri Feb 11 04:28:06 2022,Fri Feb 11 04:28:16 2022
write,3560.06,3560.58,0.009740,524288,1024.00,0.031148,9.20,8.01,9.20,0,Fri Feb 11 04:29:17 2022,Fri Feb 11 04:29:27 2022
write,3234.58,3235.77,0.017587,524288,1024.00,0.023626,10.13,8.67,10.13,0,Fri Feb 11 04:30:31 2022,Fri Feb 11 04:30:41 2022
write,2764.06,2764.24,0.015722,524288,1024.00,0.120137,11.85,10.38,11.86,0,Thu Feb 10 21:24:40 2022,Thu Feb 10 21:24:51 2022
write,3125.86,3126.19,0.008817,524288,1024.00,0.136029,10.48,9.45,10.48,0,Thu Feb 10 21:25:53 2022,Thu Feb 10 21:26:04 2022
write,2660.98,2661.18,0.015511,524288,1024.00,0.021385,12.31,10.77,12.31,0,Thu Feb 10 21:27:05 2022,Thu Feb 10 21:27:18 2022
write,2877.90,2878.13,0.020760,524288,1024.00,0.013781,11.39,9.04,11.39,0,Thu Feb 10 21:28:20 2022,Thu Feb 10 21:28:31 2022
write,2595.34,2595.50,0.016095,524288,1024.00,0.011863,12.62,11.01,12.63,0,Thu Feb 10 21:29:33 2022,Thu Feb 10 21:29:45 2022
write,2900.41,2900.61,0.008912,524288,1024.00,0.015430,11.30,9.39,11.30,0,Thu Feb 10 21:30:47 2022,Thu Feb 10 21:30:59 2022
write,2596.59,2596.73,0.016227,524288,1024.00,0.012026,12.62,10.96,12.62,0,Thu Feb 10 21:32:00 2022,Thu Feb 10 21:32:12 2022
write,3701,3701,0.008283,524288,1024.00,0.015593,8.85,7.64,8.85,0,Thu Feb 10 21:33:14 2022,Thu Feb 10 21:33:23 2022
write,3087.59,3088.69,0.018295,524288,1024.00,0.143523,10.61,8.98,10.61,0,Thu Feb 10 21:34:26 2022,Thu Feb 10 21:34:37 2022
write,2996.97,2997.18,0.011930,524288,1024.00,0.215633,10.93,9.20,10.93,0,Thu Feb 10 21:35:38 2022,Thu Feb 10 21:35:49 2022
write,3433.65,3434.07,0.011660,524288,1024.00,0.010447,9.54,7.63,9.54,0,Thu Feb 10 22:15:40 2022,Thu Feb 10 22:15:49 2022
write,2608.23,2608.38,0.016001,524288,1024.00,0.017988,12.56,10.76,12.56,0,Thu Feb 10 22:16:54 2022,Thu Feb 10 22:17:07 2022
write,2910.65,2910.86,0.013518,524288,1024.00,0.015773,11.26,9.60,11.26,0,Thu Feb 10 22:18:09 2022,Thu Feb 10 22:18:20 2022
write,3749,3750,0.013801,524288,1024.00,0.022025,8.74,7.33,8.74,0,Thu Feb 10 22:19:21 2022,Thu Feb 10 22:19:30 2022
write,2772.33,2772.52,0.013443,524288,1024.00,0.176890,11.82,10.33,11.82,0,Thu Feb 10 22:20:33 2022,Thu Feb 10 22:20:45 2022
write,2775.26,2775.42,0.012690,524288,1024.00,0.022070,11.81,10.27,11.81,0,Thu Feb 10 22:21:47 2022,Thu Feb 10 22:21:58 2022
write,3126.97,3127.49,0.013111,524288,1024.00,0.009786,10.48,9.09,10.48,0,Thu Feb 10 22:23:00 2022,Thu Feb 10 22:23:10 2022
write,3272.40,3272.82,0.009647,524288,1024.00,0.029434,10.01,8.56,10.01,0,Thu Feb 10 22:24:14 2022,Thu Feb 10 22:24:24 2022
write,3155.07,3155.64,0.004361,524288,1024.00,0.030987,10.38,8.98,10.39,0,Thu Feb 10 22:25:27 2022,Thu Feb 10 22:25:38 2022
write,3098.17,3098.75,0.011767,524288,1024.00,0.020897,10.57,9.41,10.58,0,Thu Feb 10 22:26:41 2022,Thu Feb 10 22:26:52 2022
write,3044.51,3045.41,0.015495,524288,1024.00,0.189964,10.76,9.06,10.76,0,Thu Feb 10 22:35:10 2022,Thu Feb 10 22:35:20 2022
write,2791.52,2791.72,0.013479,524288,1024.00,0.108687,11.74,10.47,11.74,0,Thu Feb 10 22:36:22 2022,Thu Feb 10 22:36:34 2022
write,2693.52,2693.67,0.010541,524288,1024.00,0.167563,12.16,10.35,12.17,0,Thu Feb 10 22:37:35 2022,Thu Feb 10 22:37:47 2022
write,2811.02,2811.20,0.014389,524288,1024.00,0.015882,11.66,10.11,11.66,0,Thu Feb 10 22:38:48 2022,Thu Feb 10 22:39:00 2022
write,3136.38,3136.66,0.004362,524288,1024.00,0.096835,10.45,8.98,10.45,0,Thu Feb 10 22:40:02 2022,Thu Feb 10 22:40:12 2022
write,2599.16,2599.30,0.015752,524288,1024.00,0.184236,12.61,10.92,12.61,0,Thu Feb 10 22:41:14 2022,Thu Feb 10 22:41:26 2022
write,2973.59,2973.98,0.008882,524288,1024.00,0.018326,11.02,9.63,11.02,0,Thu Feb 10 22:42:28 2022,Thu Feb 10 22:42:39 2022
write,2746.17,2746.36,0.009652,524288,1024.00,0.225689,11.93,10.46,11.93,0,Thu Feb 10 22:43:42 2022,Thu Feb 10 22:43:54 2022
write,2974.42,2974.91,0.011940,524288,1024.00,0.151582,11.01,9.42,11.02,0,Thu Feb 10 22:44:55 2022,Thu Feb 10 22:45:06 2022
write,2546.68,2546.83,0.008756,524288,1024.00,0.233013,12.87,11.00,12.87,0,Thu Feb 10 22:46:08 2022,Thu Feb 10 22:46:21 2022
write,2752.35,2752.53,0.016306,524288,1024.00,0.151512,11.90,10.43,11.91,0,Thu Feb 10 23:03:42 2022,Thu Feb 10 23:03:54 2022
write,3096.32,3096.78,0.009270,524288,1024.00,0.008610,10.58,8.89,10.58,0,Thu Feb 10 23:04:56 2022,Thu Feb 10 23:05:06 2022
write,3550.57,3551.29,0.012806,524288,1024.00,0.028061,9.23,7.80,9.23,0,Thu Feb 10 23:06:10 2022,Thu Feb 10 23:06:19 2022
write,3628,3628,0.003646,524288,1024.00,0.024285,9.03,7.16,9.03,0,Thu Feb 10 23:07:22 2022,Thu Feb 10 23:07:31 2022
write,2682.05,2682.20,0.019109,524288,1024.00,0.017162,12.22,10.42,12.22,0,Thu Feb 10 23:08:35 2022,Thu Feb 10 23:08:47 2022
write,2725.85,2726.04,0.016968,524288,1024.00,0.029499,12.02,10.38,12.02,0,Thu Feb 10 23:09:48 2022,Thu Feb 10 23:10:00 2022
write,3331.25,3331.77,0.006108,524288,1024.00,0.020955,9.83,8.93,9.84,0,Thu Feb 10 23:11:02 2022,Thu Feb 10 23:11:12 2022
write,3598.39,3598.85,0.015971,524288,1024.00,0.025830,9.11,7.65,9.11,0,Thu Feb 10 23:12:16 2022,Thu Feb 10 23:12:25 2022
write,2555.37,2555.54,0.016781,524288,1024.00,0.015165,12.82,11.08,12.82,0,Thu Feb 10 23:13:28 2022,Thu Feb 10 23:13:41 2022
write,3296.42,3296.72,0.016760,524288,1024.00,0.020501,9.94,8.80,9.94,0,Thu Feb 10 23:14:43 2022,Thu Feb 10 23:14:53 2022
write,3520.60,3520.97,0.003913,524288,1024.00,0.017645,9.31,7.51,9.31,0,Thu Feb 10 23:35:34 2022,Thu Feb 10 23:35:43 2022
write,2737.80,2738.04,0.015886,524288,1024.00,0.208731,11.97,10.11,11.97,0,Thu Feb 10 23:36:47 2022,Thu Feb 10 23:36:59 2022
write,2980.25,2980.47,0.006205,524288,1024.00,0.222981,10.99,9.42,11.00,0,Thu Feb 10 23:38:00 2022,Thu Feb 10 23:38:11 2022
write,3328.58,3328.96,0.010442,524288,1024.00,0.027797,9.84,8.34,9.84,0,Thu Feb 10 23:39:12 2022,Thu Feb 10 23:39:22 2022
write,2853.73,2853.94,0.016931,524288,1024.00,0.176704,11.48,9.95,11.48,0,Thu Feb 10 23:40:26 2022,Thu Feb 10 23:40:37 2022
write,3135.54,3135.84,0.018364,524288,1024.00,0.024878,10.45,9.41,10.45,0,Thu Feb 10 23:41:39 2022,Thu Feb 10 23:41:50 2022
write,2759.28,2759.55,0.015816,524288,1024.00,0.086677,11.87,10.04,11.88,0,Thu Feb 10 23:42:51 2022,Thu Feb 10 23:43:03 2022
write,3343.99,3344.73,0.004650,524288,1024.00,0.026793,9.80,8.23,9.80,0,Thu Feb 10 23:44:04 2022,Thu Feb 10 23:44:14 2022
write,3102.90,3103.15,0.013817,524288,1024.00,0.263789,10.56,8.73,10.56,0,Thu Feb 10 23:45:18 2022,Thu Feb 10 23:45:29 2022
write,3068.01,3068.25,0.018424,524288,1024.00,0.088908,10.68,8.74,10.68,0,Thu Feb 10 23:46:30 2022,Thu Feb 10 23:46:41 2022
