access,bw,iops,latency,block,xfer,open,wr/rd,close,total,iter,start,end
write,1875.07,1875.18,0.115698,131072,1024.00,0.406807,17.47,15.87,17.48,0,Fri Jan 28 08:55:32 2022,Fri Jan 28 08:55:54 2022
write,1968.47,1968.66,0.055026,131072,1024.00,4.29,16.64,14.72,16.65,0,Fri Jan 28 08:56:56 2022,Fri Jan 28 08:57:13 2022
write,1790.96,1791.13,0.105469,131072,1024.00,0.363559,18.29,16.61,18.30,0,Fri Jan 28 08:58:14 2022,Fri Jan 28 08:58:33 2022
write,1913.41,1913.69,0.101573,131072,1024.00,0.401577,17.12,15.44,17.13,0,Fri Jan 28 08:59:35 2022,Fri Jan 28 08:59:52 2022
write,1779.66,1779.83,0.120994,131072,1024.00,0.657930,18.41,15.96,18.41,0,Fri Jan 28 09:00:54 2022,Fri Jan 28 09:01:12 2022
write,1961.13,1961.32,0.112898,131072,1024.00,0.211899,16.71,15.07,16.71,0,Fri Jan 28 09:02:14 2022,Fri Jan 28 09:02:31 2022
write,1868.88,1869.08,0.112866,131072,1024.00,0.261585,17.53,15.89,17.53,0,Fri Jan 28 09:03:33 2022,Fri Jan 28 09:03:50 2022
write,1985.38,1985.57,0.125906,131072,1024.00,0.323836,16.50,14.88,16.50,0,Fri Jan 28 09:04:52 2022,Fri Jan 28 09:05:09 2022
write,1904.92,1905.10,0.121984,131072,1024.00,0.405689,17.20,15.43,17.20,0,Fri Jan 28 09:06:11 2022,Fri Jan 28 09:06:28 2022
write,2040.02,2040.22,0.060762,131072,1024.00,0.319593,16.06,14.47,16.06,0,Fri Jan 28 09:07:30 2022,Fri Jan 28 09:07:46 2022
write,2135.50,2135.77,0.073804,131072,1024.00,0.306441,15.34,13.73,15.34,0,Fri Jan 28 09:15:32 2022,Fri Jan 28 09:15:47 2022
write,1920.48,1920.64,0.111541,131072,1024.00,0.262847,17.06,15.53,17.06,0,Fri Jan 28 09:16:50 2022,Fri Jan 28 09:17:07 2022
write,2030.11,2030.31,0.075915,131072,1024.00,0.270957,16.14,14.60,16.14,0,Fri Jan 28 09:18:09 2022,Fri Jan 28 09:18:25 2022
write,1914.15,1914.34,0.105421,131072,1024.00,0.206418,17.12,15.58,17.12,0,Fri Jan 28 09:19:27 2022,Fri Jan 28 09:19:44 2022
write,1921.60,1921.78,0.083480,131072,1024.00,0.151672,17.05,15.43,17.05,0,Fri Jan 28 09:20:46 2022,Fri Jan 28 09:21:03 2022
write,1967.12,1967.31,0.057188,131072,1024.00,0.314871,16.66,15.12,16.66,0,Fri Jan 28 09:22:05 2022,Fri Jan 28 09:22:21 2022
write,1954.22,1954.40,0.080286,131072,1024.00,0.319025,16.77,15.01,16.77,0,Fri Jan 28 09:23:23 2022,Fri Jan 28 09:23:40 2022
write,2062.06,2062.31,0.123348,131072,1024.00,0.208113,15.89,14.43,15.89,0,Fri Jan 28 09:24:42 2022,Fri Jan 28 09:24:58 2022
write,1970.43,1970.62,0.129905,131072,1024.00,0.370159,16.63,14.97,16.63,0,Fri Jan 28 09:26:00 2022,Fri Jan 28 09:26:16 2022
write,2011.53,2011.69,0.079286,131072,1024.00,0.315417,16.29,14.63,16.29,0,Fri Jan 28 09:27:18 2022,Fri Jan 28 09:27:35 2022
write,1883.39,1883.56,0.125070,131072,1024.00,0.360695,17.40,15.62,17.40,0,Fri Jan 28 09:36:32 2022,Fri Jan 28 09:36:50 2022
write,1964.08,1964.27,0.050782,131072,1024.00,0.245965,16.68,15.24,16.68,0,Fri Jan 28 09:37:52 2022,Fri Jan 28 09:38:09 2022
write,1829.43,1829.58,0.111819,131072,1024.00,0.354229,17.91,16.28,17.91,0,Fri Jan 28 09:39:11 2022,Fri Jan 28 09:39:29 2022
write,2004.56,2004.78,0.059871,131072,1024.00,0.358473,16.34,14.95,16.35,0,Fri Jan 28 09:40:31 2022,Fri Jan 28 09:40:47 2022
write,2021.84,2022.11,0.057090,131072,1024.00,0.261927,16.20,14.66,16.21,0,Fri Jan 28 09:41:49 2022,Fri Jan 28 09:42:05 2022
write,1836.08,1836.23,0.098179,131072,1024.00,0.420140,17.85,16.09,17.85,0,Fri Jan 28 09:43:07 2022,Fri Jan 28 09:43:25 2022
write,1886.26,1886.48,0.135342,131072,1024.00,0.239919,17.37,15.94,17.37,0,Fri Jan 28 09:44:27 2022,Fri Jan 28 09:44:44 2022
write,1864.45,1864.65,0.087893,131072,1024.00,0.303910,17.57,16.07,17.58,0,Fri Jan 28 09:45:46 2022,Fri Jan 28 09:46:04 2022
write,1917.93,1918.10,0.070580,131072,1024.00,0.288040,17.08,15.34,17.09,0,Fri Jan 28 09:47:06 2022,Fri Jan 28 09:47:23 2022
write,1928.53,1928.73,0.087899,131072,1024.00,0.320728,16.99,15.32,16.99,0,Fri Jan 28 09:48:25 2022,Fri Jan 28 09:48:42 2022
write,2029.41,2029.62,0.103531,131072,1024.00,0.245337,16.14,14.63,16.15,0,Fri Jan 28 09:57:03 2022,Fri Jan 28 09:57:19 2022
write,1929.42,1929.60,0.032612,131072,1024.00,0.450430,16.98,15.23,16.98,0,Fri Jan 28 09:58:21 2022,Fri Jan 28 09:58:38 2022
write,1899.00,1899.21,0.038001,131072,1024.00,0.313199,17.25,15.67,17.26,0,Fri Jan 28 09:59:40 2022,Fri Jan 28 09:59:57 2022
write,1956.31,1956.53,0.038388,131072,1024.00,0.251524,16.75,15.29,16.75,0,Fri Jan 28 10:00:59 2022,Fri Jan 28 10:01:16 2022
write,2004.88,2005.05,0.077741,131072,1024.00,0.331429,16.34,14.56,16.34,0,Fri Jan 28 10:02:18 2022,Fri Jan 28 10:02:34 2022
write,1887.14,1887.32,0.118832,131072,1024.00,0.307436,17.36,15.67,17.36,0,Fri Jan 28 10:03:36 2022,Fri Jan 28 10:03:53 2022
write,1886.57,1886.77,0.122215,131072,1024.00,0.306021,17.37,15.88,17.37,0,Fri Jan 28 10:04:55 2022,Fri Jan 28 10:05:12 2022
write,2025.34,2025.57,0.010954,131072,1024.00,0.207931,16.18,14.77,16.18,0,Fri Jan 28 10:06:14 2022,Fri Jan 28 10:06:31 2022
write,2139.15,2139.40,0.093447,131072,1024.00,0.252877,15.32,13.82,15.32,0,Fri Jan 28 10:07:32 2022,Fri Jan 28 10:07:48 2022
write,1925.39,1925.60,0.043002,131072,1024.00,0.199651,17.02,15.68,17.02,0,Fri Jan 28 10:08:50 2022,Fri Jan 28 10:09:07 2022
write,1992.43,1992.65,0.109709,131072,1024.00,0.394343,16.44,14.71,16.45,0,Fri Jan 28 10:23:03 2022,Fri Jan 28 10:23:19 2022
write,1851.18,1851.38,0.087494,131072,1024.00,0.276387,17.70,16.09,17.70,0,Fri Jan 28 10:24:22 2022,Fri Jan 28 10:24:39 2022
write,1898.02,1898.25,0.086024,131072,1024.00,0.315846,17.26,15.69,17.26,0,Fri Jan 28 10:25:41 2022,Fri Jan 28 10:25:59 2022
write,1551.02,1551.17,0.118049,131072,1024.00,0.290450,21.12,19.41,21.13,0,Fri Jan 28 10:27:01 2022,Fri Jan 28 10:27:22 2022
write,1751.04,1751.24,0.123519,131072,1024.00,0.315097,18.71,17.25,18.71,0,Fri Jan 28 10:28:24 2022,Fri Jan 28 10:28:42 2022
write,1791.31,1791.49,0.099066,131072,1024.00,0.378350,18.29,16.69,18.29,0,Fri Jan 28 10:29:44 2022,Fri Jan 28 10:30:03 2022
write,1892.29,1892.48,0.050972,131072,1024.00,0.457890,17.31,15.60,17.32,0,Fri Jan 28 10:31:04 2022,Fri Jan 28 10:31:22 2022
write,1888.86,1889.06,0.080960,131072,1024.00,0.419166,17.35,15.63,17.35,0,Fri Jan 28 10:32:24 2022,Fri Jan 28 10:32:41 2022
write,1781.83,1782.00,0.111631,131072,1024.00,0.271421,18.39,16.93,18.39,0,Fri Jan 28 10:33:43 2022,Fri Jan 28 10:34:01 2022
write,1774.32,1774.47,0.017200,131072,1024.00,0.267726,18.47,16.74,18.47,0,Fri Jan 28 10:35:03 2022,Fri Jan 28 10:35:22 2022
write,1861.59,1861.76,0.074809,131072,1024.00,0.379942,17.60,15.83,17.60,0,Fri Jan 28 10:41:33 2022,Fri Jan 28 10:41:51 2022
write,1781.62,1781.78,0.139813,131072,1024.00,0.369915,18.39,16.62,18.39,0,Fri Jan 28 10:42:53 2022,Fri Jan 28 10:43:11 2022
write,1705.48,1705.62,0.096727,131072,1024.00,0.280890,19.21,17.55,19.21,0,Fri Jan 28 10:44:13 2022,Fri Jan 28 10:44:32 2022
write,1944.62,1944.84,0.110823,131072,1024.00,0.299577,16.85,15.21,16.85,0,Fri Jan 28 10:45:34 2022,Fri Jan 28 10:45:51 2022
write,1948.06,1948.26,0.073598,131072,1024.00,0.149833,16.82,15.39,16.82,0,Fri Jan 28 10:46:53 2022,Fri Jan 28 10:47:10 2022
write,1787.66,1787.84,0.124944,131072,1024.00,0.212039,18.33,16.77,18.33,0,Fri Jan 28 10:48:12 2022,Fri Jan 28 10:48:30 2022
write,1738.66,1738.83,0.053048,131072,1024.00,0.166130,18.84,17.32,18.85,0,Fri Jan 28 10:49:32 2022,Fri Jan 28 10:49:51 2022
write,1882.11,1882.32,0.019483,131072,1024.00,0.371403,17.41,15.69,17.41,0,Fri Jan 28 10:50:53 2022,Fri Jan 28 10:51:10 2022
write,1978.58,1978.82,0.090888,131072,1024.00,0.215089,16.56,15.08,16.56,0,Fri Jan 28 10:52:12 2022,Fri Jan 28 10:52:29 2022
write,1703.83,1703.97,0.124309,131072,1024.00,0.210116,19.23,17.74,19.23,0,Fri Jan 28 10:53:31 2022,Fri Jan 28 10:53:50 2022
write,1779.97,1780.16,0.080724,131072,1024.00,0.344849,18.41,16.67,18.41,0,Fri Jan 28 10:58:33 2022,Fri Jan 28 10:58:52 2022
write,1751.22,1751.37,0.052151,131072,1024.00,0.324344,18.71,16.99,18.71,0,Fri Jan 28 10:59:54 2022,Fri Jan 28 11:00:13 2022
write,1785.28,1785.43,0.080961,131072,1024.00,0.221694,18.35,16.72,18.35,0,Fri Jan 28 11:01:15 2022,Fri Jan 28 11:01:33 2022
write,1726.12,1726.28,0.130166,131072,1024.00,0.164716,18.98,17.42,18.98,0,Fri Jan 28 11:02:35 2022,Fri Jan 28 11:02:54 2022
write,1728.80,1728.95,0.053512,131072,1024.00,0.237455,18.95,17.39,18.95,0,Fri Jan 28 11:03:56 2022,Fri Jan 28 11:04:15 2022
write,1736.69,1736.87,0.133335,131072,1024.00,0.258769,18.87,17.13,18.87,0,Fri Jan 28 11:05:17 2022,Fri Jan 28 11:05:36 2022
write,1842.90,1843.07,0.073988,131072,1024.00,0.287125,17.78,16.14,17.78,0,Fri Jan 28 11:06:38 2022,Fri Jan 28 11:06:56 2022
write,1749.50,1750.03,0.063925,131072,1024.00,0.334989,18.72,16.99,18.73,0,Fri Jan 28 11:07:58 2022,Fri Jan 28 11:08:16 2022
write,1714.38,1714.53,0.130189,131072,1024.00,0.216657,19.11,17.42,19.11,0,Fri Jan 28 11:09:18 2022,Fri Jan 28 11:09:37 2022
write,1966.78,1967.00,0.120381,131072,1024.00,0.157040,16.66,15.19,16.66,0,Fri Jan 28 11:10:39 2022,Fri Jan 28 11:10:56 2022
write,1830.72,1830.91,0.099847,131072,1024.00,0.234348,17.90,16.31,17.90,0,Fri Jan 28 11:32:04 2022,Fri Jan 28 11:32:22 2022
write,1696.05,1696.21,0.135492,131072,1024.00,0.269611,19.32,17.67,19.32,0,Fri Jan 28 11:33:24 2022,Fri Jan 28 11:33:44 2022
write,1672.45,1672.60,0.094255,131072,1024.00,0.272541,19.59,18.11,19.59,0,Fri Jan 28 11:34:46 2022,Fri Jan 28 11:35:05 2022
write,1837.07,1837.25,0.119821,131072,1024.00,0.362445,17.84,16.20,17.84,0,Fri Jan 28 11:36:07 2022,Fri Jan 28 11:36:25 2022
write,1826.55,1826.71,0.062144,131072,1024.00,0.202718,17.94,16.42,17.94,0,Fri Jan 28 11:37:27 2022,Fri Jan 28 11:37:45 2022
write,1773.51,1773.68,0.117334,131072,1024.00,0.286791,18.47,16.88,18.48,0,Fri Jan 28 11:38:47 2022,Fri Jan 28 11:39:05 2022
write,1801.89,1802.06,0.140236,131072,1024.00,0.328959,18.18,16.47,18.19,0,Fri Jan 28 11:40:07 2022,Fri Jan 28 11:40:25 2022
write,1897.65,1897.86,0.072069,131072,1024.00,0.458142,17.27,15.56,17.27,0,Fri Jan 28 11:41:27 2022,Fri Jan 28 11:41:44 2022
write,1902.68,1902.90,0.131478,131072,1024.00,0.266317,17.22,15.75,17.22,0,Fri Jan 28 11:42:46 2022,Fri Jan 28 11:43:04 2022
write,1812.90,1813.08,0.108175,131072,1024.00,0.228403,18.07,16.46,18.07,0,Fri Jan 28 11:44:05 2022,Fri Jan 28 11:44:24 2022
write,1804.98,1805.15,0.136098,131072,1024.00,0.334026,18.15,16.51,18.15,0,Fri Jan 28 12:04:04 2022,Fri Jan 28 12:04:22 2022
write,1884.65,1884.86,0.134862,131072,1024.00,0.332005,17.38,15.75,17.39,0,Fri Jan 28 12:05:24 2022,Fri Jan 28 12:05:41 2022
write,1813.51,1813.71,0.102685,131072,1024.00,0.350430,18.07,16.54,18.07,0,Fri Jan 28 12:06:43 2022,Fri Jan 28 12:07:01 2022
write,1862.35,1862.52,0.117203,131072,1024.00,0.166294,17.59,16.14,17.59,0,Fri Jan 28 12:08:03 2022,Fri Jan 28 12:08:21 2022
write,1849.51,1849.70,0.130617,131072,1024.00,0.222251,17.72,16.21,17.72,0,Fri Jan 28 12:09:23 2022,Fri Jan 28 12:09:41 2022
write,1787.98,1788.17,0.123794,131072,1024.00,0.451080,18.32,16.69,18.33,0,Fri Jan 28 12:10:42 2022,Fri Jan 28 12:11:01 2022
write,1860.72,1860.93,0.057852,131072,1024.00,0.304410,17.61,16.05,17.61,0,Fri Jan 28 12:12:03 2022,Fri Jan 28 12:12:20 2022
write,1850.91,1851.12,0.133144,131072,1024.00,0.261187,17.70,16.26,17.70,0,Fri Jan 28 12:13:22 2022,Fri Jan 28 12:13:40 2022
write,1762.70,1762.93,0.128509,131072,1024.00,0.228362,18.59,17.13,18.59,0,Fri Jan 28 12:14:42 2022,Fri Jan 28 12:15:01 2022
write,1856.03,1856.23,0.137795,131072,1024.00,0.195583,17.65,16.37,17.65,0,Fri Jan 28 12:16:02 2022,Fri Jan 28 12:16:20 2022
