IOR-3.4.0+dev: MPI Coordinated Test of Parallel I/O
Began               : Tue Feb  8 22:15:57 2022
Command line        : /home/lgouveia/ior/bin/ior -w -t 1m -b 512m -k -o /beegfs/lgouveia/ior_2/testFileApp_1
Machine             : Linux bora011.plafrim.cluster
TestID              : 0
StartTime           : Tue Feb  8 22:15:57 2022
Path                : /beegfs/lgouveia/ior_2/testFileApp_1
FS                  : 130.9 TiB   Used FS: 36.9%   Inodes: 0.0 Mi   Used Inodes: -nan%

Options: 
api                 : POSIX
apiVersion          : 
test filename       : /beegfs/lgouveia/ior_2/testFileApp_1
access              : single-shared-file
type                : independent
segments            : 1
ordering in a file  : sequential
ordering inter file : no tasks offsets
nodes               : 8
tasks               : 64
clients per node    : 8
repetitions         : 1
xfersize            : 1 MiB
blocksize           : 512 MiB
aggregate filesize  : 32 GiB

Results: 
WARNING: The file "/beegfs/lgouveia/ior_2/testFileApp_1" exists already and will be overwritten

access    bw(MiB/s)  IOPS       Latency(s)  block(KiB) xfer(KiB)  open(s)    wr/rd(s)   close(s)   total(s)   iter
------    ---------  ----       ----------  ---------- ---------  --------   --------   --------   --------   ----
write     2612.56    2612.84    0.017659    524288     1024.00    0.007011   12.54      10.99      12.54      0   

Summary of all tests:
Operation   Max(MiB)   Min(MiB)  Mean(MiB)     StdDev   Max(OPs)   Min(OPs)  Mean(OPs)     StdDev    Mean(s) Stonewall(s) Stonewall(MiB) Test# #Tasks tPN reps fPP reord reordoff reordrand seed segcnt   blksiz    xsize aggs(MiB)   API RefNum
write        2612.56    2612.56    2612.56       0.00    2612.56    2612.56    2612.56       0.00   12.54249         NA            NA     0     64   8    1   0     0        1         0    0      1 536870912  1048576   32768.0 POSIX      0
Finished            : Tue Feb  8 22:16:09 2022
IOR-3.4.0+dev: MPI Coordinated Test of Parallel I/O
Began               : Tue Feb  8 22:17:11 2022
Command line        : /home/lgouveia/ior/bin/ior -w -t 1m -b 512m -k -o /beegfs/lgouveia/ior_2/testFileApp_1
Machine             : Linux bora011.plafrim.cluster
TestID              : 0
StartTime           : Tue Feb  8 22:17:11 2022
Path                : /beegfs/lgouveia/ior_2/testFileApp_1
FS                  : 130.9 TiB   Used FS: 36.9%   Inodes: 0.0 Mi   Used Inodes: -nan%

Options: 
api                 : POSIX
apiVersion          : 
test filename       : /beegfs/lgouveia/ior_2/testFileApp_1
access              : single-shared-file
type                : independent
segments            : 1
ordering in a file  : sequential
ordering inter file : no tasks offsets
nodes               : 8
tasks               : 64
clients per node    : 8
repetitions         : 1
xfersize            : 1 MiB
blocksize           : 512 MiB
aggregate filesize  : 32 GiB

Results: 
WARNING: The file "/beegfs/lgouveia/ior_2/testFileApp_1" exists already and will be overwritten

access    bw(MiB/s)  IOPS       Latency(s)  block(KiB) xfer(KiB)  open(s)    wr/rd(s)   close(s)   total(s)   iter
------    ---------  ----       ----------  ---------- ---------  --------   --------   --------   --------   ----
write     2265.06    2265.23    0.024989    524288     1024.00    0.020281   14.47      12.67      14.47      0   

Summary of all tests:
Operation   Max(MiB)   Min(MiB)  Mean(MiB)     StdDev   Max(OPs)   Min(OPs)  Mean(OPs)     StdDev    Mean(s) Stonewall(s) Stonewall(MiB) Test# #Tasks tPN reps fPP reord reordoff reordrand seed segcnt   blksiz    xsize aggs(MiB)   API RefNum
write        2265.06    2265.06    2265.06       0.00    2265.06    2265.06    2265.06       0.00   14.46675         NA            NA     0     64   8    1   0     0        1         0    0      1 536870912  1048576   32768.0 POSIX      0
Finished            : Tue Feb  8 22:17:25 2022
IOR-3.4.0+dev: MPI Coordinated Test of Parallel I/O
Began               : Tue Feb  8 22:18:27 2022
Command line        : /home/lgouveia/ior/bin/ior -w -t 1m -b 512m -k -o /beegfs/lgouveia/ior_2/testFileApp_1
Machine             : Linux bora011.plafrim.cluster
TestID              : 0
StartTime           : Tue Feb  8 22:18:27 2022
Path                : /beegfs/lgouveia/ior_2/testFileApp_1
FS                  : 130.9 TiB   Used FS: 36.9%   Inodes: 0.0 Mi   Used Inodes: -nan%

Options: 
api                 : POSIX
apiVersion          : 
test filename       : /beegfs/lgouveia/ior_2/testFileApp_1
access              : single-shared-file
type                : independent
segments            : 1
ordering in a file  : sequential
ordering inter file : no tasks offsets
nodes               : 8
tasks               : 64
clients per node    : 8
repetitions         : 1
xfersize            : 1 MiB
blocksize           : 512 MiB
aggregate filesize  : 32 GiB

Results: 
WARNING: The file "/beegfs/lgouveia/ior_2/testFileApp_1" exists already and will be overwritten

access    bw(MiB/s)  IOPS       Latency(s)  block(KiB) xfer(KiB)  open(s)    wr/rd(s)   close(s)   total(s)   iter
------    ---------  ----       ----------  ---------- ---------  --------   --------   --------   --------   ----
write     2553.89    2554.10    0.006501    524288     1024.00    0.023157   12.83      11.19      12.83      0   

Summary of all tests:
Operation   Max(MiB)   Min(MiB)  Mean(MiB)     StdDev   Max(OPs)   Min(OPs)  Mean(OPs)     StdDev    Mean(s) Stonewall(s) Stonewall(MiB) Test# #Tasks tPN reps fPP reord reordoff reordrand seed segcnt   blksiz    xsize aggs(MiB)   API RefNum
write        2553.89    2553.89    2553.89       0.00    2553.89    2553.89    2553.89       0.00   12.83064         NA            NA     0     64   8    1   0     0        1         0    0      1 536870912  1048576   32768.0 POSIX      0
Finished            : Tue Feb  8 22:18:39 2022
IOR-3.4.0+dev: MPI Coordinated Test of Parallel I/O
Began               : Tue Feb  8 22:19:41 2022
Command line        : /home/lgouveia/ior/bin/ior -w -t 1m -b 512m -k -o /beegfs/lgouveia/ior_2/testFileApp_1
Machine             : Linux bora011.plafrim.cluster
TestID              : 0
StartTime           : Tue Feb  8 22:19:41 2022
Path                : /beegfs/lgouveia/ior_2/testFileApp_1
FS                  : 130.9 TiB   Used FS: 36.9%   Inodes: 0.0 Mi   Used Inodes: -nan%

Options: 
api                 : POSIX
apiVersion          : 
test filename       : /beegfs/lgouveia/ior_2/testFileApp_1
access              : single-shared-file
type                : independent
segments            : 1
ordering in a file  : sequential
ordering inter file : no tasks offsets
nodes               : 8
tasks               : 64
clients per node    : 8
repetitions         : 1
xfersize            : 1 MiB
blocksize           : 512 MiB
aggregate filesize  : 32 GiB

Results: 
WARNING: The file "/beegfs/lgouveia/ior_2/testFileApp_1" exists already and will be overwritten

access    bw(MiB/s)  IOPS       Latency(s)  block(KiB) xfer(KiB)  open(s)    wr/rd(s)   close(s)   total(s)   iter
------    ---------  ----       ----------  ---------- ---------  --------   --------   --------   --------   ----
write     2441.70    2441.92    0.022784    524288     1024.00    0.007126   13.42      11.63      13.42      0   

Summary of all tests:
Operation   Max(MiB)   Min(MiB)  Mean(MiB)     StdDev   Max(OPs)   Min(OPs)  Mean(OPs)     StdDev    Mean(s) Stonewall(s) Stonewall(MiB) Test# #Tasks tPN reps fPP reord reordoff reordrand seed segcnt   blksiz    xsize aggs(MiB)   API RefNum
write        2441.70    2441.70    2441.70       0.00    2441.70    2441.70    2441.70       0.00   13.42014         NA            NA     0     64   8    1   0     0        1         0    0      1 536870912  1048576   32768.0 POSIX      0
Finished            : Tue Feb  8 22:19:54 2022
IOR-3.4.0+dev: MPI Coordinated Test of Parallel I/O
Began               : Tue Feb  8 22:20:55 2022
Command line        : /home/lgouveia/ior/bin/ior -w -t 1m -b 512m -k -o /beegfs/lgouveia/ior_2/testFileApp_1
Machine             : Linux bora011.plafrim.cluster
TestID              : 0
StartTime           : Tue Feb  8 22:20:55 2022
Path                : /beegfs/lgouveia/ior_2/testFileApp_1
FS                  : 130.9 TiB   Used FS: 37.1%   Inodes: 0.0 Mi   Used Inodes: -nan%

Options: 
api                 : POSIX
apiVersion          : 
test filename       : /beegfs/lgouveia/ior_2/testFileApp_1
access              : single-shared-file
type                : independent
segments            : 1
ordering in a file  : sequential
ordering inter file : no tasks offsets
nodes               : 8
tasks               : 64
clients per node    : 8
repetitions         : 1
xfersize            : 1 MiB
blocksize           : 512 MiB
aggregate filesize  : 32 GiB

Results: 
WARNING: The file "/beegfs/lgouveia/ior_2/testFileApp_1" exists already and will be overwritten

access    bw(MiB/s)  IOPS       Latency(s)  block(KiB) xfer(KiB)  open(s)    wr/rd(s)   close(s)   total(s)   iter
------    ---------  ----       ----------  ---------- ---------  --------   --------   --------   --------   ----
write     2395.53    2395.74    0.018929    524288     1024.00    0.010893   13.68      12.15      13.68      0   

Summary of all tests:
Operation   Max(MiB)   Min(MiB)  Mean(MiB)     StdDev   Max(OPs)   Min(OPs)  Mean(OPs)     StdDev    Mean(s) Stonewall(s) Stonewall(MiB) Test# #Tasks tPN reps fPP reord reordoff reordrand seed segcnt   blksiz    xsize aggs(MiB)   API RefNum
write        2395.53    2395.53    2395.53       0.00    2395.53    2395.53    2395.53       0.00   13.67881         NA            NA     0     64   8    1   0     0        1         0    0      1 536870912  1048576   32768.0 POSIX      0
Finished            : Tue Feb  8 22:21:09 2022
IOR-3.4.0+dev: MPI Coordinated Test of Parallel I/O
Began               : Tue Feb  8 22:22:10 2022
Command line        : /home/lgouveia/ior/bin/ior -w -t 1m -b 512m -k -o /beegfs/lgouveia/ior_2/testFileApp_1
Machine             : Linux bora011.plafrim.cluster
TestID              : 0
StartTime           : Tue Feb  8 22:22:10 2022
Path                : /beegfs/lgouveia/ior_2/testFileApp_1
FS                  : 130.9 TiB   Used FS: 36.9%   Inodes: 0.0 Mi   Used Inodes: -nan%

Options: 
api                 : POSIX
apiVersion          : 
test filename       : /beegfs/lgouveia/ior_2/testFileApp_1
access              : single-shared-file
type                : independent
segments            : 1
ordering in a file  : sequential
ordering inter file : no tasks offsets
nodes               : 8
tasks               : 64
clients per node    : 8
repetitions         : 1
xfersize            : 1 MiB
blocksize           : 512 MiB
aggregate filesize  : 32 GiB

Results: 
WARNING: The file "/beegfs/lgouveia/ior_2/testFileApp_1" exists already and will be overwritten

access    bw(MiB/s)  IOPS       Latency(s)  block(KiB) xfer(KiB)  open(s)    wr/rd(s)   close(s)   total(s)   iter
------    ---------  ----       ----------  ---------- ---------  --------   --------   --------   --------   ----
write     2378.36    2378.52    0.023032    524288     1024.00    0.007071   13.78      12.65      13.78      0   

Summary of all tests:
Operation   Max(MiB)   Min(MiB)  Mean(MiB)     StdDev   Max(OPs)   Min(OPs)  Mean(OPs)     StdDev    Mean(s) Stonewall(s) Stonewall(MiB) Test# #Tasks tPN reps fPP reord reordoff reordrand seed segcnt   blksiz    xsize aggs(MiB)   API RefNum
write        2378.36    2378.36    2378.36       0.00    2378.36    2378.36    2378.36       0.00   13.77754         NA            NA     0     64   8    1   0     0        1         0    0      1 536870912  1048576   32768.0 POSIX      0
Finished            : Tue Feb  8 22:22:24 2022
IOR-3.4.0+dev: MPI Coordinated Test of Parallel I/O
Began               : Tue Feb  8 22:23:26 2022
Command line        : /home/lgouveia/ior/bin/ior -w -t 1m -b 512m -k -o /beegfs/lgouveia/ior_2/testFileApp_1
Machine             : Linux bora011.plafrim.cluster
TestID              : 0
StartTime           : Tue Feb  8 22:23:26 2022
Path                : /beegfs/lgouveia/ior_2/testFileApp_1
FS                  : 130.9 TiB   Used FS: 36.9%   Inodes: 0.0 Mi   Used Inodes: -nan%

Options: 
api                 : POSIX
apiVersion          : 
test filename       : /beegfs/lgouveia/ior_2/testFileApp_1
access              : single-shared-file
type                : independent
segments            : 1
ordering in a file  : sequential
ordering inter file : no tasks offsets
nodes               : 8
tasks               : 64
clients per node    : 8
repetitions         : 1
xfersize            : 1 MiB
blocksize           : 512 MiB
aggregate filesize  : 32 GiB

Results: 
WARNING: The file "/beegfs/lgouveia/ior_2/testFileApp_1" exists already and will be overwritten

access    bw(MiB/s)  IOPS       Latency(s)  block(KiB) xfer(KiB)  open(s)    wr/rd(s)   close(s)   total(s)   iter
------    ---------  ----       ----------  ---------- ---------  --------   --------   --------   --------   ----
write     2467.68    2467.98    0.022826    524288     1024.00    0.017881   13.28      11.87      13.28      0   

Summary of all tests:
Operation   Max(MiB)   Min(MiB)  Mean(MiB)     StdDev   Max(OPs)   Min(OPs)  Mean(OPs)     StdDev    Mean(s) Stonewall(s) Stonewall(MiB) Test# #Tasks tPN reps fPP reord reordoff reordrand seed segcnt   blksiz    xsize aggs(MiB)   API RefNum
write        2467.68    2467.68    2467.68       0.00    2467.68    2467.68    2467.68       0.00   13.27886         NA            NA     0     64   8    1   0     0        1         0    0      1 536870912  1048576   32768.0 POSIX      0
Finished            : Tue Feb  8 22:23:39 2022
IOR-3.4.0+dev: MPI Coordinated Test of Parallel I/O
Began               : Tue Feb  8 22:24:40 2022
Command line        : /home/lgouveia/ior/bin/ior -w -t 1m -b 512m -k -o /beegfs/lgouveia/ior_2/testFileApp_1
Machine             : Linux bora011.plafrim.cluster
TestID              : 0
StartTime           : Tue Feb  8 22:24:40 2022
Path                : /beegfs/lgouveia/ior_2/testFileApp_1
FS                  : 130.9 TiB   Used FS: 36.9%   Inodes: 0.0 Mi   Used Inodes: -nan%

Options: 
api                 : POSIX
apiVersion          : 
test filename       : /beegfs/lgouveia/ior_2/testFileApp_1
access              : single-shared-file
type                : independent
segments            : 1
ordering in a file  : sequential
ordering inter file : no tasks offsets
nodes               : 8
tasks               : 64
clients per node    : 8
repetitions         : 1
xfersize            : 1 MiB
blocksize           : 512 MiB
aggregate filesize  : 32 GiB

Results: 
WARNING: The file "/beegfs/lgouveia/ior_2/testFileApp_1" exists already and will be overwritten

access    bw(MiB/s)  IOPS       Latency(s)  block(KiB) xfer(KiB)  open(s)    wr/rd(s)   close(s)   total(s)   iter
------    ---------  ----       ----------  ---------- ---------  --------   --------   --------   --------   ----
write     2452.03    2452.21    0.007384    524288     1024.00    0.009565   13.36      11.42      13.36      0   

Summary of all tests:
Operation   Max(MiB)   Min(MiB)  Mean(MiB)     StdDev   Max(OPs)   Min(OPs)  Mean(OPs)     StdDev    Mean(s) Stonewall(s) Stonewall(MiB) Test# #Tasks tPN reps fPP reord reordoff reordrand seed segcnt   blksiz    xsize aggs(MiB)   API RefNum
write        2452.03    2452.03    2452.03       0.00    2452.03    2452.03    2452.03       0.00   13.36364         NA            NA     0     64   8    1   0     0        1         0    0      1 536870912  1048576   32768.0 POSIX      0
Finished            : Tue Feb  8 22:24:54 2022
IOR-3.4.0+dev: MPI Coordinated Test of Parallel I/O
Began               : Tue Feb  8 22:25:55 2022
Command line        : /home/lgouveia/ior/bin/ior -w -t 1m -b 512m -k -o /beegfs/lgouveia/ior_2/testFileApp_1
Machine             : Linux bora011.plafrim.cluster
TestID              : 0
StartTime           : Tue Feb  8 22:25:55 2022
Path                : /beegfs/lgouveia/ior_2/testFileApp_1
FS                  : 130.9 TiB   Used FS: 36.9%   Inodes: 0.0 Mi   Used Inodes: -nan%

Options: 
api                 : POSIX
apiVersion          : 
test filename       : /beegfs/lgouveia/ior_2/testFileApp_1
access              : single-shared-file
type                : independent
segments            : 1
ordering in a file  : sequential
ordering inter file : no tasks offsets
nodes               : 8
tasks               : 64
clients per node    : 8
repetitions         : 1
xfersize            : 1 MiB
blocksize           : 512 MiB
aggregate filesize  : 32 GiB

Results: 
WARNING: The file "/beegfs/lgouveia/ior_2/testFileApp_1" exists already and will be overwritten

access    bw(MiB/s)  IOPS       Latency(s)  block(KiB) xfer(KiB)  open(s)    wr/rd(s)   close(s)   total(s)   iter
------    ---------  ----       ----------  ---------- ---------  --------   --------   --------   --------   ----
write     2960.62    2960.87    0.018075    524288     1024.00    0.012635   11.07      9.77       11.07      0   

Summary of all tests:
Operation   Max(MiB)   Min(MiB)  Mean(MiB)     StdDev   Max(OPs)   Min(OPs)  Mean(OPs)     StdDev    Mean(s) Stonewall(s) Stonewall(MiB) Test# #Tasks tPN reps fPP reord reordoff reordrand seed segcnt   blksiz    xsize aggs(MiB)   API RefNum
write        2960.62    2960.62    2960.62       0.00    2960.62    2960.62    2960.62       0.00   11.06795         NA            NA     0     64   8    1   0     0        1         0    0      1 536870912  1048576   32768.0 POSIX      0
Finished            : Tue Feb  8 22:26:06 2022
IOR-3.4.0+dev: MPI Coordinated Test of Parallel I/O
Began               : Tue Feb  8 22:27:09 2022
Command line        : /home/lgouveia/ior/bin/ior -w -t 1m -b 512m -k -o /beegfs/lgouveia/ior_2/testFileApp_1
Machine             : Linux bora011.plafrim.cluster
TestID              : 0
StartTime           : Tue Feb  8 22:27:09 2022
Path                : /beegfs/lgouveia/ior_2/testFileApp_1
FS                  : 130.9 TiB   Used FS: 36.9%   Inodes: 0.0 Mi   Used Inodes: -nan%

Options: 
api                 : POSIX
apiVersion          : 
test filename       : /beegfs/lgouveia/ior_2/testFileApp_1
access              : single-shared-file
type                : independent
segments            : 1
ordering in a file  : sequential
ordering inter file : no tasks offsets
nodes               : 8
tasks               : 64
clients per node    : 8
repetitions         : 1
xfersize            : 1 MiB
blocksize           : 512 MiB
aggregate filesize  : 32 GiB

Results: 
WARNING: The file "/beegfs/lgouveia/ior_2/testFileApp_1" exists already and will be overwritten

access    bw(MiB/s)  IOPS       Latency(s)  block(KiB) xfer(KiB)  open(s)    wr/rd(s)   close(s)   total(s)   iter
------    ---------  ----       ----------  ---------- ---------  --------   --------   --------   --------   ----
write     2231.87    2232.03    0.015441    524288     1024.00    0.007339   14.68      12.74      14.68      0   

Summary of all tests:
Operation   Max(MiB)   Min(MiB)  Mean(MiB)     StdDev   Max(OPs)   Min(OPs)  Mean(OPs)     StdDev    Mean(s) Stonewall(s) Stonewall(MiB) Test# #Tasks tPN reps fPP reord reordoff reordrand seed segcnt   blksiz    xsize aggs(MiB)   API RefNum
write        2231.87    2231.87    2231.87       0.00    2231.87    2231.87    2231.87       0.00   14.68186         NA            NA     0     64   8    1   0     0        1         0    0      1 536870912  1048576   32768.0 POSIX      0
Finished            : Tue Feb  8 22:27:23 2022
