===== My JOB Information ====
Node List:  bora[002-033]
my jobID:  1445522
Partition: routage
submit directory:  /home/lgouveia/luan-teylo/tests/omnipath/storage_targets/02
submit host:  devel01.plafrim.cluster
In the directory: /home/lgouveia/luan-teylo/tests/omnipath/storage_targets/02
As the user: lgouveia
============================
IOR-3.4.0+dev: MPI Coordinated Test of Parallel I/O
Began               : Sat Oct  9 06:35:05 2021
Command line        : /home/lgouveia/ior/bin/ior -w -t 1m -b 128m -k -o /beegfs/lgouveia/ior_2/testFile1
Machine             : Linux bora002.plafrim.cluster
TestID              : 0
StartTime           : Sat Oct  9 06:35:05 2021
Path                : /beegfs/lgouveia/ior_2/testFile1
FS                  : 130.9 TiB   Used FS: 32.0%   Inodes: 0.0 Mi   Used Inodes: -nan%

Options: 
api                 : POSIX
apiVersion          : 
test filename       : /beegfs/lgouveia/ior_2/testFile1
access              : single-shared-file
type                : independent
segments            : 1
ordering in a file  : sequential
ordering inter file : no tasks offsets
nodes               : 32
tasks               : 256
clients per node    : 8
repetitions         : 1
xfersize            : 1 MiB
blocksize           : 128 MiB
aggregate filesize  : 32 GiB

Results: 
WARNING: The file "/beegfs/lgouveia/ior_2/testFile1" exists already and will be overwritten

access    bw(MiB/s)  IOPS       Latency(s)  block(KiB) xfer(KiB)  open(s)    wr/rd(s)   close(s)   total(s)   iter
------    ---------  ----       ----------  ---------- ---------  --------   --------   --------   --------   ----
write     3041.01    3041.57    0.026092    131072     1024.00    0.481758   10.77      9.43       10.78      0   

Summary of all tests:
Operation   Max(MiB)   Min(MiB)  Mean(MiB)     StdDev   Max(OPs)   Min(OPs)  Mean(OPs)     StdDev    Mean(s) Stonewall(s) Stonewall(MiB) Test# #Tasks tPN reps fPP reord reordoff reordrand seed segcnt   blksiz    xsize aggs(MiB)   API RefNum
write        3041.01    3041.01    3041.01       0.00    3041.01    3041.01    3041.01       0.00   10.77537         NA            NA     0    256   8    1   0     0        1         0    0      1 134217728  1048576   32768.0 POSIX      0
Finished            : Sat Oct  9 06:35:16 2021
Tracking /beegfs/lgouveia/ior_2/testFile1...



Writing tracked information to tracker.csv...
IOR-3.4.0+dev: MPI Coordinated Test of Parallel I/O
Began               : Sat Oct  9 06:36:21 2021
Command line        : /home/lgouveia/ior/bin/ior -w -t 1m -b 128m -k -o /beegfs/lgouveia/ior_2/testFile1
Machine             : Linux bora002.plafrim.cluster
TestID              : 0
StartTime           : Sat Oct  9 06:36:21 2021
Path                : /beegfs/lgouveia/ior_2/testFile1
FS                  : 130.9 TiB   Used FS: 32.0%   Inodes: 0.0 Mi   Used Inodes: -nan%

Options: 
api                 : POSIX
apiVersion          : 
test filename       : /beegfs/lgouveia/ior_2/testFile1
access              : single-shared-file
type                : independent
segments            : 1
ordering in a file  : sequential
ordering inter file : no tasks offsets
nodes               : 32
tasks               : 256
clients per node    : 8
repetitions         : 1
xfersize            : 1 MiB
blocksize           : 128 MiB
aggregate filesize  : 32 GiB

Results: 
WARNING: The file "/beegfs/lgouveia/ior_2/testFile1" exists already and will be overwritten

access    bw(MiB/s)  IOPS       Latency(s)  block(KiB) xfer(KiB)  open(s)    wr/rd(s)   close(s)   total(s)   iter
------    ---------  ----       ----------  ---------- ---------  --------   --------   --------   --------   ----
write     4131       4132       0.019693    131072     1024.00    0.393999   7.93       6.99       7.93       0   

Summary of all tests:
Operation   Max(MiB)   Min(MiB)  Mean(MiB)     StdDev   Max(OPs)   Min(OPs)  Mean(OPs)     StdDev    Mean(s) Stonewall(s) Stonewall(MiB) Test# #Tasks tPN reps fPP reord reordoff reordrand seed segcnt   blksiz    xsize aggs(MiB)   API RefNum
write        4131.13    4131.13    4131.13       0.00    4131.13    4131.13    4131.13       0.00    7.93196         NA            NA     0    256   8    1   0     0        1         0    0      1 134217728  1048576   32768.0 POSIX      0
Finished            : Sat Oct  9 06:36:29 2021
Tracking /beegfs/lgouveia/ior_2/testFile1...



Writing tracked information to tracker.csv...
IOR-3.4.0+dev: MPI Coordinated Test of Parallel I/O
Began               : Sat Oct  9 06:37:31 2021
Command line        : /home/lgouveia/ior/bin/ior -w -t 1m -b 128m -k -o /beegfs/lgouveia/ior_2/testFile1
Machine             : Linux bora002.plafrim.cluster
TestID              : 0
StartTime           : Sat Oct  9 06:37:31 2021
Path                : /beegfs/lgouveia/ior_2/testFile1
FS                  : 130.9 TiB   Used FS: 32.0%   Inodes: 0.0 Mi   Used Inodes: -nan%

Options: 
api                 : POSIX
apiVersion          : 
test filename       : /beegfs/lgouveia/ior_2/testFile1
access              : single-shared-file
type                : independent
segments            : 1
ordering in a file  : sequential
ordering inter file : no tasks offsets
nodes               : 32
tasks               : 256
clients per node    : 8
repetitions         : 1
xfersize            : 1 MiB
blocksize           : 128 MiB
aggregate filesize  : 32 GiB

Results: 
WARNING: The file "/beegfs/lgouveia/ior_2/testFile1" exists already and will be overwritten

access    bw(MiB/s)  IOPS       Latency(s)  block(KiB) xfer(KiB)  open(s)    wr/rd(s)   close(s)   total(s)   iter
------    ---------  ----       ----------  ---------- ---------  --------   --------   --------   --------   ----
write     3096.15    3096.52    0.081788    131072     1024.00    0.350703   10.58      9.54       10.58      0   

Summary of all tests:
Operation   Max(MiB)   Min(MiB)  Mean(MiB)     StdDev   Max(OPs)   Min(OPs)  Mean(OPs)     StdDev    Mean(s) Stonewall(s) Stonewall(MiB) Test# #Tasks tPN reps fPP reord reordoff reordrand seed segcnt   blksiz    xsize aggs(MiB)   API RefNum
write        3096.15    3096.15    3096.15       0.00    3096.15    3096.15    3096.15       0.00   10.58346         NA            NA     0    256   8    1   0     0        1         0    0      1 134217728  1048576   32768.0 POSIX      0
Finished            : Sat Oct  9 06:37:42 2021
Tracking /beegfs/lgouveia/ior_2/testFile1...



Writing tracked information to tracker.csv...
IOR-3.4.0+dev: MPI Coordinated Test of Parallel I/O
Began               : Sat Oct  9 06:38:43 2021
Command line        : /home/lgouveia/ior/bin/ior -w -t 1m -b 128m -k -o /beegfs/lgouveia/ior_2/testFile1
Machine             : Linux bora002.plafrim.cluster
TestID              : 0
StartTime           : Sat Oct  9 06:38:43 2021
Path                : /beegfs/lgouveia/ior_2/testFile1
FS                  : 130.9 TiB   Used FS: 32.0%   Inodes: 0.0 Mi   Used Inodes: -nan%

Options: 
api                 : POSIX
apiVersion          : 
test filename       : /beegfs/lgouveia/ior_2/testFile1
access              : single-shared-file
type                : independent
segments            : 1
ordering in a file  : sequential
ordering inter file : no tasks offsets
nodes               : 32
tasks               : 256
clients per node    : 8
repetitions         : 1
xfersize            : 1 MiB
blocksize           : 128 MiB
aggregate filesize  : 32 GiB

Results: 
WARNING: The file "/beegfs/lgouveia/ior_2/testFile1" exists already and will be overwritten

access    bw(MiB/s)  IOPS       Latency(s)  block(KiB) xfer(KiB)  open(s)    wr/rd(s)   close(s)   total(s)   iter
------    ---------  ----       ----------  ---------- ---------  --------   --------   --------   --------   ----
write     3066.13    3066.61    0.057166    131072     1024.00    0.306766   10.69      9.73       10.69      0   

Summary of all tests:
Operation   Max(MiB)   Min(MiB)  Mean(MiB)     StdDev   Max(OPs)   Min(OPs)  Mean(OPs)     StdDev    Mean(s) Stonewall(s) Stonewall(MiB) Test# #Tasks tPN reps fPP reord reordoff reordrand seed segcnt   blksiz    xsize aggs(MiB)   API RefNum
write        3066.13    3066.13    3066.13       0.00    3066.13    3066.13    3066.13       0.00   10.68710         NA            NA     0    256   8    1   0     0        1         0    0      1 134217728  1048576   32768.0 POSIX      0
Finished            : Sat Oct  9 06:38:54 2021
Tracking /beegfs/lgouveia/ior_2/testFile1...



Writing tracked information to tracker.csv...
IOR-3.4.0+dev: MPI Coordinated Test of Parallel I/O
Began               : Sat Oct  9 06:39:55 2021
Command line        : /home/lgouveia/ior/bin/ior -w -t 1m -b 128m -k -o /beegfs/lgouveia/ior_2/testFile1
Machine             : Linux bora002.plafrim.cluster
TestID              : 0
StartTime           : Sat Oct  9 06:39:55 2021
Path                : /beegfs/lgouveia/ior_2/testFile1
FS                  : 130.9 TiB   Used FS: 32.0%   Inodes: 0.0 Mi   Used Inodes: -nan%

Options: 
api                 : POSIX
apiVersion          : 
test filename       : /beegfs/lgouveia/ior_2/testFile1
access              : single-shared-file
type                : independent
segments            : 1
ordering in a file  : sequential
ordering inter file : no tasks offsets
nodes               : 32
tasks               : 256
clients per node    : 8
repetitions         : 1
xfersize            : 1 MiB
blocksize           : 128 MiB
aggregate filesize  : 32 GiB

Results: 
WARNING: The file "/beegfs/lgouveia/ior_2/testFile1" exists already and will be overwritten

access    bw(MiB/s)  IOPS       Latency(s)  block(KiB) xfer(KiB)  open(s)    wr/rd(s)   close(s)   total(s)   iter
------    ---------  ----       ----------  ---------- ---------  --------   --------   --------   --------   ----
write     3871       3872       0.061386    131072     1024.00    0.463229   8.46       7.25       8.46       0   

Summary of all tests:
Operation   Max(MiB)   Min(MiB)  Mean(MiB)     StdDev   Max(OPs)   Min(OPs)  Mean(OPs)     StdDev    Mean(s) Stonewall(s) Stonewall(MiB) Test# #Tasks tPN reps fPP reord reordoff reordrand seed segcnt   blksiz    xsize aggs(MiB)   API RefNum
write        3871.42    3871.42    3871.42       0.00    3871.42    3871.42    3871.42       0.00    8.46408         NA            NA     0    256   8    1   0     0        1         0    0      1 134217728  1048576   32768.0 POSIX      0
Finished            : Sat Oct  9 06:40:04 2021
Tracking /beegfs/lgouveia/ior_2/testFile1...



Writing tracked information to tracker.csv...
IOR-3.4.0+dev: MPI Coordinated Test of Parallel I/O
Began               : Sat Oct  9 06:41:06 2021
Command line        : /home/lgouveia/ior/bin/ior -w -t 1m -b 128m -k -o /beegfs/lgouveia/ior_2/testFile1
Machine             : Linux bora002.plafrim.cluster
TestID              : 0
StartTime           : Sat Oct  9 06:41:06 2021
Path                : /beegfs/lgouveia/ior_2/testFile1
FS                  : 130.9 TiB   Used FS: 32.0%   Inodes: 0.0 Mi   Used Inodes: -nan%

Options: 
api                 : POSIX
apiVersion          : 
test filename       : /beegfs/lgouveia/ior_2/testFile1
access              : single-shared-file
type                : independent
segments            : 1
ordering in a file  : sequential
ordering inter file : no tasks offsets
nodes               : 32
tasks               : 256
clients per node    : 8
repetitions         : 1
xfersize            : 1 MiB
blocksize           : 128 MiB
aggregate filesize  : 32 GiB

Results: 
WARNING: The file "/beegfs/lgouveia/ior_2/testFile1" exists already and will be overwritten

access    bw(MiB/s)  IOPS       Latency(s)  block(KiB) xfer(KiB)  open(s)    wr/rd(s)   close(s)   total(s)   iter
------    ---------  ----       ----------  ---------- ---------  --------   --------   --------   --------   ----
write     3210.64    3210.97    0.076077    131072     1024.00    0.363568   10.21      9.15       10.21      0   

Summary of all tests:
Operation   Max(MiB)   Min(MiB)  Mean(MiB)     StdDev   Max(OPs)   Min(OPs)  Mean(OPs)     StdDev    Mean(s) Stonewall(s) Stonewall(MiB) Test# #Tasks tPN reps fPP reord reordoff reordrand seed segcnt   blksiz    xsize aggs(MiB)   API RefNum
write        3210.64    3210.64    3210.64       0.00    3210.64    3210.64    3210.64       0.00   10.20606         NA            NA     0    256   8    1   0     0        1         0    0      1 134217728  1048576   32768.0 POSIX      0
Finished            : Sat Oct  9 06:41:16 2021
Tracking /beegfs/lgouveia/ior_2/testFile1...



Writing tracked information to tracker.csv...
IOR-3.4.0+dev: MPI Coordinated Test of Parallel I/O
Began               : Sat Oct  9 06:42:17 2021
Command line        : /home/lgouveia/ior/bin/ior -w -t 1m -b 128m -k -o /beegfs/lgouveia/ior_2/testFile1
Machine             : Linux bora002.plafrim.cluster
TestID              : 0
StartTime           : Sat Oct  9 06:42:17 2021
Path                : /beegfs/lgouveia/ior_2/testFile1
FS                  : 130.9 TiB   Used FS: 32.0%   Inodes: 0.0 Mi   Used Inodes: -nan%

Options: 
api                 : POSIX
apiVersion          : 
test filename       : /beegfs/lgouveia/ior_2/testFile1
access              : single-shared-file
type                : independent
segments            : 1
ordering in a file  : sequential
ordering inter file : no tasks offsets
nodes               : 32
tasks               : 256
clients per node    : 8
repetitions         : 1
xfersize            : 1 MiB
blocksize           : 128 MiB
aggregate filesize  : 32 GiB

Results: 
WARNING: The file "/beegfs/lgouveia/ior_2/testFile1" exists already and will be overwritten

access    bw(MiB/s)  IOPS       Latency(s)  block(KiB) xfer(KiB)  open(s)    wr/rd(s)   close(s)   total(s)   iter
------    ---------  ----       ----------  ---------- ---------  --------   --------   --------   --------   ----
write     3616       3617       0.050942    131072     1024.00    0.347396   9.06       8.03       9.06       0   

Summary of all tests:
Operation   Max(MiB)   Min(MiB)  Mean(MiB)     StdDev   Max(OPs)   Min(OPs)  Mean(OPs)     StdDev    Mean(s) Stonewall(s) Stonewall(MiB) Test# #Tasks tPN reps fPP reord reordoff reordrand seed segcnt   blksiz    xsize aggs(MiB)   API RefNum
write        3616.21    3616.21    3616.21       0.00    3616.21    3616.21    3616.21       0.00    9.06141         NA            NA     0    256   8    1   0     0        1         0    0      1 134217728  1048576   32768.0 POSIX      0
Finished            : Sat Oct  9 06:42:26 2021
Tracking /beegfs/lgouveia/ior_2/testFile1...



Writing tracked information to tracker.csv...
IOR-3.4.0+dev: MPI Coordinated Test of Parallel I/O
Began               : Sat Oct  9 06:43:28 2021
Command line        : /home/lgouveia/ior/bin/ior -w -t 1m -b 128m -k -o /beegfs/lgouveia/ior_2/testFile1
Machine             : Linux bora002.plafrim.cluster
TestID              : 0
StartTime           : Sat Oct  9 06:43:28 2021
Path                : /beegfs/lgouveia/ior_2/testFile1
FS                  : 130.9 TiB   Used FS: 32.0%   Inodes: 0.0 Mi   Used Inodes: -nan%

Options: 
api                 : POSIX
apiVersion          : 
test filename       : /beegfs/lgouveia/ior_2/testFile1
access              : single-shared-file
type                : independent
segments            : 1
ordering in a file  : sequential
ordering inter file : no tasks offsets
nodes               : 32
tasks               : 256
clients per node    : 8
repetitions         : 1
xfersize            : 1 MiB
blocksize           : 128 MiB
aggregate filesize  : 32 GiB

Results: 
WARNING: The file "/beegfs/lgouveia/ior_2/testFile1" exists already and will be overwritten

access    bw(MiB/s)  IOPS       Latency(s)  block(KiB) xfer(KiB)  open(s)    wr/rd(s)   close(s)   total(s)   iter
------    ---------  ----       ----------  ---------- ---------  --------   --------   --------   --------   ----
write     2965.90    2966.31    0.056332    131072     1024.00    0.512956   11.05      9.85       11.05      0   

Summary of all tests:
Operation   Max(MiB)   Min(MiB)  Mean(MiB)     StdDev   Max(OPs)   Min(OPs)  Mean(OPs)     StdDev    Mean(s) Stonewall(s) Stonewall(MiB) Test# #Tasks tPN reps fPP reord reordoff reordrand seed segcnt   blksiz    xsize aggs(MiB)   API RefNum
write        2965.90    2965.90    2965.90       0.00    2965.90    2965.90    2965.90       0.00   11.04824         NA            NA     0    256   8    1   0     0        1         0    0      1 134217728  1048576   32768.0 POSIX      0
Finished            : Sat Oct  9 06:43:39 2021
Tracking /beegfs/lgouveia/ior_2/testFile1...



Writing tracked information to tracker.csv...
IOR-3.4.0+dev: MPI Coordinated Test of Parallel I/O
Began               : Sat Oct  9 06:44:41 2021
Command line        : /home/lgouveia/ior/bin/ior -w -t 1m -b 128m -k -o /beegfs/lgouveia/ior_2/testFile1
Machine             : Linux bora002.plafrim.cluster
TestID              : 0
StartTime           : Sat Oct  9 06:44:41 2021
Path                : /beegfs/lgouveia/ior_2/testFile1
FS                  : 130.9 TiB   Used FS: 32.0%   Inodes: 0.0 Mi   Used Inodes: -nan%

Options: 
api                 : POSIX
apiVersion          : 
test filename       : /beegfs/lgouveia/ior_2/testFile1
access              : single-shared-file
type                : independent
segments            : 1
ordering in a file  : sequential
ordering inter file : no tasks offsets
nodes               : 32
tasks               : 256
clients per node    : 8
repetitions         : 1
xfersize            : 1 MiB
blocksize           : 128 MiB
aggregate filesize  : 32 GiB

Results: 
WARNING: The file "/beegfs/lgouveia/ior_2/testFile1" exists already and will be overwritten

access    bw(MiB/s)  IOPS       Latency(s)  block(KiB) xfer(KiB)  open(s)    wr/rd(s)   close(s)   total(s)   iter
------    ---------  ----       ----------  ---------- ---------  --------   --------   --------   --------   ----
write     3889       3889       0.058515    131072     1024.00    0.286334   8.42       7.06       8.43       0   

Summary of all tests:
Operation   Max(MiB)   Min(MiB)  Mean(MiB)     StdDev   Max(OPs)   Min(OPs)  Mean(OPs)     StdDev    Mean(s) Stonewall(s) Stonewall(MiB) Test# #Tasks tPN reps fPP reord reordoff reordrand seed segcnt   blksiz    xsize aggs(MiB)   API RefNum
write        3888.80    3888.80    3888.80       0.00    3888.80    3888.80    3888.80       0.00    8.42624         NA            NA     0    256   8    1   0     0        1         0    0      1 134217728  1048576   32768.0 POSIX      0
Finished            : Sat Oct  9 06:44:49 2021
Tracking /beegfs/lgouveia/ior_2/testFile1...



Writing tracked information to tracker.csv...
IOR-3.4.0+dev: MPI Coordinated Test of Parallel I/O
Began               : Sat Oct  9 06:45:51 2021
Command line        : /home/lgouveia/ior/bin/ior -w -t 1m -b 128m -k -o /beegfs/lgouveia/ior_2/testFile1
Machine             : Linux bora002.plafrim.cluster
TestID              : 0
StartTime           : Sat Oct  9 06:45:51 2021
Path                : /beegfs/lgouveia/ior_2/testFile1
FS                  : 130.9 TiB   Used FS: 32.0%   Inodes: 0.0 Mi   Used Inodes: -nan%

Options: 
api                 : POSIX
apiVersion          : 
test filename       : /beegfs/lgouveia/ior_2/testFile1
access              : single-shared-file
type                : independent
segments            : 1
ordering in a file  : sequential
ordering inter file : no tasks offsets
nodes               : 32
tasks               : 256
clients per node    : 8
repetitions         : 1
xfersize            : 1 MiB
blocksize           : 128 MiB
aggregate filesize  : 32 GiB

Results: 
WARNING: The file "/beegfs/lgouveia/ior_2/testFile1" exists already and will be overwritten

access    bw(MiB/s)  IOPS       Latency(s)  block(KiB) xfer(KiB)  open(s)    wr/rd(s)   close(s)   total(s)   iter
------    ---------  ----       ----------  ---------- ---------  --------   --------   --------   --------   ----
write     3028.94    3029.25    0.075733    131072     1024.00    0.438918   10.82      9.45       10.82      0   

Summary of all tests:
Operation   Max(MiB)   Min(MiB)  Mean(MiB)     StdDev   Max(OPs)   Min(OPs)  Mean(OPs)     StdDev    Mean(s) Stonewall(s) Stonewall(MiB) Test# #Tasks tPN reps fPP reord reordoff reordrand seed segcnt   blksiz    xsize aggs(MiB)   API RefNum
write        3028.94    3028.94    3028.94       0.00    3028.94    3028.94    3028.94       0.00   10.81831         NA            NA     0    256   8    1   0     0        1         0    0      1 134217728  1048576   32768.0 POSIX      0
Finished            : Sat Oct  9 06:46:01 2021
Tracking /beegfs/lgouveia/ior_2/testFile1...



Writing tracked information to tracker.csv...
