===== My JOB Information ====
Node List:  bora[010-014]
my jobID:  1362733
Partition: routage
submit directory:  /home/lgouveia/luan-teylo/results/IOR/scalability_model/compute_nodes/4_targets/09
submit host:  devel03.plafrim.cluster
In the directory: /home/lgouveia/luan-teylo/results/IOR/scalability_model/compute_nodes/4_targets/09
As the user: lgouveia
============================
IOR-3.4.0+dev: MPI Coordinated Test of Parallel I/O
Began               : Tue Jul 13 19:03:57 2021
Command line        : /home/lgouveia/ior/bin/ior -w -t 1m -b 819m -k -o /beegfs/lgouveia/ior_4/testFile1
Machine             : Linux bora010.plafrim.cluster
TestID              : 0
StartTime           : Tue Jul 13 19:03:57 2021
Path                : /beegfs/lgouveia/ior_4/testFile1
FS                  : 130.9 TiB   Used FS: 20.8%   Inodes: 0.0 Mi   Used Inodes: -nan%

Options: 
api                 : POSIX
apiVersion          : 
test filename       : /beegfs/lgouveia/ior_4/testFile1
access              : single-shared-file
type                : independent
segments            : 1
ordering in a file  : sequential
ordering inter file : no tasks offsets
nodes               : 5
tasks               : 40
clients per node    : 8
repetitions         : 1
xfersize            : 1 MiB
blocksize           : 819 MiB
aggregate filesize  : 31.99 GiB

Results: 
WARNING: The file "/beegfs/lgouveia/ior_4/testFile1" exists already and will be overwritten

access    bw(MiB/s)  IOPS       Latency(s)  block(KiB) xfer(KiB)  open(s)    wr/rd(s)   close(s)   total(s)   iter
------    ---------  ----       ----------  ---------- ---------  --------   --------   --------   --------   ----
write     1481.88    1481.98    0.006868    838656     1024.00    0.005722   22.11      19.22      22.11      0   

Summary of all tests:
Operation   Max(MiB)   Min(MiB)  Mean(MiB)     StdDev   Max(OPs)   Min(OPs)  Mean(OPs)     StdDev    Mean(s) Stonewall(s) Stonewall(MiB) Test# #Tasks tPN reps fPP reord reordoff reordrand seed segcnt   blksiz    xsize aggs(MiB)   API RefNum
write        1481.88    1481.88    1481.88       0.00    1481.88    1481.88    1481.88       0.00   22.10699         NA            NA     0     40   8    1   0     0        1         0    0      1 858783744  1048576   32760.0 POSIX      0
Finished            : Tue Jul 13 19:04:19 2021
Tracking /beegfs/lgouveia/ior_4/testFile1...



Writing tracked information to tracker.csv...
IOR-3.4.0+dev: MPI Coordinated Test of Parallel I/O
Began               : Tue Jul 13 19:05:22 2021
Command line        : /home/lgouveia/ior/bin/ior -w -t 1m -b 819m -k -o /beegfs/lgouveia/ior_4/testFile1
Machine             : Linux bora010.plafrim.cluster
TestID              : 0
StartTime           : Tue Jul 13 19:05:22 2021
Path                : /beegfs/lgouveia/ior_4/testFile1
FS                  : 130.9 TiB   Used FS: 20.8%   Inodes: 0.0 Mi   Used Inodes: -nan%

Options: 
api                 : POSIX
apiVersion          : 
test filename       : /beegfs/lgouveia/ior_4/testFile1
access              : single-shared-file
type                : independent
segments            : 1
ordering in a file  : sequential
ordering inter file : no tasks offsets
nodes               : 5
tasks               : 40
clients per node    : 8
repetitions         : 1
xfersize            : 1 MiB
blocksize           : 819 MiB
aggregate filesize  : 31.99 GiB

Results: 
WARNING: The file "/beegfs/lgouveia/ior_4/testFile1" exists already and will be overwritten

access    bw(MiB/s)  IOPS       Latency(s)  block(KiB) xfer(KiB)  open(s)    wr/rd(s)   close(s)   total(s)   iter
------    ---------  ----       ----------  ---------- ---------  --------   --------   --------   --------   ----
write     1472.57    1472.66    0.018365    838656     1024.00    0.005233   22.25      19.30      22.25      0   

Summary of all tests:
Operation   Max(MiB)   Min(MiB)  Mean(MiB)     StdDev   Max(OPs)   Min(OPs)  Mean(OPs)     StdDev    Mean(s) Stonewall(s) Stonewall(MiB) Test# #Tasks tPN reps fPP reord reordoff reordrand seed segcnt   blksiz    xsize aggs(MiB)   API RefNum
write        1472.57    1472.57    1472.57       0.00    1472.57    1472.57    1472.57       0.00   22.24682         NA            NA     0     40   8    1   0     0        1         0    0      1 858783744  1048576   32760.0 POSIX      0
Finished            : Tue Jul 13 19:05:44 2021
Tracking /beegfs/lgouveia/ior_4/testFile1...



Writing tracked information to tracker.csv...
IOR-3.4.0+dev: MPI Coordinated Test of Parallel I/O
Began               : Tue Jul 13 19:06:45 2021
Command line        : /home/lgouveia/ior/bin/ior -w -t 1m -b 819m -k -o /beegfs/lgouveia/ior_4/testFile1
Machine             : Linux bora010.plafrim.cluster
TestID              : 0
StartTime           : Tue Jul 13 19:06:45 2021
Path                : /beegfs/lgouveia/ior_4/testFile1
FS                  : 130.9 TiB   Used FS: 20.8%   Inodes: 0.0 Mi   Used Inodes: -nan%

Options: 
api                 : POSIX
apiVersion          : 
test filename       : /beegfs/lgouveia/ior_4/testFile1
access              : single-shared-file
type                : independent
segments            : 1
ordering in a file  : sequential
ordering inter file : no tasks offsets
nodes               : 5
tasks               : 40
clients per node    : 8
repetitions         : 1
xfersize            : 1 MiB
blocksize           : 819 MiB
aggregate filesize  : 31.99 GiB

Results: 
WARNING: The file "/beegfs/lgouveia/ior_4/testFile1" exists already and will be overwritten

access    bw(MiB/s)  IOPS       Latency(s)  block(KiB) xfer(KiB)  open(s)    wr/rd(s)   close(s)   total(s)   iter
------    ---------  ----       ----------  ---------- ---------  --------   --------   --------   --------   ----
write     1470.93    1471.01    0.015156    838656     1024.00    0.004579   22.27      19.37      22.27      0   

Summary of all tests:
Operation   Max(MiB)   Min(MiB)  Mean(MiB)     StdDev   Max(OPs)   Min(OPs)  Mean(OPs)     StdDev    Mean(s) Stonewall(s) Stonewall(MiB) Test# #Tasks tPN reps fPP reord reordoff reordrand seed segcnt   blksiz    xsize aggs(MiB)   API RefNum
write        1470.93    1470.93    1470.93       0.00    1470.93    1470.93    1470.93       0.00   22.27161         NA            NA     0     40   8    1   0     0        1         0    0      1 858783744  1048576   32760.0 POSIX      0
Finished            : Tue Jul 13 19:07:07 2021
Tracking /beegfs/lgouveia/ior_4/testFile1...



Writing tracked information to tracker.csv...
IOR-3.4.0+dev: MPI Coordinated Test of Parallel I/O
Began               : Tue Jul 13 19:08:08 2021
Command line        : /home/lgouveia/ior/bin/ior -w -t 1m -b 819m -k -o /beegfs/lgouveia/ior_4/testFile1
Machine             : Linux bora010.plafrim.cluster
TestID              : 0
StartTime           : Tue Jul 13 19:08:08 2021
Path                : /beegfs/lgouveia/ior_4/testFile1
FS                  : 130.9 TiB   Used FS: 20.8%   Inodes: 0.0 Mi   Used Inodes: -nan%

Options: 
api                 : POSIX
apiVersion          : 
test filename       : /beegfs/lgouveia/ior_4/testFile1
access              : single-shared-file
type                : independent
segments            : 1
ordering in a file  : sequential
ordering inter file : no tasks offsets
nodes               : 5
tasks               : 40
clients per node    : 8
repetitions         : 1
xfersize            : 1 MiB
blocksize           : 819 MiB
aggregate filesize  : 31.99 GiB

Results: 
WARNING: The file "/beegfs/lgouveia/ior_4/testFile1" exists already and will be overwritten

access    bw(MiB/s)  IOPS       Latency(s)  block(KiB) xfer(KiB)  open(s)    wr/rd(s)   close(s)   total(s)   iter
------    ---------  ----       ----------  ---------- ---------  --------   --------   --------   --------   ----
write     1477.24    1477.34    0.003574    838656     1024.00    0.004884   22.18      19.29      22.18      0   

Summary of all tests:
Operation   Max(MiB)   Min(MiB)  Mean(MiB)     StdDev   Max(OPs)   Min(OPs)  Mean(OPs)     StdDev    Mean(s) Stonewall(s) Stonewall(MiB) Test# #Tasks tPN reps fPP reord reordoff reordrand seed segcnt   blksiz    xsize aggs(MiB)   API RefNum
write        1477.24    1477.24    1477.24       0.00    1477.24    1477.24    1477.24       0.00   22.17654         NA            NA     0     40   8    1   0     0        1         0    0      1 858783744  1048576   32760.0 POSIX      0
Finished            : Tue Jul 13 19:08:30 2021
Tracking /beegfs/lgouveia/ior_4/testFile1...



Writing tracked information to tracker.csv...
IOR-3.4.0+dev: MPI Coordinated Test of Parallel I/O
Began               : Tue Jul 13 19:09:31 2021
Command line        : /home/lgouveia/ior/bin/ior -w -t 1m -b 819m -k -o /beegfs/lgouveia/ior_4/testFile1
Machine             : Linux bora010.plafrim.cluster
TestID              : 0
StartTime           : Tue Jul 13 19:09:31 2021
Path                : /beegfs/lgouveia/ior_4/testFile1
FS                  : 130.9 TiB   Used FS: 20.8%   Inodes: 0.0 Mi   Used Inodes: -nan%

Options: 
api                 : POSIX
apiVersion          : 
test filename       : /beegfs/lgouveia/ior_4/testFile1
access              : single-shared-file
type                : independent
segments            : 1
ordering in a file  : sequential
ordering inter file : no tasks offsets
nodes               : 5
tasks               : 40
clients per node    : 8
repetitions         : 1
xfersize            : 1 MiB
blocksize           : 819 MiB
aggregate filesize  : 31.99 GiB

Results: 
WARNING: The file "/beegfs/lgouveia/ior_4/testFile1" exists already and will be overwritten

access    bw(MiB/s)  IOPS       Latency(s)  block(KiB) xfer(KiB)  open(s)    wr/rd(s)   close(s)   total(s)   iter
------    ---------  ----       ----------  ---------- ---------  --------   --------   --------   --------   ----
write     1472.37    1472.46    0.007049    838656     1024.00    0.005244   22.25      19.34      22.25      0   

Summary of all tests:
Operation   Max(MiB)   Min(MiB)  Mean(MiB)     StdDev   Max(OPs)   Min(OPs)  Mean(OPs)     StdDev    Mean(s) Stonewall(s) Stonewall(MiB) Test# #Tasks tPN reps fPP reord reordoff reordrand seed segcnt   blksiz    xsize aggs(MiB)   API RefNum
write        1472.37    1472.37    1472.37       0.00    1472.37    1472.37    1472.37       0.00   22.24980         NA            NA     0     40   8    1   0     0        1         0    0      1 858783744  1048576   32760.0 POSIX      0
Finished            : Tue Jul 13 19:09:53 2021
Tracking /beegfs/lgouveia/ior_4/testFile1...



Writing tracked information to tracker.csv...
IOR-3.4.0+dev: MPI Coordinated Test of Parallel I/O
Began               : Tue Jul 13 19:10:54 2021
Command line        : /home/lgouveia/ior/bin/ior -w -t 1m -b 819m -k -o /beegfs/lgouveia/ior_4/testFile1
Machine             : Linux bora010.plafrim.cluster
TestID              : 0
StartTime           : Tue Jul 13 19:10:54 2021
Path                : /beegfs/lgouveia/ior_4/testFile1
FS                  : 130.9 TiB   Used FS: 20.8%   Inodes: 0.0 Mi   Used Inodes: -nan%

Options: 
api                 : POSIX
apiVersion          : 
test filename       : /beegfs/lgouveia/ior_4/testFile1
access              : single-shared-file
type                : independent
segments            : 1
ordering in a file  : sequential
ordering inter file : no tasks offsets
nodes               : 5
tasks               : 40
clients per node    : 8
repetitions         : 1
xfersize            : 1 MiB
blocksize           : 819 MiB
aggregate filesize  : 31.99 GiB

Results: 
WARNING: The file "/beegfs/lgouveia/ior_4/testFile1" exists already and will be overwritten

access    bw(MiB/s)  IOPS       Latency(s)  block(KiB) xfer(KiB)  open(s)    wr/rd(s)   close(s)   total(s)   iter
------    ---------  ----       ----------  ---------- ---------  --------   --------   --------   --------   ----
write     1478.22    1478.29    0.003490    838656     1024.00    0.004543   22.16      19.31      22.16      0   

Summary of all tests:
Operation   Max(MiB)   Min(MiB)  Mean(MiB)     StdDev   Max(OPs)   Min(OPs)  Mean(OPs)     StdDev    Mean(s) Stonewall(s) Stonewall(MiB) Test# #Tasks tPN reps fPP reord reordoff reordrand seed segcnt   blksiz    xsize aggs(MiB)   API RefNum
write        1478.22    1478.22    1478.22       0.00    1478.22    1478.22    1478.22       0.00   22.16184         NA            NA     0     40   8    1   0     0        1         0    0      1 858783744  1048576   32760.0 POSIX      0
Finished            : Tue Jul 13 19:11:16 2021
Tracking /beegfs/lgouveia/ior_4/testFile1...



Writing tracked information to tracker.csv...
IOR-3.4.0+dev: MPI Coordinated Test of Parallel I/O
Began               : Tue Jul 13 19:12:17 2021
Command line        : /home/lgouveia/ior/bin/ior -w -t 1m -b 819m -k -o /beegfs/lgouveia/ior_4/testFile1
Machine             : Linux bora010.plafrim.cluster
TestID              : 0
StartTime           : Tue Jul 13 19:12:17 2021
Path                : /beegfs/lgouveia/ior_4/testFile1
FS                  : 130.9 TiB   Used FS: 20.8%   Inodes: 0.0 Mi   Used Inodes: -nan%

Options: 
api                 : POSIX
apiVersion          : 
test filename       : /beegfs/lgouveia/ior_4/testFile1
access              : single-shared-file
type                : independent
segments            : 1
ordering in a file  : sequential
ordering inter file : no tasks offsets
nodes               : 5
tasks               : 40
clients per node    : 8
repetitions         : 1
xfersize            : 1 MiB
blocksize           : 819 MiB
aggregate filesize  : 31.99 GiB

Results: 
WARNING: The file "/beegfs/lgouveia/ior_4/testFile1" exists already and will be overwritten

access    bw(MiB/s)  IOPS       Latency(s)  block(KiB) xfer(KiB)  open(s)    wr/rd(s)   close(s)   total(s)   iter
------    ---------  ----       ----------  ---------- ---------  --------   --------   --------   --------   ----
write     1473.74    1473.83    0.003554    838656     1024.00    0.005365   22.23      19.32      22.23      0   

Summary of all tests:
Operation   Max(MiB)   Min(MiB)  Mean(MiB)     StdDev   Max(OPs)   Min(OPs)  Mean(OPs)     StdDev    Mean(s) Stonewall(s) Stonewall(MiB) Test# #Tasks tPN reps fPP reord reordoff reordrand seed segcnt   blksiz    xsize aggs(MiB)   API RefNum
write        1473.74    1473.74    1473.74       0.00    1473.74    1473.74    1473.74       0.00   22.22909         NA            NA     0     40   8    1   0     0        1         0    0      1 858783744  1048576   32760.0 POSIX      0
Finished            : Tue Jul 13 19:12:39 2021
Tracking /beegfs/lgouveia/ior_4/testFile1...



Writing tracked information to tracker.csv...
IOR-3.4.0+dev: MPI Coordinated Test of Parallel I/O
Began               : Tue Jul 13 19:13:40 2021
Command line        : /home/lgouveia/ior/bin/ior -w -t 1m -b 819m -k -o /beegfs/lgouveia/ior_4/testFile1
Machine             : Linux bora010.plafrim.cluster
TestID              : 0
StartTime           : Tue Jul 13 19:13:40 2021
Path                : /beegfs/lgouveia/ior_4/testFile1
FS                  : 130.9 TiB   Used FS: 20.8%   Inodes: 0.0 Mi   Used Inodes: -nan%

Options: 
api                 : POSIX
apiVersion          : 
test filename       : /beegfs/lgouveia/ior_4/testFile1
access              : single-shared-file
type                : independent
segments            : 1
ordering in a file  : sequential
ordering inter file : no tasks offsets
nodes               : 5
tasks               : 40
clients per node    : 8
repetitions         : 1
xfersize            : 1 MiB
blocksize           : 819 MiB
aggregate filesize  : 31.99 GiB

Results: 
WARNING: The file "/beegfs/lgouveia/ior_4/testFile1" exists already and will be overwritten

access    bw(MiB/s)  IOPS       Latency(s)  block(KiB) xfer(KiB)  open(s)    wr/rd(s)   close(s)   total(s)   iter
------    ---------  ----       ----------  ---------- ---------  --------   --------   --------   --------   ----
write     1483.17    1483.27    0.003442    838656     1024.00    0.004522   22.09      19.27      22.09      0   

Summary of all tests:
Operation   Max(MiB)   Min(MiB)  Mean(MiB)     StdDev   Max(OPs)   Min(OPs)  Mean(OPs)     StdDev    Mean(s) Stonewall(s) Stonewall(MiB) Test# #Tasks tPN reps fPP reord reordoff reordrand seed segcnt   blksiz    xsize aggs(MiB)   API RefNum
write        1483.17    1483.17    1483.17       0.00    1483.17    1483.17    1483.17       0.00   22.08777         NA            NA     0     40   8    1   0     0        1         0    0      1 858783744  1048576   32760.0 POSIX      0
Finished            : Tue Jul 13 19:14:02 2021
Tracking /beegfs/lgouveia/ior_4/testFile1...



Writing tracked information to tracker.csv...
IOR-3.4.0+dev: MPI Coordinated Test of Parallel I/O
Began               : Tue Jul 13 19:15:03 2021
Command line        : /home/lgouveia/ior/bin/ior -w -t 1m -b 819m -k -o /beegfs/lgouveia/ior_4/testFile1
Machine             : Linux bora010.plafrim.cluster
TestID              : 0
StartTime           : Tue Jul 13 19:15:03 2021
Path                : /beegfs/lgouveia/ior_4/testFile1
FS                  : 130.9 TiB   Used FS: 20.8%   Inodes: 0.0 Mi   Used Inodes: -nan%

Options: 
api                 : POSIX
apiVersion          : 
test filename       : /beegfs/lgouveia/ior_4/testFile1
access              : single-shared-file
type                : independent
segments            : 1
ordering in a file  : sequential
ordering inter file : no tasks offsets
nodes               : 5
tasks               : 40
clients per node    : 8
repetitions         : 1
xfersize            : 1 MiB
blocksize           : 819 MiB
aggregate filesize  : 31.99 GiB

Results: 
WARNING: The file "/beegfs/lgouveia/ior_4/testFile1" exists already and will be overwritten

access    bw(MiB/s)  IOPS       Latency(s)  block(KiB) xfer(KiB)  open(s)    wr/rd(s)   close(s)   total(s)   iter
------    ---------  ----       ----------  ---------- ---------  --------   --------   --------   --------   ----
write     1468.40    1468.50    0.014170    838656     1024.00    0.005071   22.31      19.49      22.31      0   

Summary of all tests:
Operation   Max(MiB)   Min(MiB)  Mean(MiB)     StdDev   Max(OPs)   Min(OPs)  Mean(OPs)     StdDev    Mean(s) Stonewall(s) Stonewall(MiB) Test# #Tasks tPN reps fPP reord reordoff reordrand seed segcnt   blksiz    xsize aggs(MiB)   API RefNum
write        1468.40    1468.40    1468.40       0.00    1468.40    1468.40    1468.40       0.00   22.30997         NA            NA     0     40   8    1   0     0        1         0    0      1 858783744  1048576   32760.0 POSIX      0
Finished            : Tue Jul 13 19:15:26 2021
Tracking /beegfs/lgouveia/ior_4/testFile1...



Writing tracked information to tracker.csv...
IOR-3.4.0+dev: MPI Coordinated Test of Parallel I/O
Began               : Tue Jul 13 19:16:26 2021
Command line        : /home/lgouveia/ior/bin/ior -w -t 1m -b 819m -k -o /beegfs/lgouveia/ior_4/testFile1
Machine             : Linux bora010.plafrim.cluster
TestID              : 0
StartTime           : Tue Jul 13 19:16:26 2021
Path                : /beegfs/lgouveia/ior_4/testFile1
FS                  : 130.9 TiB   Used FS: 20.8%   Inodes: 0.0 Mi   Used Inodes: -nan%

Options: 
api                 : POSIX
apiVersion          : 
test filename       : /beegfs/lgouveia/ior_4/testFile1
access              : single-shared-file
type                : independent
segments            : 1
ordering in a file  : sequential
ordering inter file : no tasks offsets
nodes               : 5
tasks               : 40
clients per node    : 8
repetitions         : 1
xfersize            : 1 MiB
blocksize           : 819 MiB
aggregate filesize  : 31.99 GiB

Results: 
WARNING: The file "/beegfs/lgouveia/ior_4/testFile1" exists already and will be overwritten

access    bw(MiB/s)  IOPS       Latency(s)  block(KiB) xfer(KiB)  open(s)    wr/rd(s)   close(s)   total(s)   iter
------    ---------  ----       ----------  ---------- ---------  --------   --------   --------   --------   ----
write     1479.46    1479.54    0.003402    838656     1024.00    0.005323   22.14      19.36      22.14      0   

Summary of all tests:
Operation   Max(MiB)   Min(MiB)  Mean(MiB)     StdDev   Max(OPs)   Min(OPs)  Mean(OPs)     StdDev    Mean(s) Stonewall(s) Stonewall(MiB) Test# #Tasks tPN reps fPP reord reordoff reordrand seed segcnt   blksiz    xsize aggs(MiB)   API RefNum
write        1479.46    1479.46    1479.46       0.00    1479.46    1479.46    1479.46       0.00   22.14322         NA            NA     0     40   8    1   0     0        1         0    0      1 858783744  1048576   32760.0 POSIX      0
Finished            : Tue Jul 13 19:16:49 2021
Tracking /beegfs/lgouveia/ior_4/testFile1...



Writing tracked information to tracker.csv...
