[bora008.plafrim.cluster:448153] mca_base_component_repository_open: unable to open mca_btl_uct: libucp.so.0: cannot open shared object file: No such file or directory (ignored)
[bora008.plafrim.cluster:448149] mca_base_component_repository_open: unable to open mca_btl_uct: libucp.so.0: cannot open shared object file: No such file or directory (ignored)
[bora008.plafrim.cluster:448150] mca_base_component_repository_open: unable to open mca_btl_uct: libucp.so.0: cannot open shared object file: No such file or directory (ignored)
[bora008.plafrim.cluster:448151] mca_base_component_repository_open: unable to open mca_btl_uct: libucp.so.0: cannot open shared object file: No such file or directory (ignored)
[bora008.plafrim.cluster:448152] mca_base_component_repository_open: unable to open mca_btl_uct: libucp.so.0: cannot open shared object file: No such file or directory (ignored)
[bora008.plafrim.cluster:448154] mca_base_component_repository_open: unable to open mca_btl_uct: libucp.so.0: cannot open shared object file: No such file or directory (ignored)
[bora008.plafrim.cluster:448155] mca_base_component_repository_open: unable to open mca_btl_uct: libucp.so.0: cannot open shared object file: No such file or directory (ignored)
[bora008.plafrim.cluster:448156] mca_base_component_repository_open: unable to open mca_btl_uct: libucp.so.0: cannot open shared object file: No such file or directory (ignored)
[bora009.plafrim.cluster:391676] mca_base_component_repository_open: unable to open mca_btl_uct: libucp.so.0: cannot open shared object file: No such file or directory (ignored)
[bora008.plafrim.cluster:448149] mca_base_component_repository_open: unable to open mca_pml_ucx: libucp.so.0: cannot open shared object file: No such file or directory (ignored)
[bora008.plafrim.cluster:448150] mca_base_component_repository_open: unable to open mca_pml_ucx: libucp.so.0: cannot open shared object file: No such file or directory (ignored)
[bora008.plafrim.cluster:448155] mca_base_component_repository_open: unable to open mca_pml_ucx: libucp.so.0: cannot open shared object file: No such file or directory (ignored)
[bora008.plafrim.cluster:448156] mca_base_component_repository_open: unable to open mca_pml_ucx: libucp.so.0: cannot open shared object file: No such file or directory (ignored)
[bora008.plafrim.cluster:448151] mca_base_component_repository_open: unable to open mca_pml_ucx: libucp.so.0: cannot open shared object file: No such file or directory (ignored)
[bora008.plafrim.cluster:448152] mca_base_component_repository_open: unable to open mca_pml_ucx: libucp.so.0: cannot open shared object file: No such file or directory (ignored)
[bora008.plafrim.cluster:448153] mca_base_component_repository_open: unable to open mca_pml_ucx: libucp.so.0: cannot open shared object file: No such file or directory (ignored)
[bora008.plafrim.cluster:448154] mca_base_component_repository_open: unable to open mca_pml_ucx: libucp.so.0: cannot open shared object file: No such file or directory (ignored)
[bora009.plafrim.cluster:391678] mca_base_component_repository_open: unable to open mca_btl_uct: libucp.so.0: cannot open shared object file: No such file or directory (ignored)
[bora009.plafrim.cluster:391680] mca_base_component_repository_open: unable to open mca_btl_uct: libucp.so.0: cannot open shared object file: No such file or directory (ignored)
[bora009.plafrim.cluster:391682] mca_base_component_repository_open: unable to open mca_btl_uct: libucp.so.0: cannot open shared object file: No such file or directory (ignored)
[bora009.plafrim.cluster:391677] mca_base_component_repository_open: unable to open mca_btl_uct: libucp.so.0: cannot open shared object file: No such file or directory (ignored)
[bora009.plafrim.cluster:391679] mca_base_component_repository_open: unable to open mca_btl_uct: libucp.so.0: cannot open shared object file: No such file or directory (ignored)
[bora009.plafrim.cluster:391681] mca_base_component_repository_open: unable to open mca_btl_uct: libucp.so.0: cannot open shared object file: No such file or directory (ignored)
[bora009.plafrim.cluster:391683] mca_base_component_repository_open: unable to open mca_btl_uct: libucp.so.0: cannot open shared object file: No such file or directory (ignored)
[bora009.plafrim.cluster:391678] mca_base_component_repository_open: unable to open mca_pml_ucx: libucp.so.0: cannot open shared object file: No such file or directory (ignored)
[bora009.plafrim.cluster:391680] mca_base_component_repository_open: unable to open mca_pml_ucx: libucp.so.0: cannot open shared object file: No such file or directory (ignored)
[bora009.plafrim.cluster:391682] mca_base_component_repository_open: unable to open mca_pml_ucx: libucp.so.0: cannot open shared object file: No such file or directory (ignored)
[bora009.plafrim.cluster:391676] mca_base_component_repository_open: unable to open mca_pml_ucx: libucp.so.0: cannot open shared object file: No such file or directory (ignored)
[bora009.plafrim.cluster:391677] mca_base_component_repository_open: unable to open mca_pml_ucx: libucp.so.0: cannot open shared object file: No such file or directory (ignored)
[bora009.plafrim.cluster:391679] mca_base_component_repository_open: unable to open mca_pml_ucx: libucp.so.0: cannot open shared object file: No such file or directory (ignored)
[bora008.plafrim.cluster:448149] mca_base_component_repository_open: unable to open mca_osc_ucx: libucp.so.0: cannot open shared object file: No such file or directory (ignored)
[bora008.plafrim.cluster:448150] mca_base_component_repository_open: unable to open mca_osc_ucx: libucp.so.0: cannot open shared object file: No such file or directory (ignored)
[bora008.plafrim.cluster:448151] mca_base_component_repository_open: unable to open mca_osc_ucx: libucp.so.0: cannot open shared object file: No such file or directory (ignored)
[bora008.plafrim.cluster:448152] mca_base_component_repository_open: unable to open mca_osc_ucx: libucp.so.0: cannot open shared object file: No such file or directory (ignored)
[bora008.plafrim.cluster:448153] mca_base_component_repository_open: unable to open mca_osc_ucx: libucp.so.0: cannot open shared object file: No such file or directory (ignored)
[bora008.plafrim.cluster:448154] mca_base_component_repository_open: unable to open mca_osc_ucx: libucp.so.0: cannot open shared object file: No such file or directory (ignored)
[bora008.plafrim.cluster:448155] mca_base_component_repository_open: unable to open mca_osc_ucx: libucp.so.0: cannot open shared object file: No such file or directory (ignored)
[bora008.plafrim.cluster:448156] mca_base_component_repository_open: unable to open mca_osc_ucx: libucp.so.0: cannot open shared object file: No such file or directory (ignored)
[bora009.plafrim.cluster:391681] mca_base_component_repository_open: unable to open mca_pml_ucx: libucp.so.0: cannot open shared object file: No such file or directory (ignored)
[bora009.plafrim.cluster:391683] mca_base_component_repository_open: unable to open mca_pml_ucx: libucp.so.0: cannot open shared object file: No such file or directory (ignored)
[bora009.plafrim.cluster:391681] mca_base_component_repository_open: unable to open mca_osc_ucx: libucp.so.0: cannot open shared object file: No such file or directory (ignored)
[bora009.plafrim.cluster:391682] mca_base_component_repository_open: unable to open mca_osc_ucx: libucp.so.0: cannot open shared object file: No such file or directory (ignored)
[bora009.plafrim.cluster:391676] mca_base_component_repository_open: unable to open mca_osc_ucx: libucp.so.0: cannot open shared object file: No such file or directory (ignored)
[bora009.plafrim.cluster:391677] mca_base_component_repository_open: unable to open mca_osc_ucx: libucp.so.0: cannot open shared object file: No such file or directory (ignored)
[bora009.plafrim.cluster:391679] mca_base_component_repository_open: unable to open mca_osc_ucx: libucp.so.0: cannot open shared object file: No such file or directory (ignored)
[bora009.plafrim.cluster:391678] mca_base_component_repository_open: unable to open mca_osc_ucx: libucp.so.0: cannot open shared object file: No such file or directory (ignored)
[bora009.plafrim.cluster:391680] mca_base_component_repository_open: unable to open mca_osc_ucx: libucp.so.0: cannot open shared object file: No such file or directory (ignored)
[bora009.plafrim.cluster:391683] mca_base_component_repository_open: unable to open mca_osc_ucx: libucp.so.0: cannot open shared object file: No such file or directory (ignored)
[bora008.plafrim.cluster:448295] mca_base_component_repository_open: unable to open mca_btl_uct: libucp.so.0: cannot open shared object file: No such file or directory (ignored)
[bora009.plafrim.cluster:391787] mca_base_component_repository_open: unable to open mca_btl_uct: libucp.so.0: cannot open shared object file: No such file or directory (ignored)
[bora009.plafrim.cluster:391789] mca_base_component_repository_open: unable to open mca_btl_uct: libucp.so.0: cannot open shared object file: No such file or directory (ignored)
[bora009.plafrim.cluster:391783] mca_base_component_repository_open: unable to open mca_btl_uct: libucp.so.0: cannot open shared object file: No such file or directory (ignored)
[bora009.plafrim.cluster:391782] mca_base_component_repository_open: unable to open mca_btl_uct: libucp.so.0: cannot open shared object file: No such file or directory (ignored)
[bora009.plafrim.cluster:391788] mca_base_component_repository_open: unable to open mca_btl_uct: libucp.so.0: cannot open shared object file: No such file or directory (ignored)
[bora009.plafrim.cluster:391784] mca_base_component_repository_open: unable to open mca_btl_uct: libucp.so.0: cannot open shared object file: No such file or directory (ignored)
[bora009.plafrim.cluster:391785] mca_base_component_repository_open: unable to open mca_btl_uct: libucp.so.0: cannot open shared object file: No such file or directory (ignored)
[bora009.plafrim.cluster:391786] mca_base_component_repository_open: unable to open mca_btl_uct: libucp.so.0: cannot open shared object file: No such file or directory (ignored)
[bora009.plafrim.cluster:391789] mca_base_component_repository_open: unable to open mca_pml_ucx: libucp.so.0: cannot open shared object file: No such file or directory (ignored)
[bora009.plafrim.cluster:391787] mca_base_component_repository_open: unable to open mca_pml_ucx: libucp.so.0: cannot open shared object file: No such file or directory (ignored)
[bora009.plafrim.cluster:391783] mca_base_component_repository_open: unable to open mca_pml_ucx: libucp.so.0: cannot open shared object file: No such file or directory (ignored)
[bora009.plafrim.cluster:391788] mca_base_component_repository_open: unable to open mca_pml_ucx: libucp.so.0: cannot open shared object file: No such file or directory (ignored)
[bora009.plafrim.cluster:391782] mca_base_component_repository_open: unable to open mca_pml_ucx: libucp.so.0: cannot open shared object file: No such file or directory (ignored)
[bora009.plafrim.cluster:391784] mca_base_component_repository_open: unable to open mca_pml_ucx: libucp.so.0: cannot open shared object file: No such file or directory (ignored)
[bora009.plafrim.cluster:391786] mca_base_component_repository_open: unable to open mca_pml_ucx: libucp.so.0: cannot open shared object file: No such file or directory (ignored)
[bora009.plafrim.cluster:391785] mca_base_component_repository_open: unable to open mca_pml_ucx: libucp.so.0: cannot open shared object file: No such file or directory (ignored)
[bora009.plafrim.cluster:391784] mca_base_component_repository_open: unable to open mca_osc_ucx: libucp.so.0: cannot open shared object file: No such file or directory (ignored)
[bora009.plafrim.cluster:391782] mca_base_component_repository_open: unable to open mca_osc_ucx: libucp.so.0: cannot open shared object file: No such file or directory (ignored)
[bora009.plafrim.cluster:391786] mca_base_component_repository_open: unable to open mca_osc_ucx: libucp.so.0: cannot open shared object file: No such file or directory (ignored)
[bora009.plafrim.cluster:391788] mca_base_component_repository_open: unable to open mca_osc_ucx: libucp.so.0: cannot open shared object file: No such file or directory (ignored)
[bora008.plafrim.cluster:448297] mca_base_component_repository_open: unable to open mca_btl_uct: libucp.so.0: cannot open shared object file: No such file or directory (ignored)
[bora008.plafrim.cluster:448293] mca_base_component_repository_open: unable to open mca_btl_uct: libucp.so.0: cannot open shared object file: No such file or directory (ignored)
[bora008.plafrim.cluster:448292] mca_base_component_repository_open: unable to open mca_btl_uct: libucp.so.0: cannot open shared object file: No such file or directory (ignored)
[bora008.plafrim.cluster:448291] mca_base_component_repository_open: unable to open mca_btl_uct: libucp.so.0: cannot open shared object file: No such file or directory (ignored)
[bora008.plafrim.cluster:448296] mca_base_component_repository_open: unable to open mca_btl_uct: libucp.so.0: cannot open shared object file: No such file or directory (ignored)
[bora008.plafrim.cluster:448290] mca_base_component_repository_open: unable to open mca_btl_uct: libucp.so.0: cannot open shared object file: No such file or directory (ignored)
[bora008.plafrim.cluster:448294] mca_base_component_repository_open: unable to open mca_btl_uct: libucp.so.0: cannot open shared object file: No such file or directory (ignored)
[bora008.plafrim.cluster:448295] mca_base_component_repository_open: unable to open mca_pml_ucx: libucp.so.0: cannot open shared object file: No such file or directory (ignored)
[bora008.plafrim.cluster:448297] mca_base_component_repository_open: unable to open mca_pml_ucx: libucp.so.0: cannot open shared object file: No such file or directory (ignored)
[bora008.plafrim.cluster:448293] mca_base_component_repository_open: unable to open mca_pml_ucx: libucp.so.0: cannot open shared object file: No such file or directory (ignored)
[bora008.plafrim.cluster:448292] mca_base_component_repository_open: unable to open mca_pml_ucx: libucp.so.0: cannot open shared object file: No such file or directory (ignored)
[bora008.plafrim.cluster:448291] mca_base_component_repository_open: unable to open mca_pml_ucx: libucp.so.0: cannot open shared object file: No such file or directory (ignored)
[bora008.plafrim.cluster:448296] mca_base_component_repository_open: unable to open mca_pml_ucx: libucp.so.0: cannot open shared object file: No such file or directory (ignored)
[bora008.plafrim.cluster:448290] mca_base_component_repository_open: unable to open mca_pml_ucx: libucp.so.0: cannot open shared object file: No such file or directory (ignored)
[bora008.plafrim.cluster:448294] mca_base_component_repository_open: unable to open mca_pml_ucx: libucp.so.0: cannot open shared object file: No such file or directory (ignored)
[bora008.plafrim.cluster:448296] mca_base_component_repository_open: unable to open mca_osc_ucx: libucp.so.0: cannot open shared object file: No such file or directory (ignored)
[bora008.plafrim.cluster:448293] mca_base_component_repository_open: unable to open mca_osc_ucx: libucp.so.0: cannot open shared object file: No such file or directory (ignored)
[bora008.plafrim.cluster:448294] mca_base_component_repository_open: unable to open mca_osc_ucx: libucp.so.0: cannot open shared object file: No such file or directory (ignored)
[bora008.plafrim.cluster:448292] mca_base_component_repository_open: unable to open mca_osc_ucx: libucp.so.0: cannot open shared object file: No such file or directory (ignored)
[bora008.plafrim.cluster:448297] mca_base_component_repository_open: unable to open mca_osc_ucx: libucp.so.0: cannot open shared object file: No such file or directory (ignored)
[bora008.plafrim.cluster:448290] mca_base_component_repository_open: unable to open mca_osc_ucx: libucp.so.0: cannot open shared object file: No such file or directory (ignored)
[bora008.plafrim.cluster:448291] mca_base_component_repository_open: unable to open mca_osc_ucx: libucp.so.0: cannot open shared object file: No such file or directory (ignored)
[bora008.plafrim.cluster:448295] mca_base_component_repository_open: unable to open mca_osc_ucx: libucp.so.0: cannot open shared object file: No such file or directory (ignored)
[bora009.plafrim.cluster:391783] mca_base_component_repository_open: unable to open mca_osc_ucx: libucp.so.0: cannot open shared object file: No such file or directory (ignored)
[bora009.plafrim.cluster:391785] mca_base_component_repository_open: unable to open mca_osc_ucx: libucp.so.0: cannot open shared object file: No such file or directory (ignored)
[bora009.plafrim.cluster:391787] mca_base_component_repository_open: unable to open mca_osc_ucx: libucp.so.0: cannot open shared object file: No such file or directory (ignored)
[bora009.plafrim.cluster:391789] mca_base_component_repository_open: unable to open mca_osc_ucx: libucp.so.0: cannot open shared object file: No such file or directory (ignored)
[bora008.plafrim.cluster:448414] mca_base_component_repository_open: unable to open mca_btl_uct: libucp.so.0: cannot open shared object file: No such file or directory (ignored)
[bora009.plafrim.cluster:391875] mca_base_component_repository_open: unable to open mca_btl_uct: libucp.so.0: cannot open shared object file: No such file or directory (ignored)
[bora009.plafrim.cluster:391881] mca_base_component_repository_open: unable to open mca_btl_uct: libucp.so.0: cannot open shared object file: No such file or directory (ignored)
[bora009.plafrim.cluster:391879] mca_base_component_repository_open: unable to open mca_btl_uct: libucp.so.0: cannot open shared object file: No such file or directory (ignored)
[bora009.plafrim.cluster:391876] mca_base_component_repository_open: unable to open mca_btl_uct: libucp.so.0: cannot open shared object file: No such file or directory (ignored)
[bora009.plafrim.cluster:391880] mca_base_component_repository_open: unable to open mca_btl_uct: libucp.so.0: cannot open shared object file: No such file or directory (ignored)
[bora009.plafrim.cluster:391878] mca_base_component_repository_open: unable to open mca_btl_uct: libucp.so.0: cannot open shared object file: No such file or directory (ignored)
[bora009.plafrim.cluster:391874] mca_base_component_repository_open: unable to open mca_btl_uct: libucp.so.0: cannot open shared object file: No such file or directory (ignored)
[bora009.plafrim.cluster:391877] mca_base_component_repository_open: unable to open mca_btl_uct: libucp.so.0: cannot open shared object file: No such file or directory (ignored)
[bora009.plafrim.cluster:391881] mca_base_component_repository_open: unable to open mca_pml_ucx: libucp.so.0: cannot open shared object file: No such file or directory (ignored)
[bora009.plafrim.cluster:391875] mca_base_component_repository_open: unable to open mca_pml_ucx: libucp.so.0: cannot open shared object file: No such file or directory (ignored)
[bora009.plafrim.cluster:391879] mca_base_component_repository_open: unable to open mca_pml_ucx: libucp.so.0: cannot open shared object file: No such file or directory (ignored)
[bora009.plafrim.cluster:391876] mca_base_component_repository_open: unable to open mca_pml_ucx: libucp.so.0: cannot open shared object file: No such file or directory (ignored)
[bora009.plafrim.cluster:391880] mca_base_component_repository_open: unable to open mca_pml_ucx: libucp.so.0: cannot open shared object file: No such file or directory (ignored)
[bora009.plafrim.cluster:391874] mca_base_component_repository_open: unable to open mca_pml_ucx: libucp.so.0: cannot open shared object file: No such file or directory (ignored)
[bora009.plafrim.cluster:391878] mca_base_component_repository_open: unable to open mca_pml_ucx: libucp.so.0: cannot open shared object file: No such file or directory (ignored)
[bora009.plafrim.cluster:391877] mca_base_component_repository_open: unable to open mca_pml_ucx: libucp.so.0: cannot open shared object file: No such file or directory (ignored)
[bora009.plafrim.cluster:391876] mca_base_component_repository_open: unable to open mca_osc_ucx: libucp.so.0: cannot open shared object file: No such file or directory (ignored)
[bora009.plafrim.cluster:391874] mca_base_component_repository_open: unable to open mca_osc_ucx: libucp.so.0: cannot open shared object file: No such file or directory (ignored)
[bora009.plafrim.cluster:391880] mca_base_component_repository_open: unable to open mca_osc_ucx: libucp.so.0: cannot open shared object file: No such file or directory (ignored)
[bora009.plafrim.cluster:391879] mca_base_component_repository_open: unable to open mca_osc_ucx: libucp.so.0: cannot open shared object file: No such file or directory (ignored)
[bora008.plafrim.cluster:448412] mca_base_component_repository_open: unable to open mca_btl_uct: libucp.so.0: cannot open shared object file: No such file or directory (ignored)
[bora008.plafrim.cluster:448418] mca_base_component_repository_open: unable to open mca_btl_uct: libucp.so.0: cannot open shared object file: No such file or directory (ignored)
[bora008.plafrim.cluster:448415] mca_base_component_repository_open: unable to open mca_btl_uct: libucp.so.0: cannot open shared object file: No such file or directory (ignored)
[bora008.plafrim.cluster:448411] mca_base_component_repository_open: unable to open mca_btl_uct: libucp.so.0: cannot open shared object file: No such file or directory (ignored)
[bora008.plafrim.cluster:448417] mca_base_component_repository_open: unable to open mca_btl_uct: libucp.so.0: cannot open shared object file: No such file or directory (ignored)
[bora008.plafrim.cluster:448416] mca_base_component_repository_open: unable to open mca_btl_uct: libucp.so.0: cannot open shared object file: No such file or directory (ignored)
[bora008.plafrim.cluster:448413] mca_base_component_repository_open: unable to open mca_btl_uct: libucp.so.0: cannot open shared object file: No such file or directory (ignored)
[bora008.plafrim.cluster:448412] mca_base_component_repository_open: unable to open mca_pml_ucx: libucp.so.0: cannot open shared object file: No such file or directory (ignored)
[bora008.plafrim.cluster:448414] mca_base_component_repository_open: unable to open mca_pml_ucx: libucp.so.0: cannot open shared object file: No such file or directory (ignored)
[bora008.plafrim.cluster:448418] mca_base_component_repository_open: unable to open mca_pml_ucx: libucp.so.0: cannot open shared object file: No such file or directory (ignored)
[bora008.plafrim.cluster:448411] mca_base_component_repository_open: unable to open mca_pml_ucx: libucp.so.0: cannot open shared object file: No such file or directory (ignored)
[bora008.plafrim.cluster:448415] mca_base_component_repository_open: unable to open mca_pml_ucx: libucp.so.0: cannot open shared object file: No such file or directory (ignored)
[bora008.plafrim.cluster:448417] mca_base_component_repository_open: unable to open mca_pml_ucx: libucp.so.0: cannot open shared object file: No such file or directory (ignored)
[bora008.plafrim.cluster:448413] mca_base_component_repository_open: unable to open mca_pml_ucx: libucp.so.0: cannot open shared object file: No such file or directory (ignored)
[bora008.plafrim.cluster:448416] mca_base_component_repository_open: unable to open mca_pml_ucx: libucp.so.0: cannot open shared object file: No such file or directory (ignored)
[bora008.plafrim.cluster:448414] mca_base_component_repository_open: unable to open mca_osc_ucx: libucp.so.0: cannot open shared object file: No such file or directory (ignored)
[bora008.plafrim.cluster:448412] mca_base_component_repository_open: unable to open mca_osc_ucx: libucp.so.0: cannot open shared object file: No such file or directory (ignored)
[bora008.plafrim.cluster:448416] mca_base_component_repository_open: unable to open mca_osc_ucx: libucp.so.0: cannot open shared object file: No such file or directory (ignored)
[bora008.plafrim.cluster:448418] mca_base_component_repository_open: unable to open mca_osc_ucx: libucp.so.0: cannot open shared object file: No such file or directory (ignored)
[bora008.plafrim.cluster:448415] mca_base_component_repository_open: unable to open mca_osc_ucx: libucp.so.0: cannot open shared object file: No such file or directory (ignored)
[bora008.plafrim.cluster:448411] mca_base_component_repository_open: unable to open mca_osc_ucx: libucp.so.0: cannot open shared object file: No such file or directory (ignored)
[bora008.plafrim.cluster:448413] mca_base_component_repository_open: unable to open mca_osc_ucx: libucp.so.0: cannot open shared object file: No such file or directory (ignored)
[bora008.plafrim.cluster:448417] mca_base_component_repository_open: unable to open mca_osc_ucx: libucp.so.0: cannot open shared object file: No such file or directory (ignored)
[bora009.plafrim.cluster:391878] mca_base_component_repository_open: unable to open mca_osc_ucx: libucp.so.0: cannot open shared object file: No such file or directory (ignored)
[bora009.plafrim.cluster:391881] mca_base_component_repository_open: unable to open mca_osc_ucx: libucp.so.0: cannot open shared object file: No such file or directory (ignored)
[bora009.plafrim.cluster:391875] mca_base_component_repository_open: unable to open mca_osc_ucx: libucp.so.0: cannot open shared object file: No such file or directory (ignored)
[bora009.plafrim.cluster:391877] mca_base_component_repository_open: unable to open mca_osc_ucx: libucp.so.0: cannot open shared object file: No such file or directory (ignored)
[bora008.plafrim.cluster:448627] mca_base_component_repository_open: unable to open mca_btl_uct: libucp.so.0: cannot open shared object file: No such file or directory (ignored)
[bora009.plafrim.cluster:392012] mca_base_component_repository_open: unable to open mca_btl_uct: libucp.so.0: cannot open shared object file: No such file or directory (ignored)
[bora009.plafrim.cluster:392014] mca_base_component_repository_open: unable to open mca_btl_uct: libucp.so.0: cannot open shared object file: No such file or directory (ignored)
[bora009.plafrim.cluster:392010] mca_base_component_repository_open: unable to open mca_btl_uct: libucp.so.0: cannot open shared object file: No such file or directory (ignored)
[bora009.plafrim.cluster:392008] mca_base_component_repository_open: unable to open mca_btl_uct: libucp.so.0: cannot open shared object file: No such file or directory (ignored)
[bora009.plafrim.cluster:392013] mca_base_component_repository_open: unable to open mca_btl_uct: libucp.so.0: cannot open shared object file: No such file or directory (ignored)
[bora009.plafrim.cluster:392009] mca_base_component_repository_open: unable to open mca_btl_uct: libucp.so.0: cannot open shared object file: No such file or directory (ignored)
[bora009.plafrim.cluster:392011] mca_base_component_repository_open: unable to open mca_btl_uct: libucp.so.0: cannot open shared object file: No such file or directory (ignored)
[bora009.plafrim.cluster:392007] mca_base_component_repository_open: unable to open mca_btl_uct: libucp.so.0: cannot open shared object file: No such file or directory (ignored)
[bora009.plafrim.cluster:392010] mca_base_component_repository_open: unable to open mca_pml_ucx: libucp.so.0: cannot open shared object file: No such file or directory (ignored)
[bora009.plafrim.cluster:392012] mca_base_component_repository_open: unable to open mca_pml_ucx: libucp.so.0: cannot open shared object file: No such file or directory (ignored)
[bora009.plafrim.cluster:392008] mca_base_component_repository_open: unable to open mca_pml_ucx: libucp.so.0: cannot open shared object file: No such file or directory (ignored)
[bora009.plafrim.cluster:392014] mca_base_component_repository_open: unable to open mca_pml_ucx: libucp.so.0: cannot open shared object file: No such file or directory (ignored)
[bora009.plafrim.cluster:392013] mca_base_component_repository_open: unable to open mca_pml_ucx: libucp.so.0: cannot open shared object file: No such file or directory (ignored)
[bora009.plafrim.cluster:392007] mca_base_component_repository_open: unable to open mca_pml_ucx: libucp.so.0: cannot open shared object file: No such file or directory (ignored)
[bora009.plafrim.cluster:392011] mca_base_component_repository_open: unable to open mca_pml_ucx: libucp.so.0: cannot open shared object file: No such file or directory (ignored)
[bora009.plafrim.cluster:392009] mca_base_component_repository_open: unable to open mca_pml_ucx: libucp.so.0: cannot open shared object file: No such file or directory (ignored)
[bora009.plafrim.cluster:392010] mca_base_component_repository_open: unable to open mca_osc_ucx: libucp.so.0: cannot open shared object file: No such file or directory (ignored)
[bora009.plafrim.cluster:392011] mca_base_component_repository_open: unable to open mca_osc_ucx: libucp.so.0: cannot open shared object file: No such file or directory (ignored)
[bora008.plafrim.cluster:448625] mca_base_component_repository_open: unable to open mca_btl_uct: libucp.so.0: cannot open shared object file: No such file or directory (ignored)
[bora008.plafrim.cluster:448623] mca_base_component_repository_open: unable to open mca_btl_uct: libucp.so.0: cannot open shared object file: No such file or directory (ignored)
[bora008.plafrim.cluster:448629] mca_base_component_repository_open: unable to open mca_btl_uct: libucp.so.0: cannot open shared object file: No such file or directory (ignored)
[bora008.plafrim.cluster:448628] mca_base_component_repository_open: unable to open mca_btl_uct: libucp.so.0: cannot open shared object file: No such file or directory (ignored)
[bora008.plafrim.cluster:448624] mca_base_component_repository_open: unable to open mca_btl_uct: libucp.so.0: cannot open shared object file: No such file or directory (ignored)
[bora008.plafrim.cluster:448626] mca_base_component_repository_open: unable to open mca_btl_uct: libucp.so.0: cannot open shared object file: No such file or directory (ignored)
[bora008.plafrim.cluster:448622] mca_base_component_repository_open: unable to open mca_btl_uct: libucp.so.0: cannot open shared object file: No such file or directory (ignored)
[bora008.plafrim.cluster:448625] mca_base_component_repository_open: unable to open mca_pml_ucx: libucp.so.0: cannot open shared object file: No such file or directory (ignored)
[bora008.plafrim.cluster:448623] mca_base_component_repository_open: unable to open mca_pml_ucx: libucp.so.0: cannot open shared object file: No such file or directory (ignored)
[bora008.plafrim.cluster:448627] mca_base_component_repository_open: unable to open mca_pml_ucx: libucp.so.0: cannot open shared object file: No such file or directory (ignored)
[bora008.plafrim.cluster:448629] mca_base_component_repository_open: unable to open mca_pml_ucx: libucp.so.0: cannot open shared object file: No such file or directory (ignored)
[bora008.plafrim.cluster:448628] mca_base_component_repository_open: unable to open mca_pml_ucx: libucp.so.0: cannot open shared object file: No such file or directory (ignored)
[bora008.plafrim.cluster:448624] mca_base_component_repository_open: unable to open mca_pml_ucx: libucp.so.0: cannot open shared object file: No such file or directory (ignored)
[bora008.plafrim.cluster:448626] mca_base_component_repository_open: unable to open mca_pml_ucx: libucp.so.0: cannot open shared object file: No such file or directory (ignored)
[bora008.plafrim.cluster:448622] mca_base_component_repository_open: unable to open mca_pml_ucx: libucp.so.0: cannot open shared object file: No such file or directory (ignored)
[bora008.plafrim.cluster:448628] mca_base_component_repository_open: unable to open mca_osc_ucx: libucp.so.0: cannot open shared object file: No such file or directory (ignored)
[bora008.plafrim.cluster:448622] mca_base_component_repository_open: unable to open mca_osc_ucx: libucp.so.0: cannot open shared object file: No such file or directory (ignored)
[bora008.plafrim.cluster:448627] mca_base_component_repository_open: unable to open mca_osc_ucx: libucp.so.0: cannot open shared object file: No such file or directory (ignored)
[bora008.plafrim.cluster:448629] mca_base_component_repository_open: unable to open mca_osc_ucx: libucp.so.0: cannot open shared object file: No such file or directory (ignored)
[bora008.plafrim.cluster:448623] mca_base_component_repository_open: unable to open mca_osc_ucx: libucp.so.0: cannot open shared object file: No such file or directory (ignored)
[bora008.plafrim.cluster:448624] mca_base_component_repository_open: unable to open mca_osc_ucx: libucp.so.0: cannot open shared object file: No such file or directory (ignored)
[bora008.plafrim.cluster:448625] mca_base_component_repository_open: unable to open mca_osc_ucx: libucp.so.0: cannot open shared object file: No such file or directory (ignored)
[bora008.plafrim.cluster:448626] mca_base_component_repository_open: unable to open mca_osc_ucx: libucp.so.0: cannot open shared object file: No such file or directory (ignored)
[bora009.plafrim.cluster:392007] mca_base_component_repository_open: unable to open mca_osc_ucx: libucp.so.0: cannot open shared object file: No such file or directory (ignored)
[bora009.plafrim.cluster:392009] mca_base_component_repository_open: unable to open mca_osc_ucx: libucp.so.0: cannot open shared object file: No such file or directory (ignored)
[bora009.plafrim.cluster:392013] mca_base_component_repository_open: unable to open mca_osc_ucx: libucp.so.0: cannot open shared object file: No such file or directory (ignored)
[bora009.plafrim.cluster:392008] mca_base_component_repository_open: unable to open mca_osc_ucx: libucp.so.0: cannot open shared object file: No such file or directory (ignored)
[bora009.plafrim.cluster:392012] mca_base_component_repository_open: unable to open mca_osc_ucx: libucp.so.0: cannot open shared object file: No such file or directory (ignored)
[bora009.plafrim.cluster:392014] mca_base_component_repository_open: unable to open mca_osc_ucx: libucp.so.0: cannot open shared object file: No such file or directory (ignored)
[bora008.plafrim.cluster:448785] mca_base_component_repository_open: unable to open mca_btl_uct: libucp.so.0: cannot open shared object file: No such file or directory (ignored)
[bora009.plafrim.cluster:392161] mca_base_component_repository_open: unable to open mca_btl_uct: libucp.so.0: cannot open shared object file: No such file or directory (ignored)
[bora009.plafrim.cluster:392159] mca_base_component_repository_open: unable to open mca_btl_uct: libucp.so.0: cannot open shared object file: No such file or directory (ignored)
[bora009.plafrim.cluster:392165] mca_base_component_repository_open: unable to open mca_btl_uct: libucp.so.0: cannot open shared object file: No such file or directory (ignored)
[bora009.plafrim.cluster:392158] mca_base_component_repository_open: unable to open mca_btl_uct: libucp.so.0: cannot open shared object file: No such file or directory (ignored)
[bora009.plafrim.cluster:392159] mca_base_component_repository_open: unable to open mca_pml_ucx: libucp.so.0: cannot open shared object file: No such file or directory (ignored)
[bora009.plafrim.cluster:392161] mca_base_component_repository_open: unable to open mca_pml_ucx: libucp.so.0: cannot open shared object file: No such file or directory (ignored)
[bora009.plafrim.cluster:392163] mca_base_component_repository_open: unable to open mca_btl_uct: libucp.so.0: cannot open shared object file: No such file or directory (ignored)
[bora009.plafrim.cluster:392160] mca_base_component_repository_open: unable to open mca_btl_uct: libucp.so.0: cannot open shared object file: No such file or directory (ignored)
[bora009.plafrim.cluster:392164] mca_base_component_repository_open: unable to open mca_btl_uct: libucp.so.0: cannot open shared object file: No such file or directory (ignored)
[bora009.plafrim.cluster:392165] mca_base_component_repository_open: unable to open mca_pml_ucx: libucp.so.0: cannot open shared object file: No such file or directory (ignored)
[bora009.plafrim.cluster:392162] mca_base_component_repository_open: unable to open mca_btl_uct: libucp.so.0: cannot open shared object file: No such file or directory (ignored)
[bora009.plafrim.cluster:392158] mca_base_component_repository_open: unable to open mca_pml_ucx: libucp.so.0: cannot open shared object file: No such file or directory (ignored)
[bora009.plafrim.cluster:392160] mca_base_component_repository_open: unable to open mca_pml_ucx: libucp.so.0: cannot open shared object file: No such file or directory (ignored)
[bora009.plafrim.cluster:392162] mca_base_component_repository_open: unable to open mca_pml_ucx: libucp.so.0: cannot open shared object file: No such file or directory (ignored)
[bora009.plafrim.cluster:392164] mca_base_component_repository_open: unable to open mca_pml_ucx: libucp.so.0: cannot open shared object file: No such file or directory (ignored)
[bora009.plafrim.cluster:392163] mca_base_component_repository_open: unable to open mca_pml_ucx: libucp.so.0: cannot open shared object file: No such file or directory (ignored)
[bora009.plafrim.cluster:392164] mca_base_component_repository_open: unable to open mca_osc_ucx: libucp.so.0: cannot open shared object file: No such file or directory (ignored)
[bora009.plafrim.cluster:392162] mca_base_component_repository_open: unable to open mca_osc_ucx: libucp.so.0: cannot open shared object file: No such file or directory (ignored)
[bora009.plafrim.cluster:392158] mca_base_component_repository_open: unable to open mca_osc_ucx: libucp.so.0: cannot open shared object file: No such file or directory (ignored)
[bora009.plafrim.cluster:392160] mca_base_component_repository_open: unable to open mca_osc_ucx: libucp.so.0: cannot open shared object file: No such file or directory (ignored)
[bora008.plafrim.cluster:448783] mca_base_component_repository_open: unable to open mca_btl_uct: libucp.so.0: cannot open shared object file: No such file or directory (ignored)
[bora008.plafrim.cluster:448789] mca_base_component_repository_open: unable to open mca_btl_uct: libucp.so.0: cannot open shared object file: No such file or directory (ignored)
[bora008.plafrim.cluster:448787] mca_base_component_repository_open: unable to open mca_btl_uct: libucp.so.0: cannot open shared object file: No such file or directory (ignored)
[bora008.plafrim.cluster:448786] mca_base_component_repository_open: unable to open mca_btl_uct: libucp.so.0: cannot open shared object file: No such file or directory (ignored)
[bora008.plafrim.cluster:448784] mca_base_component_repository_open: unable to open mca_btl_uct: libucp.so.0: cannot open shared object file: No such file or directory (ignored)
[bora008.plafrim.cluster:448788] mca_base_component_repository_open: unable to open mca_btl_uct: libucp.so.0: cannot open shared object file: No such file or directory (ignored)
[bora008.plafrim.cluster:448782] mca_base_component_repository_open: unable to open mca_btl_uct: libucp.so.0: cannot open shared object file: No such file or directory (ignored)
[bora008.plafrim.cluster:448783] mca_base_component_repository_open: unable to open mca_pml_ucx: libucp.so.0: cannot open shared object file: No such file or directory (ignored)
[bora008.plafrim.cluster:448785] mca_base_component_repository_open: unable to open mca_pml_ucx: libucp.so.0: cannot open shared object file: No such file or directory (ignored)
[bora008.plafrim.cluster:448789] mca_base_component_repository_open: unable to open mca_pml_ucx: libucp.so.0: cannot open shared object file: No such file or directory (ignored)
[bora008.plafrim.cluster:448786] mca_base_component_repository_open: unable to open mca_pml_ucx: libucp.so.0: cannot open shared object file: No such file or directory (ignored)
[bora008.plafrim.cluster:448787] mca_base_component_repository_open: unable to open mca_pml_ucx: libucp.so.0: cannot open shared object file: No such file or directory (ignored)
[bora008.plafrim.cluster:448788] mca_base_component_repository_open: unable to open mca_pml_ucx: libucp.so.0: cannot open shared object file: No such file or directory (ignored)
[bora008.plafrim.cluster:448784] mca_base_component_repository_open: unable to open mca_pml_ucx: libucp.so.0: cannot open shared object file: No such file or directory (ignored)
[bora008.plafrim.cluster:448782] mca_base_component_repository_open: unable to open mca_pml_ucx: libucp.so.0: cannot open shared object file: No such file or directory (ignored)
[bora008.plafrim.cluster:448782] mca_base_component_repository_open: unable to open mca_osc_ucx: libucp.so.0: cannot open shared object file: No such file or directory (ignored)
[bora008.plafrim.cluster:448783] mca_base_component_repository_open: unable to open mca_osc_ucx: libucp.so.0: cannot open shared object file: No such file or directory (ignored)
[bora008.plafrim.cluster:448786] mca_base_component_repository_open: unable to open mca_osc_ucx: libucp.so.0: cannot open shared object file: No such file or directory (ignored)
[bora008.plafrim.cluster:448788] mca_base_component_repository_open: unable to open mca_osc_ucx: libucp.so.0: cannot open shared object file: No such file or directory (ignored)
[bora008.plafrim.cluster:448787] mca_base_component_repository_open: unable to open mca_osc_ucx: libucp.so.0: cannot open shared object file: No such file or directory (ignored)
[bora008.plafrim.cluster:448789] mca_base_component_repository_open: unable to open mca_osc_ucx: libucp.so.0: cannot open shared object file: No such file or directory (ignored)
[bora008.plafrim.cluster:448784] mca_base_component_repository_open: unable to open mca_osc_ucx: libucp.so.0: cannot open shared object file: No such file or directory (ignored)
[bora008.plafrim.cluster:448785] mca_base_component_repository_open: unable to open mca_osc_ucx: libucp.so.0: cannot open shared object file: No such file or directory (ignored)
[bora009.plafrim.cluster:392165] mca_base_component_repository_open: unable to open mca_osc_ucx: libucp.so.0: cannot open shared object file: No such file or directory (ignored)
[bora009.plafrim.cluster:392161] mca_base_component_repository_open: unable to open mca_osc_ucx: libucp.so.0: cannot open shared object file: No such file or directory (ignored)
[bora009.plafrim.cluster:392159] mca_base_component_repository_open: unable to open mca_osc_ucx: libucp.so.0: cannot open shared object file: No such file or directory (ignored)
[bora009.plafrim.cluster:392163] mca_base_component_repository_open: unable to open mca_osc_ucx: libucp.so.0: cannot open shared object file: No such file or directory (ignored)
[bora008.plafrim.cluster:448914] mca_base_component_repository_open: unable to open mca_btl_uct: libucp.so.0: cannot open shared object file: No such file or directory (ignored)
[bora009.plafrim.cluster:392256] mca_base_component_repository_open: unable to open mca_btl_uct: libucp.so.0: cannot open shared object file: No such file or directory (ignored)
[bora009.plafrim.cluster:392260] mca_base_component_repository_open: unable to open mca_btl_uct: libucp.so.0: cannot open shared object file: No such file or directory (ignored)
[bora009.plafrim.cluster:392254] mca_base_component_repository_open: unable to open mca_btl_uct: libucp.so.0: cannot open shared object file: No such file or directory (ignored)
[bora009.plafrim.cluster:392253] mca_base_component_repository_open: unable to open mca_btl_uct: libucp.so.0: cannot open shared object file: No such file or directory (ignored)
[bora009.plafrim.cluster:392257] mca_base_component_repository_open: unable to open mca_btl_uct: libucp.so.0: cannot open shared object file: No such file or directory (ignored)
[bora009.plafrim.cluster:392258] mca_base_component_repository_open: unable to open mca_btl_uct: libucp.so.0: cannot open shared object file: No such file or directory (ignored)
[bora009.plafrim.cluster:392255] mca_base_component_repository_open: unable to open mca_btl_uct: libucp.so.0: cannot open shared object file: No such file or directory (ignored)
[bora009.plafrim.cluster:392259] mca_base_component_repository_open: unable to open mca_btl_uct: libucp.so.0: cannot open shared object file: No such file or directory (ignored)
[bora009.plafrim.cluster:392256] mca_base_component_repository_open: unable to open mca_pml_ucx: libucp.so.0: cannot open shared object file: No such file or directory (ignored)
[bora009.plafrim.cluster:392254] mca_base_component_repository_open: unable to open mca_pml_ucx: libucp.so.0: cannot open shared object file: No such file or directory (ignored)
[bora009.plafrim.cluster:392260] mca_base_component_repository_open: unable to open mca_pml_ucx: libucp.so.0: cannot open shared object file: No such file or directory (ignored)
[bora009.plafrim.cluster:392253] mca_base_component_repository_open: unable to open mca_pml_ucx: libucp.so.0: cannot open shared object file: No such file or directory (ignored)
[bora009.plafrim.cluster:392257] mca_base_component_repository_open: unable to open mca_pml_ucx: libucp.so.0: cannot open shared object file: No such file or directory (ignored)
[bora009.plafrim.cluster:392259] mca_base_component_repository_open: unable to open mca_pml_ucx: libucp.so.0: cannot open shared object file: No such file or directory (ignored)
[bora009.plafrim.cluster:392255] mca_base_component_repository_open: unable to open mca_pml_ucx: libucp.so.0: cannot open shared object file: No such file or directory (ignored)
[bora009.plafrim.cluster:392258] mca_base_component_repository_open: unable to open mca_pml_ucx: libucp.so.0: cannot open shared object file: No such file or directory (ignored)
[bora009.plafrim.cluster:392257] mca_base_component_repository_open: unable to open mca_osc_ucx: libucp.so.0: cannot open shared object file: No such file or directory (ignored)
[bora009.plafrim.cluster:392254] mca_base_component_repository_open: unable to open mca_osc_ucx: libucp.so.0: cannot open shared object file: No such file or directory (ignored)
[bora009.plafrim.cluster:392256] mca_base_component_repository_open: unable to open mca_osc_ucx: libucp.so.0: cannot open shared object file: No such file or directory (ignored)
[bora009.plafrim.cluster:392253] mca_base_component_repository_open: unable to open mca_osc_ucx: libucp.so.0: cannot open shared object file: No such file or directory (ignored)
[bora009.plafrim.cluster:392255] mca_base_component_repository_open: unable to open mca_osc_ucx: libucp.so.0: cannot open shared object file: No such file or directory (ignored)
[bora009.plafrim.cluster:392259] mca_base_component_repository_open: unable to open mca_osc_ucx: libucp.so.0: cannot open shared object file: No such file or directory (ignored)
[bora009.plafrim.cluster:392260] mca_base_component_repository_open: unable to open mca_osc_ucx: libucp.so.0: cannot open shared object file: No such file or directory (ignored)
[bora009.plafrim.cluster:392258] mca_base_component_repository_open: unable to open mca_osc_ucx: libucp.so.0: cannot open shared object file: No such file or directory (ignored)
[bora008.plafrim.cluster:448916] mca_base_component_repository_open: unable to open mca_btl_uct: libucp.so.0: cannot open shared object file: No such file or directory (ignored)
[bora008.plafrim.cluster:448912] mca_base_component_repository_open: unable to open mca_btl_uct: libucp.so.0: cannot open shared object file: No such file or directory (ignored)
[bora008.plafrim.cluster:448918] mca_base_component_repository_open: unable to open mca_btl_uct: libucp.so.0: cannot open shared object file: No such file or directory (ignored)
[bora008.plafrim.cluster:448915] mca_base_component_repository_open: unable to open mca_btl_uct: libucp.so.0: cannot open shared object file: No such file or directory (ignored)
[bora008.plafrim.cluster:448913] mca_base_component_repository_open: unable to open mca_btl_uct: libucp.so.0: cannot open shared object file: No such file or directory (ignored)
[bora008.plafrim.cluster:448911] mca_base_component_repository_open: unable to open mca_btl_uct: libucp.so.0: cannot open shared object file: No such file or directory (ignored)
[bora008.plafrim.cluster:448917] mca_base_component_repository_open: unable to open mca_btl_uct: libucp.so.0: cannot open shared object file: No such file or directory (ignored)
[bora008.plafrim.cluster:448916] mca_base_component_repository_open: unable to open mca_pml_ucx: libucp.so.0: cannot open shared object file: No such file or directory (ignored)
[bora008.plafrim.cluster:448918] mca_base_component_repository_open: unable to open mca_pml_ucx: libucp.so.0: cannot open shared object file: No such file or directory (ignored)
[bora008.plafrim.cluster:448911] mca_base_component_repository_open: unable to open mca_pml_ucx: libucp.so.0: cannot open shared object file: No such file or directory (ignored)
[bora008.plafrim.cluster:448912] mca_base_component_repository_open: unable to open mca_pml_ucx: libucp.so.0: cannot open shared object file: No such file or directory (ignored)
[bora008.plafrim.cluster:448914] mca_base_component_repository_open: unable to open mca_pml_ucx: libucp.so.0: cannot open shared object file: No such file or directory (ignored)
[bora008.plafrim.cluster:448913] mca_base_component_repository_open: unable to open mca_pml_ucx: libucp.so.0: cannot open shared object file: No such file or directory (ignored)
[bora008.plafrim.cluster:448915] mca_base_component_repository_open: unable to open mca_pml_ucx: libucp.so.0: cannot open shared object file: No such file or directory (ignored)
[bora008.plafrim.cluster:448917] mca_base_component_repository_open: unable to open mca_pml_ucx: libucp.so.0: cannot open shared object file: No such file or directory (ignored)
[bora008.plafrim.cluster:448911] mca_base_component_repository_open: unable to open mca_osc_ucx: libucp.so.0: cannot open shared object file: No such file or directory (ignored)
[bora008.plafrim.cluster:448913] mca_base_component_repository_open: unable to open mca_osc_ucx: libucp.so.0: cannot open shared object file: No such file or directory (ignored)
[bora008.plafrim.cluster:448917] mca_base_component_repository_open: unable to open mca_osc_ucx: libucp.so.0: cannot open shared object file: No such file or directory (ignored)
[bora008.plafrim.cluster:448915] mca_base_component_repository_open: unable to open mca_osc_ucx: libucp.so.0: cannot open shared object file: No such file or directory (ignored)
[bora008.plafrim.cluster:448916] mca_base_component_repository_open: unable to open mca_osc_ucx: libucp.so.0: cannot open shared object file: No such file or directory (ignored)
[bora008.plafrim.cluster:448918] mca_base_component_repository_open: unable to open mca_osc_ucx: libucp.so.0: cannot open shared object file: No such file or directory (ignored)
[bora008.plafrim.cluster:448914] mca_base_component_repository_open: unable to open mca_osc_ucx: libucp.so.0: cannot open shared object file: No such file or directory (ignored)
[bora008.plafrim.cluster:448912] mca_base_component_repository_open: unable to open mca_osc_ucx: libucp.so.0: cannot open shared object file: No such file or directory (ignored)
[bora008.plafrim.cluster:449035] mca_base_component_repository_open: unable to open mca_btl_uct: libucp.so.0: cannot open shared object file: No such file or directory (ignored)
[bora009.plafrim.cluster:392381] mca_base_component_repository_open: unable to open mca_btl_uct: libucp.so.0: cannot open shared object file: No such file or directory (ignored)
[bora009.plafrim.cluster:392383] mca_base_component_repository_open: unable to open mca_btl_uct: libucp.so.0: cannot open shared object file: No such file or directory (ignored)
[bora009.plafrim.cluster:392377] mca_base_component_repository_open: unable to open mca_btl_uct: libucp.so.0: cannot open shared object file: No such file or directory (ignored)
[bora009.plafrim.cluster:392379] mca_base_component_repository_open: unable to open mca_btl_uct: libucp.so.0: cannot open shared object file: No such file or directory (ignored)
[bora009.plafrim.cluster:392376] mca_base_component_repository_open: unable to open mca_btl_uct: libucp.so.0: cannot open shared object file: No such file or directory (ignored)
[bora009.plafrim.cluster:392382] mca_base_component_repository_open: unable to open mca_btl_uct: libucp.so.0: cannot open shared object file: No such file or directory (ignored)
[bora009.plafrim.cluster:392380] mca_base_component_repository_open: unable to open mca_btl_uct: libucp.so.0: cannot open shared object file: No such file or directory (ignored)
[bora009.plafrim.cluster:392378] mca_base_component_repository_open: unable to open mca_btl_uct: libucp.so.0: cannot open shared object file: No such file or directory (ignored)
[bora009.plafrim.cluster:392381] mca_base_component_repository_open: unable to open mca_pml_ucx: libucp.so.0: cannot open shared object file: No such file or directory (ignored)
[bora009.plafrim.cluster:392376] mca_base_component_repository_open: unable to open mca_pml_ucx: libucp.so.0: cannot open shared object file: No such file or directory (ignored)
[bora009.plafrim.cluster:392382] mca_base_component_repository_open: unable to open mca_pml_ucx: libucp.so.0: cannot open shared object file: No such file or directory (ignored)
[bora009.plafrim.cluster:392377] mca_base_component_repository_open: unable to open mca_pml_ucx: libucp.so.0: cannot open shared object file: No such file or directory (ignored)
[bora009.plafrim.cluster:392383] mca_base_component_repository_open: unable to open mca_pml_ucx: libucp.so.0: cannot open shared object file: No such file or directory (ignored)
[bora009.plafrim.cluster:392379] mca_base_component_repository_open: unable to open mca_pml_ucx: libucp.so.0: cannot open shared object file: No such file or directory (ignored)
[bora009.plafrim.cluster:392380] mca_base_component_repository_open: unable to open mca_pml_ucx: libucp.so.0: cannot open shared object file: No such file or directory (ignored)
[bora009.plafrim.cluster:392378] mca_base_component_repository_open: unable to open mca_pml_ucx: libucp.so.0: cannot open shared object file: No such file or directory (ignored)
[bora009.plafrim.cluster:392382] mca_base_component_repository_open: unable to open mca_osc_ucx: libucp.so.0: cannot open shared object file: No such file or directory (ignored)
[bora009.plafrim.cluster:392380] mca_base_component_repository_open: unable to open mca_osc_ucx: libucp.so.0: cannot open shared object file: No such file or directory (ignored)
[bora009.plafrim.cluster:392381] mca_base_component_repository_open: unable to open mca_osc_ucx: libucp.so.0: cannot open shared object file: No such file or directory (ignored)
[bora009.plafrim.cluster:392376] mca_base_component_repository_open: unable to open mca_osc_ucx: libucp.so.0: cannot open shared object file: No such file or directory (ignored)
[bora009.plafrim.cluster:392377] mca_base_component_repository_open: unable to open mca_osc_ucx: libucp.so.0: cannot open shared object file: No such file or directory (ignored)
[bora009.plafrim.cluster:392378] mca_base_component_repository_open: unable to open mca_osc_ucx: libucp.so.0: cannot open shared object file: No such file or directory (ignored)
[bora009.plafrim.cluster:392379] mca_base_component_repository_open: unable to open mca_osc_ucx: libucp.so.0: cannot open shared object file: No such file or directory (ignored)
[bora009.plafrim.cluster:392383] mca_base_component_repository_open: unable to open mca_osc_ucx: libucp.so.0: cannot open shared object file: No such file or directory (ignored)
[bora008.plafrim.cluster:449039] mca_base_component_repository_open: unable to open mca_btl_uct: libucp.so.0: cannot open shared object file: No such file or directory (ignored)
[bora008.plafrim.cluster:449041] mca_base_component_repository_open: unable to open mca_btl_uct: libucp.so.0: cannot open shared object file: No such file or directory (ignored)
[bora008.plafrim.cluster:449037] mca_base_component_repository_open: unable to open mca_btl_uct: libucp.so.0: cannot open shared object file: No such file or directory (ignored)
[bora008.plafrim.cluster:449040] mca_base_component_repository_open: unable to open mca_btl_uct: libucp.so.0: cannot open shared object file: No such file or directory (ignored)
[bora008.plafrim.cluster:449036] mca_base_component_repository_open: unable to open mca_btl_uct: libucp.so.0: cannot open shared object file: No such file or directory (ignored)
[bora008.plafrim.cluster:449038] mca_base_component_repository_open: unable to open mca_btl_uct: libucp.so.0: cannot open shared object file: No such file or directory (ignored)
[bora008.plafrim.cluster:449034] mca_base_component_repository_open: unable to open mca_btl_uct: libucp.so.0: cannot open shared object file: No such file or directory (ignored)
[bora008.plafrim.cluster:449036] mca_base_component_repository_open: unable to open mca_pml_ucx: libucp.so.0: cannot open shared object file: No such file or directory (ignored)
[bora008.plafrim.cluster:449037] mca_base_component_repository_open: unable to open mca_pml_ucx: libucp.so.0: cannot open shared object file: No such file or directory (ignored)
[bora008.plafrim.cluster:449039] mca_base_component_repository_open: unable to open mca_pml_ucx: libucp.so.0: cannot open shared object file: No such file or directory (ignored)
[bora008.plafrim.cluster:449040] mca_base_component_repository_open: unable to open mca_pml_ucx: libucp.so.0: cannot open shared object file: No such file or directory (ignored)
[bora008.plafrim.cluster:449034] mca_base_component_repository_open: unable to open mca_pml_ucx: libucp.so.0: cannot open shared object file: No such file or directory (ignored)
[bora008.plafrim.cluster:449035] mca_base_component_repository_open: unable to open mca_pml_ucx: libucp.so.0: cannot open shared object file: No such file or directory (ignored)
[bora008.plafrim.cluster:449038] mca_base_component_repository_open: unable to open mca_pml_ucx: libucp.so.0: cannot open shared object file: No such file or directory (ignored)
[bora008.plafrim.cluster:449041] mca_base_component_repository_open: unable to open mca_pml_ucx: libucp.so.0: cannot open shared object file: No such file or directory (ignored)
[bora008.plafrim.cluster:449036] mca_base_component_repository_open: unable to open mca_osc_ucx: libucp.so.0: cannot open shared object file: No such file or directory (ignored)
[bora008.plafrim.cluster:449037] mca_base_component_repository_open: unable to open mca_osc_ucx: libucp.so.0: cannot open shared object file: No such file or directory (ignored)
[bora008.plafrim.cluster:449039] mca_base_component_repository_open: unable to open mca_osc_ucx: libucp.so.0: cannot open shared object file: No such file or directory (ignored)
[bora008.plafrim.cluster:449040] mca_base_component_repository_open: unable to open mca_osc_ucx: libucp.so.0: cannot open shared object file: No such file or directory (ignored)
[bora008.plafrim.cluster:449035] mca_base_component_repository_open: unable to open mca_osc_ucx: libucp.so.0: cannot open shared object file: No such file or directory (ignored)
[bora008.plafrim.cluster:449034] mca_base_component_repository_open: unable to open mca_osc_ucx: libucp.so.0: cannot open shared object file: No such file or directory (ignored)
[bora008.plafrim.cluster:449038] mca_base_component_repository_open: unable to open mca_osc_ucx: libucp.so.0: cannot open shared object file: No such file or directory (ignored)
[bora008.plafrim.cluster:449041] mca_base_component_repository_open: unable to open mca_osc_ucx: libucp.so.0: cannot open shared object file: No such file or directory (ignored)
[bora008.plafrim.cluster:449172] mca_base_component_repository_open: unable to open mca_btl_uct: libucp.so.0: cannot open shared object file: No such file or directory (ignored)
[bora008.plafrim.cluster:449172] mca_base_component_repository_open: unable to open mca_pml_ucx: libucp.so.0: cannot open shared object file: No such file or directory (ignored)
[bora008.plafrim.cluster:449172] mca_base_component_repository_open: unable to open mca_osc_ucx: libucp.so.0: cannot open shared object file: No such file or directory (ignored)
[bora008.plafrim.cluster:449168] mca_base_component_repository_open: unable to open mca_btl_uct: libucp.so.0: cannot open shared object file: No such file or directory (ignored)
[bora008.plafrim.cluster:449170] mca_base_component_repository_open: unable to open mca_btl_uct: libucp.so.0: cannot open shared object file: No such file or directory (ignored)
[bora008.plafrim.cluster:449174] mca_base_component_repository_open: unable to open mca_btl_uct: libucp.so.0: cannot open shared object file: No such file or directory (ignored)
[bora008.plafrim.cluster:449168] mca_base_component_repository_open: unable to open mca_pml_ucx: libucp.so.0: cannot open shared object file: No such file or directory (ignored)
[bora008.plafrim.cluster:449171] mca_base_component_repository_open: unable to open mca_btl_uct: libucp.so.0: cannot open shared object file: No such file or directory (ignored)
[bora008.plafrim.cluster:449173] mca_base_component_repository_open: unable to open mca_btl_uct: libucp.so.0: cannot open shared object file: No such file or directory (ignored)
[bora008.plafrim.cluster:449167] mca_base_component_repository_open: unable to open mca_btl_uct: libucp.so.0: cannot open shared object file: No such file or directory (ignored)
[bora008.plafrim.cluster:449169] mca_base_component_repository_open: unable to open mca_btl_uct: libucp.so.0: cannot open shared object file: No such file or directory (ignored)
[bora008.plafrim.cluster:449170] mca_base_component_repository_open: unable to open mca_pml_ucx: libucp.so.0: cannot open shared object file: No such file or directory (ignored)
[bora008.plafrim.cluster:449174] mca_base_component_repository_open: unable to open mca_pml_ucx: libucp.so.0: cannot open shared object file: No such file or directory (ignored)
[bora008.plafrim.cluster:449171] mca_base_component_repository_open: unable to open mca_pml_ucx: libucp.so.0: cannot open shared object file: No such file or directory (ignored)
[bora008.plafrim.cluster:449173] mca_base_component_repository_open: unable to open mca_pml_ucx: libucp.so.0: cannot open shared object file: No such file or directory (ignored)
[bora008.plafrim.cluster:449167] mca_base_component_repository_open: unable to open mca_pml_ucx: libucp.so.0: cannot open shared object file: No such file or directory (ignored)
[bora008.plafrim.cluster:449169] mca_base_component_repository_open: unable to open mca_pml_ucx: libucp.so.0: cannot open shared object file: No such file or directory (ignored)
[bora008.plafrim.cluster:449168] mca_base_component_repository_open: unable to open mca_osc_ucx: libucp.so.0: cannot open shared object file: No such file or directory (ignored)
[bora008.plafrim.cluster:449170] mca_base_component_repository_open: unable to open mca_osc_ucx: libucp.so.0: cannot open shared object file: No such file or directory (ignored)
[bora008.plafrim.cluster:449173] mca_base_component_repository_open: unable to open mca_osc_ucx: libucp.so.0: cannot open shared object file: No such file or directory (ignored)
[bora008.plafrim.cluster:449174] mca_base_component_repository_open: unable to open mca_osc_ucx: libucp.so.0: cannot open shared object file: No such file or directory (ignored)
[bora008.plafrim.cluster:449167] mca_base_component_repository_open: unable to open mca_osc_ucx: libucp.so.0: cannot open shared object file: No such file or directory (ignored)
[bora008.plafrim.cluster:449169] mca_base_component_repository_open: unable to open mca_osc_ucx: libucp.so.0: cannot open shared object file: No such file or directory (ignored)
[bora008.plafrim.cluster:449171] mca_base_component_repository_open: unable to open mca_osc_ucx: libucp.so.0: cannot open shared object file: No such file or directory (ignored)
[bora009.plafrim.cluster:392511] mca_base_component_repository_open: unable to open mca_btl_uct: libucp.so.0: cannot open shared object file: No such file or directory (ignored)
[bora009.plafrim.cluster:392507] mca_base_component_repository_open: unable to open mca_btl_uct: libucp.so.0: cannot open shared object file: No such file or directory (ignored)
[bora009.plafrim.cluster:392505] mca_base_component_repository_open: unable to open mca_btl_uct: libucp.so.0: cannot open shared object file: No such file or directory (ignored)
[bora009.plafrim.cluster:392509] mca_base_component_repository_open: unable to open mca_btl_uct: libucp.so.0: cannot open shared object file: No such file or directory (ignored)
[bora009.plafrim.cluster:392504] mca_base_component_repository_open: unable to open mca_btl_uct: libucp.so.0: cannot open shared object file: No such file or directory (ignored)
[bora009.plafrim.cluster:392510] mca_base_component_repository_open: unable to open mca_btl_uct: libucp.so.0: cannot open shared object file: No such file or directory (ignored)
[bora009.plafrim.cluster:392506] mca_base_component_repository_open: unable to open mca_btl_uct: libucp.so.0: cannot open shared object file: No such file or directory (ignored)
[bora009.plafrim.cluster:392508] mca_base_component_repository_open: unable to open mca_btl_uct: libucp.so.0: cannot open shared object file: No such file or directory (ignored)
[bora009.plafrim.cluster:392507] mca_base_component_repository_open: unable to open mca_pml_ucx: libucp.so.0: cannot open shared object file: No such file or directory (ignored)
[bora009.plafrim.cluster:392509] mca_base_component_repository_open: unable to open mca_pml_ucx: libucp.so.0: cannot open shared object file: No such file or directory (ignored)
[bora009.plafrim.cluster:392511] mca_base_component_repository_open: unable to open mca_pml_ucx: libucp.so.0: cannot open shared object file: No such file or directory (ignored)
[bora009.plafrim.cluster:392505] mca_base_component_repository_open: unable to open mca_pml_ucx: libucp.so.0: cannot open shared object file: No such file or directory (ignored)
[bora009.plafrim.cluster:392504] mca_base_component_repository_open: unable to open mca_pml_ucx: libucp.so.0: cannot open shared object file: No such file or directory (ignored)
[bora009.plafrim.cluster:392510] mca_base_component_repository_open: unable to open mca_pml_ucx: libucp.so.0: cannot open shared object file: No such file or directory (ignored)
[bora009.plafrim.cluster:392506] mca_base_component_repository_open: unable to open mca_pml_ucx: libucp.so.0: cannot open shared object file: No such file or directory (ignored)
[bora009.plafrim.cluster:392508] mca_base_component_repository_open: unable to open mca_pml_ucx: libucp.so.0: cannot open shared object file: No such file or directory (ignored)
[bora009.plafrim.cluster:392508] mca_base_component_repository_open: unable to open mca_osc_ucx: libucp.so.0: cannot open shared object file: No such file or directory (ignored)
[bora009.plafrim.cluster:392510] mca_base_component_repository_open: unable to open mca_osc_ucx: libucp.so.0: cannot open shared object file: No such file or directory (ignored)
[bora009.plafrim.cluster:392506] mca_base_component_repository_open: unable to open mca_osc_ucx: libucp.so.0: cannot open shared object file: No such file or directory (ignored)
[bora009.plafrim.cluster:392504] mca_base_component_repository_open: unable to open mca_osc_ucx: libucp.so.0: cannot open shared object file: No such file or directory (ignored)
[bora009.plafrim.cluster:392509] mca_base_component_repository_open: unable to open mca_osc_ucx: libucp.so.0: cannot open shared object file: No such file or directory (ignored)
[bora009.plafrim.cluster:392505] mca_base_component_repository_open: unable to open mca_osc_ucx: libucp.so.0: cannot open shared object file: No such file or directory (ignored)
[bora009.plafrim.cluster:392507] mca_base_component_repository_open: unable to open mca_osc_ucx: libucp.so.0: cannot open shared object file: No such file or directory (ignored)
[bora009.plafrim.cluster:392511] mca_base_component_repository_open: unable to open mca_osc_ucx: libucp.so.0: cannot open shared object file: No such file or directory (ignored)
[bora008.plafrim.cluster:449310] mca_base_component_repository_open: unable to open mca_btl_uct: libucp.so.0: cannot open shared object file: No such file or directory (ignored)
[bora009.plafrim.cluster:392602] mca_base_component_repository_open: unable to open mca_btl_uct: libucp.so.0: cannot open shared object file: No such file or directory (ignored)
[bora009.plafrim.cluster:392600] mca_base_component_repository_open: unable to open mca_btl_uct: libucp.so.0: cannot open shared object file: No such file or directory (ignored)
[bora009.plafrim.cluster:392604] mca_base_component_repository_open: unable to open mca_btl_uct: libucp.so.0: cannot open shared object file: No such file or directory (ignored)
[bora009.plafrim.cluster:392598] mca_base_component_repository_open: unable to open mca_btl_uct: libucp.so.0: cannot open shared object file: No such file or directory (ignored)
[bora009.plafrim.cluster:392603] mca_base_component_repository_open: unable to open mca_btl_uct: libucp.so.0: cannot open shared object file: No such file or directory (ignored)
[bora009.plafrim.cluster:392597] mca_base_component_repository_open: unable to open mca_btl_uct: libucp.so.0: cannot open shared object file: No such file or directory (ignored)
[bora009.plafrim.cluster:392599] mca_base_component_repository_open: unable to open mca_btl_uct: libucp.so.0: cannot open shared object file: No such file or directory (ignored)
[bora009.plafrim.cluster:392601] mca_base_component_repository_open: unable to open mca_btl_uct: libucp.so.0: cannot open shared object file: No such file or directory (ignored)
[bora009.plafrim.cluster:392602] mca_base_component_repository_open: unable to open mca_pml_ucx: libucp.so.0: cannot open shared object file: No such file or directory (ignored)
[bora009.plafrim.cluster:392604] mca_base_component_repository_open: unable to open mca_pml_ucx: libucp.so.0: cannot open shared object file: No such file or directory (ignored)
[bora009.plafrim.cluster:392600] mca_base_component_repository_open: unable to open mca_pml_ucx: libucp.so.0: cannot open shared object file: No such file or directory (ignored)
[bora009.plafrim.cluster:392603] mca_base_component_repository_open: unable to open mca_pml_ucx: libucp.so.0: cannot open shared object file: No such file or directory (ignored)
[bora009.plafrim.cluster:392598] mca_base_component_repository_open: unable to open mca_pml_ucx: libucp.so.0: cannot open shared object file: No such file or directory (ignored)
[bora009.plafrim.cluster:392599] mca_base_component_repository_open: unable to open mca_pml_ucx: libucp.so.0: cannot open shared object file: No such file or directory (ignored)
[bora009.plafrim.cluster:392597] mca_base_component_repository_open: unable to open mca_pml_ucx: libucp.so.0: cannot open shared object file: No such file or directory (ignored)
[bora009.plafrim.cluster:392601] mca_base_component_repository_open: unable to open mca_pml_ucx: libucp.so.0: cannot open shared object file: No such file or directory (ignored)
[bora009.plafrim.cluster:392599] mca_base_component_repository_open: unable to open mca_osc_ucx: libucp.so.0: cannot open shared object file: No such file or directory (ignored)
[bora009.plafrim.cluster:392602] mca_base_component_repository_open: unable to open mca_osc_ucx: libucp.so.0: cannot open shared object file: No such file or directory (ignored)
[bora009.plafrim.cluster:392603] mca_base_component_repository_open: unable to open mca_osc_ucx: libucp.so.0: cannot open shared object file: No such file or directory (ignored)
[bora009.plafrim.cluster:392604] mca_base_component_repository_open: unable to open mca_osc_ucx: libucp.so.0: cannot open shared object file: No such file or directory (ignored)
[bora009.plafrim.cluster:392601] mca_base_component_repository_open: unable to open mca_osc_ucx: libucp.so.0: cannot open shared object file: No such file or directory (ignored)
[bora008.plafrim.cluster:449308] mca_base_component_repository_open: unable to open mca_btl_uct: libucp.so.0: cannot open shared object file: No such file or directory (ignored)
[bora008.plafrim.cluster:449306] mca_base_component_repository_open: unable to open mca_btl_uct: libucp.so.0: cannot open shared object file: No such file or directory (ignored)
[bora008.plafrim.cluster:449304] mca_base_component_repository_open: unable to open mca_btl_uct: libucp.so.0: cannot open shared object file: No such file or directory (ignored)
[bora008.plafrim.cluster:449307] mca_base_component_repository_open: unable to open mca_btl_uct: libucp.so.0: cannot open shared object file: No such file or directory (ignored)
[bora008.plafrim.cluster:449303] mca_base_component_repository_open: unable to open mca_btl_uct: libucp.so.0: cannot open shared object file: No such file or directory (ignored)
[bora008.plafrim.cluster:449309] mca_base_component_repository_open: unable to open mca_btl_uct: libucp.so.0: cannot open shared object file: No such file or directory (ignored)
[bora008.plafrim.cluster:449310] mca_base_component_repository_open: unable to open mca_pml_ucx: libucp.so.0: cannot open shared object file: No such file or directory (ignored)
[bora008.plafrim.cluster:449305] mca_base_component_repository_open: unable to open mca_btl_uct: libucp.so.0: cannot open shared object file: No such file or directory (ignored)
[bora008.plafrim.cluster:449308] mca_base_component_repository_open: unable to open mca_pml_ucx: libucp.so.0: cannot open shared object file: No such file or directory (ignored)
[bora008.plafrim.cluster:449306] mca_base_component_repository_open: unable to open mca_pml_ucx: libucp.so.0: cannot open shared object file: No such file or directory (ignored)
[bora008.plafrim.cluster:449304] mca_base_component_repository_open: unable to open mca_pml_ucx: libucp.so.0: cannot open shared object file: No such file or directory (ignored)
[bora008.plafrim.cluster:449307] mca_base_component_repository_open: unable to open mca_pml_ucx: libucp.so.0: cannot open shared object file: No such file or directory (ignored)
[bora008.plafrim.cluster:449303] mca_base_component_repository_open: unable to open mca_pml_ucx: libucp.so.0: cannot open shared object file: No such file or directory (ignored)
[bora008.plafrim.cluster:449309] mca_base_component_repository_open: unable to open mca_pml_ucx: libucp.so.0: cannot open shared object file: No such file or directory (ignored)
[bora008.plafrim.cluster:449305] mca_base_component_repository_open: unable to open mca_pml_ucx: libucp.so.0: cannot open shared object file: No such file or directory (ignored)
[bora008.plafrim.cluster:449307] mca_base_component_repository_open: unable to open mca_osc_ucx: libucp.so.0: cannot open shared object file: No such file or directory (ignored)
[bora008.plafrim.cluster:449309] mca_base_component_repository_open: unable to open mca_osc_ucx: libucp.so.0: cannot open shared object file: No such file or directory (ignored)
[bora008.plafrim.cluster:449303] mca_base_component_repository_open: unable to open mca_osc_ucx: libucp.so.0: cannot open shared object file: No such file or directory (ignored)
[bora008.plafrim.cluster:449304] mca_base_component_repository_open: unable to open mca_osc_ucx: libucp.so.0: cannot open shared object file: No such file or directory (ignored)
[bora008.plafrim.cluster:449310] mca_base_component_repository_open: unable to open mca_osc_ucx: libucp.so.0: cannot open shared object file: No such file or directory (ignored)
[bora008.plafrim.cluster:449305] mca_base_component_repository_open: unable to open mca_osc_ucx: libucp.so.0: cannot open shared object file: No such file or directory (ignored)
[bora008.plafrim.cluster:449306] mca_base_component_repository_open: unable to open mca_osc_ucx: libucp.so.0: cannot open shared object file: No such file or directory (ignored)
[bora008.plafrim.cluster:449308] mca_base_component_repository_open: unable to open mca_osc_ucx: libucp.so.0: cannot open shared object file: No such file or directory (ignored)
[bora009.plafrim.cluster:392597] mca_base_component_repository_open: unable to open mca_osc_ucx: libucp.so.0: cannot open shared object file: No such file or directory (ignored)
[bora009.plafrim.cluster:392598] mca_base_component_repository_open: unable to open mca_osc_ucx: libucp.so.0: cannot open shared object file: No such file or directory (ignored)
[bora009.plafrim.cluster:392600] mca_base_component_repository_open: unable to open mca_osc_ucx: libucp.so.0: cannot open shared object file: No such file or directory (ignored)
[bora008.plafrim.cluster:449427] mca_base_component_repository_open: unable to open mca_btl_uct: libucp.so.0: cannot open shared object file: No such file or directory (ignored)
[bora009.plafrim.cluster:392699] mca_base_component_repository_open: unable to open mca_btl_uct: libucp.so.0: cannot open shared object file: No such file or directory (ignored)
[bora009.plafrim.cluster:392701] mca_base_component_repository_open: unable to open mca_btl_uct: libucp.so.0: cannot open shared object file: No such file or directory (ignored)
[bora009.plafrim.cluster:392705] mca_base_component_repository_open: unable to open mca_btl_uct: libucp.so.0: cannot open shared object file: No such file or directory (ignored)
[bora009.plafrim.cluster:392703] mca_base_component_repository_open: unable to open mca_btl_uct: libucp.so.0: cannot open shared object file: No such file or directory (ignored)
[bora009.plafrim.cluster:392702] mca_base_component_repository_open: unable to open mca_btl_uct: libucp.so.0: cannot open shared object file: No such file or directory (ignored)
[bora009.plafrim.cluster:392698] mca_base_component_repository_open: unable to open mca_btl_uct: libucp.so.0: cannot open shared object file: No such file or directory (ignored)
[bora009.plafrim.cluster:392700] mca_base_component_repository_open: unable to open mca_btl_uct: libucp.so.0: cannot open shared object file: No such file or directory (ignored)
[bora009.plafrim.cluster:392704] mca_base_component_repository_open: unable to open mca_btl_uct: libucp.so.0: cannot open shared object file: No such file or directory (ignored)
[bora009.plafrim.cluster:392702] mca_base_component_repository_open: unable to open mca_pml_ucx: libucp.so.0: cannot open shared object file: No such file or directory (ignored)
[bora009.plafrim.cluster:392705] mca_base_component_repository_open: unable to open mca_pml_ucx: libucp.so.0: cannot open shared object file: No such file or directory (ignored)
[bora009.plafrim.cluster:392703] mca_base_component_repository_open: unable to open mca_pml_ucx: libucp.so.0: cannot open shared object file: No such file or directory (ignored)
[bora009.plafrim.cluster:392699] mca_base_component_repository_open: unable to open mca_pml_ucx: libucp.so.0: cannot open shared object file: No such file or directory (ignored)
[bora009.plafrim.cluster:392704] mca_base_component_repository_open: unable to open mca_pml_ucx: libucp.so.0: cannot open shared object file: No such file or directory (ignored)
[bora009.plafrim.cluster:392698] mca_base_component_repository_open: unable to open mca_pml_ucx: libucp.so.0: cannot open shared object file: No such file or directory (ignored)
[bora009.plafrim.cluster:392700] mca_base_component_repository_open: unable to open mca_pml_ucx: libucp.so.0: cannot open shared object file: No such file or directory (ignored)
[bora009.plafrim.cluster:392701] mca_base_component_repository_open: unable to open mca_pml_ucx: libucp.so.0: cannot open shared object file: No such file or directory (ignored)
[bora009.plafrim.cluster:392704] mca_base_component_repository_open: unable to open mca_osc_ucx: libucp.so.0: cannot open shared object file: No such file or directory (ignored)
[bora009.plafrim.cluster:392702] mca_base_component_repository_open: unable to open mca_osc_ucx: libucp.so.0: cannot open shared object file: No such file or directory (ignored)
[bora008.plafrim.cluster:449430] mca_base_component_repository_open: unable to open mca_btl_uct: libucp.so.0: cannot open shared object file: No such file or directory (ignored)
[bora008.plafrim.cluster:449428] mca_base_component_repository_open: unable to open mca_btl_uct: libucp.so.0: cannot open shared object file: No such file or directory (ignored)
[bora008.plafrim.cluster:449432] mca_base_component_repository_open: unable to open mca_btl_uct: libucp.so.0: cannot open shared object file: No such file or directory (ignored)
[bora008.plafrim.cluster:449429] mca_base_component_repository_open: unable to open mca_btl_uct: libucp.so.0: cannot open shared object file: No such file or directory (ignored)
[bora008.plafrim.cluster:449433] mca_base_component_repository_open: unable to open mca_btl_uct: libucp.so.0: cannot open shared object file: No such file or directory (ignored)
[bora008.plafrim.cluster:449434] mca_base_component_repository_open: unable to open mca_btl_uct: libucp.so.0: cannot open shared object file: No such file or directory (ignored)
[bora008.plafrim.cluster:449431] mca_base_component_repository_open: unable to open mca_btl_uct: libucp.so.0: cannot open shared object file: No such file or directory (ignored)
[bora008.plafrim.cluster:449427] mca_base_component_repository_open: unable to open mca_pml_ucx: libucp.so.0: cannot open shared object file: No such file or directory (ignored)
[bora008.plafrim.cluster:449429] mca_base_component_repository_open: unable to open mca_pml_ucx: libucp.so.0: cannot open shared object file: No such file or directory (ignored)
[bora008.plafrim.cluster:449430] mca_base_component_repository_open: unable to open mca_pml_ucx: libucp.so.0: cannot open shared object file: No such file or directory (ignored)
[bora008.plafrim.cluster:449432] mca_base_component_repository_open: unable to open mca_pml_ucx: libucp.so.0: cannot open shared object file: No such file or directory (ignored)
[bora008.plafrim.cluster:449433] mca_base_component_repository_open: unable to open mca_pml_ucx: libucp.so.0: cannot open shared object file: No such file or directory (ignored)
[bora008.plafrim.cluster:449431] mca_base_component_repository_open: unable to open mca_pml_ucx: libucp.so.0: cannot open shared object file: No such file or directory (ignored)
[bora008.plafrim.cluster:449434] mca_base_component_repository_open: unable to open mca_pml_ucx: libucp.so.0: cannot open shared object file: No such file or directory (ignored)
[bora008.plafrim.cluster:449428] mca_base_component_repository_open: unable to open mca_pml_ucx: libucp.so.0: cannot open shared object file: No such file or directory (ignored)
[bora008.plafrim.cluster:449432] mca_base_component_repository_open: unable to open mca_osc_ucx: libucp.so.0: cannot open shared object file: No such file or directory (ignored)
[bora008.plafrim.cluster:449434] mca_base_component_repository_open: unable to open mca_osc_ucx: libucp.so.0: cannot open shared object file: No such file or directory (ignored)
[bora008.plafrim.cluster:449428] mca_base_component_repository_open: unable to open mca_osc_ucx: libucp.so.0: cannot open shared object file: No such file or directory (ignored)
[bora008.plafrim.cluster:449429] mca_base_component_repository_open: unable to open mca_osc_ucx: libucp.so.0: cannot open shared object file: No such file or directory (ignored)
[bora008.plafrim.cluster:449430] mca_base_component_repository_open: unable to open mca_osc_ucx: libucp.so.0: cannot open shared object file: No such file or directory (ignored)
[bora008.plafrim.cluster:449431] mca_base_component_repository_open: unable to open mca_osc_ucx: libucp.so.0: cannot open shared object file: No such file or directory (ignored)
[bora008.plafrim.cluster:449427] mca_base_component_repository_open: unable to open mca_osc_ucx: libucp.so.0: cannot open shared object file: No such file or directory (ignored)
[bora008.plafrim.cluster:449433] mca_base_component_repository_open: unable to open mca_osc_ucx: libucp.so.0: cannot open shared object file: No such file or directory (ignored)
[bora009.plafrim.cluster:392700] mca_base_component_repository_open: unable to open mca_osc_ucx: libucp.so.0: cannot open shared object file: No such file or directory (ignored)
[bora009.plafrim.cluster:392701] mca_base_component_repository_open: unable to open mca_osc_ucx: libucp.so.0: cannot open shared object file: No such file or directory (ignored)
[bora009.plafrim.cluster:392703] mca_base_component_repository_open: unable to open mca_osc_ucx: libucp.so.0: cannot open shared object file: No such file or directory (ignored)
[bora009.plafrim.cluster:392698] mca_base_component_repository_open: unable to open mca_osc_ucx: libucp.so.0: cannot open shared object file: No such file or directory (ignored)
[bora009.plafrim.cluster:392699] mca_base_component_repository_open: unable to open mca_osc_ucx: libucp.so.0: cannot open shared object file: No such file or directory (ignored)
[bora009.plafrim.cluster:392705] mca_base_component_repository_open: unable to open mca_osc_ucx: libucp.so.0: cannot open shared object file: No such file or directory (ignored)
