"","allsame","bw","app"
"1","False",4337,"A"
"2","True",4464,"A"
"3","False",4702,"A"
"4","False",4555,"A"
"5","False",4547,"A"
"6","True",4560,"A"
"7","False",4622,"A"
"8","False",4399,"A"
"9","True",4484,"A"
"10","False",4637,"A"
"11","False",4528,"A"
"12","True",4414,"A"
"13","False",4710,"A"
"14","True",4771,"A"
"15","False",4510,"A"
"16","False",4393,"A"
"17","False",4733,"A"
"18","True",4605,"A"
"19","False",4413,"A"
"20","False",4501,"A"
"21","True",4610,"A"
"22","False",4632,"A"
"23","False",4522,"A"
"24","True",4376,"A"
"25","False",4569,"A"
"26","True",4830,"A"
"27","False",4544,"A"
"28","False",5179,"A"
"29","False",4347,"A"
"30","True",4486,"A"
"31","False",4772,"A"
"32","True",4767,"A"
"33","False",4640,"A"
"34","False",4508,"A"
"35","False",4375,"A"
"36","True",4719,"A"
"37","False",4629,"A"
"38","True",4849,"A"
"39","False",4481,"A"
"40","False",4435,"A"
"41","True",4552,"A"
"42","False",4557,"A"
"43","False",4512,"A"
"44","True",4612,"A"
"45","False",4422,"A"
"46","False",4632,"A"
"47","False",4540,"A"
"48","True",4519,"A"
"49","False",4580,"A"
"50","False",4604,"A"
"51","True",4949,"A"
"52","False",4420,"A"
"53","False",4654,"A"
"54","True",4288,"A"
"55","False",4542,"A"
"56","True",4671,"A"
"57","False",4368,"A"
"58","False",4641,"A"
"59","False",4510,"A"
"60","True",4616,"A"
"61","False",4613,"A"
"62","True",4507,"A"
"63","False",4712,"A"
"64","False",4733,"A"
"65","True",4563,"A"
"66","False",4521,"A"
"67","False",4564,"A"
"68","True",4573,"A"
"69","False",4470,"A"
"70","False",4568,"A"
"71","False",4497,"A"
"72","True",4577,"A"
"73","False",4507,"A"
"74","True",4350,"A"
"75","False",4651,"A"
"76","False",4674,"A"
"77","True",4519,"A"
"78","False",4704,"A"
"79","False",4432,"A"
"80","True",4425,"A"
"81","False",4557,"A"
"82","False",4826,"A"
"83","True",4495,"A"
"84","False",4472,"A"
"85","False",4608,"A"
"86","True",4503,"A"
"87","False",4598,"A"
"88","False",4685,"A"
"89","True",4414,"A"
"90","False",4671,"A"
"91","False",4394,"A"
"92","True",4589,"A"
"93","False",4475,"A"
"94","False",4439,"A"
"95","False",4582,"A"
"96","True",4495,"A"
"97","False",4458,"A"
"98","True",4462,"A"
"99","False",4377,"A"
"100","False",4330,"A"
"101","False",4253,"B"
"102","True",4418,"B"
"103","False",4496,"B"
"104","False",4424,"B"
"105","False",4362,"B"
"106","True",4373,"B"
"107","False",4437,"B"
"108","False",4428,"B"
"109","True",4487,"B"
"110","False",4214,"B"
"111","False",4432,"B"
"112","True",4464,"B"
"113","False",4230,"B"
"114","True",4360,"B"
"115","False",4353,"B"
"116","False",4235,"B"
"117","False",4344,"B"
"118","True",4461,"B"
"119","False",4729,"B"
"120","False",4304,"B"
"121","True",4514,"B"
"122","False",4588,"B"
"123","False",4278,"B"
"124","True",4472,"B"
"125","False",4222,"B"
"126","True",4259,"B"
"127","False",4345,"B"
"128","False",4265,"B"
"129","False",4464,"B"
"130","True",4529,"B"
"131","False",4424,"B"
"132","True",4323,"B"
"133","False",4379,"B"
"134","False",4560,"B"
"135","False",4364,"B"
"136","True",4425,"B"
"137","False",4544,"B"
"138","True",4278,"B"
"139","False",4507,"B"
"140","False",4228,"B"
"141","True",4265,"B"
"142","False",4525,"B"
"143","False",4292,"B"
"144","True",4282,"B"
"145","False",4278,"B"
"146","False",4501,"B"
"147","False",4307,"B"
"148","True",4348,"B"
"149","False",4206,"B"
"150","False",4394,"B"
"151","True",4343,"B"
"152","False",4272,"B"
"153","False",4294,"B"
"154","True",4171,"B"
"155","False",4243,"B"
"156","True",4401,"B"
"157","False",4222,"B"
"158","False",4459,"B"
"159","False",4473,"B"
"160","True",4281,"B"
"161","False",4416,"B"
"162","True",4154,"B"
"163","False",4244,"B"
"164","False",4344,"B"
"165","True",4224,"B"
"166","False",4504,"B"
"167","False",4558,"B"
"168","True",4336,"B"
"169","False",4315,"B"
"170","False",4485,"B"
"171","False",4425,"B"
"172","True",4474,"B"
"173","False",4433,"B"
"174","True",4526,"B"
"175","False",4442,"B"
"176","False",4419,"B"
"177","True",4371,"B"
"178","False",4196,"B"
"179","False",4656,"B"
"180","True",4212,"B"
"181","False",4542,"B"
"182","False",4303,"B"
"183","True",4482,"B"
"184","False",4169,"B"
"185","False",4333,"B"
"186","True",4356,"B"
"187","False",4251,"B"
"188","False",4452,"B"
"189","True",4228,"B"
"190","False",4207,"B"
"191","False",4343,"B"
"192","True",4416,"B"
"193","False",4358,"B"
"194","False",4283,"B"
"195","False",4431,"B"
"196","True",4273,"B"
"197","False",4211,"B"
"198","True",4309,"B"
"199","False",4310,"B"
"200","False",4356,"B"
