===== My JOB Information ====
Node List:  bora[003-006]
my jobID:  1461288
Partition: routage
submit directory:  /home/lgouveia/luan-teylo/tests/omnipath/file_size/11
submit host:  devel01.plafrim.cluster
In the directory: /home/lgouveia/luan-teylo/tests/omnipath/file_size/11
As the user: lgouveia
============================
IOR-3.4.0+dev: MPI Coordinated Test of Parallel I/O
Began               : Tue Nov 23 20:37:09 2021
Command line        : /home/lgouveia/ior/bin/ior -w -t 1m -b 32768m -k -o /beegfs/lgouveia/ior_4/testFile1
Machine             : Linux bora003.plafrim.cluster
TestID              : 0
StartTime           : Tue Nov 23 20:37:09 2021
Path                : /beegfs/lgouveia/ior_4/testFile1
FS                  : 130.9 TiB   Used FS: 33.8%   Inodes: 0.0 Mi   Used Inodes: -nan%

Options: 
api                 : POSIX
apiVersion          : 
test filename       : /beegfs/lgouveia/ior_4/testFile1
access              : single-shared-file
type                : independent
segments            : 1
ordering in a file  : sequential
ordering inter file : no tasks offsets
nodes               : 4
tasks               : 32
clients per node    : 8
repetitions         : 1
xfersize            : 1 MiB
blocksize           : 32 GiB
aggregate filesize  : 1 TiB

Results: 
WARNING: The file "/beegfs/lgouveia/ior_4/testFile1" exists already and will be overwritten

access    bw(MiB/s)  IOPS       Latency(s)  block(KiB) xfer(KiB)  open(s)    wr/rd(s)   close(s)   total(s)   iter
------    ---------  ----       ----------  ---------- ---------  --------   --------   --------   --------   ----
write     3374.16    3374.17    0.004466    33554432   1024.00    0.005507   310.77     253.39     310.77     0   

Summary of all tests:
Operation   Max(MiB)   Min(MiB)  Mean(MiB)     StdDev   Max(OPs)   Min(OPs)  Mean(OPs)     StdDev    Mean(s) Stonewall(s) Stonewall(MiB) Test# #Tasks tPN reps fPP reord reordoff reordrand seed segcnt   blksiz    xsize aggs(MiB)   API RefNum
write        3374.16    3374.16    3374.16       0.00    3374.16    3374.16    3374.16       0.00  310.76698         NA            NA     0     32   8    1   0     0        1         0    0      1 34359738368  1048576 1048576.0 POSIX      0
Finished            : Tue Nov 23 20:42:19 2021
Tracking /beegfs/lgouveia/ior_4/testFile1...



Writing tracked information to tracker.csv...
IOR-3.4.0+dev: MPI Coordinated Test of Parallel I/O
Began               : Tue Nov 23 20:43:23 2021
Command line        : /home/lgouveia/ior/bin/ior -w -t 1m -b 32768m -k -o /beegfs/lgouveia/ior_4/testFile1
Machine             : Linux bora003.plafrim.cluster
TestID              : 0
StartTime           : Tue Nov 23 20:43:23 2021
Path                : /beegfs/lgouveia/ior_4/testFile1
FS                  : 130.9 TiB   Used FS: 34.2%   Inodes: 0.0 Mi   Used Inodes: -nan%

Options: 
api                 : POSIX
apiVersion          : 
test filename       : /beegfs/lgouveia/ior_4/testFile1
access              : single-shared-file
type                : independent
segments            : 1
ordering in a file  : sequential
ordering inter file : no tasks offsets
nodes               : 4
tasks               : 32
clients per node    : 8
repetitions         : 1
xfersize            : 1 MiB
blocksize           : 32 GiB
aggregate filesize  : 1 TiB

Results: 
WARNING: The file "/beegfs/lgouveia/ior_4/testFile1" exists already and will be overwritten

access    bw(MiB/s)  IOPS       Latency(s)  block(KiB) xfer(KiB)  open(s)    wr/rd(s)   close(s)   total(s)   iter
------    ---------  ----       ----------  ---------- ---------  --------   --------   --------   --------   ----
write     3813       3813       0.003996    33554432   1024.00    0.005040   275.02     221.61     275.02     0   

Summary of all tests:
Operation   Max(MiB)   Min(MiB)  Mean(MiB)     StdDev   Max(OPs)   Min(OPs)  Mean(OPs)     StdDev    Mean(s) Stonewall(s) Stonewall(MiB) Test# #Tasks tPN reps fPP reord reordoff reordrand seed segcnt   blksiz    xsize aggs(MiB)   API RefNum
write        3812.76    3812.76    3812.76       0.00    3812.76    3812.76    3812.76       0.00  275.01773         NA            NA     0     32   8    1   0     0        1         0    0      1 34359738368  1048576 1048576.0 POSIX      0
Finished            : Tue Nov 23 20:47:58 2021
Tracking /beegfs/lgouveia/ior_4/testFile1...



Writing tracked information to tracker.csv...
IOR-3.4.0+dev: MPI Coordinated Test of Parallel I/O
Began               : Tue Nov 23 20:48:59 2021
Command line        : /home/lgouveia/ior/bin/ior -w -t 1m -b 32768m -k -o /beegfs/lgouveia/ior_4/testFile1
Machine             : Linux bora003.plafrim.cluster
TestID              : 0
StartTime           : Tue Nov 23 20:48:59 2021
Path                : /beegfs/lgouveia/ior_4/testFile1
FS                  : 130.9 TiB   Used FS: 34.2%   Inodes: 0.0 Mi   Used Inodes: -nan%

Options: 
api                 : POSIX
apiVersion          : 
test filename       : /beegfs/lgouveia/ior_4/testFile1
access              : single-shared-file
type                : independent
segments            : 1
ordering in a file  : sequential
ordering inter file : no tasks offsets
nodes               : 4
tasks               : 32
clients per node    : 8
repetitions         : 1
xfersize            : 1 MiB
blocksize           : 32 GiB
aggregate filesize  : 1 TiB

Results: 
WARNING: The file "/beegfs/lgouveia/ior_4/testFile1" exists already and will be overwritten

access    bw(MiB/s)  IOPS       Latency(s)  block(KiB) xfer(KiB)  open(s)    wr/rd(s)   close(s)   total(s)   iter
------    ---------  ----       ----------  ---------- ---------  --------   --------   --------   --------   ----
write     3523.71    3523.72    0.006144    33554432   1024.00    0.005134   297.58     226.17     297.58     0   

Summary of all tests:
Operation   Max(MiB)   Min(MiB)  Mean(MiB)     StdDev   Max(OPs)   Min(OPs)  Mean(OPs)     StdDev    Mean(s) Stonewall(s) Stonewall(MiB) Test# #Tasks tPN reps fPP reord reordoff reordrand seed segcnt   blksiz    xsize aggs(MiB)   API RefNum
write        3523.71    3523.71    3523.71       0.00    3523.71    3523.71    3523.71       0.00  297.57742         NA            NA     0     32   8    1   0     0        1         0    0      1 34359738368  1048576 1048576.0 POSIX      0
Finished            : Tue Nov 23 20:53:56 2021
Tracking /beegfs/lgouveia/ior_4/testFile1...



Writing tracked information to tracker.csv...
IOR-3.4.0+dev: MPI Coordinated Test of Parallel I/O
Began               : Tue Nov 23 20:54:57 2021
Command line        : /home/lgouveia/ior/bin/ior -w -t 1m -b 32768m -k -o /beegfs/lgouveia/ior_4/testFile1
Machine             : Linux bora003.plafrim.cluster
TestID              : 0
StartTime           : Tue Nov 23 20:54:57 2021
Path                : /beegfs/lgouveia/ior_4/testFile1
FS                  : 130.9 TiB   Used FS: 34.2%   Inodes: 0.0 Mi   Used Inodes: -nan%

Options: 
api                 : POSIX
apiVersion          : 
test filename       : /beegfs/lgouveia/ior_4/testFile1
access              : single-shared-file
type                : independent
segments            : 1
ordering in a file  : sequential
ordering inter file : no tasks offsets
nodes               : 4
tasks               : 32
clients per node    : 8
repetitions         : 1
xfersize            : 1 MiB
blocksize           : 32 GiB
aggregate filesize  : 1 TiB

Results: 
WARNING: The file "/beegfs/lgouveia/ior_4/testFile1" exists already and will be overwritten

access    bw(MiB/s)  IOPS       Latency(s)  block(KiB) xfer(KiB)  open(s)    wr/rd(s)   close(s)   total(s)   iter
------    ---------  ----       ----------  ---------- ---------  --------   --------   --------   --------   ----
write     3773       3773       0.003025    33554432   1024.00    0.004582   277.90     225.05     277.90     0   

Summary of all tests:
Operation   Max(MiB)   Min(MiB)  Mean(MiB)     StdDev   Max(OPs)   Min(OPs)  Mean(OPs)     StdDev    Mean(s) Stonewall(s) Stonewall(MiB) Test# #Tasks tPN reps fPP reord reordoff reordrand seed segcnt   blksiz    xsize aggs(MiB)   API RefNum
write        3773.15    3773.15    3773.15       0.00    3773.15    3773.15    3773.15       0.00  277.90438         NA            NA     0     32   8    1   0     0        1         0    0      1 34359738368  1048576 1048576.0 POSIX      0
Finished            : Tue Nov 23 20:59:35 2021
Tracking /beegfs/lgouveia/ior_4/testFile1...



Writing tracked information to tracker.csv...
IOR-3.4.0+dev: MPI Coordinated Test of Parallel I/O
Began               : Tue Nov 23 21:00:36 2021
Command line        : /home/lgouveia/ior/bin/ior -w -t 1m -b 32768m -k -o /beegfs/lgouveia/ior_4/testFile1
Machine             : Linux bora003.plafrim.cluster
TestID              : 0
StartTime           : Tue Nov 23 21:00:36 2021
Path                : /beegfs/lgouveia/ior_4/testFile1
FS                  : 130.9 TiB   Used FS: 34.2%   Inodes: 0.0 Mi   Used Inodes: -nan%

Options: 
api                 : POSIX
apiVersion          : 
test filename       : /beegfs/lgouveia/ior_4/testFile1
access              : single-shared-file
type                : independent
segments            : 1
ordering in a file  : sequential
ordering inter file : no tasks offsets
nodes               : 4
tasks               : 32
clients per node    : 8
repetitions         : 1
xfersize            : 1 MiB
blocksize           : 32 GiB
aggregate filesize  : 1 TiB

Results: 
WARNING: The file "/beegfs/lgouveia/ior_4/testFile1" exists already and will be overwritten

access    bw(MiB/s)  IOPS       Latency(s)  block(KiB) xfer(KiB)  open(s)    wr/rd(s)   close(s)   total(s)   iter
------    ---------  ----       ----------  ---------- ---------  --------   --------   --------   --------   ----
write     3885       3885       0.003063    33554432   1024.00    0.005392   269.93     221.77     269.93     0   

Summary of all tests:
Operation   Max(MiB)   Min(MiB)  Mean(MiB)     StdDev   Max(OPs)   Min(OPs)  Mean(OPs)     StdDev    Mean(s) Stonewall(s) Stonewall(MiB) Test# #Tasks tPN reps fPP reord reordoff reordrand seed segcnt   blksiz    xsize aggs(MiB)   API RefNum
write        3884.60    3884.60    3884.60       0.00    3884.60    3884.60    3884.60       0.00  269.93161         NA            NA     0     32   8    1   0     0        1         0    0      1 34359738368  1048576 1048576.0 POSIX      0
Finished            : Tue Nov 23 21:05:06 2021
Tracking /beegfs/lgouveia/ior_4/testFile1...



Writing tracked information to tracker.csv...
IOR-3.4.0+dev: MPI Coordinated Test of Parallel I/O
Began               : Tue Nov 23 21:06:07 2021
Command line        : /home/lgouveia/ior/bin/ior -w -t 1m -b 32768m -k -o /beegfs/lgouveia/ior_4/testFile1
Machine             : Linux bora003.plafrim.cluster
TestID              : 0
StartTime           : Tue Nov 23 21:06:07 2021
Path                : /beegfs/lgouveia/ior_4/testFile1
FS                  : 130.9 TiB   Used FS: 34.2%   Inodes: 0.0 Mi   Used Inodes: -nan%

Options: 
api                 : POSIX
apiVersion          : 
test filename       : /beegfs/lgouveia/ior_4/testFile1
access              : single-shared-file
type                : independent
segments            : 1
ordering in a file  : sequential
ordering inter file : no tasks offsets
nodes               : 4
tasks               : 32
clients per node    : 8
repetitions         : 1
xfersize            : 1 MiB
blocksize           : 32 GiB
aggregate filesize  : 1 TiB

Results: 
WARNING: The file "/beegfs/lgouveia/ior_4/testFile1" exists already and will be overwritten
ERROR: write(16, 0x2b6c21b00000, 1048576) failed, (aiori-POSIX.c:625)
ERROR: write(16, 0x2b9a7e9b5000, 1048576) failed, (aiori-POSIX.c:625)
ERROR: write(16, 0x2ba5cd8f7000, 1048576) failed, (aiori-POSIX.c:625)
ERROR: write(16, 0x2af99ea3e000, 1048576) failed, (aiori-POSIX.c:625)
ERROR: write(17, 0x2abe35ca6000, 1048576) failed, (aiori-POSIX.c:625)
ERROR: write(16, 0x2b830be79000, 1048576) failed, (aiori-POSIX.c:625)
ERROR: write(16, 0x2b7cd154e000, 1048576) failed, (aiori-POSIX.c:625)
ERROR: write(16, 0x2b6bc7ee0000, 1048576) failed, (aiori-POSIX.c:625)
ERROR: write(18, 0x2b45f5a7d000, 1048576) failed, (aiori-POSIX.c:625)
ERROR: write(17, 0x2b5e6b8be000, 1048576) failed, (aiori-POSIX.c:625)
ERROR: write(16, 0x2b9113e0a000, 1048576) failed, (aiori-POSIX.c:625)
ERROR: write(16, 0x2b522aa34000, 1048576) failed, (aiori-POSIX.c:625)
ERROR: write(17, 0x2b07963c8000, 1048576) failed, (aiori-POSIX.c:625)
ERROR: write(15, 0x2b6caf596000, 1048576) failed, (aiori-POSIX.c:625)
ERROR: write(16, 0x2b05dda4f000, 1048576) failed, (aiori-POSIX.c:625)
ERROR: write(15, 0x2b1369180000, 1048576) failed, (aiori-POSIX.c:625)
ERROR: write(16, 0x2b8089a40000, 1048576) failed, (aiori-POSIX.c:625)
ERROR: write(16, 0x2ac19feae000, 1048576) failed, (aiori-POSIX.c:625)
ERROR: write(16, 0x2ae0a9512000, 1048576) failed, (aiori-POSIX.c:625)
ERROR: write(15, 0x2aba4aabb000, 1048576) failed, (aiori-POSIX.c:625)
ERROR: write(16, 0x2b5fd376e000, 1048576) failed, (aiori-POSIX.c:625)
ERROR: write(16, 0x2b4387a09000, 1048576) failed, (aiori-POSIX.c:625)
ERROR: write(16, 0x2b852ab86000, 1048576) failed, (aiori-POSIX.c:625)

access    bw(MiB/s)  IOPS       Latency(s)  block(KiB) xfer(KiB)  open(s)    wr/rd(s)   close(s)   total(s)   iter
------    ---------  ----       ----------  ---------- ---------  --------   --------   --------   --------   ----
ERROR: write(16, 0x2b123ceba000, 1048576) failed, (aiori-POSIX.c:625)
Tracking /beegfs/lgouveia/ior_4/testFile1...



Writing tracked information to tracker.csv...
IOR-3.4.0+dev: MPI Coordinated Test of Parallel I/O
Began               : Tue Nov 23 21:07:23 2021
Command line        : /home/lgouveia/ior/bin/ior -w -t 1m -b 32768m -k -o /beegfs/lgouveia/ior_4/testFile1
Machine             : Linux bora003.plafrim.cluster
TestID              : 0
StartTime           : Tue Nov 23 21:07:23 2021
Path                : /beegfs/lgouveia/ior_4/testFile1
FS                  : 130.9 TiB   Used FS: 33.4%   Inodes: 0.0 Mi   Used Inodes: -nan%

Options: 
api                 : POSIX
apiVersion          : 
test filename       : /beegfs/lgouveia/ior_4/testFile1
access              : single-shared-file
type                : independent
segments            : 1
ordering in a file  : sequential
ordering inter file : no tasks offsets
nodes               : 4
tasks               : 32
clients per node    : 8
repetitions         : 1
xfersize            : 1 MiB
blocksize           : 32 GiB
aggregate filesize  : 1 TiB

Results: 
WARNING: The file "/beegfs/lgouveia/ior_4/testFile1" exists already and will be overwritten
ERROR: write(15, 0x2b1a51448000, 1048576) failed, (aiori-POSIX.c:625)
ERROR: write(15, 0x2b320e1d2000, 1048576) failed, (aiori-POSIX.c:625)
ERROR: write(16, 0x2b9c8eded000, 1048576) failed, (aiori-POSIX.c:625)
ERROR: write(16, 0x2aba1a221000, 1048576) failed, (aiori-POSIX.c:625)
ERROR: write(16, 0x2b5df3543000, 1048576) failed, (aiori-POSIX.c:625)
ERROR: write(16, 0x2b61bfed5000, 1048576) failed, (aiori-POSIX.c:625)
ERROR: write(16, 0x2ab073b79000, 1048576) failed, (aiori-POSIX.c:625)
ERROR: write(17, 0x2b578e603000, 1048576) failed, (aiori-POSIX.c:625)
ERROR: write(16, 0x2b9a358ef000, 1048576) failed, (aiori-POSIX.c:625)
ERROR: write(16, 0x2af533be8000, 1048576) failed, (aiori-POSIX.c:625)
ERROR: write(16, 0x2b9611aa6000, 1048576) failed, (aiori-POSIX.c:625)
ERROR: write(16, 0x2b070a25d000, 1048576) failed, (aiori-POSIX.c:625)
ERROR: write(16, 0x2b011201c000, 1048576) failed, (aiori-POSIX.c:625)
ERROR: write(16, 0x2b994be6f000, 1048576) failed, (aiori-POSIX.c:625)
ERROR: write(17, 0x2ba985630000, 1048576) failed, (aiori-POSIX.c:625)
ERROR: write(18, 0x2b1d4d8b0000, 1048576) failed, (aiori-POSIX.c:625)

access    bw(MiB/s)  IOPS       Latency(s)  block(KiB) xfer(KiB)  open(s)    wr/rd(s)   close(s)   total(s)   iter
------    ---------  ----       ----------  ---------- ---------  --------   --------   --------   --------   ----
ERROR: write(16, 0x2b0ba7eb2000, 1048576) failed, (aiori-POSIX.c:625)
ERROR: write(16, 0x2b3edb27e000, 1048576) failed, (aiori-POSIX.c:625)
ERROR: write(16, 0x2aaae56b0000, 1048576) failed, (aiori-POSIX.c:625)
ERROR: write(15, 0x2addedee5000, 1048576) failed, (aiori-POSIX.c:625)
ERROR: write(16, 0x2b80fbe05000, 1048576) failed, (aiori-POSIX.c:625)
ERROR: write(16, 0x2b1b37e5f000, 1048576) failed, (aiori-POSIX.c:625)
ERROR: write(16, 0x2ab9931b8000, 1048576) failed, (aiori-POSIX.c:625)
Tracking /beegfs/lgouveia/ior_4/testFile1...



Writing tracked information to tracker.csv...
IOR-3.4.0+dev: MPI Coordinated Test of Parallel I/O
Began               : Tue Nov 23 21:08:26 2021
Command line        : /home/lgouveia/ior/bin/ior -w -t 1m -b 32768m -k -o /beegfs/lgouveia/ior_4/testFile1
Machine             : Linux bora003.plafrim.cluster
TestID              : 0
StartTime           : Tue Nov 23 21:08:26 2021
Path                : /beegfs/lgouveia/ior_4/testFile1
FS                  : 130.9 TiB   Used FS: 33.4%   Inodes: 0.0 Mi   Used Inodes: -nan%

Options: 
api                 : POSIX
apiVersion          : 
test filename       : /beegfs/lgouveia/ior_4/testFile1
access              : single-shared-file
type                : independent
segments            : 1
ordering in a file  : sequential
ordering inter file : no tasks offsets
nodes               : 4
tasks               : 32
clients per node    : 8
repetitions         : 1
xfersize            : 1 MiB
blocksize           : 32 GiB
aggregate filesize  : 1 TiB

Results: 
WARNING: The file "/beegfs/lgouveia/ior_4/testFile1" exists already and will be overwritten
ERROR: write(15, 0x2b95ca5e5000, 1048576) failed, (aiori-POSIX.c:625)
ERROR: write(16, 0x2ba922367000, 1048576) failed, (aiori-POSIX.c:625)
ERROR: write(16, 0x2b8f4223e000, 1048576) failed, (aiori-POSIX.c:625)
ERROR: write(15, 0x2ac1e9657000, 1048576) failed, (aiori-POSIX.c:625)
ERROR: write(16, 0x2b80a5066000, 1048576) failed, (aiori-POSIX.c:625)
ERROR: write(16, 0x2ae6d5cde000, 1048576) failed, (aiori-POSIX.c:625)
ERROR: write(16, 0x2b0dfe187000, 1048576) failed, (aiori-POSIX.c:625)
ERROR: write(16, 0x2b34c5a48000, 1048576) failed, (aiori-POSIX.c:625)
ERROR: write(16, 0x2aec37c04000, 1048576) failed, (aiori-POSIX.c:625)
ERROR: write(16, 0x2b9e433b2000, 1048576) failed, (aiori-POSIX.c:625)

access    bw(MiB/s)  IOPS       Latency(s)  block(KiB) xfer(KiB)  open(s)    wr/rd(s)   close(s)   total(s)   iter
------    ---------  ----       ----------  ---------- ---------  --------   --------   --------   --------   ----
ERROR: write(16, 0x2b5e1dc4c000, 1048576) failed, (aiori-POSIX.c:625)
ERROR: write(17, 0x2b7fb924d000, 1048576) failed, (aiori-POSIX.c:625)
ERROR: write(15, 0x2b1ccbc5b000, 1048576) failed, (aiori-POSIX.c:625)
ERROR: write(13, 0x2ad441df3000, 1048576) failed, (aiori-POSIX.c:625)
ERROR: write(16, 0x2b6439d64000, 1048576) failed, (aiori-POSIX.c:625)
ERROR: write(17, 0x2b45db978000, 1048576) failed, (aiori-POSIX.c:625)
ERROR: write(16, 0x2b4acde89000, 1048576) failed, (aiori-POSIX.c:625)
ERROR: write(13, 0x2b208dbe8000, 1048576) failed, (aiori-POSIX.c:625)
ERROR: write(15, 0x2b978f12d000, 1048576) failed, (aiori-POSIX.c:625)
Tracking /beegfs/lgouveia/ior_4/testFile1...



Writing tracked information to tracker.csv...
IOR-3.4.0+dev: MPI Coordinated Test of Parallel I/O
Began               : Tue Nov 23 21:09:27 2021
Command line        : /home/lgouveia/ior/bin/ior -w -t 1m -b 32768m -k -o /beegfs/lgouveia/ior_4/testFile1
Machine             : Linux bora003.plafrim.cluster
TestID              : 0
StartTime           : Tue Nov 23 21:09:27 2021
Path                : /beegfs/lgouveia/ior_4/testFile1
FS                  : 130.9 TiB   Used FS: 33.4%   Inodes: 0.0 Mi   Used Inodes: -nan%

Options: 
api                 : POSIX
apiVersion          : 
test filename       : /beegfs/lgouveia/ior_4/testFile1
access              : single-shared-file
type                : independent
segments            : 1
ordering in a file  : sequential
ordering inter file : no tasks offsets
nodes               : 4
tasks               : 32
clients per node    : 8
repetitions         : 1
xfersize            : 1 MiB
blocksize           : 32 GiB
aggregate filesize  : 1 TiB

Results: 
WARNING: The file "/beegfs/lgouveia/ior_4/testFile1" exists already and will be overwritten
ERROR: write(15, 0x2ad7b9ade000, 1048576) failed, (aiori-POSIX.c:625)
ERROR: write(16, 0x2afb5b63a000, 1048576) failed, (aiori-POSIX.c:625)
ERROR: write(16, 0x2abac5d47000, 1048576) failed, (aiori-POSIX.c:625)
ERROR: write(15, 0x2ade55c3f000, 1048576) failed, (aiori-POSIX.c:625)
ERROR: write(16, 0x2ba461199000, 1048576) failed, (aiori-POSIX.c:625)
ERROR: write(16, 0x2b88e5a57000, 1048576) failed, (aiori-POSIX.c:625)

access    bw(MiB/s)  IOPS       Latency(s)  block(KiB) xfer(KiB)  open(s)    wr/rd(s)   close(s)   total(s)   iter
------    ---------  ----       ----------  ---------- ---------  --------   --------   --------   --------   ----
ERROR: write(16, 0x2ad3f8c1a000, 1048576) failed, (aiori-POSIX.c:625)
ERROR: write(15, 0x2b5c15a40000, 1048576) failed, (aiori-POSIX.c:625)
ERROR: write(15, 0x2b42f6827000, 1048576) failed, (aiori-POSIX.c:625)
ERROR: write(16, 0x2b2dfd791000, 1048576) failed, (aiori-POSIX.c:625)
ERROR: write(13, 0x2adee8fa6000, 1048576) failed, (aiori-POSIX.c:625)
ERROR: write(17, 0x2b2e2656e000, 1048576) failed, (aiori-POSIX.c:625)
ERROR: write(16, 0x2b56adc4c000, 1048576) failed, (aiori-POSIX.c:625)
ERROR: write(16, 0x2b005ea97000, 1048576) failed, (aiori-POSIX.c:625)
Tracking /beegfs/lgouveia/ior_4/testFile1...



Writing tracked information to tracker.csv...
IOR-3.4.0+dev: MPI Coordinated Test of Parallel I/O
Began               : Tue Nov 23 21:10:28 2021
Command line        : /home/lgouveia/ior/bin/ior -w -t 1m -b 32768m -k -o /beegfs/lgouveia/ior_4/testFile1
Machine             : Linux bora003.plafrim.cluster
TestID              : 0
StartTime           : Tue Nov 23 21:10:28 2021
Path                : /beegfs/lgouveia/ior_4/testFile1
FS                  : 130.9 TiB   Used FS: 33.4%   Inodes: 0.0 Mi   Used Inodes: -nan%

Options: 
api                 : POSIX
apiVersion          : 
test filename       : /beegfs/lgouveia/ior_4/testFile1
access              : single-shared-file
type                : independent
segments            : 1
ordering in a file  : sequential
ordering inter file : no tasks offsets
nodes               : 4
tasks               : 32
clients per node    : 8
repetitions         : 1
xfersize            : 1 MiB
blocksize           : 32 GiB
aggregate filesize  : 1 TiB

Results: 
WARNING: The file "/beegfs/lgouveia/ior_4/testFile1" exists already and will be overwritten
ERROR: write(15, 0x2b9ce3b46000, 1048576) failed, (aiori-POSIX.c:625)
ERROR: write(16, 0x2b3bbcc1a000, 1048576) failed, (aiori-POSIX.c:625)
ERROR: write(16, 0x2b53d7eef000, 1048576) failed, (aiori-POSIX.c:625)
ERROR: write(15, 0x2aea0d5c8000, 1048576) failed, (aiori-POSIX.c:625)
ERROR: write(16, 0x2b084a883000, 1048576) failed, (aiori-POSIX.c:625)
ERROR: write(16, 0x2b4b89d3e000, 1048576) failed, (aiori-POSIX.c:625)

access    bw(MiB/s)  IOPS       Latency(s)  block(KiB) xfer(KiB)  open(s)    wr/rd(s)   close(s)   total(s)   iter
------    ---------  ----       ----------  ---------- ---------  --------   --------   --------   --------   ----
ERROR: write(16, 0x2ae501a40000, 1048576) failed, (aiori-POSIX.c:625)
ERROR: write(15, 0x2b88618d5000, 1048576) failed, (aiori-POSIX.c:625)
ERROR: write(13, 0x2ab8d6ce5000, 1048576) failed, (aiori-POSIX.c:625)
ERROR: write(16, 0x2b0b39381000, 1048576) failed, (aiori-POSIX.c:625)
ERROR: write(16, 0x2b8c8cfc2000, 1048576) failed, (aiori-POSIX.c:625)
ERROR: write(16, 0x2b6cbfb69000, 1048576) failed, (aiori-POSIX.c:625)
ERROR: write(13, 0x2b6fa328a000, 1048576) failed, (aiori-POSIX.c:625)
ERROR: write(13, 0x2ab218e1d000, 1048576) failed, (aiori-POSIX.c:625)
Tracking /beegfs/lgouveia/ior_4/testFile1...



Writing tracked information to tracker.csv...
