IOR-3.4.0+dev: MPI Coordinated Test of Parallel I/O
Began               : Thu Feb 10 22:00:10 2022
Command line        : /home/lgouveia/ior/bin/ior -w -t 1m -b 512m -k -o /beegfs/lgouveia/ior_2/testFileApp_4
Machine             : Linux bora030.plafrim.cluster
TestID              : 0
StartTime           : Thu Feb 10 22:00:10 2022
Path                : /beegfs/lgouveia/ior_2/testFileApp_4
FS                  : 130.9 TiB   Used FS: 37.3%   Inodes: 0.0 Mi   Used Inodes: -nan%

Options: 
api                 : POSIX
apiVersion          : 
test filename       : /beegfs/lgouveia/ior_2/testFileApp_4
access              : single-shared-file
type                : independent
segments            : 1
ordering in a file  : sequential
ordering inter file : no tasks offsets
nodes               : 8
tasks               : 64
clients per node    : 8
repetitions         : 1
xfersize            : 1 MiB
blocksize           : 512 MiB
aggregate filesize  : 32 GiB

Results: 
WARNING: The file "/beegfs/lgouveia/ior_2/testFileApp_4" exists already and will be overwritten

access    bw(MiB/s)  IOPS       Latency(s)  block(KiB) xfer(KiB)  open(s)    wr/rd(s)   close(s)   total(s)   iter
------    ---------  ----       ----------  ---------- ---------  --------   --------   --------   --------   ----
write     2395.52    2395.64    0.008687    524288     1024.00    0.023886   13.68      12.20      13.68      0   

Summary of all tests:
Operation   Max(MiB)   Min(MiB)  Mean(MiB)     StdDev   Max(OPs)   Min(OPs)  Mean(OPs)     StdDev    Mean(s) Stonewall(s) Stonewall(MiB) Test# #Tasks tPN reps fPP reord reordoff reordrand seed segcnt   blksiz    xsize aggs(MiB)   API RefNum
write        2395.52    2395.52    2395.52       0.00    2395.52    2395.52    2395.52       0.00   13.67886         NA            NA     0     64   8    1   0     0        1         0    0      1 536870912  1048576   32768.0 POSIX      0
Finished            : Thu Feb 10 22:00:24 2022
IOR-3.4.0+dev: MPI Coordinated Test of Parallel I/O
Began               : Thu Feb 10 22:01:25 2022
Command line        : /home/lgouveia/ior/bin/ior -w -t 1m -b 512m -k -o /beegfs/lgouveia/ior_2/testFileApp_4
Machine             : Linux bora030.plafrim.cluster
TestID              : 0
StartTime           : Thu Feb 10 22:01:25 2022
Path                : /beegfs/lgouveia/ior_2/testFileApp_4
FS                  : 130.9 TiB   Used FS: 37.3%   Inodes: 0.0 Mi   Used Inodes: -nan%

Options: 
api                 : POSIX
apiVersion          : 
test filename       : /beegfs/lgouveia/ior_2/testFileApp_4
access              : single-shared-file
type                : independent
segments            : 1
ordering in a file  : sequential
ordering inter file : no tasks offsets
nodes               : 8
tasks               : 64
clients per node    : 8
repetitions         : 1
xfersize            : 1 MiB
blocksize           : 512 MiB
aggregate filesize  : 32 GiB

Results: 
WARNING: The file "/beegfs/lgouveia/ior_2/testFileApp_4" exists already and will be overwritten

access    bw(MiB/s)  IOPS       Latency(s)  block(KiB) xfer(KiB)  open(s)    wr/rd(s)   close(s)   total(s)   iter
------    ---------  ----       ----------  ---------- ---------  --------   --------   --------   --------   ----
write     2575.73    2575.87    0.009437    524288     1024.00    0.012114   12.72      11.03      12.72      0   

Summary of all tests:
Operation   Max(MiB)   Min(MiB)  Mean(MiB)     StdDev   Max(OPs)   Min(OPs)  Mean(OPs)     StdDev    Mean(s) Stonewall(s) Stonewall(MiB) Test# #Tasks tPN reps fPP reord reordoff reordrand seed segcnt   blksiz    xsize aggs(MiB)   API RefNum
write        2575.73    2575.73    2575.73       0.00    2575.73    2575.73    2575.73       0.00   12.72185         NA            NA     0     64   8    1   0     0        1         0    0      1 536870912  1048576   32768.0 POSIX      0
Finished            : Thu Feb 10 22:01:38 2022
IOR-3.4.0+dev: MPI Coordinated Test of Parallel I/O
Began               : Thu Feb 10 22:02:39 2022
Command line        : /home/lgouveia/ior/bin/ior -w -t 1m -b 512m -k -o /beegfs/lgouveia/ior_2/testFileApp_4
Machine             : Linux bora030.plafrim.cluster
TestID              : 0
StartTime           : Thu Feb 10 22:02:39 2022
Path                : /beegfs/lgouveia/ior_2/testFileApp_4
FS                  : 130.9 TiB   Used FS: 37.3%   Inodes: 0.0 Mi   Used Inodes: -nan%

Options: 
api                 : POSIX
apiVersion          : 
test filename       : /beegfs/lgouveia/ior_2/testFileApp_4
access              : single-shared-file
type                : independent
segments            : 1
ordering in a file  : sequential
ordering inter file : no tasks offsets
nodes               : 8
tasks               : 64
clients per node    : 8
repetitions         : 1
xfersize            : 1 MiB
blocksize           : 512 MiB
aggregate filesize  : 32 GiB

Results: 
WARNING: The file "/beegfs/lgouveia/ior_2/testFileApp_4" exists already and will be overwritten

access    bw(MiB/s)  IOPS       Latency(s)  block(KiB) xfer(KiB)  open(s)    wr/rd(s)   close(s)   total(s)   iter
------    ---------  ----       ----------  ---------- ---------  --------   --------   --------   --------   ----
write     2965.83    2966.05    0.018839    524288     1024.00    0.007362   11.05      9.63       11.05      0   

Summary of all tests:
Operation   Max(MiB)   Min(MiB)  Mean(MiB)     StdDev   Max(OPs)   Min(OPs)  Mean(OPs)     StdDev    Mean(s) Stonewall(s) Stonewall(MiB) Test# #Tasks tPN reps fPP reord reordoff reordrand seed segcnt   blksiz    xsize aggs(MiB)   API RefNum
write        2965.83    2965.83    2965.83       0.00    2965.83    2965.83    2965.83       0.00   11.04850         NA            NA     0     64   8    1   0     0        1         0    0      1 536870912  1048576   32768.0 POSIX      0
Finished            : Thu Feb 10 22:02:50 2022
IOR-3.4.0+dev: MPI Coordinated Test of Parallel I/O
Began               : Thu Feb 10 22:03:52 2022
Command line        : /home/lgouveia/ior/bin/ior -w -t 1m -b 512m -k -o /beegfs/lgouveia/ior_2/testFileApp_4
Machine             : Linux bora030.plafrim.cluster
TestID              : 0
StartTime           : Thu Feb 10 22:03:52 2022
Path                : /beegfs/lgouveia/ior_2/testFileApp_4
FS                  : 130.9 TiB   Used FS: 37.2%   Inodes: 0.0 Mi   Used Inodes: -nan%

Options: 
api                 : POSIX
apiVersion          : 
test filename       : /beegfs/lgouveia/ior_2/testFileApp_4
access              : single-shared-file
type                : independent
segments            : 1
ordering in a file  : sequential
ordering inter file : no tasks offsets
nodes               : 8
tasks               : 64
clients per node    : 8
repetitions         : 1
xfersize            : 1 MiB
blocksize           : 512 MiB
aggregate filesize  : 32 GiB

Results: 
WARNING: The file "/beegfs/lgouveia/ior_2/testFileApp_4" exists already and will be overwritten

access    bw(MiB/s)  IOPS       Latency(s)  block(KiB) xfer(KiB)  open(s)    wr/rd(s)   close(s)   total(s)   iter
------    ---------  ----       ----------  ---------- ---------  --------   --------   --------   --------   ----
write     2370.84    2370.98    0.022561    524288     1024.00    0.014001   13.82      12.55      13.82      0   

Summary of all tests:
Operation   Max(MiB)   Min(MiB)  Mean(MiB)     StdDev   Max(OPs)   Min(OPs)  Mean(OPs)     StdDev    Mean(s) Stonewall(s) Stonewall(MiB) Test# #Tasks tPN reps fPP reord reordoff reordrand seed segcnt   blksiz    xsize aggs(MiB)   API RefNum
write        2370.84    2370.84    2370.84       0.00    2370.84    2370.84    2370.84       0.00   13.82125         NA            NA     0     64   8    1   0     0        1         0    0      1 536870912  1048576   32768.0 POSIX      0
Finished            : Thu Feb 10 22:04:06 2022
IOR-3.4.0+dev: MPI Coordinated Test of Parallel I/O
Began               : Thu Feb 10 22:05:07 2022
Command line        : /home/lgouveia/ior/bin/ior -w -t 1m -b 512m -k -o /beegfs/lgouveia/ior_2/testFileApp_4
Machine             : Linux bora030.plafrim.cluster
TestID              : 0
StartTime           : Thu Feb 10 22:05:07 2022
Path                : /beegfs/lgouveia/ior_2/testFileApp_4
FS                  : 130.9 TiB   Used FS: 37.3%   Inodes: 0.0 Mi   Used Inodes: -nan%

Options: 
api                 : POSIX
apiVersion          : 
test filename       : /beegfs/lgouveia/ior_2/testFileApp_4
access              : single-shared-file
type                : independent
segments            : 1
ordering in a file  : sequential
ordering inter file : no tasks offsets
nodes               : 8
tasks               : 64
clients per node    : 8
repetitions         : 1
xfersize            : 1 MiB
blocksize           : 512 MiB
aggregate filesize  : 32 GiB

Results: 
WARNING: The file "/beegfs/lgouveia/ior_2/testFileApp_4" exists already and will be overwritten

access    bw(MiB/s)  IOPS       Latency(s)  block(KiB) xfer(KiB)  open(s)    wr/rd(s)   close(s)   total(s)   iter
------    ---------  ----       ----------  ---------- ---------  --------   --------   --------   --------   ----
write     2882.17    2882.36    0.021715    524288     1024.00    0.014316   11.37      10.03      11.37      0   

Summary of all tests:
Operation   Max(MiB)   Min(MiB)  Mean(MiB)     StdDev   Max(OPs)   Min(OPs)  Mean(OPs)     StdDev    Mean(s) Stonewall(s) Stonewall(MiB) Test# #Tasks tPN reps fPP reord reordoff reordrand seed segcnt   blksiz    xsize aggs(MiB)   API RefNum
write        2882.17    2882.17    2882.17       0.00    2882.17    2882.17    2882.17       0.00   11.36921         NA            NA     0     64   8    1   0     0        1         0    0      1 536870912  1048576   32768.0 POSIX      0
Finished            : Thu Feb 10 22:05:19 2022
IOR-3.4.0+dev: MPI Coordinated Test of Parallel I/O
Began               : Thu Feb 10 22:06:20 2022
Command line        : /home/lgouveia/ior/bin/ior -w -t 1m -b 512m -k -o /beegfs/lgouveia/ior_2/testFileApp_4
Machine             : Linux bora030.plafrim.cluster
TestID              : 0
StartTime           : Thu Feb 10 22:06:20 2022
Path                : /beegfs/lgouveia/ior_2/testFileApp_4
FS                  : 130.9 TiB   Used FS: 37.3%   Inodes: 0.0 Mi   Used Inodes: -nan%

Options: 
api                 : POSIX
apiVersion          : 
test filename       : /beegfs/lgouveia/ior_2/testFileApp_4
access              : single-shared-file
type                : independent
segments            : 1
ordering in a file  : sequential
ordering inter file : no tasks offsets
nodes               : 8
tasks               : 64
clients per node    : 8
repetitions         : 1
xfersize            : 1 MiB
blocksize           : 512 MiB
aggregate filesize  : 32 GiB

Results: 
WARNING: The file "/beegfs/lgouveia/ior_2/testFileApp_4" exists already and will be overwritten

access    bw(MiB/s)  IOPS       Latency(s)  block(KiB) xfer(KiB)  open(s)    wr/rd(s)   close(s)   total(s)   iter
------    ---------  ----       ----------  ---------- ---------  --------   --------   --------   --------   ----
write     2410.58    2410.74    0.023395    524288     1024.00    0.010634   13.59      12.55      13.59      0   

Summary of all tests:
Operation   Max(MiB)   Min(MiB)  Mean(MiB)     StdDev   Max(OPs)   Min(OPs)  Mean(OPs)     StdDev    Mean(s) Stonewall(s) Stonewall(MiB) Test# #Tasks tPN reps fPP reord reordoff reordrand seed segcnt   blksiz    xsize aggs(MiB)   API RefNum
write        2410.58    2410.58    2410.58       0.00    2410.58    2410.58    2410.58       0.00   13.59340         NA            NA     0     64   8    1   0     0        1         0    0      1 536870912  1048576   32768.0 POSIX      0
Finished            : Thu Feb 10 22:06:34 2022
IOR-3.4.0+dev: MPI Coordinated Test of Parallel I/O
Began               : Thu Feb 10 22:07:36 2022
Command line        : /home/lgouveia/ior/bin/ior -w -t 1m -b 512m -k -o /beegfs/lgouveia/ior_2/testFileApp_4
Machine             : Linux bora030.plafrim.cluster
TestID              : 0
StartTime           : Thu Feb 10 22:07:36 2022
Path                : /beegfs/lgouveia/ior_2/testFileApp_4
FS                  : 130.9 TiB   Used FS: 37.3%   Inodes: 0.0 Mi   Used Inodes: -nan%

Options: 
api                 : POSIX
apiVersion          : 
test filename       : /beegfs/lgouveia/ior_2/testFileApp_4
access              : single-shared-file
type                : independent
segments            : 1
ordering in a file  : sequential
ordering inter file : no tasks offsets
nodes               : 8
tasks               : 64
clients per node    : 8
repetitions         : 1
xfersize            : 1 MiB
blocksize           : 512 MiB
aggregate filesize  : 32 GiB

Results: 
WARNING: The file "/beegfs/lgouveia/ior_2/testFileApp_4" exists already and will be overwritten

access    bw(MiB/s)  IOPS       Latency(s)  block(KiB) xfer(KiB)  open(s)    wr/rd(s)   close(s)   total(s)   iter
------    ---------  ----       ----------  ---------- ---------  --------   --------   --------   --------   ----
write     2889.42    2889.58    0.021634    524288     1024.00    0.011436   11.34      10.19      11.34      0   

Summary of all tests:
Operation   Max(MiB)   Min(MiB)  Mean(MiB)     StdDev   Max(OPs)   Min(OPs)  Mean(OPs)     StdDev    Mean(s) Stonewall(s) Stonewall(MiB) Test# #Tasks tPN reps fPP reord reordoff reordrand seed segcnt   blksiz    xsize aggs(MiB)   API RefNum
write        2889.42    2889.42    2889.42       0.00    2889.42    2889.42    2889.42       0.00   11.34069         NA            NA     0     64   8    1   0     0        1         0    0      1 536870912  1048576   32768.0 POSIX      0
Finished            : Thu Feb 10 22:07:47 2022
IOR-3.4.0+dev: MPI Coordinated Test of Parallel I/O
Began               : Thu Feb 10 22:08:49 2022
Command line        : /home/lgouveia/ior/bin/ior -w -t 1m -b 512m -k -o /beegfs/lgouveia/ior_2/testFileApp_4
Machine             : Linux bora030.plafrim.cluster
TestID              : 0
StartTime           : Thu Feb 10 22:08:49 2022
Path                : /beegfs/lgouveia/ior_2/testFileApp_4
FS                  : 130.9 TiB   Used FS: 37.2%   Inodes: 0.0 Mi   Used Inodes: -nan%

Options: 
api                 : POSIX
apiVersion          : 
test filename       : /beegfs/lgouveia/ior_2/testFileApp_4
access              : single-shared-file
type                : independent
segments            : 1
ordering in a file  : sequential
ordering inter file : no tasks offsets
nodes               : 8
tasks               : 64
clients per node    : 8
repetitions         : 1
xfersize            : 1 MiB
blocksize           : 512 MiB
aggregate filesize  : 32 GiB

Results: 
WARNING: The file "/beegfs/lgouveia/ior_2/testFileApp_4" exists already and will be overwritten

access    bw(MiB/s)  IOPS       Latency(s)  block(KiB) xfer(KiB)  open(s)    wr/rd(s)   close(s)   total(s)   iter
------    ---------  ----       ----------  ---------- ---------  --------   --------   --------   --------   ----
write     2366.88    2367.00    0.008943    524288     1024.00    0.017990   13.84      12.33      13.84      0   

Summary of all tests:
Operation   Max(MiB)   Min(MiB)  Mean(MiB)     StdDev   Max(OPs)   Min(OPs)  Mean(OPs)     StdDev    Mean(s) Stonewall(s) Stonewall(MiB) Test# #Tasks tPN reps fPP reord reordoff reordrand seed segcnt   blksiz    xsize aggs(MiB)   API RefNum
write        2366.88    2366.88    2366.88       0.00    2366.88    2366.88    2366.88       0.00   13.84437         NA            NA     0     64   8    1   0     0        1         0    0      1 536870912  1048576   32768.0 POSIX      0
Finished            : Thu Feb 10 22:09:03 2022
IOR-3.4.0+dev: MPI Coordinated Test of Parallel I/O
Began               : Thu Feb 10 22:10:04 2022
Command line        : /home/lgouveia/ior/bin/ior -w -t 1m -b 512m -k -o /beegfs/lgouveia/ior_2/testFileApp_4
Machine             : Linux bora030.plafrim.cluster
TestID              : 0
StartTime           : Thu Feb 10 22:10:04 2022
Path                : /beegfs/lgouveia/ior_2/testFileApp_4
FS                  : 130.9 TiB   Used FS: 37.3%   Inodes: 0.0 Mi   Used Inodes: -nan%

Options: 
api                 : POSIX
apiVersion          : 
test filename       : /beegfs/lgouveia/ior_2/testFileApp_4
access              : single-shared-file
type                : independent
segments            : 1
ordering in a file  : sequential
ordering inter file : no tasks offsets
nodes               : 8
tasks               : 64
clients per node    : 8
repetitions         : 1
xfersize            : 1 MiB
blocksize           : 512 MiB
aggregate filesize  : 32 GiB

Results: 
WARNING: The file "/beegfs/lgouveia/ior_2/testFileApp_4" exists already and will be overwritten

access    bw(MiB/s)  IOPS       Latency(s)  block(KiB) xfer(KiB)  open(s)    wr/rd(s)   close(s)   total(s)   iter
------    ---------  ----       ----------  ---------- ---------  --------   --------   --------   --------   ----
write     3069.47    3069.71    0.019439    524288     1024.00    0.017930   10.67      9.36       10.68      0   

Summary of all tests:
Operation   Max(MiB)   Min(MiB)  Mean(MiB)     StdDev   Max(OPs)   Min(OPs)  Mean(OPs)     StdDev    Mean(s) Stonewall(s) Stonewall(MiB) Test# #Tasks tPN reps fPP reord reordoff reordrand seed segcnt   blksiz    xsize aggs(MiB)   API RefNum
write        3069.47    3069.47    3069.47       0.00    3069.47    3069.47    3069.47       0.00   10.67544         NA            NA     0     64   8    1   0     0        1         0    0      1 536870912  1048576   32768.0 POSIX      0
Finished            : Thu Feb 10 22:10:15 2022
IOR-3.4.0+dev: MPI Coordinated Test of Parallel I/O
Began               : Thu Feb 10 22:11:17 2022
Command line        : /home/lgouveia/ior/bin/ior -w -t 1m -b 512m -k -o /beegfs/lgouveia/ior_2/testFileApp_4
Machine             : Linux bora030.plafrim.cluster
TestID              : 0
StartTime           : Thu Feb 10 22:11:17 2022
Path                : /beegfs/lgouveia/ior_2/testFileApp_4
FS                  : 130.9 TiB   Used FS: 37.3%   Inodes: 0.0 Mi   Used Inodes: -nan%

Options: 
api                 : POSIX
apiVersion          : 
test filename       : /beegfs/lgouveia/ior_2/testFileApp_4
access              : single-shared-file
type                : independent
segments            : 1
ordering in a file  : sequential
ordering inter file : no tasks offsets
nodes               : 8
tasks               : 64
clients per node    : 8
repetitions         : 1
xfersize            : 1 MiB
blocksize           : 512 MiB
aggregate filesize  : 32 GiB

Results: 
WARNING: The file "/beegfs/lgouveia/ior_2/testFileApp_4" exists already and will be overwritten

access    bw(MiB/s)  IOPS       Latency(s)  block(KiB) xfer(KiB)  open(s)    wr/rd(s)   close(s)   total(s)   iter
------    ---------  ----       ----------  ---------- ---------  --------   --------   --------   --------   ----
write     2438.95    2439.20    0.023728    524288     1024.00    0.006022   13.43      12.11      13.44      0   

Summary of all tests:
Operation   Max(MiB)   Min(MiB)  Mean(MiB)     StdDev   Max(OPs)   Min(OPs)  Mean(OPs)     StdDev    Mean(s) Stonewall(s) Stonewall(MiB) Test# #Tasks tPN reps fPP reord reordoff reordrand seed segcnt   blksiz    xsize aggs(MiB)   API RefNum
write        2438.95    2438.95    2438.95       0.00    2438.95    2438.95    2438.95       0.00   13.43531         NA            NA     0     64   8    1   0     0        1         0    0      1 536870912  1048576   32768.0 POSIX      0
Finished            : Thu Feb 10 22:11:30 2022
